[
  {
    "model": "source_config.slidesourcedata",
    "pk": 5,
    "fields": {
      "slide_number": "5",
      "slide_source_text": " INEGI. Direccioón General de Geografiía y Medio Ambiente."
    }
  },
  {
    "model": "source_config.slidesourcedata",
    "pk": 6,
    "fields": {
      "slide_number": "6",
      "slide_source_text": "CIA. The World Factbook, 2016.*SOURCE: INEGI. Direccioón General de Geografiía y Medio Ambiente, 2016."
    }
  },
  {
    "model": "source_config.slidesourcedata",
    "pk": 7,
    "fields": {
      "slide_number": "7",
      "slide_source_text": " INEGI. Direccioón General de Geografía y Medio Ambiente."
    }
  },
  {
    "model": "source_config.slidesourcedata",
    "pk": 8,
    "fields": {
      "slide_number": "8",
      "slide_source_text": " INEGI. Direccioón General de Geografía y Medio Ambiente."
    }
  },
  {
    "model": "source_config.slidesourcedata",
    "pk": 9,
    "fields": {
      "slide_number": "9",
      "slide_source_text": "  INEGI Marco Geoestadistico Nacional 2010."
    }
  },
  {
    "model": "source_config.slidesourcedata",
    "pk": 10,
    "fields": {
      "slide_number": "10",
      "slide_source_text": " www.biodiversidad.gob.mx/ecosistemas/ecosistemas.html - /www.alma-viajera.com/mexico.html - www.mexicodesconocido.com.mx/ecosistemas-mexicanos-maxima-diversidad-biologica-mundial.html Land of volcanoes, deserts, and extensive beaches. Across the country there are many ecosystems with their own unique flora and fauna: in the mountainous forests, coastal regions, snowy mountaintops and volcanoes, jungles, pastures, swamps, deserts, natural parks, marine parks and ecological reserves. From the pacific to the Caribbean, from the desert to the tropical rainforest, from the plateaus to the snowy volcanoes, Mexico offers an incredible variety in landscapes."
    }
  },
  {
    "model": "source_config.slidesourcedata",
    "pk": 11,
    "fields": {
      "slide_number": "11",
      "slide_source_text": " www.biodiversidad.gob.mx/ecosistemas/ecosistemas.html - /www.alma-viajera.com/mexico.html - www.mexicodesconocido.com.mx/ecosistemas-mexicanos-maxima-diversidad-biologica-mundial.html Land of volcanoes, deserts, and extensive beaches. Across the country there are many ecosystems with their own unique flora and fauna: in the mountainous forests, coastal regions, snowy mountaintops and volcanoes, jungles, pastures, swamps, deserts, natural parks, marine parks and ecological reserves. From the pacific to the Caribbean, from the desert to the tropical rainforest, from the plateaus to the snowy volcanoes, Mexico offers an incredible variety in landscapes."
    }
  },
  {
    "model": "source_config.slidesourcedata",
    "pk": 12,
    "fields": {
      "slide_number": "12",
      "slide_source_text": " www.biodiversidad.gob.mx/ecosistemas/ecosistemas.html - /www.alma-viajera.com/mexico.html - www.mexicodesconocido.com.mx/ecosistemas-mexicanos-maxima-diversidad-biologica-mundial.html Land of volcanoes, deserts, and extensive beaches. Across the country there are many ecosystems with their own unique flora and fauna: in the mountainous forests, coastal regions, snowy mountaintops and volcanoes, jungles, pastures, swamps, deserts, natural parks, marine parks and ecological reserves. From the pacific to the Caribbean, from the desert to the tropical rainforest, from the plateaus to the snowy volcanoes, Mexico offers an incredible variety in landscapes."
    }
  },
  {
    "model": "source_config.slidesourcedata",
    "pk": 13,
    "fields": {
      "slide_number": "13",
      "slide_source_text": " www.biodiversidad.gob.mx/ecosistemas/ecosistemas.html - /www.alma-viajera.com/mexico.html - www.mexicodesconocido.com.mx/ecosistemas-mexicanos-maxima-diversidad-biologica-mundial.html Land of volcanoes, deserts, and extensive beaches. Across the country there are many ecosystems with their own unique flora and fauna: in the mountainous forests, coastal regions, snowy mountaintops and volcanoes, jungles, pastures, swamps, deserts, natural parks, marine parks and ecological reserves. From the pacific to the Caribbean, from the desert to the tropical rainforest, from the plateaus to the snowy volcanoes, Mexico offers an incredible variety in landscapes."
    }
  },
  {
    "model": "source_config.slidesourcedata",
    "pk": 16,
    "fields": {
      "slide_number": "16",
      "slide_source_text": "- /www.inegi.org.mx/eventos/2015/Poblacion/doc/p-WalterRangel.pdf"
    }
  }
,
  {
    "model": "source_config.slidesourcedata",
    "pk": 17,
    "fields": {
      "slide_number": "17",
      "slide_source_text": "INEGI. Dirección General de Geografía y Medio Ambiente."
    }
  },
  {
    "model": "source_config.slidesourcedata",
    "pk": 18,
    "fields": {
      "slide_number": "18",
      "slide_source_text": " 2010.colmex.mx/16tomos/II.pdf- www.inegi.org.mx/eventos/2015/Poblacion/doc/p-WalterRangel.pdf"
    }
  }, {
    "model": "source_config.slidesourcedata",
    "pk": 19,
    "fields": {
      "slide_number": "19",
      "slide_source_text": "  www.conevyt.org.mx/colaboracion/colabora/objetivos/libros_pdf/sso1_u3lecc2.pdf"
    }
  }, {
    "model": "source_config.slidesourcedata",
    "pk": 20,
    "fields": {
      "slide_number": "20",
      "slide_source_text": " www.conevyt.org.mx/colaboracion/colabora/objetivos/libros_pdf/sso1_u3lecc2.pdf"
    }
  }, {
    "model": "source_config.slidesourcedata",
    "pk": 21,
    "fields": {
      "slide_number": "21",
      "slide_source_text": " www.conevyt.org.mx/colaboracion/colabora/objetivos/libros_pdf/sso1_u3lecc2.pdf"
    }
  }, {
    "model": "source_config.slidesourcedata",
    "pk": 22,
    "fields": {
      "slide_number": "22",
      "slide_source_text": " www.conevyt.org.mx/colaboracion/colabora/objetivos/libros_pdf/sso1_u3lecc2.pdf"
    }
  }, {
    "model": "source_config.slidesourcedata",
    "pk": 23,
    "fields": {
      "slide_number": "23",
      "slide_source_text": " cdmxtravel.com/es/lugares"
    }
  }, {
    "model": "source_config.slidesourcedata",
    "pk": 24,
    "fields": {
      "slide_number": "24",
      "slide_source_text": " cdmxtravel.com/es/lugares"
    }
  }, {
    "model": "source_config.slidesourcedata",
    "pk": 25,
    "fields": {
      "slide_number": "25",
      "slide_source_text": " cdmxtravel.com/es/lugares"
    }
  }, {
    "model": "source_config.slidesourcedata",
    "pk": 26,
    "fields": {
      "slide_number": "26",
      "slide_source_text": " cdmxtravel.com/es/lugares"
    }
  }, {
    "model": "source_config.slidesourcedata",
    "pk": 28,
    "fields": {
      "slide_number": "28",
      "slide_source_text": " 2010.colmex.mx/16tomos/II.pdf - www.inegi.org.mx/eventos/2015/Poblacion/doc/p-WalterRangel.pdf"
    }
  }, {
    "model": "source_config.slidesourcedata",
    "pk": 29,
    "fields": {
      "slide_number": "29",
      "slide_source_text": " 2010.colmex.mx/16tomos/II.pdf - www.inegi.org.mx/eventos/2015/Poblacion/doc/p-WalterRangel.pdf"
    }
  }, {
    "model": "source_config.slidesourcedata",
    "pk": 30,
    "fields": {
      "slide_number": "30",
      "slide_source_text": "www.conevyt.org.mx/colaboracion/colabora/objetivos/libros_pdf/sso1_u3lecc2.pdf"
    }
  }, {
    "model": "source_config.slidesourcedata",
    "pk": 31,
    "fields": {
      "slide_number": "31",
      "slide_source_text": "www.mexicodesconocido.com.mx/lugares-turisticos-visitar-monterrey.html"
    }
  }, {
    "model": "source_config.slidesourcedata",
    "pk": 32,
    "fields": {
      "slide_number": "32",
      "slide_source_text": "cdmxtravel.com/es/lugares"
    }
  }, {
    "model": "source_config.slidesourcedata",
    "pk": 33,
    "fields": {
      "slide_number": "33",
      "slide_source_text": "cdmxtravel.com/es/lugares"
    }
  }, {
    "model": "source_config.slidesourcedata",
    "pk": 34,
    "fields": {
      "slide_number": "34",
      "slide_source_text": "cdmxtravel.com/es/lugares"
    }
  }, {
    "model": "source_config.slidesourcedata",
    "pk": 36,
    "fields": {
      "slide_number": "36",
      "slide_source_text": "www.conevyt.org.mx/colaboracion/colabora/objetivos/libros_pdf/sso1_u3lecc2.pdf"
    }
  }, {
    "model": "source_config.slidesourcedata",
    "pk": 37,
    "fields": {
      "slide_number": "37",
      "slide_source_text": " 2010.colmex.mx/16tomos/II.pdf - www.inegi.org.mx/eventos/2015/Poblacion/doc/p-WalterRangel.pdf Jalisco combines urban life with the preservation of their state’s traditions: its inhabitants display a love for their food, their activities and regional customs. Guadalajara, their capital, is one of the three most important cities in the country due to its culture, urban and technological development. It is oftentimes the location for many of the country’s most important events: like FIL, Campus Party, International Film festival etc."
    }
  },
   {
    "model": "source_config.slidesourcedata",
    "pk": 38,
    "fields": {
      "slide_number": "38",
      "slide_source_text": ": www.conevyt.org.mx/colaboracion/colabora/objetivos/libros_pdf/sso1_u3lecc2.pdf"
    }
  },{
    "model": "source_config.slidesourcedata",
    "pk": 39,
    "fields": {
      "slide_number": "39",
      "slide_source_text": "www.mexicodestinos.com/blog/2012/02/lugares-para-visitar-en-guadalajara/"
    }
  },{
    "model": "source_config.slidesourcedata",
    "pk": 40,
    "fields": {
      "slide_number": "40",
      "slide_source_text": "www.mexicodestinos.com/blog/2012/02/lugares-para-visitar-en-guadalajara/"
    }
  },{
    "model": "source_config.slidesourcedata",
    "pk": 41,
    "fields": {
      "slide_number": "41",
      "slide_source_text": "www.mexicodestinos.com/blog/2012/02/lugares-para-visitar-en-guadalajara/"
    }
  },{
    "model": "source_config.slidesourcedata",
    "pk": 42,
    "fields": {
      "slide_number": "42",
      "slide_source_text": "www.mexicodestinos.com/blog/2012/02/lugares-para-visitar-en-guadalajara/"
    }
  },{
    "model": "source_config.slidesourcedata",
    "pk": 43,
    "fields": {
      "slide_number": "43",
      "slide_source_text": "www.mexicodestinos.com/blog/2012/02/lugares-para-visitar-en-guadalajara/"
    }
  },{
    "model": "source_config.slidesourcedata",
    "pk": 45,
    "fields": {
      "slide_number": "45",
      "slide_source_text": " 2010.colmex.mx/16tomos/II.pdf - www.inegi.org.mx/eventos/2015/Poblacion/doc/p-WalterRangel.pdf"
    }
  },{
    "model": "source_config.slidesourcedata",
    "pk": 46,
    "fields": {
      "slide_number": "46",
      "slide_source_text": " 2010.colmex.mx/16tomos/II.pdf - www.inegi.org.mx/eventos/2015/Poblacion/doc/p-WalterRangel.pdf"
    }
  },{
    "model": "source_config.slidesourcedata",
    "pk": 47,
    "fields": {
      "slide_number": "47",
      "slide_source_text": "www.zonaturistica.com/atractivos-turisticos-en/591/merida-yucatan.html"
    }
  },{
    "model": "source_config.slidesourcedata",
    "pk": 48,
    "fields": {
      "slide_number": "48",
      "slide_source_text": "www.zonaturistica.com/atractivos-turisticos-en/591/merida-yucatan.html"
    }
  },{
    "model": "source_config.slidesourcedata",
    "pk": 49,
    "fields": {
      "slide_number": "49",
      "slide_source_text": "www.zonaturistica.com/atractivos-turisticos-en/591/merida-yucatan.html"
    }
  },{
    "model": "source_config.slidesourcedata",
    "pk": 50,
    "fields": {
      "slide_number": "50",
      "slide_source_text": "www.zonaturistica.com/atractivos-turisticos-en/591/merida-yucatan.html"
    }
  },{
    "model": "source_config.slidesourcedata",
    "pk": 51,
    "fields": {
      "slide_number": "51",
      "slide_source_text": "www.zonaturistica.com/atractivos-turisticos-en/591/merida-yucatan.html"
    }
  },{
    "model": "source_config.slidesourcedata",
    "pk": 53,
    "fields": {
      "slide_number": "53",
      "slide_source_text": "www.jornada.unam.mx/2017/05/15/opinion/017a1pol"
    }
  },{
    "model": "source_config.slidesourcedata",
    "pk": 54,
    "fields": {
      "slide_number": "54",
      "slide_source_text": "www.jornada.unam.mx/2017/05/15/opinion/017a1pol"
    }
  },{
    "model": "source_config.slidesourcedata",
    "pk": 55,
    "fields": {
      "slide_number": "55",
      "slide_source_text": "www.jornada.unam.mx/2017/05/15/opinion/017a1pol"
    }
  },{
    "model": "source_config.slidesourcedata",
    "pk": 56,
    "fields": {
      "slide_number": "56",
      "slide_source_text": "www.jornada.unam.mx/2017/05/15/opinion/017a1pol"
    }
  },{
    "model": "source_config.slidesourcedata",
    "pk": 57,
    "fields": {
      "slide_number": "57",
      "slide_source_text": "www.jornada.unam.mx/2017/05/15/opinion/017a1pol"
    }
  },{
    "model": "source_config.slidesourcedata",
    "pk": 58,
    "fields": {
      "slide_number": "58",
      "slide_source_text": "www.jornada.unam.mx/2017/05/15/opinion/017a1pol"
    }
  },{
    "model": "source_config.slidesourcedata",
    "pk": 59,
    "fields": {
      "slide_number": "59",
      "slide_source_text": "www.jornada.unam.mx/2017/05/15/opinion/017a1pol"
    }
  },{
    "model": "source_config.slidesourcedata",
    "pk": 60,
    "fields": {
      "slide_number": "60",
      "slide_source_text": "www.jornada.unam.mx/2017/05/15/opinion/017a1pol"
    }
  },{
    "model": "source_config.slidesourcedata",
    "pk": 62,
    "fields": {
      "slide_number": "62",
      "slide_source_text": "www.elfinanciero.com.mx/opinion/que-hace-crecer-a-la-economia-de-mexico.html"
    }
  },{
    "model": "source_config.slidesourcedata",
    "pk": 63,
    "fields": {
      "slide_number": "63",
      "slide_source_text": "www.elfinanciero.com.mx/opinion/que-hace-crecer-a-la-economia-de-mexico.html"
    }
  },{
    "model": "source_config.slidesourcedata",
    "pk": 64,
    "fields": {
      "slide_number": "64",
      "slide_source_text": " www.bancomundial.org/es/country/mexico/overview"
    }
  },{
    "model": "source_config.slidesourcedata",
    "pk":65,
    "fields": {
      "slide_number": "65",
      "slide_source_text": " www.elfinanciero.com.mx/opinion/que-hace-crecer-a-la-economia-de-mexico.html"
    }
  },{
    "model": "source_config.slidesourcedata",
    "pk":66,
    "fields": {
      "slide_number": "66",
      "slide_source_text": "www.bancomundial.org/es/country/mexico/overview"
    }
  },{
    "model": "source_config.slidesourcedata",
    "pk":67,
    "fields": {
      "slide_number": "67",
      "slide_source_text": "www.bancomundial.org/es/country/mexico/overview"
    }
  },{
    "model": "source_config.slidesourcedata",
    "pk":68,
    "fields": {
      "slide_number": "68",
      "slide_source_text": "www.bancomundial.org/es/country/mexico/overview"
    }
  },{
    "model": "source_config.slidesourcedata",
    "pk":69,
    "fields": {
      "slide_number": "69",
      "slide_source_text": "http://www.beta.inegi.org.mx/proyectos/enchogares/regulares/engasto/2013/"
    }
  },{
    "model": "source_config.slidesourcedata",
    "pk":70,
    "fields": {
      "slide_number": "70",
      "slide_source_text": "http://www.beta.inegi.org.mx/proyectos/enchogares/regulares/engasto/2013/"
    }
  },{
    "model": "source_config.slidesourcedata",
    "pk":71,
    "fields": {
      "slide_number": "71",
      "slide_source_text": " www.banxico.org.mx/estadisticas - www.inegi.org.mx/sistemas/tableroindeco"
    }
  },{
    "model": "source_config.slidesourcedata",
    "pk":72,
    "fields": {
      "slide_number": "72",
      "slide_source_text": " es.portal.santandertrade.com/analizar-mercados/mexico/politica-y-economia?accepter_cookies=oui - exportenterprises.bcsgunternehmerportal.com/es/informacion-del-mercado/mexico/contexto-economico"
    }
  },{
    "model": "source_config.slidesourcedata",
    "pk":73,
    "fields": {
      "slide_number": "73",
      "slide_source_text": " es.portal.santandertrade.com/analizar-mercados/mexico/politica-y-economia?accepter_cookies=oui - exportenterprises.bcsgunternehmerportal.com/es/informacion-del-mercado/mexico/contexto-economico"
    }
  },{
    "model": "source_config.slidesourcedata",
    "pk":74,
    "fields": {
      "slide_number": "74",
      "slide_source_text": " es.portal.santandertrade.com/analizar-mercados/mexico/politica-y-economia?accepter_cookies=oui - exportenterprises.bcsgunternehmerportal.com/es/informacion-del-mercado/mexico/contexto-economico"
    }
  },{
    "model": "source_config.slidesourcedata",
    "pk":75,
    "fields": {
      "slide_number": "75",
      "slide_source_text": " es.portal.santandertrade.com/analizar-mercados/mexico/politica-y-economia?accepter_cookies=oui - exportenterprises.bcsgunternehmerportal.com/es/informacion-del-mercado/mexico/contexto-economico"
    }
  },{
    "model": "source_config.slidesourcedata",
    "pk":76,
    "fields": {
      "slide_number": "76",
      "slide_source_text": " es.portal.santandertrade.com/analizar-mercados/mexico/politica-y-economia?accepter_cookies=oui - exportenterprises.bcsgunternehmerportal.com/es/informacion-del-mercado/mexico/contexto-economico"
    }
  },{
    "model": "source_config.slidesourcedata",
    "pk":77,
    "fields": {
      "slide_number": "77",
      "slide_source_text": "www.excelsior.com.mx/nacional/2016/11/25/1130448"
    }
  },{
    "model": "source_config.slidesourcedata",
    "pk":78,
    "fields": {
      "slide_number": "78",
      "slide_source_text": "www.excelsior.com.mx/nacional/2016/11/25/1130448"
    }
  },{
    "model": "source_config.slidesourcedata",
    "pk":79,
    "fields": {
      "slide_number": "79",
      "slide_source_text": " enes.unam.mx/?lang=es_MX&cat=economia-y-negocios&pl=la-brecha-entre-pobres-y-ricos-aumenta-en-mexico - imco.org.mx/politica_buen_gobierno/desigualdad-extrema-en-mexico-via-oxfam"
    }
  },{
    "model": "source_config.slidesourcedata",
    "pk":80,
    "fields": {
      "slide_number": "80",
      "slide_source_text": " enes.unam.mx/?lang=es_MX&cat=economia-y-negocios&pl=la-brecha-entre-pobres-y-ricos-aumenta-en-mexico - imco.org.mx/politica_buen_gobierno/desigualdad-extrema-en-mexico-via-oxfam"
    }
  },{
    "model": "source_config.slidesourcedata",
    "pk":81,
    "fields": {
      "slide_number": "81",
      "slide_source_text": " /casas.trovit.com.mx/renta-departamento-distrito-federal-8000 - super.walmart.com.mx/Lacteos/Leche/Leche-Entera/_/N-807?storeId=0000009999 - www.sanborns.com.mx/Paginas/Producto.aspx?ean=7501024541423 nissan.com.mx/sentra/?gclid=Cj0KEQjwwqXMBRCD1afDldbp5qEBEiQAP4BDaE2xj4na-AJbq8aiv4foW3nNRMeLcCx7RPY2hoI9PHQaAk1h8P8HAQ&gclsrc=aw.ds - www.semovi.cdmx.gob.mx/tramites-y-servicios/transporte-de-pasajeros/nuevas-tarifas-de-transporte-publico-vigentes"
    }
  },{
    "model": "source_config.slidesourcedata",
    "pk":84,
    "fields": {
      "slide_number": "84",
      "slide_source_text": " www.crim.unam.mx/web/sites/default/files/Procesos%20metropolitanos%20y%20grandes%20ciudades.pdf - expansion.mx/opinion/2015/09/04/por-que-persiste-la-desigualdad-de-ingresos-en-mexico-i-The capital contains the most high-income municipalities in the same location; the municipality at the top of that list is Benito Juarez, since it has a level and quality of life almost equivalent to that of the Netherlands. The colonies of high acquisitive power like Lomas de Chapultepec and Polanco, make the municipality of Miguel Hidalgo a conglomerate of inhabitants of high income. Other neighborhoods of great importance are Bosques de las Lomas and Santa Fe, and both are in the municipality of Cuajimalpa de Morelos."
    }
  },{
    "model": "source_config.slidesourcedata",
    "pk":85,
    "fields": {
      "slide_number": "85",
      "slide_source_text": " www.crim.unam.mx/web/sites/default/files/Procesos%20metropolitanos%20y%20grandes%20ciudades.pdf - expansion.mx/opinion/2015/09/04/por-que-persiste-la-desigualdad-de-ingresos-en-mexico-i-The capital contains the most high-income municipalities in the same location; the municipality at the top of that list is Benito Juarez, since it has a level and quality of life almost equivalent to that of the Netherlands. The colonies of high acquisitive power like Lomas de Chapultepec and Polanco, make the municipality of Miguel Hidalgo a conglomerate of inhabitants of high income. Other neighborhoods of great importance are Bosques de las Lomas and Santa Fe, and both are in the municipality of Cuajimalpa de Morelos."
    }
  },{
    "model": "source_config.slidesourcedata",
    "pk":86,
    "fields": {
      "slide_number": "86",
      "slide_source_text": " www.crim.unam.mx/web/sites/default/files/Procesos%20metropolitanos%20y%20grandes%20ciudades.pdf - expansion.mx/opinion/2015/09/04/por-que-persiste-la-desigualdad-de-ingresos-en-mexico-i-The capital contains the most high-income municipalities in the same location; the municipality at the top of that list is Benito Juarez, since it has a level and quality of life almost equivalent to that of the Netherlands. The colonies of high acquisitive power like Lomas de Chapultepec and Polanco, make the municipality of Miguel Hidalgo a conglomerate of inhabitants of high income. Other neighborhoods of great importance are Bosques de las Lomas and Santa Fe, and both are in the municipality of Cuajimalpa de Morelos."
    }
  },{
    "model": "source_config.slidesourcedata",
    "pk":88,
    "fields": {
      "slide_number": "88",
      "slide_source_text": " www.crim.unam.mx/web/sites/default/files/Procesos%20metropolitanos%20y%20grandes%20ciudades.pdf - expansion.mx/opinion/2015/09/04/por-que-persiste-la-desigualdad-de-ingresos-en-mexico-i-The capital contains the most high-income municipalities in the same location; the municipality at the top of that list is Benito Juarez, since it has a level and quality of life almost equivalent to that of the Netherlands. The colonies of high acquisitive power like Lomas de Chapultepec and Polanco, make the municipality of Miguel Hidalgo a conglomerate of inhabitants of high income. Other neighborhoods of great importance are Bosques de las Lomas and Santa Fe, and both are in the municipality of Cuajimalpa de Morelos."
    }
  },{
    "model": "source_config.slidesourcedata",
    "pk":90,
    "fields": {
      "slide_number": "90",
      "slide_source_text": "www.elfinanciero.com.mx/economia/este-es-el-municipio-mas-rico-del-pais.html"
    }
  },{
    "model": "source_config.slidesourcedata",
    "pk":92,
    "fields": {
      "slide_number": "92",
      "slide_source_text": ": www.yucatan.gob.mx/saladeprensa/ver_nota.php?id=202456"
    }
  },{
    "model": "source_config.slidesourcedata",
    "pk":94,
    "fields": {
      "slide_number": "94",
      "slide_source_text": "www.beta.inegi.org.mx/proyectos/ccpv/2010"
    }
  },{
    "model": "source_config.slidesourcedata",
    "pk":95,
    "fields": {
      "slide_number": "95",
      "slide_source_text": "www.beta.inegi.org.mx/proyectos/ccpv/2010"
    }
  },{
    "model": "source_config.slidesourcedata",
    "pk":96,
    "fields": {
      "slide_number": "96",
      "slide_source_text": "www.beta.inegi.org.mx/proyectos/ccpv/2010"
    }
  },{
    "model": "source_config.slidesourcedata",
    "pk":97,
    "fields": {
      "slide_number": "97",
      "slide_source_text": "www.beta.inegi.org.mx/proyectos/ccpv/2010"
    }
  },{
    "model": "source_config.slidesourcedata",
    "pk":98,
    "fields": {
      "slide_number": "98",
      "slide_source_text": "www.beta.inegi.org.mx/proyectos/ccpv/2010"
    }
  },{
    "model": "source_config.slidesourcedata",
    "pk":99,
    "fields": {
      "slide_number": "99",
      "slide_source_text": "www.beta.inegi.org.mx/proyectos/ccpv/2010"
    }
  },{
    "model": "source_config.slidesourcedata",
    "pk":100,
    "fields": {
      "slide_number": "100",
      "slide_source_text": "www.beta.inegi.org.mx/proyectos/ccpv/2010"
    }
  },{
    "model": "source_config.slidesourcedata",
    "pk":102,
    "fields": {
      "slide_number": "102",
      "slide_source_text": " blog.amai.org/index.php/preguntas-frecuentes-en-relacion-con-el-nse-amai/ - www.inegi.org.mx/rne/docs/Pdfs/Mesa4/20/HeribertoLopez.pdf- es.slideshare.net/MiguelChendo/descripcin-niveles-socioeconmicos-amai"
    }
  },{
    "model": "source_config.slidesourcedata",
    "pk":103,
    "fields": {
      "slide_number": "103",
      "slide_source_text": " blog.amai.org/index.php/preguntas-frecuentes-en-relacion-con-el-nse-amai/ - www.inegi.org.mx/rne/docs/Pdfs/Mesa4/20/HeribertoLopez.pdf- es.slideshare.net/MiguelChendo/descripcin-niveles-socioeconmicos-amai"
    }
  },{
    "model": "source_config.slidesourcedata",
    "pk":104,
    "fields": {
      "slide_number": "104",
      "slide_source_text": " blog.amai.org/index.php/preguntas-frecuentes-en-relacion-con-el-nse-amai/ - www.inegi.org.mx/rne/docs/Pdfs/Mesa4/20/HeribertoLopez.pdf- es.slideshare.net/MiguelChendo/descripcin-niveles-socioeconmicos-amai"
    }
  },{
    "model": "source_config.slidesourcedata",
    "pk":105,
    "fields": {
      "slide_number": "105",
      "slide_source_text": " blog.amai.org/index.php/preguntas-frecuentes-en-relacion-con-el-nse-amai/ - www.inegi.org.mx/rne/docs/Pdfs/Mesa4/20/HeribertoLopez.pdf- es.slideshare.net/MiguelChendo/descripcin-niveles-socioeconmicos-amai"
    }
  },{
    "model": "source_config.slidesourcedata",
    "pk":109,
    "fields": {
      "slide_number": "109",
      "slide_source_text": "  /www.elfinanciero.com.mx/economia/en-que-invierten-los-mas-adinerados.html - expansion.mx/mi-dinero/2014/10/15/los-ricos-en-mexico-cambian-su-paradigma-de-lujo"
    }
  },{
    "model": "source_config.slidesourcedata",
    "pk":110,
    "fields": {
      "slide_number": "110",
      "slide_source_text": "  /www.elfinanciero.com.mx/economia/en-que-invierten-los-mas-adinerados.html - expansion.mx/mi-dinero/2014/10/15/los-ricos-en-mexico-cambian-su-paradigma-de-lujo"
    }
  },{
    "model": "source_config.slidesourcedata",
    "pk":111,
    "fields": {
      "slide_number": "111",
      "slide_source_text": "  /www.elfinanciero.com.mx/economia/en-que-invierten-los-mas-adinerados.html - expansion.mx/mi-dinero/2014/10/15/los-ricos-en-mexico-cambian-su-paradigma-de-lujo"
    }
  },{
    "model": "source_config.slidesourcedata",
    "pk":112,
    "fields": {
      "slide_number": "112",
      "slide_source_text": " blog.amai.org/index.php/preguntas-frecuentes-en-relacion-con-el-nse-amai/ - www.inegi.org.mx/rne/docs/Pdfs/Mesa4/20/HeribertoLopez.pdf-es.slideshare.net/MiguelChendo/descripcin-niveles-socioeconmicos-amai"
    }
  },{
    "model": "source_config.slidesourcedata",
    "pk":114,
    "fields": {
      "slide_number": "114",
      "slide_source_text": " blog.amai.org/index.php/preguntas-frecuentes-en-relacion-con-el-nse-amai/ - www.inegi.org.mx/rne/docs/Pdfs/Mesa4/20/HeribertoLopez.pdf-es.slideshare.net/MiguelChendo/descripcin-niveles-socioeconmicos-amai"
    }
  },{
    "model": "source_config.slidesourcedata",
    "pk":116,
    "fields": {
      "slide_number": "116",
      "slide_source_text": " blog.amai.org/index.php/preguntas-frecuentes-en-relacion-con-el-nse-amai/ - www.inegi.org.mx/rne/docs/Pdfs/Mesa4/20/HeribertoLopez.pdf-es.slideshare.net/MiguelChendo/descripcin-niveles-socioeconmicos-amai"
    }
  },{
    "model": "source_config.slidesourcedata",
    "pk":117,
    "fields": {
      "slide_number": "117",
      "slide_source_text": " blog.amai.org/index.php/preguntas-frecuentes-en-relacion-con-el-nse-amai/ - www.inegi.org.mx/rne/docs/Pdfs/Mesa4/20/HeribertoLopez.pdf-es.slideshare.net/MiguelChendo/descripcin-niveles-socioeconmicos-amai"
    }
  },{
    "model": "source_config.slidesourcedata",
    "pk":119,
    "fields": {
      "slide_number": "119",
      "slide_source_text": "www.scielo.org.mx/scielo.php?script=sci_arttext&pid=S0036-36342015000400007"
    }
  },{
    "model": "source_config.slidesourcedata",
    "pk":120,
    "fields": {
      "slide_number": "120",
      "slide_source_text": "www.scielo.org.mx/scielo.php?script=sci_arttext&pid=S0036-36342015000400007"
    }
  },{
    "model": "source_config.slidesourcedata",
    "pk":122,
    "fields": {
      "slide_number": "122",
      "slide_source_text": "www.scielo.org.mx/scielo.php?script=sci_arttext&pid=S0036-36342015000400007"
    }
  },{
    "model": "source_config.slidesourcedata",
    "pk":124,
    "fields": {
      "slide_number": "124",
      "slide_source_text": " blog.amai.org/index.php/preguntas-frecuentes-en-relacion-con-el-nse-amai/ - www.inegi.org.mx/rne/docs/Pdfs/Mesa4/20/HeribertoLopez.pdf-es.slideshare.net/MiguelChendo/descripcin-niveles-socioeconmicos-amai"
    }
  },{
    "model": "source_config.slidesourcedata",
    "pk":125,
    "fields": {
      "slide_number": "125",
      "slide_source_text": " blog.amai.org/index.php/preguntas-frecuentes-en-relacion-con-el-nse-amai/ - www.inegi.org.mx/rne/docs/Pdfs/Mesa4/20/HeribertoLopez.pdf-es.slideshare.net/MiguelChendo/descripcin-niveles-socioeconmicos-amai"
    }
  },{
    "model": "source_config.slidesourcedata",
    "pk":127,
    "fields": {
      "slide_number": "127",
      "slide_source_text": "www.scielo.org.mx/scielo.php?script=sci_arttext&pid=S0036-36342015000400007"
    }
  },{
    "model": "source_config.slidesourcedata",
    "pk":128,
    "fields": {
      "slide_number": "128",
      "slide_source_text": "www.scielo.org.mx/scielo.php?script=sci_arttext&pid=S0036-36342015000400007"
    }
  },{
    "model": "source_config.slidesourcedata",
    "pk":129,
    "fields": {
      "slide_number": "129",
      "slide_source_text": "www.scielo.org.mx/scielo.php?script=sci_arttext&pid=S0036-36342015000400007"
    }
  },{
    "model": "source_config.slidesourcedata",
    "pk":130,
    "fields": {
      "slide_number": "130",
      "slide_source_text": "www.scielo.org.mx/scielo.php?script=sci_arttext&pid=S0036-36342015000400007"
    }
  },{
    "model": "source_config.slidesourcedata",
    "pk":131,
    "fields": {
      "slide_number": "131",
      "slide_source_text": " www.inegi.org.mx/saladeprensa/boletines/2015/especiales/especiales2015_07_3.docx"
    }
  },{
    "model": "source_config.slidesourcedata",
    "pk":133,
    "fields": {
      "slide_number": "133",
      "slide_source_text": "www.scielo.org.mx/scielo.php?script=sci_arttext&pid=S0036-36342015000400007"
    }
  },{
    "model": "source_config.slidesourcedata",
    "pk":134,
    "fields": {
      "slide_number": "134",
      "slide_source_text": "www.scielo.org.mx/scielo.php?script=sci_arttext&pid=S0036-36342015000400007"
    }
  },{
    "model": "source_config.slidesourcedata",
    "pk":135,
    "fields": {
      "slide_number": "135",
      "slide_source_text": "www.scielo.org.mx/scielo.php?script=sci_arttext&pid=S0036-36342015000400007"
    }
  },{
    "model": "source_config.slidesourcedata",
    "pk":136,
    "fields": {
      "slide_number": "136",
      "slide_source_text": " blog.amai.org/index.php/preguntas-frecuentes-en-relacion-con-el-nse-amai/ - www.inegi.org.mx/rne/docs/Pdfs/Mesa4/20/HeribertoLopez.pdf-es.slideshare.net/MiguelChendo/descripcin-niveles-socioeconmicos-amai"
    }
  },{
    "model": "source_config.slidesourcedata",
    "pk":137,
    "fields": {
      "slide_number": "137",
      "slide_source_text": " blog.amai.org/index.php/preguntas-frecuentes-en-relacion-con-el-nse-amai/ - www.inegi.org.mx/rne/docs/Pdfs/Mesa4/20/HeribertoLopez.pdf-es.slideshare.net/MiguelChendo/descripcin-niveles-socioeconmicos-amai"
    }
  },{
    "model": "source_config.slidesourcedata",
    "pk":138,
    "fields": {
      "slide_number": "138",
      "slide_source_text": " blog.amai.org/index.php/preguntas-frecuentes-en-relacion-con-el-nse-amai/ - www.inegi.org.mx/rne/docs/Pdfs/Mesa4/20/HeribertoLopez.pdf-es.slideshare.net/MiguelChendo/descripcin-niveles-socioeconmicos-amai"
    }
  },{
    "model": "source_config.slidesourcedata",
    "pk":140,
    "fields": {
      "slide_number": "140",
      "slide_source_text": "www.inegi.org.mx/saladeprensa/boletines/2015/especiales/especiales2015_07_3.docx"
    }
  },{
    "model": "source_config.slidesourcedata",
    "pk":140,
    "fields": {
      "slide_number": "140",
      "slide_source_text": "www.inegi.org.mx/saladeprensa/boletines/2015/especiales/especiales2015_07_3.docx"
    }
  },{
    "model": "source_config.slidesourcedata",
    "pk":141,
    "fields": {
      "slide_number": "141",
      "slide_source_text": " blog.amai.org/index.php/preguntas-frecuentes-en-relacion-con-el-nse-amai/ - www.inegi.org.mx/rne/docs/Pdfs/Mesa4/20/HeribertoLopez.pdf-es.slideshare.net/MiguelChendo/descripcin-niveles-socioeconmicos-amai"
    }
  },{
    "model": "source_config.slidesourcedata",
    "pk":142,
    "fields": {
      "slide_number": "142",
      "slide_source_text": " blog.amai.org/index.php/preguntas-frecuentes-en-relacion-con-el-nse-amai/ - www.inegi.org.mx/rne/docs/Pdfs/Mesa4/20/HeribertoLopez.pdf-es.slideshare.net/MiguelChendo/descripcin-niveles-socioeconmicos-amai"
    }
  },{
    "model": "source_config.slidesourcedata",
    "pk":144,
    "fields": {
      "slide_number": "144",
      "slide_source_text": " blog.amai.org/index.php/preguntas-frecuentes-en-relacion-con-el-nse-amai/ - www.inegi.org.mx/rne/docs/Pdfs/Mesa4/20/HeribertoLopez.pdf-es.slideshare.net/MiguelChendo/descripcin-niveles-socioeconmicos-amai"
    }
  },{
    "model": "source_config.slidesourcedata",
    "pk":145,
    "fields": {
      "slide_number": "145",
      "slide_source_text": " blog.amai.org/index.php/preguntas-frecuentes-en-relacion-con-el-nse-amai/ - www.inegi.org.mx/rne/docs/Pdfs/Mesa4/20/HeribertoLopez.pdf-es.slideshare.net/MiguelChendo/descripcin-niveles-socioeconmicos-amai"
    }
  },{
    "model": "source_config.slidesourcedata",
    "pk":146,
    "fields": {
      "slide_number": "146",
      "slide_source_text": " blog.amai.org/index.php/preguntas-frecuentes-en-relacion-con-el-nse-amai/ - www.inegi.org.mx/rne/docs/Pdfs/Mesa4/20/HeribertoLopez.pdf-es.slideshare.net/MiguelChendo/descripcin-niveles-socioeconmicos-amai"
    }
  },{
    "model": "source_config.slidesourcedata",
    "pk":147,
    "fields": {
      "slide_number": "147",
      "slide_source_text": " blog.amai.org/index.php/preguntas-frecuentes-en-relacion-con-el-nse-amai/ - www.inegi.org.mx/rne/docs/Pdfs/Mesa4/20/HeribertoLopez.pdf-es.slideshare.net/MiguelChendo/descripcin-niveles-socioeconmicos-amai"
    }
  },{
    "model": "source_config.slidesourcedata",
    "pk":148,
    "fields": {
      "slide_number": "148",
      "slide_source_text": " blog.amai.org/index.php/preguntas-frecuentes-en-relacion-con-el-nse-amai/ - www.inegi.org.mx/rne/docs/Pdfs/Mesa4/20/HeribertoLopez.pdf-es.slideshare.net/MiguelChendo/descripcin-niveles-socioeconmicos-amai"
    }
  },{
    "model": "source_config.slidesourcedata",
    "pk":149,
    "fields": {
      "slide_number": "149",
      "slide_source_text": " www.inegi.org.mx/saladeprensa/boletines/2015/especiales/especiales2015_07_3.docx"
    }
  },{
    "model": "source_config.slidesourcedata",
    "pk":151,
    "fields": {
      "slide_number": "151",
      "slide_source_text": " blog.amai.org/index.php/preguntas-frecuentes-en-relacion-con-el-nse-amai/ - www.inegi.org.mx/rne/docs/Pdfs/Mesa4/20/HeribertoLopez.pdf-es.slideshare.net/MiguelChendo/descripcin-niveles-socioeconmicos-amai"
    }
  },{
    "model": "source_config.slidesourcedata",
    "pk":153,
    "fields": {
      "slide_number": "153",
      "slide_source_text": " blog.amai.org/index.php/preguntas-frecuentes-en-relacion-con-el-nse-amai/ - www.inegi.org.mx/rne/docs/Pdfs/Mesa4/20/HeribertoLopez.pdf-es.slideshare.net/MiguelChendo/descripcin-niveles-socioeconmicos-amai"
    }
  },{
    "model": "source_config.slidesourcedata",
    "pk":154,
    "fields": {
      "slide_number": "154",
      "slide_source_text": " blog.amai.org/index.php/preguntas-frecuentes-en-relacion-con-el-nse-amai/ - www.inegi.org.mx/rne/docs/Pdfs/Mesa4/20/HeribertoLopez.pdf-es.slideshare.net/MiguelChendo/descripcin-niveles-socioeconmicos-amai"
    }
  },{
    "model": "source_config.slidesourcedata",
    "pk":156,
    "fields": {
      "slide_number": "156",
      "slide_source_text": " www.inegi.org.mx/saladeprensa/boletines/2015/especiales/especiales2015_07_3.docx"
    }
  },{
    "model": "source_config.slidesourcedata",
    "pk":156,
    "fields": {
      "slide_number": "156",
      "slide_source_text": " blog.amai.org/index.php/preguntas-frecuentes-en-relacion-con-el-nse-amai/ - www.inegi.org.mx/rne/docs/Pdfs/Mesa4/20/HeribertoLopez.pdf-es.slideshare.net/MiguelChendo/descripcin-niveles-socioeconmicos-amai"
    }
  },{
    "model": "source_config.slidesourcedata",
    "pk":158,
    "fields": {
      "slide_number": "158",
      "slide_source_text": " blog.amai.org/index.php/preguntas-frecuentes-en-relacion-con-el-nse-amai/ - www.inegi.org.mx/rne/docs/Pdfs/Mesa4/20/HeribertoLopez.pdf-es.slideshare.net/MiguelChendo/descripcin-niveles-socioeconmicos-amai"
    }
  },{
    "model": "source_config.slidesourcedata",
    "pk":159,
    "fields": {
      "slide_number": "159",
      "slide_source_text": " blog.amai.org/index.php/preguntas-frecuentes-en-relacion-con-el-nse-amai/ - www.inegi.org.mx/rne/docs/Pdfs/Mesa4/20/HeribertoLopez.pdf-es.slideshare.net/MiguelChendo/descripcin-niveles-socioeconmicos-amai"
    }
  },{
    "model": "source_config.slidesourcedata",
    "pk":160,
    "fields": {
      "slide_number": "160",
      "slide_source_text": " blog.amai.org/index.php/preguntas-frecuentes-en-relacion-con-el-nse-amai/ - www.inegi.org.mx/rne/docs/Pdfs/Mesa4/20/HeribertoLopez.pdf-es.slideshare.net/MiguelChendo/descripcin-niveles-socioeconmicos-amai"
    }
  },{
    "model": "source_config.slidesourcedata",
    "pk":161,
    "fields": {
      "slide_number": "161",
      "slide_source_text": " blog.amai.org/index.php/preguntas-frecuentes-en-relacion-con-el-nse-amai/ - www.inegi.org.mx/rne/docs/Pdfs/Mesa4/20/HeribertoLopez.pdf-es.slideshare.net/MiguelChendo/descripcin-niveles-socioeconmicos-amai"
    }
  },{
    "model": "source_config.slidesourcedata",
    "pk":162,
    "fields": {
      "slide_number": "162",
      "slide_source_text": " blog.amai.org/index.php/preguntas-frecuentes-en-relacion-con-el-nse-amai/ - www.inegi.org.mx/rne/docs/Pdfs/Mesa4/20/HeribertoLopez.pdf-es.slideshare.net/MiguelChendo/descripcin-niveles-socioeconmicos-amai"
    }
  },{
    "model": "source_config.slidesourcedata",
    "pk":163,
    "fields": {
      "slide_number": "163",
      "slide_source_text": " blog.amai.org/index.php/preguntas-frecuentes-en-relacion-con-el-nse-amai/ - www.inegi.org.mx/rne/docs/Pdfs/Mesa4/20/HeribertoLopez.pdf-es.slideshare.net/MiguelChendo/descripcin-niveles-socioeconmicos-amai"
    }
  },{
    "model": "source_config.slidesourcedata",
    "pk":164,
    "fields": {
      "slide_number": "164",
      "slide_source_text": " blog.amai.org/index.php/preguntas-frecuentes-en-relacion-con-el-nse-amai/ - www.inegi.org.mx/rne/docs/Pdfs/Mesa4/20/HeribertoLopez.pdf-es.slideshare.net/MiguelChendo/descripcin-niveles-socioeconmicos-amai"
    }
  },{
    "model": "source_config.slidesourcedata",
    "pk":168,
    "fields": {
      "slide_number": "168",
      "slide_source_text": "Phenoma, Market Research 2017"
    }
  },{
    "model": "source_config.slidesourcedata",
    "pk":169,
    "fields": {
      "slide_number": "169",
      "slide_source_text": "Phenoma, Market Research 2017"
    }
  },{
    "model": "source_config.slidesourcedata",
    "pk":170,
    "fields": {
      "slide_number": "170",
      "slide_source_text": "Phenoma, Market Research 2017"
    }
  },{
    "model": "source_config.slidesourcedata",
    "pk":171,
    "fields": {
      "slide_number": "171",
      "slide_source_text": "Phenoma, Market Research 2017"
    }
  },{
    "model": "source_config.slidesourcedata",
    "pk":172,
    "fields": {
      "slide_number": "172",
      "slide_source_text": "Phenoma, Market Research 2017"
    }
  },{
    "model": "source_config.slidesourcedata",
    "pk":173,
    "fields": {
      "slide_number": "173",
      "slide_source_text": "Phenoma, Market Research 2017"
    }
  },{
    "model": "source_config.slidesourcedata",
    "pk":174,
    "fields": {
      "slide_number": "174",
      "slide_source_text": "Phenoma, Market Research 2017"
    }
  },{
    "model": "source_config.slidesourcedata",
    "pk":175,
    "fields": {
      "slide_number": "175",
      "slide_source_text": "Phenoma, Market Research 2017"
    }
  },{
    "model": "source_config.slidesourcedata",
    "pk":176,
    "fields": {
      "slide_number": "176",
      "slide_source_text": "Phenoma, Market Research 2017"
    }
  },{
    "model": "source_config.slidesourcedata",
    "pk":176,
    "fields": {
      "slide_number": "176",
      "slide_source_text": "Phenoma, Market Research 2017"
    }
  },{
    "model": "source_config.slidesourcedata",
    "pk":177,
    "fields": {
      "slide_number": "177",
      "slide_source_text": "Phenoma, Market Research 2017"
    }
  },{
    "model": "source_config.slidesourcedata",
    "pk":178,
    "fields": {
      "slide_number": "178",
      "slide_source_text": "Phenoma, Market Research 2017"
    }
  },{
    "model": "source_config.slidesourcedata",
    "pk":179,
    "fields": {
      "slide_number": "179",
      "slide_source_text": "Phenoma, Market Research 2017"
    }
  },{
    "model": "source_config.slidesourcedata",
    "pk":180,
    "fields": {
      "slide_number": "180",
      "slide_source_text": "Phenoma, Market Research 2017"
    }
  },{
    "model": "source_config.slidesourcedata",
    "pk":181,
    "fields": {
      "slide_number": "181",
      "slide_source_text": "Phenoma, Market Research 2017"
    }
  },{
    "model": "source_config.slidesourcedata",
    "pk":184,
    "fields": {
      "slide_number": "184",
      "slide_source_text": "Phenoma, Market Research 2017"
    }
  },{
    "model": "source_config.slidesourcedata",
    "pk":185,
    "fields": {
      "slide_number": "185",
      "slide_source_text": "Phenoma, Market Research 2017"
    }
  },{
    "model": "source_config.slidesourcedata",
    "pk":188,
    "fields": {
      "slide_number": "188",
      "slide_source_text": "Phenoma, Market Research 2017"
    }
  },{
    "model": "source_config.slidesourcedata",
    "pk":189,
    "fields": {
      "slide_number": "189",
      "slide_source_text": "Phenoma, Market Research 2017"
    }
  },{
    "model": "source_config.slidesourcedata",
    "pk":190,
    "fields": {
      "slide_number": "190",
      "slide_source_text": "Phenoma, Market Research 2017"
    }
  },{
    "model": "source_config.slidesourcedata",
    "pk":191,
    "fields": {
      "slide_number": "191",
      "slide_source_text": "Phenoma, Market Research 2017"
    }
  },{
    "model": "source_config.slidesourcedata",
    "pk":192,
    "fields": {
      "slide_number": "192",
      "slide_source_text": "Phenoma, Market Research 2017"
    }
  },{
    "model": "source_config.slidesourcedata",
    "pk":193,
    "fields": {
      "slide_number": "193",
      "slide_source_text": "Phenoma, Market Research 2017"
    }
  },{
    "model": "source_config.slidesourcedata",
    "pk":194,
    "fields": {
      "slide_number": "194",
      "slide_source_text": "Phenoma, Market Research 2017"
    }
  },{
    "model": "source_config.slidesourcedata",
    "pk":195,
    "fields": {
      "slide_number": "195",
      "slide_source_text": "Phenoma, Market Research 2017"
    }
  },{
    "model": "source_config.slidesourcedata",
    "pk":197,
    "fields": {
      "slide_number": "197",
      "slide_source_text": "Phenoma, Market Research 2017"
    }
  },{
    "model": "source_config.slidesourcedata",
    "pk":199,
    "fields": {
      "slide_number": "199",
      "slide_source_text": "Phenoma, Market Research 2017"
    }
  },{
    "model": "source_config.slidesourcedata",
    "pk":200,
    "fields": {
      "slide_number": "200",
      "slide_source_text": "Phenoma, Market Research 2017"
    }
  },{
    "model": "source_config.slidesourcedata",
    "pk":201,
    "fields": {
      "slide_number": "201",
      "slide_source_text": "Phenoma, Market Research 2017"
    }
  },{
    "model": "source_config.slidesourcedata",
    "pk":202,
    "fields": {
      "slide_number": "202",
      "slide_source_text": "Phenoma, Market Research 2017"
    }
  },{
    "model": "source_config.slidesourcedata",
    "pk":203,
    "fields": {
      "slide_number": "203",
      "slide_source_text": "Phenoma, Market Research 2017"
    }
  },{
    "model": "source_config.slidesourcedata",
    "pk":205,
    "fields": {
      "slide_number": "205",
      "slide_source_text": "Phenoma, Market Research 2017"
    }
  },{
    "model": "source_config.slidesourcedata",
    "pk":207,
    "fields": {
      "slide_number": "207",
      "slide_source_text": "Phenoma, Market Research 2017"
    }
  },{
    "model": "source_config.slidesourcedata",
    "pk":208,
    "fields": {
      "slide_number": "208",
      "slide_source_text": "Phenoma, Market Research 2017"
    }
  },{
    "model": "source_config.slidesourcedata",
    "pk":209,
    "fields": {
      "slide_number": "209",
      "slide_source_text": "Phenoma, Market Research 2017"
    }
  },{
    "model": "source_config.slidesourcedata",
    "pk":210,
    "fields": {
      "slide_number": "210",
      "slide_source_text": "Phenoma, Market Research 2017"
    }
  },{
    "model": "source_config.slidesourcedata",
    "pk":213,
    "fields": {
      "slide_number": "213",
      "slide_source_text": "eleconomista.com.mx/industrias/2015/09/12/chocolate-mexicano-mexico-se-consume-poco - expansion.mx/estilo/2016/07/08/el-chocolate-en-mexico-un-gusto-de-ocasion"
    }
  },{
    "model": "source_config.slidesourcedata",
    "pk":214,
    "fields": {
      "slide_number": "214",
      "slide_source_text": "eleconomista.com.mx/industrias/2015/09/12/chocolate-mexicano-mexico-se-consume-poco - expansion.mx/estilo/2016/07/08/el-chocolate-en-mexico-un-gusto-de-ocasion"
    }
  },{
    "model": "source_config.slidesourcedata",
    "pk":215,
    "fields": {
      "slide_number": "215",
      "slide_source_text": "blog.amai.org/index.php/preguntas-frecuentes-en-relacion-con-el-nse-amai/ - www.inegi.org.mx/rne/docs/Pdfs/Mesa4/20/HeribertoLopez.pdf-es.slideshare.net/MiguelChendo/descripcin-niveles-socioeconmicos-amai"
    }
  },{
    "model": "source_config.slidesourcedata",
    "pk":216,
    "fields": {
      "slide_number": "216",
      "slide_source_text": " Hershey’s 14728 Choco U&A - August 2016 TNS"
    }
  },{
    "model": "source_config.slidesourcedata",
    "pk":217,
    "fields": {
      "slide_number": "217",
      "slide_source_text": " Hershey’s 14728 Choco U&A - August 2016 TNS"
    }
  },{
    "model": "source_config.slidesourcedata",
    "pk":218,
    "fields": {
      "slide_number": "218",
      "slide_source_text": " Hershey’s 14728 Choco U&A - August 2016 TNS"
    }
  },{
    "model": "source_config.slidesourcedata",
    "pk":219,
    "fields": {
      "slide_number": "219",
      "slide_source_text": " Hershey’s 14728 Choco U&A - August 2016 TNS"
    }
  },{
    "model": "source_config.slidesourcedata",
    "pk":220,
    "fields": {
      "slide_number": "220",
      "slide_source_text": " Hershey’s 14728 Choco U&A - August 2016 TNS"
    }
  },{
    "model": "source_config.slidesourcedata",
    "pk":221,
    "fields": {
      "slide_number": "221",
      "slide_source_text": "Nielsen RI | T. México | T. Chocolate| Jun 2017"
    }
  },{
    "model": "source_config.slidesourcedata",
    "pk":222,
    "fields": {
      "slide_number": "222",
      "slide_source_text": "(U&A 2016 Chocolate Category)"
    }
  },{
    "model": "source_config.slidesourcedata",
    "pk":223,
    "fields": {
      "slide_number": "223",
      "slide_source_text": "(U&A 2016 Chocolate Category)"
    }
  },{
    "model": "source_config.slidesourcedata",
    "pk":224,
    "fields": {
      "slide_number": "224",
      "slide_source_text": "(U&A 2016 Chocolate Category)"
    }
  },{
    "model": "source_config.slidesourcedata",
    "pk":225,
    "fields": {
      "slide_number": "225",
      "slide_source_text": "(U&A 2016 Chocolate Category)"
    }
  },{
    "model": "source_config.slidesourcedata",
    "pk":226,
    "fields": {
      "slide_number": "226",
      "slide_source_text": "(U&A 2016 Chocolate Category)"
    }
  },{
    "model": "source_config.slidesourcedata",
    "pk":227,
    "fields": {
      "slide_number": "227",
      "slide_source_text": "(U&A 2016 Chocolate Category)"
    }
  },{
    "model": "source_config.slidesourcedata",
    "pk":228,
    "fields": {
      "slide_number": "228",
      "slide_source_text": "(U&A 2016 Chocolate Category)"
    }
  },{
    "model": "source_config.slidesourcedata",
    "pk":230,
    "fields": {
      "slide_number": "230",
      "slide_source_text": " portaldace.mineco.gob.gt/sites/default/files/unidades/oportunidades/Fichas%20T%C3%A9cnicas/Guias%20de%20Exportacion/GUIAS%20DE%20EXPORTACION%20MEXICO/GUIA%20EXPORTACI%C3%93N%20A%20M%C3%89XICO%20DULCES%20Y%20CHOCOLATES.pdf https://documents.mx/documents/tendencias-del-mercado-latinoamericano-en-golosinaspdf.html"
    }
  },{
    "model": "source_config.slidesourcedata",
    "pk":231,
    "fields": {
      "slide_number": "231",
      "slide_source_text": "blog.amai.org/index.php/preguntas-frecuentes-en-relacion-con-el-nse-amai/ - www.inegi.org.mx/rne/docs/Pdfs/Mesa4/20/HeribertoLopez.pdf - es.slideshare.net/MiguelChendo/descripcin-niveles-socioeconmicos-amai"
    }
  },{
    "model": "source_config.slidesourcedata",
    "pk":232,
    "fields": {
      "slide_number": "232",
      "slide_source_text": "blog.amai.org/index.php/preguntas-frecuentes-en-relacion-con-el-nse-amai/ - www.inegi.org.mx/rne/docs/Pdfs/Mesa4/20/HeribertoLopez.pdf - es.slideshare.net/MiguelChendo/descripcin-niveles-socioeconmicos-amai"
    }
  },{
    "model": "source_config.slidesourcedata",
    "pk":233,
    "fields": {
      "slide_number": "233",
      "slide_source_text": "blog.amai.org/index.php/preguntas-frecuentes-en-relacion-con-el-nse-amai/ - www.inegi.org.mx/rne/docs/Pdfs/Mesa4/20/HeribertoLopez.pdf - es.slideshare.net/MiguelChendo/descripcin-niveles-socioeconmicos-amai"
    }
  },{
    "model": "source_config.slidesourcedata",
    "pk":234,
    "fields": {
      "slide_number": "234",
      "slide_source_text": "blog.amai.org/index.php/preguntas-frecuentes-en-relacion-con-el-nse-amai/ - www.inegi.org.mx/rne/docs/Pdfs/Mesa4/20/HeribertoLopez.pdf - es.slideshare.net/MiguelChendo/descripcin-niveles-socioeconmicos-amai"
    }
  },{
    "model": "source_config.slidesourcedata",
    "pk":235,
    "fields": {
      "slide_number": "235",
      "slide_source_text": "Shopper Understanding - Spicy Candies 2017, Kantar TNS"
    }
  },{
    "model": "source_config.slidesourcedata",
    "pk":236,
    "fields": {
      "slide_number": "236",
      "slide_source_text": "Shopper Understanding - Spicy Candies 2017, Kantar TNS"
    }
  },{
    "model": "source_config.slidesourcedata",
    "pk":237,
    "fields": {
      "slide_number": "237",
      "slide_source_text": "Shopper Understanding - Spicy Candies 2017, Kantar TNS"
    }
  },{
    "model": "source_config.slidesourcedata",
    "pk":238,
    "fields": {
      "slide_number": "238",
      "slide_source_text": "Shopper Understanding - Spicy Candies 2017, Kantar TNS"
    }
  },{
    "model": "source_config.slidesourcedata",
    "pk":239,
    "fields": {
      "slide_number": "239",
      "slide_source_text": "Shopper Understanding - Spicy Candies 2017, Kantar TNS"
    }
  },{
    "model": "source_config.slidesourcedata",
    "pk":240,
    "fields": {
      "slide_number": "240",
      "slide_source_text": "Shopper Understanding - Spicy Candies 2017, Kantar TNS"
    }
  },{
    "model": "source_config.slidesourcedata",
    "pk":241,
    "fields": {
      "slide_number": "241",
      "slide_source_text": "ISCAM May 2017."
    }
  },{
    "model": "source_config.slidesourcedata",
    "pk":242,
    "fields": {
      "slide_number": "242",
      "slide_source_text": "ISCAM May 2017."
    }
  },{
    "model": "source_config.slidesourcedata",
    "pk":244,
    "fields": {
      "slide_number": "244",
      "slide_source_text": "blog.amai.org/index.php/preguntas-frecuentes-en-relacion-con-el-nse-amai/ - www.inegi.org.mx/rne/docs/Pdfs/Mesa4/20/HeribertoLopez.pdf-es.slideshare.net/MiguelChendo/descripcin-niveles-socioeconmicos-amai"
    }
  },{
    "model": "source_config.slidesourcedata",
    "pk":245,
    "fields": {
      "slide_number": "245",
      "slide_source_text": "blog.amai.org/index.php/preguntas-frecuentes-en-relacion-con-el-nse-amai/ - www.inegi.org.mx/rne/docs/Pdfs/Mesa4/20/HeribertoLopez.pdf-es.slideshare.net/MiguelChendo/descripcin-niveles-socioeconmicos-amai"
    }
  },{
    "model": "source_config.slidesourcedata",
    "pk":246,
    "fields": {
      "slide_number": "246",
      "slide_source_text": " www.fao.org/economic/est/est-commodities/leche-y-productos/la-leche-en-las-escuelas/dia-mundial-de-la-leche/es/-http://www.altonivel.com.mx/10-datos-sobre-el-consumo-y-produccion-de-leche-en-mexico-56765/"
    }
  },{
    "model": "source_config.slidesourcedata",
    "pk":248,
    "fields": {
      "slide_number": "248",
      "slide_source_text": " www.fao.org/economic/est/est-commodities/leche-y-productos/la-leche-en-las-escuelas/dia-mundial-de-la-leche/es/-http://www.altonivel.com.mx/10-datos-sobre-el-consumo-y-produccion-de-leche-en-mexico-56765/"
    }
  },{
    "model": "source_config.slidesourcedata",
    "pk":249,
    "fields": {
      "slide_number": "249",
      "slide_source_text": " Nielsen Strategic Planner Latam 2016"
    }
  },{
    "model": "source_config.slidesourcedata",
    "pk":250,
    "fields": {
      "slide_number": "250",
      "slide_source_text": "Censydiam Tetrapak, Sep15."
    }
  },{
    "model": "source_config.slidesourcedata",
    "pk":251,
    "fields": {
      "slide_number": "251",
      "slide_source_text": "Censydiam Tetrapak, Sep15."
    }
  },{
    "model": "source_config.slidesourcedata",
    "pk":252,
    "fields": {
      "slide_number": "252",
      "slide_source_text": " Kids/Moms report brand tracking Nov’16."
    }
  },{
    "model": "source_config.slidesourcedata",
    "pk":255,
    "fields": {
      "slide_number": "255",
      "slide_source_text": " www.milenio.com/monterrey/industria_snacks_refrescos_Mexico-comida_rapida_0_548345189.html"
    }
  },{
    "model": "source_config.slidesourcedata",
    "pk":256,
    "fields": {
      "slide_number": "256",
      "slide_source_text": " www.milenio.com/monterrey/industria_snacks_refrescos_Mexico-comida_rapida_0_548345189.html"
    }
  },{
    "model": "source_config.slidesourcedata",
    "pk":257,
    "fields": {
      "slide_number": "257",
      "slide_source_text": " www.milenio.com/monterrey/industria_snacks_refrescos_Mexico-comida_rapida_0_548345189.html"
    }
  },{
    "model": "source_config.slidesourcedata",
    "pk":258,
    "fields": {
      "slide_number": "258",
      "slide_source_text": " www.milenio.com/monterrey/industria_snacks_refrescos_Mexico-comida_rapida_0_548345189.html"
    }
  },{
    "model": "source_config.slidesourcedata",
    "pk":259,
    "fields": {
      "slide_number": "259",
      "slide_source_text": " www.milenio.com/monterrey/industria_snacks_refrescos_Mexico-comida_rapida_0_548345189.html"
    }
  },{
    "model": "source_config.slidesourcedata",
    "pk":260,
    "fields": {
      "slide_number": "260",
      "slide_source_text": " www.milenio.com/monterrey/industria_snacks_refrescos_Mexico-comida_rapida_0_548345189.html"
    }
  },{
    "model": "source_config.slidesourcedata",
    "pk":261,
    "fields": {
      "slide_number": "261",
      "slide_source_text": " www.milenio.com/monterrey/industria_snacks_refrescos_Mexico-comida_rapida_0_548345189.html"
    }
  }
]