<?xml version="1.0" encoding="utf-8"?>
<!-- Generator: Adobe Illustrator 21.0.0, SVG Export Plug-In . SVG Version: 6.00 Build 0)  -->
<svg version="1.1" id="Capa_1" xmlns="http://www.w3.org/2000/svg" xmlns:xlink="http://www.w3.org/1999/xlink" x="0px" y="0px"
	 viewBox="0 0 120.3 149.6" style="enable-background:new 0 0 120.3 149.6;" xml:space="preserve">
<style type="text/css">
	.st0{fill:#E7294D;}
	.st1{fill:none;stroke:#FFFFFF;stroke-width:0.8289;stroke-miterlimit:10;stroke-dasharray:2.4868,2.4868;}
	.st2{fill:#6E4012;}
	.st3{enable-background:new    ;}
	.st4{fill:#FFC900;}
</style>
<g>
	<g>
		<g>
			<g>
				<path class="st0" d="M41.1,31.5c-0.3-0.6-0.6-1.2-1.2-1.6c-0.5-0.3-1.1-0.4-1.7-0.4c-2.8-0.2-5.5-0.2-8.3,0.1c0,0-1.4,0.4-1.9,1
					s-0.6,1.3-0.8,2.1c-0.5,2.4-0.6,4.9-0.6,7.4c0,0.4,0,0.9,0.2,1.3c0.2,0.4,0.5,0.8,0.9,0.9c0.5,0.1,1-0.3,1.3-0.8
					c0.2-0.5,0.3-1,0.3-1.6c0.1-1.4,0.1-2.7,0.2-4.1c0-0.9,0.1-1.8,0.6-2.5c0.4,0.2,0.4,0.8,0.4,1.2c0,4.7,0.1,9.3,0.1,14
					c0,2,0,4,0.5,5.9c0.1,0.5,0.3,1.1,0.7,1.5s1.1,0.6,1.5,0.2c0.3-0.2,0.4-0.6,0.5-0.9c0.9-3.4,0.5-7.1,0.5-10.7c0-0.4,0-0.7,0.1-1
					s0.4-0.6,0.8-0.6c0.2,1.1,0.2,2.2,0.2,3.2c0,2.2,0,4.4,0,6.7c0,0.5,0,1.1,0.2,1.6s0.5,1,1,1.2c0.2,0.1,0.3,0.1,0.5,0.1
					c0.4-0.1,0.7-0.6,0.8-1c0.8-2.8,0.7-5.8,0.5-8.7c-0.3-3.3-0.8-6.6-0.6-9.9c0-0.8,0.1-1.5,0.1-2.3c0-0.3,0.1-0.7,0.4-0.8
					c0.4-0.1,0.6,0.5,0.7,0.9c0.2,2.1,0.4,4.2,0.4,6.4c0,0.5,0,1.1,0.4,1.5c0.5,0.5,1.5,0.3,2-0.3s0.5-1.4,0.5-2.2
					C42.4,36.6,42.2,33.9,41.1,31.5z"/>
			</g>
			<g>
				<path class="st0" d="M30.8,27c0.1,0.2,0.3,0.4,0.5,0.6c0.4,0.4,0.9,0.7,1.5,1c1,0.4,2.2,0.5,3.2,0.1s1.9-1.3,2.2-2.4
					c0.2-0.7,0.2-1.4,0.2-2c0-0.3-0.1-0.7-0.3-1s-0.4-0.5-0.7-0.7c-1.1-0.9-2.3-1.6-3.7-1.4h0.1c-1.1,0-2.1,0.8-2.7,1.8
					c-0.5,1-0.7,2.2-0.6,3.3C30.6,26.5,30.7,26.7,30.8,27z"/>
			</g>
		</g>
		<g>
			<g>
				<path class="st0" d="M48.2,28.5c0.1,0.2,0.3,0.4,0.5,0.6c0.4,0.4,0.9,0.7,1.5,1c1,0.4,2.2,0.5,3.2,0.1s1.9-1.3,2.2-2.4
					c0.2-0.7,0.2-1.4,0.2-2c0-0.3-0.1-0.7-0.3-1s-0.4-0.5-0.7-0.7c-1.1-0.9-2.3-1.6-3.7-1.4h0.1c-1.1,0-2.1,0.8-2.7,1.8
					c-0.5,1-0.7,2.2-0.6,3.3C48.1,28,48.1,28.3,48.2,28.5z"/>
			</g>
			<g>
				<path class="st0" d="M59.7,40.4c-0.3-0.9-0.6-1.9-0.8-2.8c-0.2-0.8-0.5-1.6-0.8-2.4c-0.3-0.8-0.7-1.5-1.1-2.2
					c-0.2-0.4-0.5-0.8-0.9-1.1c-0.4-0.3-1-0.4-1.5-0.4c-1.8-0.2-3.6-0.3-5.3-0.2c0,0-2,0.7-2.6,1.5c-0.7,0.8-1.1,1.8-1.5,2.8
					c-0.7,1.8-1.3,3.6-1.7,5.5c-0.2,0.6-0.3,1.4,0.2,1.9c0.5,0.4,1.2,0.2,1.7-0.2c0.4-0.4,0.6-1.1,0.8-1.6c0.7-2,1.5-4,2.5-5.9
					c0.3,1.3-0.1,2.7-0.5,4c-0.6,2-1,4-1.3,6c-0.1,0.4-0.2,0.8-0.1,1.2c0.1,0.4,0.3,0.8,0.7,0.9c0.5,0.1,1.1-0.1,1.3,0.3
					c0.1,0.1,0.1,0.3,0.1,0.4c0.1,1.5,0.1,3.1,0,4.6c0,0.6-0.1,1.2,0,1.9c0.1,0.6,0.4,1.2,0.9,1.6c0.5,0.3,1.3,0.3,1.7-0.1
					c0.3-0.3,0.4-0.7,0.4-1.1c0.4-2.1,0.5-4.3,0.4-6.5c0-0.2,0-0.5,0.1-0.7s0.4-0.4,0.6-0.3c0.1,2.4,0.2,4.7,0.2,7.1
					c0,0.4,0,0.8,0.3,1.1c0.3,0.4,1,0.4,1.5,0.4c0.3,0,0.7,0,0.9-0.2c0.4-0.3,0.5-0.8,0.5-1.2c0.2-2.1,0.1-4.2-0.3-6.2
					c-0.1-0.5-0.1-0.8,0.1-1c0.1-0.1,0.3-0.1,0.4-0.2c0.4-0.1,0.8-0.3,1.2-0.6c0.1-0.1,0.2-0.2,0.2-0.3c0.1-0.2,0-0.4-0.1-0.7
					c-1.5-3.3-2.4-7-2.5-10.6c0.2-0.1,0.4,0.2,0.5,0.4c0.5,2.1,1,4.2,1.5,6.3c0.2,0.6,0.4,1.4,1,1.6c0.6,0.2,1.3-0.4,1.5-1
					C60.1,41.7,59.9,41,59.7,40.4z"/>
			</g>
		</g>
	</g>
	<path class="st1" d="M43.7,2.7C35.9,4.9,8.9,13.2,1,39c-1.2,3.9-0.4,8.1,0.4,12.1c0.9,4.3,2.9,8.4,5.2,12.3
		c2.8,4.6,6.1,9.2,10.9,12.5c3.2,2.2,7,3.8,11,5.1c11.8,3.8,25.1,4.4,37.3,1.8c6.4-1.4,12.6-3.6,17.4-7.3c3.7-2.8,6.5-6.3,9-9.9
		c3.7-5.2,7.3-10.6,8.6-16.6C113.4-5.7,59.3-1.6,43.7,2.7z"/>
	<path class="st2" d="M88.3,44.8c-5.1-0.2-10.2,1.3-14.8,3.3C66,51.4,59,56.5,55.2,63.8c-4.4,8.3-4.1,18.3-1.7,27.4
		c1.9,7,5.1,13.9,10.8,18.3c5.2,4.1,11.9,5.7,18.4,6.6c4.6,0.7,9.3,1.1,13.8,0.3c4.2-0.8,8.2-2.6,11.5-5.4c3.1-2.6,5.6-5.9,7.5-9.5
		c6.5-12.2,6.4-27.8-0.3-39.9C110.2,53,98.6,45.1,88.3,44.8z"/>
	<g class="st3">
		<path class="st4" d="M85.4,57.4h0.5l2,0.1h1.6c0.8,0,1.6,0.5,2.2,1.4c0.3,0.3,0.5,0.6,0.5,0.9c0,0.4-0.3,0.8-1,1.2
			c-0.6,0.2-1.1,0.3-1.4,0.3h-1c-0.9,0-1.3,0.5-1.3,1.5l-0.2,2l-0.2,2.1v1.9l0.1,1.1l-0.3,2.9l0.2,3.4c0.1,0.5,0.4,0.7,0.7,0.7
			l1.1-0.1c1.3,0.1,2.2,0.4,2.8,0.7c0.6,0.4,0.9,0.9,1.1,1.5L92.7,79l0.1,0.3v0.4c0,0.3-0.2,0.5-0.6,0.7l-0.1-0.1h-1.6
			c-1.8,0-2.8,0.1-3,0.3l-0.2,0.3l0.1,1.6l-0.5,3.9l0.3,2.9v1.5L87,93.2l-0.1,0.6l0.1,0.6v0.8l0.5,5.5c0.2,0.3,0.5,0.5,0.7,0.5
			l1.7-0.1c0.5,0,1.1,0.3,1.7,0.8c0.6,0.7,0.9,1.2,0.9,1.3v0.1c-0.6,0.8-1.2,1.2-2,1.2l-2.8,0.3l-1.6,0.4l-0.3,0
			c-0.6,0-1.4-0.5-2.4-1.4c-0.2-0.5-0.3-0.8-0.3-1c0.3-0.6,0.5-1.3,0.7-2v-1.3c-0.1-0.6-0.2-1.5-0.2-2.6l-0.3-2.8
			c0.1-1.7,0.3-3,0.6-4c-0.3-1.5-0.4-2.9-0.5-4.4l0.2-1.1l-0.1-0.3v-0.3l0.2-1.4v-3.4c-0.3-0.8-0.5-1.4-0.5-1.7v-0.3l0.3-1v-1
			l0.1-0.9V74l-0.1-1.5v-0.2l0.2-2.2l-0.2-1.1l0.1-0.9c-0.1-0.3-0.1-0.7-0.1-1.2v-0.4l0.2-1.1l-0.1-0.7v-0.2l0.5-2.6
			c0-0.3-0.4-1-1.1-2.2c-0.1-0.1-0.1-0.4-0.1-0.6c0-0.9,0.5-1.4,1.5-1.4L85.4,57.4z"/>
	</g>
</g>
</svg>
