<?xml version="1.0" encoding="utf-8"?>
<!-- Generator: Adobe Illustrator 21.0.0, SVG Export Plug-In . SVG Version: 6.00 Build 0)  -->
<svg version="1.1" id="Capa_1" xmlns="http://www.w3.org/2000/svg" xmlns:xlink="http://www.w3.org/1999/xlink" x="0px" y="0px"
	 viewBox="0 0 148.7 135.3" style="enable-background:new 0 0 148.7 135.3;" xml:space="preserve">
<style type="text/css">
	.st0{fill:#FF9E00;}
	.st1{fill:#FF6464;}
	.st2{fill:#C70925;}
	.st3{fill:#76110F;}
	.st4{fill:#FDFDFD;}
	.st5{fill:#C9C9C9;}
	.st6{fill:#FFFFFF;}
	.st7{fill:#0071B9;}
</style>
<g>
	<g>
		<path class="st0" d="M65.4,21.2C28.8,37.6,9.5,72.4,14.3,104.8c1.4,9.6,5.4,19.9,15.6,25.5c8.2,4.5,19,5.3,29.1,4.8
			c25-1.1,49.4-8.7,68.3-21.3c5.9-4,11.4-8.5,15-13.8c3.2-4.7,4.9-9.9,5.7-15.2c2.1-13.3-0.9-26.9-4.6-40c-2.5-8.9-5.6-18.2-13.3-25
			C113.9,5.4,83.3,13.1,65.4,21.2z"/>
		<path class="st0" d="M7.2,77.4c-0.8,2.2-2.4,4.8-4.6,4.2c-1.7-0.5-2.2-2.5-2.4-4.3c-0.4-5,0.1-10,1.4-14.8
			c2.6-9.1,8.4-17.1,15-23.9c3.5-3.7,7.3-7.2,11.2-10.5c3.8-3.3,7.9-6.4,12.8-7.7c0.9-0.2,2-0.4,2.8,0.2c0.4,0.3,0.7,0.8,0.8,1.4
			c1.7,5.7-5.1,10.6-9,13.5c-3.5,2.7-6.4,5.3-9.2,8.7C18,54.1,11.6,65.4,7.2,77.4z"/>
		<path class="st0" d="M54.1,9.8c-2.8,2.3-5.7,5.1-6.2,8.7c0,0.3-0.1,0.6,0.1,0.9c0.1,0.3,0.4,0.5,0.6,0.6c2.2,1.4,5.2,0.4,7.4-0.9
			c5.1-2.9,9.4-7.2,14.7-9.8c1.9-0.9,3.9-1.6,5.6-2.8c2.3-1.8,2.9-4.7,0-6c-2.3-1-6.1-0.4-8.4,0.4C63,2.6,57.9,6.6,54.1,9.8z"/>
	</g>
	<g>
		<g>
			<g>
				<path class="st1" d="M111.8,23c1.6-0.5,3.3-1.3,4.4-2.4c-0.1-2,0-4-0.1-6c0-0.6-0.1-1.3-0.4-1.8c-0.8-1.1-2.4-0.9-3.7-0.5
					c-6.2,1.8-12.1,4.7-17.5,8.4c1.1,1.2,2.1,2.4,2.9,3.9c0.2,0.4,0.5,0.9,0.9,1.3c0.9-0.1,1.9-0.2,2.8-0.3
					C104.7,25,108.3,24.1,111.8,23z"/>
				<path class="st2" d="M129.7,61c-3.5-8.9-7-17.9-10.5-26.8c-0.8-2.1-1.6-4.2-2.1-6.4c-0.3-1.3-0.5-2.7-0.6-4.1
					c-1.6,0.7-3.5,1.2-5.2,1.5c-3.3,0.7-6.7,1.4-10,2.1c-1.3,0.3-2.5,0.5-3.7,1.1c-4.2,2.2-4.8,7.8-6.5,12.2
					c-1.6,4.1-4.4,7.5-6.2,11.5c-2,4.6-2.6,9.8-5.1,14.2c-0.9,1.6-2.1,3.1-3.1,4.7c-1.1,1.9-1.8,4-2.7,5.9c-2.7,6-7.1,11-10.8,16.4
					s-6.9,11.6-6.6,18.2c0,0.8,0.1,1.6,0.2,2.4c0.1,0.1,0.3,0.2,0.4,0.4c1,1.2,3.1,5.8,4.8,9.4c8.2-2.3,15.9-5.9,22.8-10.8
					c7.7-5.5,14.1-12.5,21.5-18.3c6.1-4.8,13-8.7,18.7-14c3.5-3.3,6.8-7.5,6.7-12.4C131.6,65.8,130.6,63.4,129.7,61z"/>
				<path class="st2" d="M54.8,106.6c1.1-4.8,3.8-9,6.6-13c2.9-4,6-7.8,8.2-12.2c1.5-3,2.5-6.1,4-9c1.2-2.4,2.8-4.6,4.1-7
					c1.7-3,2.9-6.3,4.1-9.5c2.7-7.4,5.5-14.7,8.2-22.1c0.9-2.4,1.9-5,4.1-6.5c1.2-0.9,2.7-1.3,4.2-1.5c-0.4-0.3-0.6-0.8-0.9-1.3
					c-0.8-1.4-1.8-2.7-2.9-3.9c-0.1,0-0.1,0.1-0.2,0.1c-4-2.8-9.1-3.9-13.9-2.9c-1.4,1.9,1.1,5.1-0.3,6.9c0.2,1.3,0.3,2.6,0.4,4
					c0.1,2.5,0.1,5-0.4,7.5c-0.4,2.2-1.1,4.3-1.5,6.4c-0.7,4.3,0,8.8-0.7,13.2c-0.8,4.7-3.1,9-5.5,13.1c-2.6,4.6-5.2,9.2-8.3,13.4
					C59.2,89,53,94.6,46.9,100.2c-0.9,0.8-1.8,1.6-2.8,2.2c-1.1,0.6-2.2,0.9-3.4,1.3c-0.6,0.6-1.2,1.1-1.8,1.7
					c0.3,0.1,0.7,0.1,1,0.2c2.4,0.6,4.8,1.3,7,2.2c2,0.9,3.9,1.9,5.7,3.1c0.5,0.4,1.1,0.7,1.6,1.1C54.3,110.3,54.4,108.4,54.8,106.6
					z"/>
				<path class="st3" d="M99.8,26.3c-0.5,0-1-0.1-1.4-0.4l-0.1-0.1l0,0l0.1,0.1C98.8,26.1,99.3,26.2,99.8,26.3z"/>
				<path class="st3" d="M54.4,112.1c0.3,3.1,1.3,6,3.4,8.3c-0.3-2.1-0.8-4.2-1.1-6.3C56,113.4,55.3,112.7,54.4,112.1z"/>
				<path class="st3" d="M99.8,26.3c0.5,0,1-0.1,1.5-0.2c3.4-0.6,6.8-1.3,10.2-1.9c1.6-0.3,3.3-0.6,4.8-1.5l0,0l0,0
					c0-0.7-0.1-1.5-0.1-2.3c-1.2,1.2-2.8,1.9-4.4,2.4c-3.5,1.2-7.1,2-10.7,2.4c-0.9,0.1-1.8,0.2-2.8,0.3l0.1,0.1
					C98.8,26.1,99.3,26.2,99.8,26.3z"/>
				<path class="st3" d="M63.2,93.5C66.9,88.1,71.3,83,74,77.1c0.9-2,1.6-4,2.7-5.9c0.9-1.6,2.1-3.1,3.1-4.7
					c2.5-4.4,3.1-9.6,5.1-14.2c1.8-4,4.6-7.4,6.2-11.5c1.7-4.4,2.3-10,6.5-12.2c1.1-0.6,2.4-0.9,3.7-1.1c3.3-0.7,6.7-1.4,10-2.1
					c1.7-0.4,3.5-0.8,5.2-1.5c0-0.3-0.1-0.7-0.1-1c-1.4,0.8-3.1,1.1-4.8,1.4c-3.4,0.6-6.8,1.3-10.2,1.9c-0.5,0.1-1,0.2-1.5,0.2
					s-1-0.1-1.4-0.4l-0.1-0.1c-1.5,0.2-3,0.6-4.2,1.5c-2.1,1.5-3.2,4.1-4.1,6.5c-2.7,7.4-5.5,14.7-8.2,22.1
					c-1.2,3.2-2.4,6.5-4.1,9.5c-1.3,2.4-2.9,4.6-4.1,7c-1.5,2.9-2.5,6.1-4,9c-2.2,4.4-5.3,8.2-8.2,12.2c-2.9,4-5.5,8.2-6.6,13
					c-0.4,1.8-0.6,3.7-0.4,5.6c0.8,0.6,1.6,1.3,2.3,2c-0.1-0.8-0.2-1.6-0.2-2.4C56.3,105.1,59.4,98.9,63.2,93.5z"/>
				<path class="st3" d="M111.6,24.2c-3.4,0.6-6.8,1.3-10.2,1.9c-0.5,0.1-1,0.2-1.5,0.2c0.5,0,1-0.1,1.5-0.2
					C104.8,25.5,108.2,24.9,111.6,24.2c1.7-0.3,3.3-0.6,4.8-1.4l0,0C114.9,23.6,113.2,23.9,111.6,24.2z"/>
			</g>
			<path class="st3" d="M47.1,100.3c6.1-5.6,12.3-11.3,17.2-17.9c3.1-4.2,5.7-8.8,8.3-13.4c2.3-4.2,4.7-8.4,5.5-13.1
				c0.7-4.3,0-8.8,0.7-13.2c0.4-2.2,1.1-4.3,1.5-6.4c0.5-2.5,0.5-5,0.4-7.5c-0.1-1.3-0.1-2.7-0.4-4c0,0,0,0,0,0.1
				c-1.3,1.5-3.8,0.4-5.7,0.8c-1.6,0.4-2.7,1.9-3,3.5c-0.4,1.6-0.1,3.3,0,4.9c1.3,12.3-0.7,24.9-5.7,36.1c-1.5,3.3-3.2,6.4-5.6,9.1
				c-1.4,1.5-3,2.9-4.3,4.5c-1.2,1.6-2.1,3.4-3.1,5.2c-3.1,5.5-7.4,10.3-11.9,14.8c1.1-0.4,2.3-0.7,3.4-1.3
				C45.3,101.9,46.2,101.1,47.1,100.3z"/>
			<path class="st4" d="M52.8,111c-1.8-1.2-3.7-2.2-5.7-3.1c-2.3-1-4.6-1.7-7-2.2c-0.3-0.1-0.7-0.2-1-0.2c-2,2-4,3.9-6,5.8
				c-2.6,2.5-6.9,7-5.6,11.1s7.3,4.8,10.9,4.8c7.9-0.1,15.9-1.2,23.5-3.3c-1.6-3.6-3.7-8.2-4.8-9.4C55.9,113.1,54.4,112,52.8,111z"
				/>
			<path class="st5" d="M29.6,127.3c0.9,1.7,1.9,3.4,2.8,5.1c0.4,0.7,0.8,1.3,1.4,1.8c0.7,0.5,1.5,0.5,2.3,0.6
				c9.4,0.7,18.8-1.5,27.9-3.8c4.5-1.1,9-2.3,13.3-4c8.6-3.4,16.3-8.9,22.4-15.9c3.9-4.5,7.1-9.6,11.3-13.8c2-1.9,4.1-3.6,6.3-5.4
				c3.7-2.9,7.5-5.9,11.2-8.8c2.5-2,5.2-4.2,5.9-7.4c1-4.1-1.7-8-3-11.9c-5.7,9.1-15.5,14.7-23.9,21.4c-12.4,10-23.2,22.8-38.1,29
				c-31.1,13-42.1,5.5-42.1,5.5C25.9,122.1,28.4,125.1,29.6,127.3z"/>
			<path class="st6" d="M48.9,99.6c2.4,0.1,4.8,1.1,6.6,2.8c1,0.9,1.7,2,2.8,2.8c0.2,0.1,0.4,0.3,0.6,0.3c0.5,0,0.9-0.6,0.8-1.1
				c-0.1-0.5-0.4-0.9-0.7-1.3c-0.7-0.9-1.4-1.7-2.1-2.6c-0.4-0.5-0.9-1.1-1.4-1.5c-1-0.8-2.4-1.2-3.7-1.5c-1.7-0.4-3.4-0.7-5.1-0.5
				c-1,0.1-6,2.1-4.5,3.7C42.9,101.5,47.7,99.5,48.9,99.6z"/>
			<path class="st6" d="M59.1,94c1.4,1,2.8,2.4,4.5,2.6c0.2,0,0.5,0,0.6-0.1s0.2-0.3,0.3-0.5c0.1-0.8-0.6-1.5-1.2-2.1
				c-3.7-2.8-8.6-4.1-13-2.7c-0.9,0.3-2.2,1.4-0.7,1.6c0.8,0.1,2.3-0.7,3.3-0.8C55.1,92,57.3,92.8,59.1,94z"/>
			<path class="st6" d="M58.9,84.2c2.8,0.4,5.5,1.6,7.8,3.2c0.7,0.5,1.4,1,2.2,1.1s1.8-0.2,2.1-1c0.2-0.7-0.1-1.4-0.6-1.8
				s-1.2-0.7-1.8-0.9c-1.1-0.4-2.2-0.7-3.4-1.1c-2.1-0.7-4.3-1.4-6.5-1.6c-1.6-0.2-3.2-0.1-4.7,0.6c-0.9,0.4-2.8,1.8-2.2,2.9
				C54.1,84.5,56.3,83.9,58.9,84.2z"/>
			<path class="st6" d="M68.6,79.2c1.8,1,3.6,2.4,5.6,2.2c0.3,0,0.6-0.1,0.8-0.3c0.3-0.4,0-0.9-0.4-1.2c-1.7-1.7-4.1-2.3-6.4-2.7
				c-1.5-0.3-3.1-0.5-4.7-0.7c-1-0.1-2.9-0.3-3.5,0.6c-1,1.4,0.6,1.1,1.5,0.9C64,77.7,66.4,78,68.6,79.2z"/>
			<path class="st6" d="M68.7,72.3c1.9,0.4,3.7,1.2,5.6,1.8c0.6,0.2,1.3,0.3,1.8,0.1s1.1-0.8,0.9-1.4s-1-0.8-1.6-1
				c-1-0.2-1.9-0.3-2.9-0.6c-1.5-0.4-3-0.9-4.5-1.1s-3.2,0-4.5,0.8c-1.6,1.1-0.7,1.8,0.7,1.5C65.8,72.2,67.1,71.9,68.7,72.3z"/>
			<path class="st6" d="M71.9,65c2,0.1,4,0.6,6,0.9c1.3,0.2,2.8,0.1,3.6-1c0.3-0.4,0.4-0.9,0-1.2c-0.1-0.1-0.3-0.2-0.5-0.2
				c-2.8-0.7-5.8-0.3-8.8-0.4c-1.2,0-6.9-0.4-6.8,1.9C65.6,66.3,70.8,64.9,71.9,65z"/>
			<path class="st6" d="M75.2,57.9c2.5,0,4.9,0,7.3,0.5c1.2,0.3,2.5,0.7,3.7,0.4c0.2-0.1,0.4-0.2,0.5-0.4c0.2-0.4-0.4-0.7-0.8-0.8
				c-4.7-1-9.6-1.2-14.3-0.6c-1,0.1-1.9,0.3-2.8,0.8c-0.7,0.4-1.4,1.2-1.4,2.1C70.1,58.6,72.1,57.9,75.2,57.9z"/>
			<path class="st6" d="M80.2,50.3c2.9,0.1,5.7,0.3,8.6,0.6c0.3-0.4,0.2-1-0.2-1.3s-0.9-0.4-1.4-0.5C82,48.1,75,47.6,70,49.7
				c-0.7,0.3-1.7,0.6-0.9,1.5c0.8,0.8,1.9-0.1,2.7-0.3C74.5,50,77.4,50.1,80.2,50.3z"/>
			<path class="st6" d="M91.5,42.9c0.7,0.1,1.8-0.1,1.7-0.8c-0.1-0.5-0.7-0.7-1.2-0.8c-6.6-0.8-13.3-0.4-19.8,1.1
				c-0.8,0.2-1.5,0.4-2.1,0.9c-2.6,2,1.8,0.8,2.6,0.5c2-0.6,4.1-1,6.3-1.2C83.1,42.1,87.3,42.3,91.5,42.9z"/>
		</g>
		<g>
			<g>
				<path class="st6" d="M98.5,54.7c0.2-2.5,2.4-4.5,4.6-5.7c2.2-1.3,4.7-2.2,7.2-1.6c1.1,0.3,2.1,0.8,2.9,1.6
					c2.8,2.4,4,6.6,2.9,10.1c-1.1,3.6-4.3,6.7-8,6.9C96.4,66.4,98.3,56.9,98.5,54.7z"/>
			</g>
			<g>
				<path class="st7" d="M106.1,54.6c0.3-0.8,0.7-1.7,1-2.5c0.1-0.4,0.3-0.7,0.6-1c0.4,1.1,0.7,2.1,1.1,3.2c0,0,0,0.1,0.1,0.1h0.1
					c1.3,0.2,2.5,0.5,3.8,0.7c-1,0.7-1.9,1.5-2.8,2.3c0.4,1.2,0.7,2.4,0.9,3.7c-1.1-0.4-2.1-1.1-3-1.9c-0.1-0.1-0.2-0.1-0.3-0.1
					c-0.1,0-0.1,0-0.2,0.1c-1.1,0.6-2.1,1.2-3.1,1.8c0.3-1.1,0.5-2.1,0.8-3.2c0-0.1,0-0.1,0-0.2c0-0.1-0.1-0.1-0.1-0.1
					c-0.8-0.6-1.5-1.1-2.3-1.7c-0.3-0.2-0.6-0.4-0.7-0.7c1.4-0.1,2.7-0.2,4.1-0.2V54.6z"/>
			</g>
		</g>
	</g>
</g>
</svg>
