<?xml version="1.0" encoding="utf-8"?>
<!-- Generator: Adobe Illustrator 21.0.0, SVG Export Plug-In . SVG Version: 6.00 Build 0)  -->
<svg version="1.1" id="Capa_1" xmlns="http://www.w3.org/2000/svg" xmlns:xlink="http://www.w3.org/1999/xlink" x="0px" y="0px"
	 viewBox="0 0 163.6 179.5" style="enable-background:new 0 0 163.6 179.5;" xml:space="preserve">
<style type="text/css">
	.st0{fill:#FF9E00;}
	.st1{fill:#1B84C7;}
	.st2{fill:#FFFFFF;}
	.st3{fill:#FFC900;}
</style>
<g>
	<g>
		<path class="st0" d="M87.7,1c-7.5-1.9-15.5-0.8-23,1.1C41.7,7.7,19.3,20.8,8.5,42c-4.9,9.6-7.1,20.3-8,31
			c-1.7,19.8,0.8,39.9,7.3,58.7c4.1,11.7,10.2,23.4,20.6,30.1c9.1,5.8,20.3,7,31.1,7.7c13.2,0.9,26.6,1.2,39.5-1.6
			c28.8-6.2,53.3-29.1,61.5-57.4c7.3-25.3,1.3-53.9-15-74.4c-6.7-8.4-13.8-13.8-23.5-17.9C110.4,13.2,99.9,4,87.7,1z"/>
		<path class="st0" d="M92.1,172.6c4.8-0.2,9.6-0.3,14.2-1.4c8.1-1.9,15.2-6.4,23-9.3c0.3-0.1,0.7-0.2,1-0.2
			c0.4,0.1,0.7,0.5,0.9,0.8c1.1,2.3-1.2,4.8-3.5,6c-4.7,2.6-9.9,3.9-15.1,5.2c-10.7,2.7-21.6,5.4-32.6,5.6c-2.6,0.1-11.6-2-6.2-5.9
			c1.9-1.3,6.2-0.6,8.4-0.7C85.6,172.8,88.8,172.7,92.1,172.6z"/>
		<path class="st0" d="M136,155.4c-0.7,0.8-1.5,1.9-1.1,3c0.5,1.4,2.4,1.5,3.7,1.1c2.7-0.8,5-2.6,7.1-4.4c2-1.7,3.9-3.5,5.8-5.3
			c1.3-1.3,2.6-2.6,3.4-4.2s1-3.6,0.1-5.2c-2.9-5.3-6.9,2.6-8.8,4.7C143,148.6,139.3,151.7,136,155.4z"/>
	</g>
	<g>
		<path class="st1" d="M51.6,31.3c7.1-6.2,15.2-10.2,24.5-11.4c6.9-0.9,14-0.3,20.8,1.5c3.3,0.9,6.5,2.1,9.2,4.1
			c2.1,1.6,3.8,3.6,5.4,5.7c3.5,4.5,6.6,9.3,8.5,14.7c3,8,3.2,16.8,3,25.4c-0.4,15.5-2.4,30.9-5.9,46c-0.9,3.7-1.8,7.5-3.3,11
			c-1.2,3-2.8,5.8-4.6,8.6c-2.2,3.5-4.6,6.8-7.8,9.5c-7.8,6.4-18.7,7.3-28.7,5.7c-3.9-0.6-7.8-1.6-11.2-3.6
			c-4.5-2.6-7.9-6.7-10.6-11.1C43,124.5,40.6,109.1,39,94.1c-0.5-4.4-0.9-8.9-1.3-13.4c-0.6-7.1-1.2-14.6-0.1-21.7
			C39.7,46.7,45,37.1,51.6,31.3z"/>
		<path class="st2" d="M41.6,75.7c0.8,7.2,3.7,14.5,9.2,19.3s13.7,6.8,20.3,3.9c-2.6,1.5-4.2,4.8-3.8,7.8c0.4,3,2.8,5.7,5.8,6.4
			c-2.1,2.6-6,2.6-9.1,1.6c-3.9-1.3-7.3-3.8-9.7-7.1c-1.8,5.3,0.5,11.2,3.6,15.9s7,9,8.9,14.3c1.1,3,1.8,6.7,4.8,8.1
			c-0.9-2.9,0.5-6.2,2.9-8.1s5.6-2.6,8.6-2.5c2.1,0.1,4.4,0.5,5.9,2c2.4,2.3,2.2,6.4,0.6,9.3c2.7,0,4.8-2.4,5.8-4.9
			c1.1-2.5,1.6-5.2,3.1-7.4c1.4-1.9,3.5-3.2,5.2-4.9c5-4.9,6.1-12.4,6.8-19.4c-5,6.5-15.2,8.1-21.9,3.6c3,0.3,5.7-2.6,6.1-5.6
			s-0.9-6-2.6-8.6c6.2,2.5,13.6,0.6,18.7-3.7c5.1-4.3,8.2-10.6,9.8-17.1c2.1-8.5,1.8-17.8-2.5-25.4c-1.3,4.9-3.7,9.5-7.1,13.3
			c2.6-9.7,0.9-20.6-4.7-29c0.6,8.2-1.4,16.5-5.6,23.6c-0.9,1.6-2,3.1-3.4,4.3c-2.6,2.3-6.2,3.1-9.2,5c-3.6,2.3-6.1,6.4-6.5,10.7
			c-1.3-4.8-5.7-8.1-10-10.7s-8.9-5.1-11.5-9.3c-1.3-2.1-1.9-4.5-2.6-6.9c-1.3-4.7-2.5-9.7-0.9-14.3c-5.2,7.5-7.3,17.1-5.4,26
			c-1.6-2.6-3.2-5.2-4.7-7.8c-0.3-0.5-1.8-3.7-2.3-3.6c-0.7,0.1-1.1,3-1.2,3.7C41.8,63.8,41,69.8,41.6,75.7z"/>
		<g>
			<path class="st3" d="M77,118.7c-1.8,0.1-3.6,0.5-5,1.6s-2.3,2.9-1.9,4.6c0.6,2.3,3.4,3.3,5.8,3.8c4.7,1,9.9,1.6,14.3-0.5
				c1.6-0.8,3.3-2.2,3.3-4c0.1-1.5-1-2.9-2.3-3.7c-1.3-0.8-2.9-1-4.4-1.2C83.6,118.8,80.5,118.4,77,118.7z"/>
			<path class="st3" d="M76.3,111.2c-0.9-0.1-1.8-0.3-2.5-0.8c-1.6-1.2-1.5-3.7-0.3-5.3c1.2-1.6,3.1-2.4,4.9-3.2
				c1.1-0.5,2.2-0.9,3.4-0.9c1.4,0,2.7,0.6,3.9,1.2c1.2,0.6,2.3,1.2,3.2,2.1c2.3,2.3,1.5,5.5-1.6,6.2
				C83.8,111.4,80,111.7,76.3,111.2z"/>
			<path class="st3" d="M105.9,88.7c-1.2,1.1-2.4,2.2-3.9,2.7c-1.3,0.4-2.7,0.4-4.1,0.3c-3-0.3-6-1-8.9-2c0.2-2.3,0.8-4.5,1.8-6.5
				c0.6-1.2,1.4-2.3,2.4-3.2c1-0.8,2.2-1.3,3.5-1.7c5.2-1.7,11.5-2.3,16.8-0.8c3.1,0.9-0.3,3.9-1.7,5.4
				C110.1,84.9,108,86.8,105.9,88.7z"/>
			<path class="st3" d="M71,80.6c-1.2-1.1-2.8-1.6-4.4-2.1c-6.4-1.8-13.3-2.1-19.8-0.9c2.1,3,4.2,6.1,6.9,8.7
				c2.6,2.6,5.8,4.8,9.4,5.6c2.6,0.6,8.6,0.8,10.4-2C74.9,87.8,72.8,82.3,71,80.6z"/>
		</g>
	</g>
</g>
</svg>
