<?xml version="1.0" encoding="utf-8"?>
<!-- Generator: Adobe Illustrator 21.0.0, SVG Export Plug-In . SVG Version: 6.00 Build 0)  -->
<svg version="1.1" id="Capa_1" xmlns="http://www.w3.org/2000/svg" xmlns:xlink="http://www.w3.org/1999/xlink" x="0px" y="0px"
	 viewBox="0 0 50.6 53.4" style="enable-background:new 0 0 50.6 53.4;" xml:space="preserve">
<style type="text/css">
	.st0{fill:#6E4012;}
</style>
<g>
	<path class="st0" d="M23.4,4C17.1,6.6,11.3,10.2,6,14.5c-2,1.6-3.9,3.4-5,5.8s-1.4,5.5-0.1,8.3c1,2.1,2.9,3.9,4.9,4.9
		s4.2,1.3,6.2,1.2c5-0.2,9.2-2.9,13-5.7s7.6-5.9,12.2-7.2c1.5-0.4,3.4-0.5,4.7,0.8c1,1,1.3,2.6,1,3.8c-0.3,1.2-1.1,2.2-1.9,3
		c-1.8,1.7-3.9,3-6.1,4.3c-5.5,3.3-11,6.6-16.5,9.9c-1.3,0.8-2.7,1.6-3.7,2.8c-1,1.2-1.7,2.8-1.6,4.5c0.1,0.7,0.3,1.4,0.8,1.9
		c0.7,0.7,1.7,0.7,2.5,0.5c2-0.3,3.8-1.1,5.6-1.9C30.3,47.7,38,43,44.6,36.9c2-1.8,3.8-3.8,5-6.3c0.8-1.6,1.2-3.5,0.9-5.4
		c-0.2-1.5-0.9-2.9-1.6-4.2c-1-1.8-2.1-3.6-3.8-4.7c-1.9-1.2-4-1.3-6-1.2c-4,0.3-7.8,1.4-11.1,3.2c-2.7,1.5-5.1,3.5-7.8,5.1
		c-2.6,1.6-5.6,2.9-8.9,2.8c-1.5,0-3.2-0.5-4-2c-1-1.8,0-3.7,1.2-4.9c4.8-4.8,12.4-5.8,17.5-10.3c0.5-0.4,1-0.9,1.2-1.6
		c0.3-1.3-0.6-3-1.9-3.5C24,3.3,22.6,3.9,22,5"/>
	<path class="st0" d="M24.4,31.1c4.7,6.8,9.3,13.9,15.2,19.5c0.4,0.3,0.7,0.7,1.2,0.8c0.4,0.1,0.8-0.1,1.2-0.2
		c0.8-0.3,1.5-0.6,2.3-1c0.2-0.1,0.5-0.2,0.5-0.4c0.1-0.3-0.1-0.8-0.4-1.1C33.5,32.9,22.2,17.3,10.6,2c-0.5-0.6-1-1.3-1.6-1.7
		C7.1-0.7,5.2,0.7,4.2,1.9C2.6,3.7,4.7,4.4,6.1,6c4.3,5,8.2,10.7,12,16.1C20.2,25,22.3,28.1,24.4,31.1z"/>
</g>
<g>
</g>
<g>
</g>
<g>
</g>
<g>
</g>
<g>
</g>
</svg>
