<?xml version="1.0" encoding="utf-8"?>
<!-- Generator: Adobe Illustrator 21.0.0, SVG Export Plug-In . SVG Version: 6.00 Build 0)  -->
<svg version="1.1" id="Capa_1" xmlns="http://www.w3.org/2000/svg" xmlns:xlink="http://www.w3.org/1999/xlink" x="0px" y="0px"
	 viewBox="0 0 86.1 98.2" style="enable-background:new 0 0 86.1 98.2;" xml:space="preserve">
<style type="text/css">
	.st0{fill:#6E4012;}
</style>
<g>
	<g>
		<path class="st0" d="M83.5,41.3c-0.1,0.2-0.3,0.4-0.4,0.6c-0.3-0.9-0.6-1.8-1-2.7c-2.8-7.1-5.6-14.3-8.4-21.4
			c-0.7-1.7-1.3-3.3-1.7-5.1c-0.2-1.1-0.4-2.2-0.5-3.2c0-0.3,0-0.5-0.1-0.8c0,0,0,0,0,0c0-0.6-0.1-1.2-0.1-1.8c0-1.6,0-3.2-0.1-4.8
			c0-0.5-0.1-1-0.3-1.4C70.3-0.2,69-0.1,68,0.2C63,1.7,58.3,4,54,6.9c0.9,1,1.7,2,2.3,3.1c0.2,0.4,0.4,0.7,0.7,1c0,0,0,0,0,0
			c-0.3-0.3-0.5-0.7-0.7-1c-0.6-1.1-1.4-2.1-2.3-3.1C54,7,53.9,7,53.8,7C50.7,4.8,46.6,4,42.8,4.8c-1.1,1.5,0.9,4-0.3,5.5
			c0,0,0,0,0,0.1c-1,1.2-3,0.3-4.5,0.7c-1.3,0.3-2.1,1.6-2.4,2.8c-0.3,1.3-0.1,2.6,0,3.9c0.2,2.2,0.3,4.4,0.3,6.7
			c-0.5,0.1-1,0.3-1.5,0.6c-1.7,1.3,0.3,0.9,1.4,0.6c-0.1,1.4-0.2,2.8-0.3,4.2c-0.4,0.1-0.8,0.2-1.1,0.4c-0.6,0.2-1.4,0.5-0.7,1.2
			c0.5,0.5,1.1,0.2,1.6,0c-0.2,1.6-0.5,3.3-0.9,4.9c-0.3,0.1-0.7,0.2-1,0.4c-0.6,0.4-1.1,1-1.1,1.7c0.6-0.3,1.2-0.5,1.7-0.7
			c-0.3,1.1-0.6,2.2-0.9,3.3c-1.3,0.2-2.4,0.5-2.3,1.5c0,0.5,0.8,0.5,1.7,0.5c-0.5,1.2-0.9,2.5-1.5,3.7c-0.6,0.1-1.3,0.3-1.8,0.6
			c-1.3,0.9-0.6,1.5,0.6,1.2c0.1,0,0.2,0,0.4-0.1c-0.5,1.1-1.2,2.1-1.8,3.2c-0.7,0-1.5,0.1-1.9,0.6c-0.7,1,0.2,0.9,0.9,0.8
			c-0.3,0.3-0.5,0.7-0.8,1c-0.7,0.7-1.4,1.4-2.1,2.1c-1,0-1.9,0.1-2.8,0.5c-0.7,0.3-2.2,1.5-1.8,2.3c1-0.4,2-0.8,3-1
			c-0.8,1.2-1.5,2.5-2.2,3.7c-0.3,0.5-0.6,1.1-1,1.6c-0.3,0.1-0.7,0.1-1,0.3c-0.7,0.2-1.7,1.1-0.6,1.3c0.2,0,0.4,0,0.7-0.1
			c-0.8,1.1-1.7,2.3-2.6,3.3c-0.1,0-0.3,0-0.4,0c-0.8,0.1-4.8,1.7-3.6,3c0.2,0.2,0.7,0.2,1.3,0.1c-0.7,0.8-1.5,1.6-2.3,2.4l0,0
			c-0.5,0.5-0.9,0.9-1.4,1.4l0,0c-1.6,1.6-3.2,3.1-4.8,4.7c-1.6,1.6-4,4.1-4.5,6.7c0,0,0,0,0,0c-1.1,1.9,0.8,4.3,1.8,6
			c0.8,1.3,1.5,2.7,2.3,4c0.3,0.5,0.6,1.1,1.1,1.4C6,97.9,6.7,98,7.3,98.1c7.5,0.6,15-1.2,22.3-3.1c3.6-0.9,7.2-1.8,10.7-3.2
			c6.9-2.7,13-7.1,17.9-12.7c3.1-3.6,5.6-7.7,9-11c1.6-1.5,3.3-2.9,5-4.3c3-2.4,6-4.7,8.9-7.1c2-1.6,4.2-3.4,4.7-5.9
			C86.7,47.6,84.6,44.5,83.5,41.3z M23.8,81.7c0.1,0.1,0.2,0.2,0.3,0.3C24,81.9,23.9,81.8,23.8,81.7L23.8,81.7z"/>
	</g>
</g>
<g>
</g>
<g>
</g>
<g>
</g>
<g>
</g>
<g>
</g>
</svg>
