<?xml version="1.0" encoding="utf-8"?>
<!-- Generator: Adobe Illustrator 21.0.0, SVG Export Plug-In . SVG Version: 6.00 Build 0)  -->
<svg version="1.1" id="Capa_1" xmlns="http://www.w3.org/2000/svg" xmlns:xlink="http://www.w3.org/1999/xlink" x="0px" y="0px"
	 viewBox="0 0 1024 768" style="enable-background:new 0 0 1024 768;" xml:space="preserve">
<style type="text/css">
	.st0{fill:#6E4012;}
</style>
<path class="st0" d="M1024,421c-39,3-76.1,8.1-103.1,22.8c-40.2,21.8-42.8,17.9-83.3,39.6c-6.8,3.6-14.6,6.8-20.5,10.8
	c-9.7,6.7-43.1,14.9-69,39.9c-4.2,4.1-24.8-2.1-36,11.9c-15.5,19.5-26,7.5-67.9,16.9c-11.7,2.6-25.1,4.7-31.8,10.5
	c-4,3.5-5,7.9-9.9,11c-7.5,4.8-21,4.9-32.1,7c-30.2,5.8-39,25.9-58,39.8c-16.5,12-41.7,19.6-66.1,26.8c-11.7,3.5-23.5,6.9-35.2,10.4
	c-14.3,4.2-28.7,8.5-43.2,12.5c-61.7,17.1-127.1,30.5-194.3,39.8c-35.4,4.9-71.6,8.8-104.8,16.9c-27.4,6.7-53.1,16.9-68.7,30.5h1024
	V421z"/>
<g>
</g>
<g>
</g>
<g>
</g>
<g>
</g>
<g>
</g>
</svg>
