<?xml version="1.0" encoding="utf-8"?>
<!-- Generator: Adobe Illustrator 21.0.0, SVG Export Plug-In . SVG Version: 6.00 Build 0)  -->
<svg version="1.1" id="Capa_1" xmlns="http://www.w3.org/2000/svg" xmlns:xlink="http://www.w3.org/1999/xlink" x="0px" y="0px"
	 viewBox="0 0 32.6 93.7" style="enable-background:new 0 0 32.6 93.7;" xml:space="preserve">
<style type="text/css">
	.st0{fill:#E4294D;}
</style>
<path class="st0" d="M1.2,42.9c8.5,0,17-2.1,25.2-4.5C18.6,51.9,12.9,72.2,9.5,87c-0.7-4.3-2.8-11.2-5-14c-0.6-0.8-1.8-1.1-2.6-0.5
	c-1,0.7-0.6,2.1-0.2,3.2c2.8,6.6,3.6,9.5,6.4,16.2c0.3,0.6,0.6,1.3,1.2,1.6c0.9,0.5,2-0.1,2.8-0.6c3.7-2.6,8.6-9.8,10.9-15.5
	c0.5-1.2-1.2-2.1-1.9-1.1c-3,4.2-6.5,10.9-9,12c1.1-4,3.3-10.9,4.1-13.5c4.3-13.4,6.9-18.9,12-28.7c1.6-3,3.2-6.2,4.3-9.4
	c0.6-1.9-1-3.8-3-3.4L6.6,37.8c2.4-4.3,4.2-7.9,6-11c3.7-6.1,5.4-9.7,8.4-14.8C24.9,5.5,25,1.9,24,1c-1.2-1.1-2.9-1.4-4.4-0.1
	c-3.1,2.5-5.5,10.1-7.4,13.6c-1.2,2.3-8.7,20.7-12,26.6C-0.3,41.9,0.3,42.9,1.2,42.9z"/>
<g>
</g>
<g>
</g>
<g>
</g>
<g>
</g>
<g>
</g>
</svg>
