<?xml version="1.0" encoding="utf-8"?>
<!-- Generator: Adobe Illustrator 21.0.0, SVG Export Plug-In . SVG Version: 6.00 Build 0)  -->
<svg version="1.1" id="Capa_1" xmlns="http://www.w3.org/2000/svg" xmlns:xlink="http://www.w3.org/1999/xlink" x="0px" y="0px"
	 viewBox="0 0 269.5 168.2" style="enable-background:new 0 0 269.5 168.2;" xml:space="preserve">
<style type="text/css">
	.st0{fill:#E4294D;}
	.st1{fill:#969696;}
	.st2{fill:#FFFFFF;}
	.st3{fill:#E3E3E3;}
	.st4{fill:#39B24A;}
</style>
<g>
	<g>
		<g>
			<g>
				<path class="st0" d="M111.9,32.6c-1.4-0.1-2.8-0.2-4.2-0.3c-1.2,0.1-2.4,0.3-3.6,0.4L111.9,32.6z"/>
				<path class="st1" d="M232.6,36.3c0.2-2.2-1.5-4.1-3.8-4.2c-7.6-0.4-23.7-1.1-31.6-1.3c-29.6-0.8-96.3,1.5-170.3-0.6
					c-6.9-0.2-18-2-20.8,2.5C4.2,35.7,4.6,42.6,4,46c14.1-0.6,28.4,0.3,42.6,1.1c62.1,3.3,124.3,2,186.4,0.2
					C232.1,44.7,232.3,39.8,232.6,36.3z"/>
				<path d="M148.1,83c28.9,0.2,57.7,0.3,86.6,0.5c0.1-4.8,0.1-9.5,0.2-14.3c0.1-7.3,0-15.1-2-21.8c-62.1,1.8-124.3,3.1-186.4-0.2
					C32.4,46.4,18.1,45.4,4,46c-0.1,0.5-0.2,1-0.2,1.5C1.9,60,1,72.4,0.6,84.6C49.7,82.5,99,82.7,148.1,83z"/>
				<path class="st1" d="M148.1,83C99,82.7,49.7,82.5,0.6,84.6C0.3,95,0.3,105.3,0.3,115.5c0,13-1.5,30.2,1.7,42.4
					c0.6,2.1,1.3,4.2,2.9,5.8c1.7,1.6,4.1,2.9,6.6,2.8c10.4-0.3,21,0.5,32.4,0c39.8-1.8,78.1,0.6,117,1.2
					c17.9,0.2,35.7,1.9,53.6-1.5c5.4-1,10.4,0.5,14.5-3.2c5.4-5,4.8-17.5,4.9-24.1c0.3-18.2,0.6-36.7,0.9-55.4
					C205.9,83.3,177,83.1,148.1,83z"/>
			</g>
		</g>
		<g>
			<g>
				<path class="st2" d="M23.1,93.2c0.5,0,1.2,0.4,1.9,1.2c0.2,0.4,0.2,0.8,0.2,1.3l-0.1,1.3l0,0.3c0,0.8-0.1,1.4-0.2,1.7l0.1,0.5
					l-0.1,0.4v0.1l0.1,0.5l-0.2,1v0.3l0.4,1.6l0,0.8l0,0.9l0.1,1.6l-0.1,0.7l0,1l0,0.9c0.1,0.2,0.1,0.7,0.2,1.6l1.2,0.9
					c0.3,0.2,0.4,0.4,0.4,0.6c-0.1,0.3-0.4,0.6-0.8,0.8c-0.7,0.1-1.1,0.3-1.1,0.5v0.1l0.1,0.5v0.3l-0.1,0.8l0,0.3
					c-0.1,0.4-0.2,0.7-0.2,0.9l0.2,1.6c0,0.4-0.2,0.7-0.7,0.9l-0.1,0l0,0v0l0,0H24c-0.6-0.2-1.1-0.4-1.4-0.8c-0.2-0.4-0.2-0.7-0.2-1
					v-0.2l0-0.7l-0.1-0.6l0.2-0.8l-0.1-1.3v-0.1c-0.1-0.2-0.3-0.2-0.4-0.2l-1.8-0.1h-0.2l-1.3,0.1c-0.4,0-1-0.2-1.7-0.7
					c-0.2-0.2-0.3-0.4-0.3-0.5v-0.1c0-0.2,0.3-1,1-2.3l0.1-0.5h0c0.2-0.4,0.3-0.9,0.3-1.3h0c0.2-0.5,0.3-0.9,0.3-1.1v-0.3l0,0v0h0
					l0.3-1.9l0,0v0c0.1-0.2,0.1-0.5,0.2-1.1c0.2-0.3,0.3-0.7,0.4-1.3h0l0.3-0.7l0,0v-0.6l0,0l0,0v0c0-0.4,0.1-0.9,0.3-1.4l0,0v0
					c0-0.2,0.2-0.8,0.6-1.9c0.2-0.3,0.3-0.8,0.4-1.6l0.4-0.8c0-0.4,0.1-0.8,0.4-1.4c0.2-0.5,0.5-0.7,1.1-0.7L23.1,93.2z M21.6,104.3
					L21.6,104.3L21.6,104.3l-0.2,1.6h0l0,0l-0.3,1.7l0,0.2h0l0,0v0c-0.2,0.7-0.3,1.3-0.4,1.9c-0.1,0-0.2,0.4-0.4,1.2l-0.2,0.3v0.1
					c0.2,0.2,0.5,0.4,1,0.4h0.6c0.5,0,0.8-0.2,0.9-0.7v-0.1l0-1.5l-0.1-0.6v-0.2c0-1,0-1.7,0.1-2.2l-0.2-1.6l0.1-1l-0.2-0.4h-0.2
					C21.8,103.7,21.6,104,21.6,104.3z"/>
				<path class="st2" d="M32.9,92.9c0.3,0,0.5,0.1,0.8,0.4c0.4,0.4,0.6,0.6,0.6,0.7v0L34,95.9l0,0.3v0.3c0,0.2-0.1,0.6-0.4,1.1
					l0.1,1.2l0,0.4l0,0.9l-0.1,0.5l0.1,0.8l0,0.8l0,0.5l-0.1,0.4v0.2l0.1,0.3v0.2c0,0.5,0,0.9,0.1,1l-0.1,0.7l0,0.4l-0.1,1.1v0.6
					l0,0.9l0,0.2l0.1,0.8v1.2l-0.1,0.9v0.1l0,0.1l-0.3,2.4l0,0.6l0,0.4l0,1.2c0,0.4,0.4,0.6,1.3,0.6c0.8,0.1,1.4,0.1,1.7,0.3
					c0.6,0.4,0.9,0.7,0.9,1c-0.3,0.4-0.8,0.7-1.5,0.7l-0.5,0h-1.5l-1.1,0.2l-0.5,0l-0.8,0c-1.1,0-1.8-0.2-2.3-0.5
					c-0.5-0.3-0.7-0.5-0.7-0.8v-0.1l0,0v0h0c0.3-0.3,0.7-0.5,1.2-0.5c0.7-0.1,1-0.3,1-0.6l0-1.9l0.1-0.9v-0.2
					c0.2-0.7,0.3-1.2,0.3-1.4v-0.2l0-1l0.1-1.2l-0.2-2.1l0.2-1.7l0-0.5l0.1-0.7l-0.2-1.6l0-1l0-0.3l0.1-1l-0.1-0.7v-0.6
					c-0.1-0.1-0.3-0.2-0.3-0.2l-1.3,0.2h0C28.4,99.3,28,99,28,98.7v-0.1c0-0.2,0.1-0.3,0.4-0.5c0-0.2,0.4-0.5,1.3-1
					c0.3-0.3,0.7-0.6,1.2-1.1c0.2-0.2,0.4-0.8,0.5-1.7c0-0.8,0.1-1.2,0.4-1.2C32.1,93,32.5,92.9,32.9,92.9z"/>
				<path class="st2" d="M40.4,93.8c0.7,0,2.1,0.1,4.2,0.3c1,0.1,1.7,0.3,2.1,0.6c0.3,0.3,0.4,0.5,0.4,0.6c0,0.4-0.2,0.6-0.7,0.7
					c-1.9-0.2-3.2-0.3-3.9-0.3c-0.4,0-0.7,0.2-0.9,0.5c-0.2,1.6-0.3,2.6-0.3,3.1c-0.1,0-0.1,0.3-0.2,0.9l0,0.8l-0.1,0.6
					c0,0.8,0.2,1.1,0.5,1.1v0c0.1,0,0.3-0.1,0.7-0.1h0.5c0.9,0,1.9,0.5,2.9,1.6c0.3,0.5,0.5,1,0.5,1.5c0.1,0.2,0.1,0.5,0.2,1.1
					c0.1,0,0.1,0.4,0.1,1.1c0.1,0.2,0.2,0.8,0.2,1.9l0.2,1.4l-0.1,2.2v0.1l0,0.3c0,0.5-0.2,1.1-0.6,1.6c-0.2,0.9-0.3,1.4-0.5,1.4
					l-0.2,0.5c-0.3,0.4-0.6,0.8-1,1.2c-0.1,0-0.1,0.1-0.1,0.2c-0.3,0.2-0.5,0.4-0.9,0.4c-0.7,0.3-1,0.4-1.1,0.4h-0.2
					c-0.5,0-1.2-0.2-2-0.7c-0.9-0.8-1.3-1.3-1.3-1.7c-0.3-0.6-0.5-1.4-0.7-2.4l-0.1-1c0-0.4,0.1-1.1,0.3-2.2c0-0.5,0.3-0.8,0.9-1.1
					c0.1,0,0.2,0,0.3-0.1c0.2,0,0.4,0.1,0.5,0.1c0.3,0,0.6,0.3,1,1l-0.2,1.7l0,0.3l-0.1,0.6c0.3,1.3,0.5,2.2,0.9,2.9
					c0,0.3,0.2,0.5,0.4,0.5c0.2,0,0.5-0.3,0.9-0.9c0.1-0.1,0.2-0.5,0.4-1c0.2-0.3,0.4-0.9,0.7-2c0-2.5-0.1-4-0.3-4.5v-0.9
					c-0.3-1.7-0.5-2.8-0.7-3.3c-0.2-0.1-0.3-0.2-0.5-0.2l-0.2,0v0c-0.6,0.2-1,0.4-1.5,0.8c-0.2,0.2-0.4,0.3-0.6,0.3h-0.3
					c-0.8-0.2-1.4-0.5-1.7-1c-0.1-0.2-0.2-0.4-0.2-0.6c0.1-0.4,0.2-0.9,0.2-1.5l0-0.3v-0.3l0-0.9l0.1-0.7l0-0.4l0.2-0.7v-0.7
					c0-0.3,0.1-0.9,0.2-1.7l0-0.9c0.2-1.1,0.3-1.6,0.4-1.6C39.5,94,40,93.8,40.4,93.8z"/>
				<path class="st2" d="M52.8,92.7c1.5,0,2.9,0.5,4.2,1.6c0.5,0.4,0.9,0.9,1,1.4l0.2,0.5h0c0.1,0.2,0.1,0.6,0.2,1.3l-0.1,1.1l0,1
					l0,0.4l0,0.9c-0.1,1-0.2,2.2-0.2,3.7l0,0.5c-0.1,0.7-0.2,1.2-0.3,1.5c0,0.6-0.2,1.3-0.6,2c-0.1,0-0.1,0.3-0.2,0.8l-0.8,1.4
					c-1.1,1.2-1.8,2.3-2.1,3.2c-0.4,0.4-0.5,0.7-0.5,1.1c-0.3,0.4-0.5,0.8-0.5,1c0,0.1-0.1,0.6-0.4,1.3v0c0.2,0.2,0.4,0.4,0.8,0.4
					h0.4l1.2,0c2,0,3.1,0.2,3.3,0.4c0.3,0.1,0.5,0.4,0.8,1c0,0.2-0.3,0.4-1,0.5l0,0l-0.6,0l-1.9,0l-1.6,0h-1.3c-1.1,0-2.1-0.3-2.8-1
					l-0.2-0.3l0,0l0-0.2c0-0.5,0.2-0.9,0.5-1.4c0-0.4,0.1-0.7,0.1-0.8h0l0.4-1l0.5-1c0.3-0.8,0.5-1.3,0.8-1.5
					c0.1-0.3,0.3-0.7,0.7-1.2c0-0.1,0.3-0.5,0.9-1.2c0.9-1.2,1.3-2.2,1.3-2.9c0.2-0.3,0.3-0.8,0.4-1.5v-0.4l0,0
					c0.1-0.3,0.1-0.5,0.1-0.7v-0.2c0-0.2,0-0.4-0.1-0.5l0,0v-0.6c0.1-0.3,0.1-0.8,0.2-1.6l0-0.2h0l-0.1-0.6l0.1-0.6l-0.1-0.8v-0.6
					l0.1-0.6c-0.1-1.8-0.2-2.7-0.3-2.7c-0.2-0.6-0.5-0.9-0.9-0.9c-0.9,0-1.4,0.1-1.5,0.3c-0.3,0.3-0.5,0.9-0.6,1.8l-0.3,1.5V99
					l0.2,0.7l0,0.7c0,0.3,0.2,0.7,0.7,1.1l0.6,0.8c0,0.3-0.4,0.6-1.3,0.9h-0.1c-0.3,0-1-0.4-2-1.2c-0.4-0.4-0.6-0.8-0.6-1.2
					l-0.1-1.3l0-0.2L49,98.4l0.4-2.4c0.3-0.3,0.4-0.6,0.4-1.1c0.4-0.8,0.7-1.3,1-1.3C51.5,93.1,52.2,92.7,52.8,92.7L52.8,92.7z"/>
				<path class="st2" d="M75.6,92.5c1.2,0,2.5,0.6,3.8,1.7c0.2,0.2,0.4,0.5,0.6,1.1l0.2,0.6l0,0.4l0,1v0.2c0,0.2-0.1,0.5-0.2,1.1
					l0,0.1l-0.2,0.9l0.1,0.6c-0.4,1.3-0.6,2-0.6,2.3c-0.1,0.7-0.3,1.2-0.5,1.5l-0.4,0.7v0c0,0.3,0.5,0.8,1.4,1.5
					c0.5,0.3,0.9,0.9,1.1,1.9l0.2,1l-0.1,0.5c0.1,0.4,0.2,0.6,0.2,0.7v0.9l0.1,0.6v0.5l0.1,0.8l-0.2,1.6v0.9l-0.1,0.8v0.4l0,0.2h0
					l-0.3,0.9h0c-0.1,0.2-0.3,0.4-0.5,0.6c0,0.2-0.2,0.4-0.7,0.6c-0.3,0.4-0.6,0.5-1,0.5c0,0-0.2,0.1-0.6,0.1
					c-1.1-0.1-2-0.3-2.6-0.6c-0.9-0.5-1.7-1.1-2.4-1.9c-0.6-0.9-0.9-1.8-0.9-2.5l0-0.2v-0.6l-0.1-1v-0.1l0,0l0,0v0l0-0.3l0-0.3h0
					l0,0v-0.4c0.1-0.9,0.3-1.3,0.5-1.3c0-0.2,0.3-0.3,0.9-0.3l0.2,0h0c0.3,0,0.6,0.3,1.1,0.9c0.1,0.1,0.2,0.1,0.2,0.2v0l-0.2,0.7
					v0.4l0.1,0.9l-0.1,0.6l0.2,1.8c0.4,1.1,0.7,1.7,1,2c0.2,0.1,0.5,0.2,0.8,0.3l0,0h0.3l0,0c0.4,0,0.7-0.3,1-0.8
					c0.1-0.2,0.1-0.7,0.2-1.4l-0.1-0.9l0.2-1.5v-0.7l-0.1-1.2l0.1-0.6l-0.2-1.5c0-0.3,0-0.6-0.1-1h0l-0.5-1.4
					c-0.3-0.5-0.9-0.7-1.6-0.7c-0.9-0.1-1.6-0.3-2-0.6c-0.5-0.3-0.8-0.6-0.8-0.9c0-0.2,0.5-0.4,1.4-0.6c0.9,0,1.5-0.4,1.8-1.3
					l0.3-1.6c0.2-0.3,0.3-0.9,0.3-1.8l0.3-1.2v-0.1l0,0l0.1-0.7l-0.1-0.6l0.1-0.6c-0.3-1-0.5-1.4-0.8-1.4c0,0-0.1,0-0.4,0
					c-0.5,0-1,0.2-1.5,0.6c-0.2,0.3-0.3,0.8-0.3,1.4c-0.2,0.2-0.3,0.6-0.3,1.1v0.1c0,0.3,0.1,0.8,0.2,1.4c-0.2,0.6-0.5,0.9-1,0.9
					c-0.7-0.1-1.3-0.5-1.7-1c-0.1-0.2-0.2-0.4-0.2-0.5v-0.2l0.1-0.3v0l-0.1-0.5v-0.1c0-0.4,0.1-1,0.4-1.7c0-0.8,0.3-1.5,1-1.9
					c0.1-0.2,0.5-0.5,1.2-0.7C74.3,92.6,74.8,92.5,75.6,92.5z"/>
				<path class="st2" d="M87.5,92.9c0.3,0,0.5,0.1,0.8,0.4c0.4,0.4,0.6,0.6,0.6,0.7v0l-0.2,1.9l0,0.3v0.3c0,0.2-0.1,0.6-0.4,1.1
					l0.1,1.2l0,0.4l0,0.9l-0.1,0.5l0.1,0.8l0,0.8l0,0.5l-0.1,0.4v0.2l0.1,0.3v0.2c0,0.5,0,0.9,0.1,1l-0.1,0.7l0,0.4l-0.1,1.1v0.6
					l0,0.9l0,0.2l0.1,0.8v1.2l-0.1,0.9v0.1l0,0.1l-0.3,2.4l0,0.6l0,0.4l0,1.2c0,0.4,0.4,0.6,1.3,0.6c0.8,0.1,1.4,0.1,1.7,0.3
					c0.6,0.4,0.9,0.7,0.9,1c-0.3,0.4-0.8,0.7-1.5,0.7l-0.5,0h-1.5l-1.1,0.2l-0.5,0l-0.8,0c-1.1,0-1.8-0.2-2.3-0.5
					c-0.5-0.3-0.7-0.5-0.7-0.8v-0.1l0,0v0h0c0.3-0.3,0.7-0.5,1.2-0.5c0.7-0.1,1-0.3,1-0.6l0-1.9l0.1-0.9v-0.2
					c0.2-0.7,0.3-1.2,0.3-1.4v-0.2l0-1l0.1-1.2l-0.2-2.1l0.2-1.7l0-0.5l0.1-0.7l-0.2-1.6l0-1l0-0.3l0.1-1l-0.1-0.7v-0.6
					c-0.1-0.1-0.3-0.2-0.3-0.2l-1.3,0.2h0c-0.8-0.3-1.2-0.5-1.2-0.9v-0.1c0-0.2,0.1-0.3,0.4-0.5c0-0.2,0.4-0.5,1.3-1
					c0.3-0.3,0.7-0.6,1.2-1.1c0.2-0.2,0.4-0.8,0.5-1.7c0-0.8,0.1-1.2,0.4-1.2C86.7,93,87.1,92.9,87.5,92.9z"/>
				<path class="st2" d="M96.9,92.5c1.2,0,2.5,0.6,3.8,1.7c0.2,0.2,0.4,0.5,0.6,1.1l0.2,0.6l0,0.4l0,1v0.2c0,0.2-0.1,0.5-0.2,1.1
					l0,0.1l-0.2,0.9l0.1,0.6c-0.4,1.3-0.6,2-0.6,2.3c-0.1,0.7-0.3,1.2-0.5,1.5l-0.4,0.7v0c0,0.3,0.5,0.8,1.4,1.5
					c0.5,0.3,0.9,0.9,1.1,1.9l0.2,1l-0.1,0.5c0.1,0.4,0.2,0.6,0.2,0.7v0.9l0.1,0.6v0.5l0.1,0.8l-0.2,1.6v0.9l-0.1,0.8v0.4l0,0.2h0
					l-0.3,0.9h0c-0.1,0.2-0.3,0.4-0.5,0.6c0,0.2-0.2,0.4-0.7,0.6c-0.3,0.4-0.6,0.5-1,0.5c0,0-0.2,0.1-0.6,0.1
					c-1.1-0.1-2-0.3-2.6-0.6c-0.9-0.5-1.7-1.1-2.4-1.9c-0.6-0.9-0.9-1.8-0.9-2.5l0-0.2v-0.6l-0.1-1v-0.1l0,0l0,0v0l0-0.3l0-0.3h0
					l0,0v-0.4c0.1-0.9,0.3-1.3,0.5-1.3c0-0.2,0.3-0.3,0.9-0.3l0.2,0h0c0.3,0,0.6,0.3,1.1,0.9c0.1,0.1,0.2,0.1,0.2,0.2v0l-0.2,0.7
					v0.4l0.1,0.9l-0.1,0.6l0.2,1.8c0.4,1.1,0.7,1.7,1,2c0.2,0.1,0.5,0.2,0.8,0.3l0,0h0.3l0,0c0.4,0,0.7-0.3,1-0.8
					c0.1-0.2,0.1-0.7,0.2-1.4l-0.1-0.9l0.2-1.5v-0.7l-0.1-1.2l0.1-0.6l-0.2-1.5c0-0.3,0-0.6-0.1-1h0l-0.5-1.4
					c-0.3-0.5-0.9-0.7-1.6-0.7c-0.9-0.1-1.6-0.3-2-0.6c-0.5-0.3-0.8-0.6-0.8-0.9c0-0.2,0.5-0.4,1.4-0.6c0.9,0,1.5-0.4,1.8-1.3
					L98,101c0.2-0.3,0.3-0.9,0.3-1.8l0.3-1.2v-0.1l0,0l0.1-0.7l-0.1-0.6l0.1-0.6c-0.3-1-0.5-1.4-0.8-1.4c0,0-0.1,0-0.4,0
					c-0.5,0-1,0.2-1.5,0.6c-0.2,0.3-0.3,0.8-0.3,1.4c-0.2,0.2-0.3,0.6-0.3,1.1v0.1c0,0.3,0.1,0.8,0.2,1.4c-0.2,0.6-0.5,0.9-1,0.9
					c-0.7-0.1-1.3-0.5-1.7-1c-0.1-0.2-0.2-0.4-0.2-0.5v-0.2l0.1-0.3v0l-0.1-0.5v-0.1c0-0.4,0.1-1,0.4-1.7c0-0.8,0.3-1.5,1-1.9
					c0.1-0.2,0.5-0.5,1.2-0.7C95.6,92.6,96.1,92.5,96.9,92.5z"/>
				<path class="st2" d="M108.8,92.9c0.3,0,0.5,0.1,0.8,0.4c0.4,0.4,0.6,0.6,0.6,0.7v0l-0.2,1.9l0,0.3v0.3c0,0.2-0.1,0.6-0.4,1.1
					l0.1,1.2l0,0.4l0,0.9l-0.1,0.5l0.1,0.8l0,0.8l0,0.5l-0.1,0.4v0.2l0.1,0.3v0.2c0,0.5,0,0.9,0.1,1l-0.1,0.7l0,0.4l-0.1,1.1v0.6
					l0,0.9l0,0.2l0.1,0.8v1.2l-0.1,0.9v0.1l0,0.1l-0.3,2.4l0,0.6l0,0.4l0,1.2c0,0.4,0.4,0.6,1.3,0.6c0.8,0.1,1.4,0.1,1.7,0.3
					c0.6,0.4,0.9,0.7,0.9,1c-0.3,0.4-0.8,0.7-1.5,0.7l-0.5,0h-1.5l-1.1,0.2l-0.5,0l-0.8,0c-1.1,0-1.8-0.2-2.3-0.5
					c-0.5-0.3-0.7-0.5-0.7-0.8v-0.1l0,0v0h0c0.3-0.3,0.7-0.5,1.2-0.5c0.7-0.1,1-0.3,1-0.6l0-1.9l0.1-0.9v-0.2
					c0.2-0.7,0.3-1.2,0.3-1.4v-0.2l0-1l0.1-1.2l-0.2-2.1l0.2-1.7l0-0.5l0.1-0.7l-0.2-1.6l0-1l0-0.3l0.1-1l-0.1-0.7v-0.6
					c-0.1-0.1-0.3-0.2-0.3-0.2l-1.3,0.2h0c-0.8-0.3-1.2-0.5-1.2-0.9v-0.1c0-0.2,0.1-0.3,0.4-0.5c0-0.2,0.4-0.5,1.3-1
					c0.3-0.3,0.7-0.6,1.2-1.1c0.2-0.2,0.4-0.8,0.5-1.7c0-0.8,0.1-1.2,0.4-1.2C108,93,108.4,92.9,108.8,92.9z"/>
				<path class="st2" d="M183.6,93.2c0.5,0,1.2,0.4,1.9,1.2c0.2,0.4,0.2,0.8,0.2,1.3l-0.1,1.3l0,0.3c0,0.8-0.1,1.4-0.2,1.7l0.1,0.5
					l-0.1,0.4v0.1l0.1,0.5l-0.2,1v0.3l0.4,1.6l0,0.8l0,0.9l0.1,1.6l-0.1,0.7l0,1l0,0.9c0.1,0.2,0.1,0.7,0.2,1.6l1.2,0.9
					c0.3,0.2,0.4,0.4,0.4,0.6c-0.1,0.3-0.4,0.6-0.8,0.8c-0.7,0.1-1.1,0.3-1.1,0.5v0.1l0.1,0.5v0.3l-0.1,0.8l0,0.3
					c-0.1,0.4-0.2,0.7-0.2,0.9l0.2,1.6c0,0.4-0.2,0.7-0.7,0.9l-0.1,0l0,0v0l0,0h-0.3c-0.6-0.2-1.1-0.4-1.4-0.8
					c-0.2-0.4-0.2-0.7-0.2-1v-0.2l0-0.7l-0.1-0.6l0.2-0.8l-0.1-1.3v-0.1c-0.1-0.2-0.3-0.2-0.4-0.2l-1.8-0.1h-0.2l-1.3,0.1
					c-0.4,0-1-0.2-1.7-0.7c-0.2-0.2-0.3-0.4-0.3-0.5v-0.1c0-0.2,0.3-1,1-2.3l0.1-0.5h0c0.2-0.4,0.3-0.9,0.3-1.3h0
					c0.2-0.5,0.3-0.9,0.3-1.1v-0.3l0,0v0h0l0.3-1.9l0,0v0c0.1-0.2,0.1-0.5,0.2-1.1c0.2-0.3,0.3-0.7,0.4-1.3h0l0.3-0.7l0,0v-0.6l0,0
					l0,0v0c0-0.4,0.1-0.9,0.3-1.4l0,0v0c0-0.2,0.2-0.8,0.6-1.9c0.2-0.3,0.3-0.8,0.4-1.6l0.4-0.8c0-0.4,0.1-0.8,0.4-1.4
					c0.2-0.5,0.5-0.7,1.1-0.7L183.6,93.2z M182.1,104.3L182.1,104.3L182.1,104.3l-0.2,1.6h0l0,0l-0.3,1.7l0,0.2h0l0,0v0
					c-0.2,0.7-0.3,1.3-0.4,1.9c-0.1,0-0.2,0.4-0.4,1.2l-0.2,0.3v0.1c0.2,0.2,0.5,0.4,1,0.4h0.6c0.5,0,0.8-0.2,0.9-0.7v-0.1l0-1.5
					l-0.1-0.6v-0.2c0-1,0-1.7,0.1-2.2l-0.2-1.6l0.1-1l-0.2-0.4h-0.2C182.2,103.7,182.1,104,182.1,104.3z"/>
				<path class="st2" d="M190.8,93.8c0.7,0,2.1,0.1,4.2,0.3c1,0.1,1.7,0.3,2.1,0.6c0.3,0.3,0.4,0.5,0.4,0.6c0,0.4-0.2,0.6-0.7,0.7
					c-1.9-0.2-3.2-0.3-3.9-0.3c-0.4,0-0.7,0.2-0.9,0.5c-0.2,1.6-0.3,2.6-0.3,3.1c-0.1,0-0.1,0.3-0.2,0.9l0,0.8l-0.1,0.6
					c0,0.8,0.2,1.1,0.5,1.1v0c0.1,0,0.3-0.1,0.7-0.1h0.5c0.9,0,1.9,0.5,2.9,1.6c0.3,0.5,0.5,1,0.5,1.5c0.1,0.2,0.1,0.5,0.2,1.1
					c0.1,0,0.1,0.4,0.1,1.1c0.1,0.2,0.2,0.8,0.2,1.9l0.2,1.4l-0.1,2.2v0.1l0,0.3c0,0.5-0.2,1.1-0.6,1.6c-0.2,0.9-0.3,1.4-0.5,1.4
					l-0.2,0.5c-0.3,0.4-0.6,0.8-1,1.2c-0.1,0-0.1,0.1-0.1,0.2c-0.3,0.2-0.5,0.4-0.9,0.4c-0.7,0.3-1,0.4-1.1,0.4h-0.2
					c-0.5,0-1.2-0.2-2-0.7c-0.9-0.8-1.3-1.3-1.3-1.7c-0.3-0.6-0.5-1.4-0.7-2.4l-0.1-1c0-0.4,0.1-1.1,0.3-2.2c0-0.5,0.3-0.8,0.9-1.1
					c0.1,0,0.2,0,0.3-0.1c0.2,0,0.4,0.1,0.5,0.1c0.3,0,0.6,0.3,1,1l-0.2,1.7l0,0.3l-0.1,0.6c0.3,1.3,0.5,2.2,0.9,2.9
					c0,0.3,0.2,0.5,0.4,0.5c0.2,0,0.5-0.3,0.9-0.9c0.1-0.1,0.2-0.5,0.4-1c0.2-0.3,0.4-0.9,0.7-2c0-2.5-0.1-4-0.3-4.5v-0.9
					c-0.3-1.7-0.5-2.8-0.7-3.3c-0.2-0.1-0.3-0.2-0.5-0.2l-0.2,0v0c-0.6,0.2-1,0.4-1.5,0.8c-0.2,0.2-0.4,0.3-0.6,0.3h-0.3
					c-0.8-0.2-1.4-0.5-1.7-1c-0.1-0.2-0.2-0.4-0.2-0.6c0.1-0.4,0.2-0.9,0.2-1.5l0-0.3v-0.3l0-0.9l0.1-0.7l0-0.4l0.2-0.7v-0.7
					c0-0.3,0.1-0.9,0.2-1.7l0-0.9c0.2-1.1,0.3-1.6,0.4-1.6C190,94,190.4,93.8,190.8,93.8z"/>
				<path class="st2" d="M194.7,103c0.3,0,0.4,0.1,0.4,0.1c0,0.1-0.1,0.1-0.3,0.1c-0.2,0-0.3,0-0.4-0.1v-0.1
					C194.5,103.1,194.6,103,194.7,103z M195.6,106.3L195.6,106.3l-0.6,0.2C195.2,106.3,195.4,106.3,195.6,106.3z M196.2,106.7h0.2
					c0.1,0,0.2,0.1,0.2,0.1c0,0.1-0.1,0.1-0.3,0.1c-0.2,0-0.3,0-0.3-0.1v0L196.2,106.7z M197,107.9v0.1l-0.2,0.1h-0.1
					c-0.3,0-0.4-0.1-0.4-0.3l0.2-0.1h0.3L197,107.9z M196.6,104.2L196.6,104.2l0.2,0.1v0c0,0.1-0.1,0.1-0.3,0.1h0
					c-0.1,0-0.2-0.1-0.2-0.1v0C196.4,104.3,196.5,104.2,196.6,104.2z M196.6,106.4L196.6,106.4l0,0.1h0L196.6,106.4L196.6,106.4z
					 M196.9,103.3h0.2l0.2,0.1c0,0.1-0.1,0.1-0.3,0.1c-0.1,0-0.2,0-0.2-0.1v0C196.8,103.3,196.8,103.3,196.9,103.3z M197.1,107.6
					L197.1,107.6L197.1,107.6L197.1,107.6l-0.2,0v0L197.1,107.6L197.1,107.6L197.1,107.6z M203.6,92.4h0.4c1.6,0,2.9,0.5,3.8,1.5
					c0.1,0,0.3,0.2,0.5,0.5c0.1,0.1,0.1,0.6,0.2,1.4V96l-0.2,0.8v0.5c-0.1,1.5-0.2,2.2-0.4,2.2c0,0.1-0.2,0.2-0.7,0.4
					c-0.4,0-0.9-0.3-1.6-0.8c-0.2-0.2-0.3-0.5-0.3-0.7v-0.3c0.3-0.9,0.4-1.4,0.4-1.5l0-0.6v-0.4c-0.1-0.7-0.3-1-0.6-1
					c0,0-0.1-0.1-0.3-0.1c-1.2,0.1-1.8,0.2-1.8,0.3c-0.4,0.2-0.6,0.6-0.6,1c0,0-0.1,0.2-0.2,0.6l0,0.2l-0.1,0.6l0.1,1.6v2.4l0,1.1
					c0,0.3,0.4,0.5,1.2,0.6c1.7,0.3,3.1,1.1,4.3,2.2c0.3,0.4,0.6,0.9,0.8,1.5c0.1,0.4,0.3,1.3,0.5,2.9l-0.1,0.9l0.1,3.4l-0.1,0.6
					v0.2l0,0.5c-0.1,0.6-0.2,1.2-0.3,1.7c0,0.1-0.2,0.4-0.6,0.8c0,0.1-0.1,0.3-0.4,0.5c0,0.3-0.6,0.7-1.9,1.3
					c-0.5,0.2-1,0.3-1.4,0.3h0l0,0l-0.2,0H204l-0.2,0v0c-1-0.2-1.7-0.5-2.3-0.9c-0.8-0.7-1.2-1.3-1.2-1.8l-0.8-2.4
					c-0.1-0.9-0.3-2.1-0.3-3.5l0.1-0.9l-0.2-1.4v-0.4c0-0.3-0.2-0.7-0.6-1.1l-0.6-0.8c0.3-0.9,0.7-1.5,1-1.7
					c0.4-0.4,0.6-0.9,0.6-1.3c0-0.2,0.1-0.6,0.3-1.2l0-0.2v-0.8l0-0.4l0-0.4l0.1-1.4l-0.1-1.2l0.1-0.7l-0.1-0.9
					c0-0.4,0.1-0.9,0.4-1.6c0-0.1,0.2-0.4,0.6-0.9c0.1-0.3,0.3-0.5,0.6-0.6c0.9-0.4,1.5-0.6,1.8-0.6
					C203.3,92.4,203.5,92.4,203.6,92.4z M200.3,108.4h0.2l0,0.1l0,0L200.3,108.4L200.3,108.4L200.3,108.4z M201.9,106.2L201.9,106.2
					l0,0.1l0,0.6l0,0.6l-0.1,0.9v0.7l0,0.2l0.1,1.1v0.6c0.1,0.5,0.1,1.2,0.1,2v0.6c0.1,0.6,0.5,1.6,0.9,3c0,0.4,0.2,0.6,0.5,0.8h0.6
					c0.7,0,1.4-0.4,2.1-1.2c0.2-1.1,0.3-1.8,0.3-2l0.1-1.5v-0.1c-0.1-0.9-0.1-1.6-0.2-1.9c0-0.7,0.1-1.2,0.2-1.6
					c0-0.5-0.2-1.6-0.6-3.3c-0.4-1-0.9-1.5-1.6-1.5h-0.4c-0.9,0-1.4,0.2-1.6,0.6C202.1,105.3,202,105.7,201.9,106.2z M203.6,108.3
					L203.6,108.3L203.6,108.3L203.6,108.3L203.6,108.3L203.6,108.3L203.6,108.3z"/>
				<path class="st2" d="M215.7,93.8l0.7,0l0.6,0c0.6,0,1.1,0.2,1.5,0.5l0.5,0.6l0,0.2l-0.3,0.9c-0.2,0.8-0.3,1.3-0.3,1.4l0,0v0
					l-0.1,0.6h0c-0.1,0.2-0.1,0.4-0.1,0.5v0.4l0,0.9l-0.2,0.9v0.2l0,0l0,0v0.1l0,0v0h0l0,0v0.2c0,0.6-0.1,1-0.3,1.3h0l0,0v0.2l0,0.2
					h0c0.1,0.1,0.1,0.2,0.1,0.3v0c0,0.1,0,0.3-0.1,0.3h0c0,0.1-0.1,0.2-0.1,0.4v0.3l0,1.2l-0.1,0.5v0.4l-0.2,1.4
					c-0.3,0.6-0.5,1.4-0.5,2.3h0l0,0.1l-0.6,2.3v0.7l-0.4,1.4l-0.1,1.7l-0.3,2.1c-0.3,0.1-0.5,0.3-0.6,0.6c-0.1,0.3-0.3,0.5-0.6,0.6
					l-0.2,0.1l-0.5,0l0,0l0,0v0c-0.4-0.1-0.8-0.4-1.2-0.8l-0.1-0.3c0.3-0.8,0.4-1.3,0.4-1.5c0.2-0.1,0.4-0.2,0.6-0.3
					c-0.1-0.3-0.2-0.7-0.2-1v-0.9c0-0.3,0.1-1,0.4-2.1c0-0.3,0.1-0.8,0.4-1.5l0-0.3l0-0.1c0.1-0.4,0.2-1,0.3-2.1l0.1-0.2h0l0.3-1.2
					h0c0.3-0.6,0.4-1.4,0.4-2.3v-0.7l0-1.1c0.1-0.3,0.2-0.7,0.2-1.2v-0.7l0,0l0,0v0l0.2-0.6l0-0.5c0-0.3,0.1-0.6,0.2-0.8l0,0l0-0.2
					v-0.2l0.2-1.1l-0.1-0.5l0.2-1.6l0,0v0L216,96c-0.1-0.2-0.4-0.4-1-0.4l-2.2,0.1c-0.5,0-1-0.2-1.7-0.6c-0.3-0.2-0.4-0.4-0.4-0.7
					c0-0.4,0.3-0.6,1-0.6l0.7,0l0.5,0l1.2-0.1l0.9,0L215.7,93.8z"/>
				<path class="st2" d="M132.1,94.5h0.1c0.4,0.2,1,1,1.7,2.3c0,0.5,0.1,0.7,0.1,0.8h0l0,0.9l0.2,1.4l-0.1,0.5l0,0.5l-0.1,1.4
					l0.2,0.9v0.5l-0.1,0.6v0.8l0,0.3c-0.1,0.5-0.1,0.7-0.2,0.8h0c-0.1,0.1-0.2,0.5-0.2,1.2c-0.1,0.2-0.3,1-0.4,2.2l0,0.2
					c-0.1,1.1-0.2,1.6-0.2,1.6l0,0l-0.1,0.5c0.1,0.5,0.2,0.8,0.2,1c0,0.3-0.2,0.8-0.6,1.4c-0.2,0.7-0.5,1.4-0.9,2.1
					c-0.1,0.6-0.3,1-0.6,1.3c-0.6,1.4-1,2.1-1.2,2.1c-0.2,0.2-0.3,0.3-0.5,0.3v0l0,0h-0.3c-1-0.3-1.5-0.6-1.5-1
					c0.1-0.1,0.1-0.3,0.2-0.5c0.4-0.9,0.8-1.6,1.2-2l0.6-1.3c0-0.3,0.2-0.8,0.6-1.5l0.4-1.1v-0.2l-0.1-0.6v-0.3l0.2-1.2v-0.1l0,0
					c-0.1-0.3-0.3-0.4-0.6-0.4c-0.8,0-1.5-0.1-2.4-0.4c-1.1-0.6-1.9-1.4-2.5-2.5c-0.1-0.3-0.2-0.8-0.3-1.6c-0.2-0.6-0.3-1.4-0.3-2.4
					l-0.1-0.9c0.1-1.6,0.2-2.7,0.4-3.1l0,0v0c0-0.3,0.2-0.9,0.7-1.9l0.4-0.5c0-0.1,0.2-0.3,0.6-0.7c0.1,0,0.3-0.2,0.6-0.5
					c0.1,0,0.3-0.2,0.6-0.5c0.8-0.4,1.3-0.6,1.5-0.6h0.7l0,0l0,0c0.3,0,0.7,0,1.3,0C131.6,94.2,131.9,94.3,132.1,94.5z M127.2,101.6
					v0.3l0,0.1c0.1,0.4,0.3,1.3,0.3,2.8c0.2,0.6,0.3,1.1,0.3,1.6c0.2,1,0.6,1.5,1.2,1.5h0c1,0,1.6-0.4,1.8-1.2l0-0.3l0.4-0.9v-0.4
					l0.1-0.5l0.2-0.4l0.1-1l0-0.8c-0.1-1.3-0.1-2.1,0-2.3c-0.4-0.7-0.6-1.5-0.4-2.4c-0.2-0.8-0.4-1.3-0.6-1.3c0-0.1-0.1-0.1-0.3-0.1
					h-0.2c-0.4,0-0.9,0.3-1.7,1c-0.1,0.2-0.4,0.5-0.6,1.1c-0.1,0-0.2,0.4-0.2,1.2l-0.2,1.4C127.2,101.3,127.2,101.5,127.2,101.6z"/>
				<path class="st2" d="M134.7,102.7c0.3,0,0.4,0.1,0.4,0.1c0,0.1-0.1,0.1-0.3,0.1c-0.2,0-0.3,0-0.4-0.1v-0.1
					C134.4,102.8,134.5,102.7,134.7,102.7z M135.5,106L135.5,106l-0.6,0.2C135.2,106,135.4,106,135.5,106z M140.4,93.7
					c1.4,0,2.9,0.8,4.4,2.3c0.2,0.6,0.3,1,0.3,1.4v0.3l-0.1,0.7l0.1,0.9l-0.1,1.1l0.1,1.2l-0.1,0.3h0l-0.1,0.3l0,0.5l-0.5,1.7
					c-0.3,0.7-0.5,1-0.6,1.2c-0.2,0.2-0.4,0.3-0.4,0.5c0,0.1,0.4,0.5,1.2,1.1c0.4,0.4,0.6,0.8,0.6,1.2h0l0,0
					c0.1,0.3,0.1,0.9,0.2,1.7c0,0,0.1,0.6,0.2,1.7v0.5c0.2,0.4,0.3,1.1,0.3,2c0.1,0.2,0.1,0.7,0.2,1.3c0,0.3-0.1,1-0.2,1.9
					c0,0.8-0.3,1.4-0.9,1.8c-0.1,0.3-0.4,0.5-0.9,0.8c-0.6,0.4-1,0.7-1.2,0.7c-0.4,0.2-0.9,0.4-1.5,0.4c-1.2-0.1-2-0.3-2.6-0.5
					c-1.3-0.7-1.9-1.5-1.9-2.3l-0.1-1.1l0.1-0.6c-0.2-0.9-0.3-1.7-0.4-2.4h0l-0.3-1.2h0c-0.3-1-0.5-1.8-0.5-2.4V110l-0.1-0.8l0-0.2
					h0l0.2-0.9c0.4-0.8,0.9-1.4,1.7-1.7l0.4-0.5v-0.1c0-0.1-0.2-0.4-0.7-0.9c-0.1,0-0.2-0.9-0.4-2.6V102l0,0l0,0v-0.1l0,0l-0.1-0.6
					l0.1-0.6l-0.2-1.1l0-0.3l0-0.6c0.1-0.7,0.1-1.2,0.2-1.3h0l0.3-1.3c0.1,0,0.1-0.2,0.2-0.7c-0.2-0.1-0.2-0.2-0.2-0.4
					c0-0.2,0.1-0.3,0.3-0.4c0-0.2,0.3-0.4,1-0.6C138.9,93.8,139.6,93.7,140.4,93.7z M136.1,106.4h0.2c0.1,0,0.1,0.1,0.2,0.1
					c0,0.1-0.1,0.1-0.3,0.1c-0.2,0-0.3,0-0.3-0.1v0L136.1,106.4z M136.9,107.5v0.1l-0.2,0.1h-0.1c-0.3,0-0.4-0.1-0.4-0.3l0.2-0.1
					h0.3L136.9,107.5z M136.6,103.9L136.6,103.9l0.2,0.1v0c0,0.1-0.1,0.1-0.3,0.1h0c-0.1,0-0.2-0.1-0.2-0.1v0
					C136.3,104,136.4,103.9,136.6,103.9z M136.5,106.1L136.5,106.1l0,0.1h0L136.5,106.1L136.5,106.1z M136.8,103h0.2l0.2,0.1
					c0,0.1-0.1,0.1-0.3,0.1c-0.1,0-0.2,0-0.2-0.1v0C136.7,103,136.7,103,136.8,103z M137,107.3L137,107.3L137,107.3L137,107.3
					l-0.2,0v0L137,107.3L137,107.3L137,107.3z M138.5,109.3L138.5,109.3c-0.1,0.2-0.1,0.4-0.1,0.6l0.2,1.3h0
					c0.1,0.2,0.1,0.5,0.2,0.9c0.4,1.1,0.7,2,0.7,2.6l0,0.8l0.3,0.9v0.1c0,0.3,0,0.5-0.1,0.7c0.1,0.3,0.1,0.6,0.2,0.8h0
					c0.1,0.6,0.2,0.8,0.3,0.8c0.2,0.1,0.4,0.2,0.8,0.2h0.1c0.2,0,0.5-0.1,1.1-0.4c0.3-0.1,0.6-0.3,0.8-0.7c0.2,0,0.4-0.6,0.7-1.9
					c0.1,0,0.1-0.1,0.1-0.4c-0.2-0.7-0.3-1.6-0.5-2.6c0,0-0.1-0.4-0.1-1.3c-0.1-0.1-0.2-0.9-0.3-2.3c-0.1-1.2-0.3-1.9-0.4-1.9
					c-0.2-0.1-0.4-0.2-0.5-0.2c-0.7,0-1.6,0.2-2.5,0.6C138.9,108.5,138.7,108.8,138.5,109.3z M139.4,98L139.4,98l0,0.3l0,0.3l0,0.6
					c0,0.3,0,0.4,0.1,0.4l0,0l0.1,1.3l-0.1,1.1c0.2,0.7,0.2,1.2,0.2,1.4l0,0.5c0,0.1,0,0.2,0.1,0.2l0,0v0c0.1,0.3,0.3,0.5,0.6,0.5
					c0.7,0,1.1-0.2,1.3-0.5l0.3-0.6h0l0.4-1.1l0.1-1.5l-0.1-1.2l0.3-1.5l-0.2-0.8c0-0.3,0.1-0.5,0.1-0.5c-0.1-0.8-0.3-1.1-0.5-1.1
					c0-0.1-0.2-0.1-0.5-0.1h0c-0.4,0-0.9,0.2-1.4,0.7c-0.3,0.1-0.4,0.5-0.4,1L139.4,98z M140.2,108.1h0.2l0,0.1l0,0L140.2,108.1
					L140.2,108.1L140.2,108.1z M143.5,108L143.5,108L143.5,108L143.5,108L143.5,108L143.5,108L143.5,108z"/>
				<path class="st2" d="M152.2,94.4l0.7,0l0.6,0c0.6,0,1.1,0.2,1.5,0.5l0.5,0.6l0,0.2l-0.3,0.9c-0.2,0.8-0.3,1.3-0.3,1.4l0,0v0
					l-0.1,0.6h0c-0.1,0.2-0.1,0.4-0.1,0.5v0.4l0,0.9l-0.2,0.9v0.2l0,0l0,0v0.1l0,0v0h0l0,0v0.2c0,0.6-0.1,1-0.3,1.3h0l0,0v0.2l0,0.2
					h0c0.1,0.1,0.1,0.2,0.1,0.3v0c0,0.1,0,0.3-0.1,0.3h0c0,0.1-0.1,0.2-0.1,0.4v0.3l0,1.2l-0.1,0.5v0.4l-0.2,1.4
					c-0.3,0.6-0.5,1.4-0.5,2.3h0l0,0.1l-0.6,2.3v0.7l-0.4,1.4l-0.1,1.7l-0.3,2.1c-0.3,0.1-0.5,0.3-0.6,0.6c-0.1,0.3-0.3,0.5-0.6,0.6
					l-0.2,0.1l-0.5,0l0,0l0,0v0c-0.4-0.1-0.8-0.4-1.2-0.8l-0.1-0.3c0.3-0.8,0.4-1.3,0.4-1.5c0.2-0.1,0.4-0.2,0.6-0.3
					c-0.1-0.3-0.2-0.7-0.2-1v-0.9c0-0.3,0.1-1,0.4-2.1c0-0.3,0.1-0.8,0.4-1.5l0-0.3l0-0.1c0.1-0.4,0.2-1,0.3-2.1l0.1-0.2h0l0.3-1.2
					h0c0.3-0.6,0.4-1.4,0.4-2.3v-0.7l0-1.1c0.1-0.3,0.2-0.7,0.2-1.2v-0.7l0,0l0,0v0l0.2-0.6l0-0.5c0-0.3,0.1-0.6,0.2-0.8l0,0l0-0.2
					v-0.2l0.2-1.1l-0.1-0.5l0.2-1.6l0,0v0l0.2-0.6c-0.1-0.2-0.4-0.4-1-0.4l-2.2,0.1c-0.5,0-1-0.2-1.7-0.6c-0.3-0.2-0.4-0.4-0.4-0.7
					c0-0.4,0.3-0.6,1-0.6l0.7,0l0.5,0l1.2-0.1l0.9,0L152.2,94.4z"/>
				<path class="st2" d="M160.6,93.1h0.6c0.7,0,1.7,0.3,2.7,0.9c0.9,0.6,1.4,1.3,1.4,2c0,0.3,0.1,0.9,0.3,1.8l0.2,3.3l-0.2,2.7
					l0,0.7v0.4l0,1.3l0.1,0.7l-0.1,0.6l0,0.3l0,0.6v0.3c0,0.4,0.1,1.2,0.3,2.2v0.2l-0.2,0.6l0.1,0.8l0,0.2c0,0.2,0.1,0.6,0.3,1.1
					l0.3,1.8v0.1l0,0.1l0,0.2v0.2c-0.2,1.4-0.3,2.2-0.4,2.2c0,0.3-0.2,0.8-0.7,1.3c-0.5,0.6-1.3,0.8-2.6,0.8h-0.6
					c-0.6,0-1.4-0.3-2.3-0.8c-1.5-1.3-2.3-2.3-2.3-2.9c-0.2,0-0.3-1.3-0.3-3.7l0.2-1.1v-1.2l0-1.4c0-0.2,0.1-0.6,0.3-1.3v-1.4
					c0-0.7,0.1-1.2,0.2-1.5v-0.1l-0.1-0.6v-0.5l0-0.7l-0.2-2.2v-0.5l0,0c-0.1-0.1-0.1-0.5-0.2-1.1c0.1-2.1,0.3-3.1,0.4-3.1l0.2-0.3
					l0-0.1c0.1-0.2,0.2-0.6,0.2-1.1l-0.1-0.3v-0.1c0-0.1,0.1-0.3,0.4-0.5c0-0.2,0.3-0.4,0.9-0.7C159.9,93.2,160.2,93.1,160.6,93.1z
					 M159.1,111.5L159.1,111.5c0.1-0.2,0.3-0.2,0.5-0.2c0.2,0.1,0.4,0.1,0.4,0.2c0,0.1-0.2,0.2-0.5,0.2
					C159.2,111.7,159.1,111.6,159.1,111.5z M159.8,107.5l0.8,0.2v0C160.4,107.7,160.1,107.6,159.8,107.5z M160.4,97l0,0.3
					c0,0.2-0.1,0.8-0.3,1.8l0,0.5c0.1,0.2,0.1,0.5,0.1,0.8v0.2c0.2,0.8,0.2,1.6,0.2,2.5h0l0,0v0l0.1,0.9v0.1l-0.1,0.5v0.1l0,0.3
					l0,0.3v0l0,0l0,0v0l0,0.9c0,0.4,0,0.5,0.1,0.5l0,0v0.1l0,0c-0.1,0.2-0.2,0.9-0.2,1.9l-0.2,0.8v0.2l0.1,0.8v0.4
					c0,0.4-0.1,1-0.2,1.6l0,1l0.1,0.5l0,0.4l0.1,0.5l0,0.4c0,0.3,0.1,0.7,0.2,1.2h0c0.4,1.1,0.9,1.7,1.5,1.7h0
					c0.9,0,1.5-0.1,1.6-0.4l0.4-0.8l0-0.7l0.1-0.5V116l-0.3-2.5c0-0.7-0.1-1.2-0.4-1.5l-0.1-0.4c0.2-0.5,0.3-0.8,0.3-0.9
					c0-0.6-0.1-1.1-0.2-1.6l-0.1-0.7l0.1-1.5l-0.1-1l0-0.3l0-0.3l0.1-1.5l-0.1-0.9v-0.1c0-0.1,0.1-0.5,0.3-1.1v-0.1
					c-0.1-0.3-0.1-0.8-0.2-1.7l-0.1-0.3l0-0.6c-0.1-0.4-0.2-0.8-0.2-1v-0.6c0-0.2-0.1-0.7-0.2-1.4c0-0.3-0.1-0.6-0.4-0.7H162
					c-0.1,0-0.3,0.2-0.7,0.6c-0.1,0-0.3,0.1-0.4,0.4C160.6,96.5,160.4,96.8,160.4,97z M161.2,107L161.2,107c0-0.2,0.1-0.2,0.4-0.2
					c0.2,0,0.4,0.1,0.4,0.2c0,0.1-0.1,0.1-0.2,0.1h-0.3L161.2,107z M162.1,105.9h-0.4l-0.3-0.2c0-0.2,0.2-0.3,0.6-0.3h0.1l0.3,0.2
					v0.2L162.1,105.9z M161.6,110L161.6,110c0-0.1,0.1-0.1,0.3-0.2h0c0.2,0,0.4,0,0.4,0.1v0l-0.2,0.1H162
					C161.8,110.2,161.7,110.1,161.6,110z M161.8,107.5v-0.1h0.1l0,0.1v0L161.8,107.5z M162.1,111.2L162.1,111.2
					c0-0.1,0.1-0.1,0.3-0.1c0.2,0,0.3,0,0.3,0.1l-0.2,0.1h-0.2C162.2,111.3,162.1,111.3,162.1,111.2z M162.5,106L162.5,106l-0.2,0v0
					L162.5,106L162.5,106L162.5,106L162.5,106L162.5,106z M166.7,105l0.2,0h0.1l0,0l0,0.1L166.7,105L166.7,105z M171,105.2
					L171,105.2L171,105.2h0.2v0l0,0L171,105.2z"/>
			</g>
		</g>
	</g>
	<g>
		<path class="st3" d="M107.3,132.5h0.8c0.6,0,1.5,0.3,2.9,1c1,0.8,1.6,1.4,1.7,2c0,0.1,0.1,0.4,0.4,0.9c0.1,0,0.2,1.1,0.3,3.2
			c0,0,0.1,0.2,0.1,0.7v0.1c0,0.6,0,1-0.1,1.3l0.1,1.4l-0.1,1.6l0,1.1l-0.1,2.1c0.1,0.2,0.1,0.6,0.1,1.4l0,0.5l0.1,1.1l0,0.4
			l0.1,0.8v0.6l0,0.4l-0.2,0.8l0.1,2l-0.2,2.5c0,0.3-0.2,0.8-0.5,1.5c-0.4,0.4-0.9,0.7-1.7,0.9c-0.7,0.2-1.6,0.3-2.6,0.5
			c0,0-0.1,0.1-0.3,0.1h-0.3c-0.3,0-0.8-0.3-1.4-0.9l-0.2-0.5l0.3-0.9l0-0.9l0-0.1l0-0.2v-0.7l0.1-0.5v-0.1l0-1.7l-0.1-0.6l0-0.3
			l0.1-3.1l-0.1-0.5l0.1-2.1c0-0.4-0.1-1.2-0.2-2.3l0-0.5l0-0.9l0-0.4l0-0.5v-0.3l0.2-0.9c0-0.2-0.1-0.9-0.1-2.2l0-0.8
			c0-0.1-0.1-0.6-0.1-1.4l0.1-0.5v-0.5l0.1-0.7l-0.1-0.5v-0.5l0.1-0.6c0-0.2-0.1-0.5-0.3-0.9l-0.1-0.5v-0.4
			C106.4,132.7,106.8,132.5,107.3,132.5z M108.7,136.2c0,1,0,2.1-0.1,3.2c0.1,0.4,0.1,1.3,0.2,2.8c0,0.6-0.1,1.1-0.2,1.4l0,0.9
			l0,0.2l0.1,0.7l0,0.8l0.2,1.4l-0.1,3.6v0.7l-0.1,0.8v1.9l0.1,0.6v0l-0.1,0.6l0,0.6l-0.1,1.2v0.3c0,0.8,0.2,1.1,0.5,1.1
			c1.2-0.2,1.8-0.4,1.8-0.6c0.2,0,0.3-0.6,0.4-1.7l0-0.9l0.1-0.7l0-1v-0.8l0.1-0.9v-0.3l-0.1-1.8l0,0l0-0.5v-0.2l-0.1-0.8l0-1
			l-0.1-0.9v-0.4l0.1-1l-0.1-1.1l0-1.2l0-0.5l0.1-0.5l0-1.3v-0.1l0-0.4l0-0.3c0-0.6-0.1-1.3-0.2-2v-0.9c0-0.6-0.2-1.3-0.6-2.2
			c-0.2-0.3-0.5-0.6-1.1-0.7l-0.3,0c-0.3,0.1-0.4,0.3-0.4,0.6V136.2z"/>
		<path class="st3" d="M116.7,133h0.3l1.2,0.1h0.9c0.5,0,0.9,0.3,1.3,0.8c0.2,0.2,0.3,0.3,0.3,0.5c0,0.2-0.2,0.5-0.6,0.7
			c-0.4,0.1-0.6,0.2-0.8,0.2h-0.6c-0.5,0-0.8,0.3-0.8,0.9l-0.1,1.1l-0.1,1.3v1.1l0.1,0.7l-0.2,1.7l0.1,2c0.1,0.3,0.2,0.4,0.4,0.4
			l0.7,0c0.8,0.1,1.3,0.2,1.6,0.4c0.3,0.2,0.5,0.5,0.6,0.9l0,0l0,0.2v0.2c0,0.2-0.1,0.3-0.3,0.4l0,0h-0.9c-1.1,0-1.7,0.1-1.8,0.2
			l-0.1,0.2l0,0.9l-0.3,2.3l0.2,1.7v0.9l-0.1,1.4l-0.1,0.3l0,0.4v0.5l0.3,3.3c0.1,0.2,0.3,0.3,0.4,0.3l1,0c0.3,0,0.6,0.2,1,0.5
			c0.4,0.4,0.5,0.7,0.5,0.8v0.1c-0.3,0.5-0.7,0.7-1.1,0.7L118,161l-0.9,0.3l-0.2,0c-0.3,0-0.8-0.3-1.4-0.8c-0.1-0.3-0.2-0.5-0.2-0.6
			c0.2-0.4,0.3-0.8,0.4-1.1V158c-0.1-0.4-0.1-0.9-0.1-1.6l-0.2-1.6c0.1-1,0.2-1.8,0.3-2.4c-0.2-0.9-0.3-1.7-0.3-2.6l0.1-0.7l0-0.2
			v-0.2l0.1-0.8v-2c-0.2-0.5-0.3-0.8-0.3-1v-0.2l0.2-0.6v-0.6l0.1-0.5v-0.4l-0.1-0.9v-0.1l0.1-1.3l-0.1-0.7l0.1-0.5
			c0-0.2-0.1-0.4-0.1-0.7v-0.3l0.1-0.6l0-0.4V137l0.3-1.5c0-0.2-0.2-0.6-0.7-1.3c0-0.1-0.1-0.2-0.1-0.4c0-0.5,0.3-0.8,0.9-0.8
			L116.7,133z"/>
		<path class="st3" d="M123.3,132.5L123.3,132.5c0.8,0,1.6,0.2,2.6,0.5h0.2l0.7-0.1c0.4,0,0.8,0.2,1.3,0.7c0.5,0.5,0.7,0.9,0.7,1.2
			v0.4l0.4,1.7l0.1,1v0l-0.1,0.6v0.4l0.3,3v0.7c-0.1,0.4-0.2,0.8-0.2,1.4c-0.2,0.4-0.3,0.8-0.5,1.4c-0.2,0.4-0.4,0.8-0.8,1.1
			c-0.1,0.2-0.1,0.4-0.1,0.7c0,0.1,0.2,0.5,0.7,1c0.4,0.7,0.6,1.3,0.6,2c0.1,0.4,0.1,1.1,0.2,2l0,0.2l0,0.2l0.1,0.9l-0.1,0.6l0,0.5
			l0,1.1c-0.1,0.2-0.1,1.1-0.2,2.7c-0.1,0.6-0.2,1.1-0.4,1.6c-0.2,0.5-0.5,0.7-0.8,0.9c-0.4,0.2-0.7,0.3-0.9,0.3l-0.6,0l-1.3-0.1
			l-0.7,0.1H124c-0.2,0-0.6-0.2-1.2-0.7c-0.3-0.4-0.4-0.8-0.4-1.1l0.1-0.7c-0.1-0.3-0.2-1-0.2-2.1v-0.5c0-0.1,0.1-0.4,0.2-0.8V155
			l0-0.2l0-0.2l0-1l-0.2-2.1l0-1.1l0-1.1l0-0.4l0-0.9l0.1-0.8v-1.5l0.1-1.3v-0.4l0.1-0.7v-0.6c0-0.4,0-0.7,0.1-1.1l0-0.7
			c0-0.3,0.1-0.6,0.1-0.9c0-0.3-0.1-1-0.1-2.3l-0.2-2.5v-0.2l0-0.2l-0.2-1.4C122.4,132.8,122.7,132.5,123.3,132.5z M124.4,148.5
			l0,0.2l0,0l0,0.1l-0.1,1.1l0.1,2v0.5c0.1,0.5,0.1,1.1,0.1,1.9c0,0.8-0.1,1.5-0.2,2.3v0l0.2,2.2c0.2,0.3,0.4,0.4,0.6,0.4h0.7
			c0.4,0,0.7-0.2,0.8-0.5c0.2-0.5,0.2-1.4,0.2-2.7c0.2-0.7,0.2-1.5,0.2-2.3v-0.1c-0.1-0.7-0.2-1.4-0.2-2.2l0-0.3
			c-0.1-0.6-0.2-1.3-0.3-1.9c-0.3-0.7-0.4-1.1-0.6-1.2c0-0.1-0.3-0.2-0.9-0.3h-0.1C124.8,147.8,124.5,148,124.4,148.5z M124.6,135.3
			c0.2,1.5,0.3,2.9,0.3,4.2l0,0.3l0,0.2l0,0.5l0,0.9l-0.2,1.5l0,0.3l-0.1,1.3v0.7c0.1,0.1,0.2,0.2,0.3,0.3h0.2
			c0.9,0,1.5-0.5,1.9-1.6l0.2-1.7c-0.1-1.5-0.2-2.6-0.2-3.3c0,0-0.1-0.2-0.1-0.7l0-0.9c0-0.5-0.2-1.2-0.5-2.1
			c-0.3-0.4-0.7-0.6-1.1-0.6c-0.3,0-0.6,0.1-0.7,0.4L124.6,135.3z"/>
		<path class="st3" d="M132.2,133.4c0.5,0,0.9,0.2,1.1,0.7c0.2,0.2,0.3,0.4,0.3,0.5v0.4c0,0.5-0.1,1.1-0.2,1.9h0l0,0v0l-0.1,0.9
			l0,0.5l-0.1,2c0.1,0.4,0.1,1,0.1,1.8l0,0l0,0.3l0,0.8l-0.1,2.2l0.1,0.5l0,0.3v0.1c0,0.5,0,1-0.1,1.5l0,2.6l0.1,0.5v0.5
			c0,0.5,0,0.8,0.1,1.1l0,0.5v0.2c0,0.2,0,0.3,0.1,0.4h0c0.1,0,0.2,1.3,0.4,4l0,0.6c0.1,0.4,0.2,0.9,0.3,1.6c0,0.4-0.2,0.7-0.5,0.9
			c0,0-0.1,0.1-0.2,0.1c-0.3-0.1-0.6-0.2-0.8-0.3c-0.6-0.5-0.9-1.3-0.9-2.2l-0.2-3l0-0.5l-0.3-1.8l0-0.7l0-0.6l-0.1-1h0l0-0.1
			l-0.1-1.6v-1.1c0-0.4,0-0.6,0.1-0.7l0,0l0.1-1.4v-0.7l0-0.4l0-0.4v-1l0-0.9l0-0.3l-0.1-0.6l0-0.5l-0.1-1v0l0,0l0,0v-0.9l0,0l0,0v0
			c0-0.2,0.1-0.7,0.2-1.4v-0.2l0,0l0,0v-0.1l0-0.9l0-0.6c0-1.1,0.2-1.7,0.4-1.8C132,133.5,132.1,133.4,132.2,133.4z"/>
		<path class="st3" d="M132.2,136.3L132.2,136.3L132.2,136.3L132.2,136.3L132.2,136.3L132.2,136.3L132.2,136.3z M134.3,136.2h-0.1
			l0-0.1l0,0L134.3,136.2L134.3,136.2L134.3,136.2z M137.1,132.5h0.8l1.9,0.1l1.4,0c0.7,0,1.2,0.3,1.5,1c0.1,0.1,0.1,0.2,0.1,0.3
			c0,0.3-0.2,0.6-0.7,0.9l-0.5,0.1h0l-0.6,0c-0.6,0.1-0.9,0.4-0.9,0.9l0.1,1v0.4c0.2,1.1,0.3,2,0.3,2.7l0.1,0.7l0,0.6
			c0,1.5,0.1,2.4,0.2,2.7l0.1,1.6v1l-0.2,0.9l0.1,0.8v1.6l-0.1,1.1v0.3c-0.1,0.3-0.2,1-0.2,2l-0.2,2l0,0.1l-0.3,2.8l0,0.5
			c-0.1,0.5-0.1,1.1-0.1,1.9l0.2,1.2c0,0.2-0.2,0.5-0.5,0.7l-0.1,0.1h-0.3c-0.3,0-0.7-0.2-1.1-0.7c-0.4-0.5-0.5-1-0.5-1.5v-0.5
			l0.1-1.1v-0.1l0-0.7c0-0.4,0.1-0.9,0.2-1.4l0-0.2v-0.1c0.1-0.4,0.1-0.9,0.2-1.6l0-0.4l0.1-0.9l0-0.5l0.1-1.4c0,0,0.1-0.2,0.1-0.5
			l0-0.4l0.1-1.1l-0.1-1.2l0.1-0.7l-0.1-0.6l0.2-1v-0.2c-0.1-1.2-0.1-2.3-0.2-3.1l-0.1-2.1l0,0v0l-0.3-2.9c0,0-0.1-0.6-0.2-1.7
			l0.1-0.6c-0.1-0.3-0.2-0.5-0.4-0.5h-0.7c-0.3,0-0.8-0.2-1.3-0.5c-0.2-0.2-0.4-0.5-0.4-0.8v-0.1c0-0.4,0.4-0.7,1.3-0.7L137.1,132.5
			z M136.5,141.3h-0.1l-0.1-0.1c0-0.1,0.1-0.1,0.2-0.1c0.1,0,0.1,0,0.1,0.1v0C136.5,141.3,136.5,141.3,136.5,141.3z M136.3,136.9
			L136.3,136.9L136.3,136.9L136.3,136.9l0.1,0L136.3,136.9L136.3,136.9L136.3,136.9z M136.4,136.7v-0.1l0.1-0.1h0.1
			c0.2,0,0.3,0.1,0.3,0.3l-0.1,0.1h-0.2L136.4,136.7z M136.6,140.3L136.6,140.3l-0.1-0.1v0c0-0.1,0.1-0.1,0.2-0.1h0
			c0.1,0,0.1,0.1,0.1,0.1v0C136.7,140.3,136.7,140.3,136.6,140.3z M136.8,137.8h-0.1c-0.1,0-0.1,0-0.1-0.1c0-0.1,0.1-0.1,0.2-0.1
			c0.1,0,0.2,0,0.2,0.1L136.8,137.8L136.8,137.8z M136.6,138.1L136.6,138.1l0-0.1h0L136.6,138.1L136.6,138.1z M137.2,138.3
			L137.2,138.3l0.4-0.2C137.5,138.2,137.3,138.3,137.2,138.3z M137.8,141.6c-0.2,0-0.2-0.1-0.2-0.2c0-0.1,0.1-0.1,0.2-0.1
			c0.1,0,0.2,0,0.2,0.1v0.1C138,141.5,137.9,141.6,137.8,141.6z"/>
	</g>
	<g>
		<path class="st4" d="M217.8,13.3c-4.4,6.8-5.7,15.2-5.6,23.3c0,3.8,0.3,7.7,1.6,11.3c3.8,10.7,15.6,16.8,27,17.4
			c3.2,0.2,6.4-0.1,9.4-0.9c11.2-3.1,18.8-14.6,19.3-26.3c0.5-11.6-5.2-22.9-13.3-31.2c-2.5-2.5-5.2-4.9-8.5-6.2
			c-5.6-2.2-11,0.6-16.4,2.1C225.7,4.6,220.9,8.5,217.8,13.3z"/>
		<path class="st2" d="M258.8,15.5c-1.1-0.7-2.6,0.1-3.6,0.9c-5,3.7-9,8.6-12.9,13.3c-2.5,3-5,6.1-7.5,9.1c-0.9,1.1-1.9,2.3-3.1,3.2
			c-1.7-3.1-3.5-6.2-5.2-9.4c-0.5-0.9-1.1-1.9-2.1-2.2c-0.9-0.2-1.9,0.2-2.4,0.9c-0.6,0.7-0.7,1.7-0.7,2.6c0,1,0.3,1.9,0.8,2.8
			c0.3,1.4,1,2.7,1.6,4c1,2.1,2.1,4.3,3.1,6.4c0.6,1.2,1.2,2.5,2.3,3.3c0.7,0.5,1.5,0.8,2.3,1c0.6,0.1,1.3,0.2,1.9,0
			c0.4-0.2,0.8-0.6,1.1-1c7.9-9.9,15.9-19.8,23.8-29.7c0.6-0.8,1.3-1.6,1.5-2.6C260,17.2,259.7,16,258.8,15.5z"/>
	</g>
</g>
<g>
</g>
<g>
</g>
<g>
</g>
<g>
</g>
<g>
</g>
</svg>
