<?xml version="1.0" encoding="utf-8"?>
<!-- Generator: Adobe Illustrator 21.0.0, SVG Export Plug-In . SVG Version: 6.00 Build 0)  -->
<svg version="1.1" id="Capa_1" xmlns="http://www.w3.org/2000/svg" xmlns:xlink="http://www.w3.org/1999/xlink" x="0px" y="0px"
	 viewBox="0 0 238.3 179.5" style="enable-background:new 0 0 238.3 179.5;" xml:space="preserve">
<style type="text/css">
	.st0{fill:#29ABE2;}
	.st1{fill:#CCCCCC;}
	.st2{fill:#B3B3B3;}
	.st3{fill:#FFFFFF;}
	.st4{fill:#E4294D;}
	.st5{fill:#C3996D;}
	.st6{fill:#39B24A;}
</style>
<g>
	<g>
		<path class="st0" d="M38.9,90.6c0.1,1.2,0.1,2.4,0.6,3.5c0.7,1.5,2.1,2.5,3.5,3.3c7.6,4.5,16.5,6.1,25.2,7.3
			c39.6,5.7,80,6.2,119.7,1.3c10.7-1.3,16-4.2,25.3-9.5c1.1-0.6,2.3-1.4,2.9-2.6c0.4-0.8,0.5-1.7,0.5-2.6c1-13.2,1.2-41.3,2.1-54.4
			c0,0-2-0.7-3.6,0c-2.1-1.3,0.8-0.4-1.6-0.6c-20.7-1.4-41.6-1.2-62.4-1c-33.9,0.3-67.9,0.7-101.8,1c-1.8,0-3.6,0-5.2,0.7
			c-7.3,2.8-5.6,1.8-7.4,2.4C36.1,50.1,38.3,79.9,38.9,90.6z"/>
		<g>
			<path class="st1" d="M203.8,33c-4.2-2.3-9-3.3-13.7-4.1c-34-5.7-68.8-1.6-103.2,1C72.5,30.9,57.4,32,45.4,40
				c-2,1.4-4.1,3.1-5.1,5.3c1.7,1.1,3.7,1.7,5.7,2.2c9.6,2.6,19.4,4.1,29.2,5.4c43.1,5.5,87.5,6,129.2-6.1c2.8-0.8,5.7-1.8,8.3-3.2
				C211.5,39,207.9,35.2,203.8,33z"/>
			<path class="st2" d="M218.6,35.1c-0.3-0.6-0.8-1.1-1.4-1.5c-4.7-3.7-9.9-6.9-15.6-8.5c-4.9-1.4-21.4-4-40.4-4.7
				c-8.4-0.3-19.2-0.3-27.6-0.1c-7.2,0.2-13.2,0.5-21.4,0.6c-16.8,0.2-35,0.9-51.4,4.4c-7.2,1.6-14.5,3.9-20.3,8.4
				c-1.7,1.3-3.4,3-3.7,5.1c-0.3,2.3,1,4.5,2.8,5.9c0.2,0.2,0.4,0.3,0.7,0.5c1-2.1,3.1-3.9,5.1-5.3c12-8,27.2-9,41.6-10.1
				c34.4-2.6,70.9-6.4,105-0.7c4.7,0.8,7.7,1.5,11.9,3.8c4.1,2.3,7.7,6,8.7,10.6c2.2-1.3,4.1-2.9,5.4-5.1
				C218.6,37.5,219,36.2,218.6,35.1z"/>
		</g>
		<path class="st2" d="M195.9,38.4c-0.1-0.8-0.6-1.6-1.3-2.1c-1.8-1.7-4.4-2.2-6.8-2.6c-5.9-0.9-11.9-1.2-17.8-1.1
			c-11,0.2-21.9,1.5-32.8,2.1c-3,0.2-10.2-0.3-11.1,3.8c-0.9,4.6,6.5,6.9,9.6,7.6c7.2,1.6,14.5,1.9,21.9,1.9
			c5.9,0,11.8-0.3,17.7-0.9c5.5-0.5,11.1-1.3,16.1-3.6c1.6-0.8,3.3-1.8,4.1-3.4C195.8,39.7,196,39,195.9,38.4z M164.7,46.2
			c-10.8,0.9-22.2,0.6-31.9-4.4c-1.1-0.6-2.4-1.7-1.8-2.8c0.3-0.6,1.1-0.9,1.8-1c3.9-0.9,7.8-1,11.8-1c4.1,0,8.2,0,11.9,1.8
			c1.2,0.5,2.2,1.2,3.3,1.9c1.9,1.2,3.8,2.5,5.8,3.7c0.3,0.2,0.6,0.4,0.7,0.7C166.5,45.8,165.4,46.2,164.7,46.2z M192.5,39.9
			c-2.2,2.4-5.7,3.1-8.9,3.6c-3.7,0.6-7.4,1.2-11.2,1.3c-1.4,0-2.9,0-4.1-0.8c-0.9-0.6-1.6-1.5-2.3-2.3c-1.4-1.7-3-3.1-4.8-4.3
			c1.1-1.1,2.7-1.5,4.3-1.8c5-1,10.1-1.2,15.1-0.6c0,0,7,1.1,9.8,1.6c1.2,0.2,2.7,0.9,2.6,2.1C193.1,39.1,192.8,39.5,192.5,39.9z"/>
		<g>
			<path class="st3" d="M99.3,74.8L99.3,74.8L99.3,74.8L99.3,74.8L99.3,74.8L99.3,74.8L99.3,74.8z M101.8,74.7l-0.1,0l0-0.1l0,0
				L101.8,74.7L101.8,74.7L101.8,74.7z M105.1,70.9l0.9,0l2.3,0.1l1.7-0.1c0.9,0,1.4,0.3,1.8,1c0.1,0.1,0.1,0.2,0.1,0.3
				c0,0.3-0.3,0.6-0.9,1l-0.6,0.1h0l-0.7,0c-0.7,0.1-1.1,0.4-1.1,0.9l0.1,1l0,0.4c0.3,1.1,0.4,2,0.4,2.7l0.1,0.7l0,0.6
				c0.1,1.5,0.1,2.4,0.3,2.7l0.1,1.6l0,1l-0.2,0.9l0.1,0.8l0,1.6l-0.1,1.1l0,0.3c-0.1,0.3-0.2,1-0.2,2l-0.2,2l0,0.1l-0.3,2.9l0,0.5
				c-0.1,0.5-0.1,1.1-0.1,1.9l0.3,1.2c0,0.2-0.2,0.5-0.6,0.8l-0.2,0.1l-0.3,0c-0.4,0-0.8-0.2-1.3-0.7c-0.4-0.5-0.7-1-0.7-1.5l0-0.6
				l0.2-1.1l0-0.1l0-0.7c0-0.4,0.1-0.9,0.3-1.4l0-0.2l0-0.1c0.1-0.4,0.1-0.9,0.2-1.6l0-0.4l0.1-1l0-0.5l0.2-1.4c0,0,0.1-0.2,0.1-0.5
				l0-0.4l0.1-1.2l-0.1-1.2l0.1-0.7l-0.1-0.6l0.2-1l0-0.2c-0.1-1.2-0.2-2.3-0.3-3.1l-0.1-2.2l0,0v0l-0.4-2.9c0,0-0.1-0.6-0.3-1.7
				l0.1-0.6c-0.1-0.3-0.3-0.5-0.5-0.5l-0.8,0c-0.4,0-0.9-0.2-1.5-0.5c-0.3-0.2-0.5-0.5-0.5-0.8l0-0.1c0-0.5,0.5-0.7,1.5-0.7
				L105.1,70.9z M104.4,79.8l-0.2,0l-0.1-0.1c0-0.1,0.1-0.1,0.2-0.1c0.1,0,0.1,0,0.2,0.1v0C104.5,79.8,104.5,79.8,104.4,79.8z
				 M104.2,75.4L104.2,75.4L104.2,75.4L104.2,75.4l0.1,0L104.2,75.4L104.2,75.4L104.2,75.4z M104.3,75.2l0-0.1l0.2-0.1h0.1
				c0.2,0,0.3,0.1,0.3,0.3l-0.2,0.1l-0.2,0L104.3,75.2z M104.6,78.8L104.6,78.8l-0.2-0.1l0,0c0-0.1,0.1-0.1,0.2-0.1l0,0
				c0.1,0,0.1,0.1,0.1,0.1v0C104.7,78.8,104.7,78.8,104.6,78.8z M104.8,76.3l-0.2,0c-0.1,0-0.1,0-0.1-0.1c0-0.1,0.1-0.1,0.2-0.1
				c0.1,0,0.2,0,0.2,0.1v0L104.8,76.3z M104.6,76.6L104.6,76.6l0-0.1h0L104.6,76.6L104.6,76.6z M105.3,76.8L105.3,76.8l0.5-0.2
				C105.6,76.7,105.4,76.8,105.3,76.8z M106,80.1c-0.2,0-0.3-0.1-0.3-0.2c0-0.1,0.1-0.1,0.2-0.1c0.1,0,0.2,0,0.3,0.1l0,0.1
				C106.2,80,106.1,80.1,106,80.1z"/>
			<path class="st3" d="M126.6,70.3c0.5,0,1,0.4,1.5,1.2l0.2,0.8l0,1.2c-0.1,0.6-0.2,1.2-0.2,1.9l0,0.3c-0.1,0.4-0.2,1.1-0.2,1.9
				l0,0.6l-0.1,0.8l0.1,0.7l0,0.6l0.1,1.4l0,0.4l0,0l0,0l0,0.5c-0.2,1.6-0.4,2.7-0.3,3.2l0.1,0.5l0,0.4l0,1.3c0.1,1,0.2,2,0.2,3
				l-0.1,0.8l0,0.4l0,0.1l-0.1,0.7c0.1,1,0.1,1.6,0.2,1.9l-0.1,1l0.1,0.9c0,0.7-0.2,1.6-0.7,2.5c-0.2,0.2-0.6,0.5-1.1,0.8
				c-0.4,0.5-0.9,0.7-1.6,0.7c-0.7,0-1.6-0.2-2.8-0.5c-1-0.4-1.8-1.2-2.4-2.2c-0.2-0.5-0.3-1-0.3-1.6c0-0.2-0.1-0.6-0.3-1.4
				l-0.1-0.9l0-0.6l-0.1-1.2l0-0.8l-0.1-0.9l0.1-0.8l-0.1-0.9c0-0.3,0.1-0.7,0.2-1.3l0-0.6l0.3-1.6l-0.1-0.6c0.1-0.5,0.1-0.8,0.2-1
				l-0.1-1.5l0.1-0.8l0-0.2l0-1.6l0.1-2.2l-0.1-0.9l0-0.8c0-0.4-0.1-1.2-0.3-2.4c0-0.6-0.1-1.3-0.2-1.9l0-0.1
				c0.1-0.2,0.5-0.4,1.2-0.4c0.3,0,0.9,0.4,1.6,1.3l0.1,0.5l0,0.4c0.2,1.3,0.3,2.1,0.3,2.5l0,1.2l0.1,0.6c-0.1,1.1-0.1,1.9-0.2,2.4
				l0,0.2l0.1,0.5l0,0.7l0,0.6c-0.1,0.5-0.1,1.1-0.1,1.7l0.1,0.4l0,0.2c-0.2,2-0.3,3.2-0.5,3.5l0.1,0.6l0,0.2l-0.1,0.7l0.1,1.5
				l-0.1,0.6l0.1,0.5l0,0.4l0.2,2.8c0.2,0.4,0.2,0.8,0.3,1.2c0.1,0,0.2,0.5,0.3,1.6c0.1,0.3,0.3,0.6,0.7,0.7l0.6,0.1
				c0.9,0,1.5-0.4,1.9-1.1l0.1-0.8l-0.1-1.1l0-2c0-0.3-0.1-0.8-0.2-1.3l0.2-2.2v0c-0.1-0.5-0.1-1.1-0.2-1.9l0-0.8l0,0l0,0l0-0.2
				l0.1-0.6l-0.1-0.5l0-0.5l-0.1-1l0-0.2l0,0l0,0l0-0.1c0-0.2,0.1-0.8,0.3-1.9h0l0,0l0-0.6l-0.1-1.7l0-0.4l0-1.4l0-0.3l0.2-2.1
				c0-0.3,0.1-0.9,0.2-1.9l0-0.1l0,0l0,0l0-0.5l0,0l0.1-0.6l-0.3-1.7l0-0.1c0-0.3,0.3-0.4,1-0.5L126.6,70.3z"/>
			<path class="st3" d="M137.1,71L137.1,71c0.5,0,1,0.4,1.6,1.1c0.1,0.2,0.3,0.6,0.4,1.2c0.2,0.6,0.5,1.3,0.8,2.1
				c0.1,0.2,0.3,0.9,0.8,1.9h0c0.3,0.5,0.6,1.5,0.9,2.8c0.1,0,0.2,0.3,0.4,1l0.4,1c0.5,1,0.7,1.7,0.7,2l0.3,0.5
				c0.3,0,0.4-0.1,0.4-0.3l0-0.1l0-0.7l0.1-0.9l0-0.6l0.1-0.7l0-0.2l0.1-0.8c-0.1-0.4-0.2-1.1-0.2-1.9l-0.3-1.9l0-0.6l-0.1-0.5
				l0-0.7l-0.2-1.6c0-0.3,0.1-0.5,0.1-0.5l0,0l0-0.2l0.1-0.8c0.2-0.4,0.6-0.5,1.2-0.5c0.2,0,0.5,0.2,0.8,0.5
				c0.4,0.4,0.6,0.6,0.6,0.8l-0.2,0.5l0.2,0.6l0,0.3c0.1,0.5,0.2,1.5,0.3,2.8c0.1,1.4,0.2,2.4,0.4,3.1l0,1.2l-0.1,0.8l0.1,0.8
				l-0.1,1l0,0.8l-0.1,0.5l0.1,0.8l-0.1,0.7l0,0.8l-0.2,2l0,0.3c0,0.5,0.1,1.1,0.2,1.8l0,0.5l0.1,0.5c0,1.5-0.1,2.4-0.3,2.8
				c0.1,0.3,0.1,0.6,0.1,0.9c0.1,0.9,0.1,1.4,0.2,1.4h0l-0.1,2.1V99c0,0.3-0.1,0.6-0.4,0.8l-0.3,0.1c-0.6,0-1.2-0.4-1.8-1.1
				c-0.2-0.3-0.3-0.6-0.4-1h0c-0.1-0.2-0.2-1-0.3-2.2c-0.1-0.6-0.2-1.2-0.2-1.8c0,0-0.1-0.1-0.1-0.2h0c-0.2-0.3-0.3-0.6-0.3-1l0,0
				c-0.1-0.1-0.2-0.6-0.3-1.5c0,0-0.1-0.1-0.1-0.2h0l-0.3-1l0,0v0l-0.3-1.3l0,0l-0.6-2.3h0c-0.4-0.9-0.7-2-1-3.1
				c-0.4-1.1-0.7-1.7-0.9-1.7c-0.2,0-0.3,0.1-0.3,0.4l0.1,1.1l0,0.7l0,0l0.1,0.7l0,0.8l-0.1,0.6l0.3,3.1l-0.1,0.8l0,0.2l0.2,1.3
				l0-0.5l0,0l0,0l0,0.3l0.1,1.2l-0.1,1.7l0.1,0.6l0,0.4c0,0.6,0,1-0.1,1.2l0,0l0,0l-0.2,1.8l0,0.3l0,0.4c0,0.6-0.4,0.9-1.2,0.9
				c-0.2,0-0.7-0.3-1.3-1c-0.1-0.2-0.1-0.4-0.1-0.6l0-0.3l0,0c0.2-0.4,0.4-0.7,0.4-0.8l0,0c0-1,0-1.7,0-2.1l0-0.1l0-0.3l0-0.2
				l-0.1-0.1l0-0.8l0-0.8l0.1-0.9l0-0.1l-0.2-2.4l0-0.4l0-0.5l0-0.4l-0.1-0.6l0,0l-0.1-0.9l0-0.7l0.1-0.6l0-0.3l0-0.2
				c0-0.1,0.1-0.3,0.1-0.6h0l0,0c-0.1-0.3-0.2-0.6-0.2-0.9l0-0.3c-0.1-1.6-0.2-2.8-0.3-3.7l0-0.2l0-1.2l-0.1-1l0-0.2l0-1
				c-0.1,0-0.1-1.1,0-3.2h0l0,0v0l0-0.6l0-0.1h0C136.3,71.1,136.7,71,137.1,71z"/>
			<path class="st3" d="M156.6,71.2c0.5,0.2,0.8,0.2,0.9,0.2c0.2,0,0.4,0,0.7-0.1c0.4,0.2,0.8,0.5,1,0.8c0.3,0.3,0.5,0.8,0.5,1.7
				c0.1,0.3,0.2,1.2,0.4,2.6l-0.1,0.6c0.3,0.7,0.4,1.3,0.5,1.9c0.1,0,0.1,0.5,0.3,1.6c0,0.1,0.1,0.6,0.3,1.6l0,0.2l0.1,2v0l-0.1,0.6
				c0.2,0.7,0.3,1.2,0.3,1.7l0,0.2l0,0.4c0.2,0.7,0.3,1.5,0.3,2.2l0,0.1l0.1,0.8l-0.1,0.7c0.2,0.7,0.3,1.6,0.3,2.5l0,0l0,0l0.1,0.6
				c-0.1,0.1-0.1,0.3-0.1,0.6c0.1,0.2,0.1,1.1,0.2,2.7l0.1,0.2h0c0.1,0.3,0.2,0.6,0.2,0.8c0,0.4-0.2,0.7-0.5,0.8
				c0,0-0.1,0.1-0.2,0.1l-0.2,0l-0.2,0c-0.3,0-0.8-0.3-1.3-0.9c-0.3-0.4-0.4-0.9-0.4-1.4c0,0-0.1-0.4-0.1-1.2l0.1-0.5
				c0-0.8-0.1-1.3-0.1-1.3l0,0l0-0.3l0-1c0-0.6-0.2-0.9-0.5-0.9l-1.6,0c-0.4,0-0.6,0.3-0.7,0.7l0,0l0,0.7l0,0.4l0.1,0.8
				c0,0.3,0,0.6-0.1,0.8h0c-0.1,0.4-0.2,0.8-0.3,1.3l0.1,0.8c0,1.3-0.2,1.9-0.3,1.9c-0.2,0.1-0.3,0.2-0.4,0.2
				c-0.6,0-1.2-0.3-1.7-0.9l-0.2-0.5l0-0.1l0.1-0.6l0-0.2l0,0l0,0l0-0.5c0.2-1.4,0.2-2.3,0.2-2.6l0-0.2l0-0.1l0-0.1l0-0.8l0.1-0.8
				l0-0.3L154,91l0-0.1c0-0.2,0-0.3-0.1-0.5h0c-0.1-0.2-0.1-0.3-0.1-0.5l0-0.5c0.2-0.4,0.2-0.9,0.2-1.3l0-0.8l0.1-1.8L154,85l0-0.5
				c0.3-0.9,0.4-1.5,0.4-1.8h0l0.3-1.4h0c0.2-0.4,0.3-0.7,0.3-0.8l0-0.5l0,0l0,0l0-0.4l0-0.5l0.1-0.5l0-0.4l0.2-2l0-0.3v0
				c0-0.4,0.1-1.1,0.2-2.1l-0.1-1.5C155.2,71.7,155.7,71.4,156.6,71.2L156.6,71.2z M157.8,79.6c-0.2,0.2-0.3,0.5-0.4,0.9h0l-0.2,1.2
				l-0.3,1.2l0,0.5l-0.1,0.5h0c-0.2,0.3-0.2,0.7-0.2,1.1l0.1,1c-0.1,0.8-0.1,1.6-0.1,2.4l0,0.2c0,0.3,0.3,0.4,0.7,0.5
				c0.3,0.1,0.7,0.1,1.2,0.1c0.3-0.1,0.4-0.2,0.4-0.4l0-0.1c0-0.4,0-0.6-0.1-0.6l0,0c-0.1-0.8-0.2-1.7-0.2-2.8
				c-0.1-0.3-0.1-0.6-0.1-0.9l0-0.6l-0.1-0.7l0-0.6c-0.1-0.2-0.2-1-0.3-2.4C158.1,79.8,158,79.6,157.8,79.6z"/>
		</g>
		<path class="st0" d="M59.1,89c2.5-0.1,4.9-1.1,7.3-2.1c7.5-3.1,15.1-6.3,21.6-11.2c-0.6,5.3-1.3,10.5-1.9,15.8
			c-0.7-1.3-1.5-2.6-2.4-3.7c-1.7-2.2-3.8-4.1-6-5.8c-3.9-3.1-8.4-5.6-13.2-6.7s-10.2-0.8-14.5,1.6c-1.3,0.7-2.6,1.7-3.1,3.1
			C44.4,86.5,54.7,89.2,59.1,89z"/>
		<path class="st0" d="M194.6,74.4c-2,0.7-3.7,2-5.4,3.3c-5.4,4.2-10.8,8.5-15,14c-0.7-4.4-1.3-8.8-2-13.2c0.9,0.9,1.8,1.7,2.8,2.5
			c1.9,1.4,4,2.4,6.1,3.3c3.9,1.6,8,2.7,12.2,2.5c4.2-0.2,8.4-1.6,11.4-4.6c0.9-0.9,1.7-2,1.8-3.2C207,73.1,198.1,73.2,194.6,74.4z"
			/>
	</g>
	<g>
		<path class="st4" d="M46.8,82.7c-0.5-4.5-1.3-9.1-2.9-11c-0.6-0.7-1.3-1-2-1.2C28.5,66.2,16.1,70,5,71.1c-1.1,0.1-2.2,0.3-3,2.4
			c-0.5,1.3-0.8,3.2-1.1,5c-0.8,6.2-0.8,13-0.9,19.6c0,11.4-0.1,22.8-0.1,34c0,3.8,0.1,8.1,1,10.8c0.5,1.5,1.3,2.2,2,2.7
			c2.5,1.9,5.1,2.4,7.8,2.8c9.6,1.4,19.9,1.2,31.2,1.1c1.5,0,3.1-0.2,4.2-2.5c1.4-3,1.5-8.2,1.5-12.9c0-6,0.1-12.1,0.1-18.2
			C47.8,104.8,47.9,93.4,46.8,82.7z M26.7,76.8c-0.1,0.2-0.4,0.4-0.6,0.5c-0.7,0.5-1.5,0.9-2.3,1c-0.5,0-0.9,0-1.4-0.1
			C22,78.1,21.5,78,21,78c-0.4-0.1-0.8-0.1-1.1-0.3c-1-0.6-1.2-2.1-0.6-3c1-1.6,3.7-2,5.5-1.8C26.5,73.1,27.7,75.2,26.7,76.8z"/>
		<g>
			<path class="st3" d="M15,86.4c0.4,0.2,0.8,0.6,1,1.2c0.4,0.4,0.6,0.7,0.7,0.8h-0.1l0.1,0.1v0L16.6,89l0.2,1.1l-0.1,0.1v0.8
				l-0.3,2.3c0,0.5,0.5,1.1,1.4,1.9c0.9,1,1.5,2,1.7,3l0.6,2.4v1.9l0.1,0.3c0,0.5-0.2,1.1-0.7,1.8c-0.3,0.3-0.5,0.4-0.6,0.4h-0.1
				c-0.6,0-1.1-0.4-1.6-1.1c-0.4-0.3-0.6-0.8-0.6-1.3v-0.1l0.1-0.9v-0.3c-0.3-1-0.4-1.9-0.5-2.6C15.8,97.5,15.4,97,15,97
				c-0.4,0-1,0.5-1.7,1.4c0,0.4-0.3,1-1,1.6c0,0.2-0.1,0.3-0.2,0.4l0.1,0v1.1l-0.4,2.7c0.2,1.7,0.3,2.5,0.5,2.5
				c0.5,1,1.4,1.8,2.8,2.5c1.7,1.3,2.9,2.6,3.7,4c0.6,1.7,0.8,3.1,0.8,4.1c0.1,0.3,0.3,1.4,0.4,3.1v1.7l-0.2,2l0.1,0.2
				c-0.1,1.6-0.3,2.6-0.6,3c-0.2,0.5-0.5,1.2-1,2.3l-1.9,2l-0.1,0.6l0.1,1.6v1l-0.1,2.1h0.1l-0.2,2c0,0.2-0.2,0.4-0.7,0.7h-0.6
				c-0.6,0-1.2-0.6-2-1.8c-0.2-0.3-0.2-0.6-0.2-0.9l0.1-1.4l-0.1-0.4l0.2-1.5v-0.1l-0.1-1.9l0.1-0.4h0l0-0.1v-0.4
				c0-0.3-0.5-0.8-1.4-1.4c-1.7-1.8-2.5-3.2-2.5-4.3c-0.1,0-0.1-0.4-0.2-1.3l0.1-3.5v-0.7c0-0.5,0.5-0.8,1.6-1
				c0.5,0,0.9,0.4,1.4,1.3c0.4,0.4,0.6,0.7,0.6,0.9v1.3l-0.1,0.8c0.2,2.6,0.5,4.1,1.1,4.4c0.3,0.3,0.7,0.5,1.2,0.5
				c0.9-0.3,1.5-1.8,1.8-4.5l0.1-0.5l-0.1-0.7l0.1-1.5c-0.5-4.2-0.9-6.7-1.4-7.6c0-0.4-0.4-1-1.2-1.8c-1.1-0.7-2.4-1.5-3.6-2.6
				L9,107c-0.5-0.7-0.8-1.4-0.8-2.1l0.1-1l-0.1-1c0.1-1.1,0.3-1.9,0.5-2.4c0-0.7,0.2-1.4,0.5-2c0.5-1.4,1.1-2.4,1.8-2.9l0.8-1.1
				c0.7-0.4,1-1.2,1-2.6l0.1-1.5v-1.6c0-1.3,0.3-2,0.9-2.1l1-0.3H15z"/>
			<path class="st3" d="M25,90.9c0.9,0,2.8,0.2,5.5,0.5c1.3,0.2,2.2,0.6,2.8,1c0.4,0.5,0.6,0.9,0.6,1.2c0,0.7-0.3,1.1-0.9,1.2
				c-2.6-0.3-4.3-0.5-5.2-0.5c-0.5,0-0.9,0.3-1.2,1c-0.3,2.9-0.4,4.8-0.4,5.7c-0.1,0-0.2,0.6-0.3,1.7l0.1,1.4l-0.1,1.2
				c0,1.4,0.2,2,0.7,2v0.1c0.2-0.1,0.5-0.1,0.9-0.1h0.7c1.2,0,2.5,1,3.9,3c0.4,0.9,0.7,1.8,0.7,2.6c0.1,0.3,0.2,1,0.3,2
				c0.1,0,0.1,0.6,0.2,1.9c0.2,0.3,0.3,1.4,0.3,3.4l0.2,2.5l-0.1,4v0.3l0.1,0.6c0,1-0.2,2-0.7,3c-0.2,1.6-0.4,2.5-0.7,2.5l-0.3,0.9
				c-0.4,0.7-0.8,1.4-1.3,2.1c-0.1,0-0.1,0.1-0.1,0.4c-0.3,0.4-0.7,0.7-1.2,0.8c-0.9,0.5-1.4,0.7-1.5,0.7h-0.2
				c-0.7,0-1.6-0.4-2.7-1.3c-1.2-1.4-1.8-2.4-1.8-3.1c-0.3-1-0.7-2.5-1-4.3l-0.2-1.8c0-0.6,0.1-2,0.4-4c0-0.9,0.4-1.5,1.2-2
				c0.2,0,0.3-0.1,0.4-0.2c0.3,0,0.5,0.1,0.7,0.3c0.4,0,0.8,0.6,1.3,1.9l-0.3,3.1l0.1,0.5l-0.1,1c0.3,2.3,0.7,4,1.2,5.2
				c0,0.6,0.2,0.9,0.6,0.9c0.3,0,0.7-0.5,1.2-1.6c0.1-0.3,0.3-0.9,0.6-1.9c0.3-0.5,0.6-1.7,0.9-3.5c0-4.6-0.1-7.3-0.4-8.2v-1.6
				c-0.3-3.1-0.6-5-0.9-5.9c-0.3-0.3-0.5-0.4-0.6-0.4l-0.2,0.1v-0.1c-0.7,0.3-1.4,0.8-2,1.4c-0.3,0.4-0.5,0.6-0.8,0.6h-0.4
				c-1.1-0.4-1.9-1-2.3-1.8c-0.2-0.3-0.3-0.7-0.3-1.2c0.2-0.8,0.3-1.7,0.3-2.7l-0.1-0.5v-0.5l-0.1-1.7l0.1-1.3l-0.1-0.7l0.2-1.3
				v-1.2c0-0.5,0.1-1.6,0.3-3.1l-0.1-1.7c0.2-1.9,0.4-2.8,0.6-2.8C23.9,91.4,24.5,90.9,25,90.9z"/>
		</g>
		<path class="st5" d="M25.4,55.3c1.1-2.5,2.7-4.8,4.4-7c1.6-2,3.4-4,5.5-5.5c1.8-1.3,3.9-2.3,6.1-3.1c6-2.2,12.4-2.9,18.7-2.1
			c1.1,0.1,2.2,0.3,3.3-0.1s1.8-1.6,1.4-2.6c-0.4-0.9-1.6-1.2-2.6-1.2c-1.6-0.1-3.2-0.1-4.8-0.1c-3.5,0.1-7,0.3-10.5,0.6
			c-3.4,0.3-6.8,0.7-10,1.9c-6.3,2.6-10.7,8.4-13.8,14.4c-2.4,4.6-4.2,9.7-3.8,14.8c0.2,2.7,1,5.2,1.7,7.8c0.2,0.7,0.5,1.5,1,1.9
			c1.6,1.4,2.2-0.5,2.1-1.7c-0.2-2.1-0.4-4.2-0.5-6.3C23.4,63.2,23.7,59,25.4,55.3z"/>
	</g>
	<g>
		<path class="st6" d="M201,4.8c-4.1,2.9-8.2,6.3-9.9,11.1c-1.2,3.4-1,7.1-0.6,10.7c0.8,6.5,2.6,13.5,7.9,17.3
			c3.6,2.6,8.3,3.3,12.8,3.5c3.3,0.2,6.6,0.1,9.8-0.7c10.1-2.4,17.8-12.6,17.3-23c-0.1-2.9-0.8-5.7-1.8-8.4
			c-1.1-3.1-2.5-6.1-4.7-8.5C223.8-2.1,210.1-1.7,201,4.8z"/>
		<path class="st3" d="M204.2,36.7c0.2,0.3,0.5,0.6,0.8,0.7c0.5,0.2,1,0,1.5-0.3c2.1-1.1,3.9-2.7,5.7-4.3
			c6.4-5.8,12.9-11.7,19.2-17.7c1-1,2.1-2.5,1.3-3.6c-0.5-0.6-1.3-0.8-2.1-0.6c-0.7,0.2-1.4,0.7-2,1.1c-6.8,5.3-13.5,10.5-20.3,15.8
			c-0.3,0.3-0.7,0.5-1.1,0.6c-0.4,0-0.8-0.1-1.1-0.2c-2-0.8-3.5-1.7-5.1-3c-1.2-1-2-1.3-2.4,0.6C198,29.4,202.2,34.2,204.2,36.7z"/>
	</g>
</g>
<g>
</g>
<g>
</g>
<g>
</g>
<g>
</g>
<g>
</g>
</svg>
