<?xml version="1.0" encoding="utf-8"?>
<!-- Generator: Adobe Illustrator 21.0.0, SVG Export Plug-In . SVG Version: 6.00 Build 0)  -->
<svg version="1.1" id="Capa_1" xmlns="http://www.w3.org/2000/svg" xmlns:xlink="http://www.w3.org/1999/xlink" x="0px" y="0px"
	 viewBox="0 0 57.7 60" style="enable-background:new 0 0 57.7 60;" xml:space="preserve">
<style type="text/css">
	.st0{fill:#63C2F3;}
	.st1{fill:#88C230;}
</style>
<g>
	<g>
		<path class="st0" d="M56,15.5c-0.9-2.6-2.1-5.2-3.8-7.4c-1.9-2.5-4.2-4.5-7-5.8C42.1,0.7,22.5-4,9.1,7.5c-2,1.7-3.7,3.8-5.1,6
			c-1.9,3-3.1,6.4-3.7,9.9C0,25.9,0,28.4,0,31c0.1,5.4,0.6,10.8,2.6,15.9c0.7,1.9,1.7,3.7,3,5.3c2.1,2.4,5,3.9,7.9,5
			c7.8,3,16.5,3.7,24.7,2.1c1.5-0.3,3-0.7,4.5-1.1c1.2-0.4,2.4-0.8,3.5-1.3c0.7-0.4,1.5-0.8,2.2-1.2c1.7-1.2,3-2.8,4.1-4.5
			c3.4-5.3,4.6-11.8,5.1-18.1C57.9,27,57.8,21.1,56,15.5z"/>
	</g>
	<g>
		<path class="st1" d="M39.9,49c0-0.4,0.1-0.7,0.2-1.1c0.1-0.9-0.5-1.8-0.4-2.8c0.1-0.9,0.8-1.7,1.5-2.4c1.4-1.5,2.4-3.4,3-5.3
			c0.1-0.3,0.2-0.6,0-0.9c-0.2-0.4-0.8-0.4-1.2-0.3c-1.3,0.1-2.6,0.3-3.9,0.4c-0.4,1.7-1.7,3.4-3.4,3.3c-1.8-0.1-2.8-2-3.4-3.6
			c-0.8-2.1-1.7-4.2-2.5-6.3c-0.5-1.2-0.9-2.4-1.1-3.6c0-0.4,0-0.9,0.2-1.3c0.2-0.3,0.5-0.4,0.8-0.6c1.6-0.7,3.3-1.1,5.1-1.2
			c0.4,0,0.8,0,1.1,0.2c0.4,0.2,0.8,0.6,1.1,1c0.9,1.1,1.7,2.2,2.3,3.4c0.3,0.7,0.5,1.6,1.1,2.2c0.6,0.6,1.6,0.8,2.1,0.2
			c0.6-0.7,0-1.7-0.5-2.5c-0.8-1.1-1.4-2.2-1.5-3.5c-0.2-1.9,0.9-3.7,2.2-5.1s2.9-2.5,4.1-4c0.9-1.1,1.5-2.4,1.9-3.7
			c-1.6-2.1-3.5-3.8-5.9-4.9c-2.7-1.3-19.2-5.3-30.6,4.4C10.4,12.4,9,14.1,7.8,16c0.3,2.6,0.8,5.3,3,6.7l0.2,0
			c1.6,3.1-0.1,6.9,0.4,10.4c0.1,0.5,0.3,1,0.8,1.1c0.5,0,0.8-0.6,0.9-1.1c0.4-2,0-4.5,1.6-5.8c0.3,2.9,1.3,5.7,2.9,8.1
			c1,1.5,2.1,2.8,3.3,4.1c1,1.1,2.1,2.2,3.5,2.5c0.6,0.1,1.2,0,1.8,0.2c1.2,0.4,1.9,1.6,3.1,2.1c1.2,0.5,2.5,0.1,3.7-0.1
			s2.7-0.1,3.4,0.9c0.9,1.3-0.1,3.2,0.4,4.8c0.2,0.7,0.7,1.3,0.6,2c-0.1,0.4-0.5,0.8-0.7,1.2c-0.3,0.5-0.2,1.1,0.2,1.6
			c1.3-0.2,2.5-0.6,3.8-0.9c1-0.3,2-0.7,3-1.1c-0.6-0.4-1.2-0.8-1.8-1.2C40.8,50.9,39.9,50.1,39.9,49z"/>
	</g>
</g>
</svg>
