<?xml version="1.0" encoding="utf-8"?>
<!-- Generator: Adobe Illustrator 21.0.0, SVG Export Plug-In . SVG Version: 6.00 Build 0)  -->
<svg version="1.1" id="Capa_1" xmlns="http://www.w3.org/2000/svg" xmlns:xlink="http://www.w3.org/1999/xlink" x="0px" y="0px"
	 viewBox="0 0 57.7 60" style="enable-background:new 0 0 57.7 60;" xml:space="preserve">
<style type="text/css">
	.st0{fill:#E4294D;}
	.st1{fill:#FFC900;}
</style>
<g>
	<path class="st0" d="M9.1,7.5c-4.7,4-7.8,9.8-8.8,15.9C0,25.9,0,28.4,0,31c0.1,5.4,0.6,10.8,2.6,15.9c0.7,1.9,1.7,3.7,3,5.3
		c2.1,2.4,5,3.9,7.9,5c9.2,3.5,19.7,3.9,29.1,1c2-0.6,4-1.4,5.6-2.6c1.7-1.2,3-2.8,4.1-4.5c3.4-5.3,4.6-11.8,5.1-18.1
		c0.4-5.8,0.3-11.8-1.5-17.4C54.2,9.9,50.5,4.8,45.2,2.2C42.1,0.7,22.5-4,9.1,7.5z"/>
</g>
<g>
	<path class="st1" d="M15.1,10.4h0.2c1.4,0,2.6,0.6,3.6,1.9c1,1,1.6,1.9,1.9,2.8c0.5,1.3,0.7,2.7,0.7,4.1l0.1,0.8l-0.3,1.4
		c-0.2,0.9-0.4,1.3-0.6,1.3c-0.1,0.4-0.2,0.6-0.5,0.6c-0.1,0-0.3-0.1-0.5-0.3c-0.2,0-0.6-0.3-1.2-0.9l-0.1-0.5v-0.1l0.1-0.1
		l-0.1-0.2v-1.6c0-1.8-0.1-2.9-0.4-3.3c-0.5-1.8-1-2.8-1.5-2.8H16c-0.6,0-1,0.4-1.2,1.3l-0.4,2.5c-0.2,0.3-0.3,0.9-0.3,1.8l-0.3,1.9
		v0.8l0.1,0.1l-0.1,0.1v0.6l-0.2,2.5l0.1,0.7l-0.1,0.5l0.1,1.2l-0.1,0.5l0.1,0.7l-0.1,0.9c0,1.9,0.1,2.8,0.2,2.8l-0.1,0.1v0.2
		l0.2,2.3c0.2,0.5,0.4,2.1,0.4,4.6l0.1,0.6c-0.1,0.2-0.1,0.5-0.1,0.9l0.1,0.6l0,0.1v0.1l0.2,1.9c0,0.7,0.2,1.6,0.7,2.8
		c0.3,1.3,0.7,1.9,1.2,1.9c1-0.1,1.5-0.3,1.5-0.8c0.2,0,0.2-0.6,0.3-1.7l0.2-2.1L18.4,42l-0.1-1.7v-1.4l-0.2-1.5v-0.6l0.1-1.4
		l-0.1-0.3l0.1-0.8c0-1.7-0.2-2.5-0.5-2.5c0-0.1-0.3-0.2-0.8-0.4c-0.6-0.3-1-0.7-1.2-1.1c-0.1,0-0.1-0.2-0.1-0.5h-0.1
		c0-0.3,0.4-0.6,1.1-0.8c0.4-0.2,0.8-0.3,1.2-0.3h1.1c0.7,0,1.4,0.6,2,1.8l0.1,0.3v1l0.1,1.5v0.2l-0.1,1.1V35l0.1,1.1v0.2l-0.1,0.9
		c0.1,2.9,0.3,5.1,0.4,6.4c0.1,0,0.1,0.2,0.1,0.5v0.1l-0.2,1.3v0.2c0,0.7-0.1,1.7-0.4,2.9c-0.2,0.5-0.4,0.9-0.6,1.1
		c0,0.1-0.3,0.5-0.9,1c-0.7,0.2-1.3,0.4-1.9,0.4h-1c-0.5,0-1-0.3-1.7-0.7c-1.1-1-1.8-2-2.2-3c-0.8-1.9-1.1-3.6-1.1-5.1l-0.3-4.7
		l0.1-1.2l-0.1-0.2h0.1c-0.1-0.3-0.2-0.7-0.2-1.4v-0.7c-0.2-0.5-0.3-1.5-0.4-3.2c-0.1,0-0.1-0.3-0.1-0.8v-0.8l0.1-1.7l-0.1-0.9h0.1
		l-0.1,0v-0.6l0.1-0.1l-0.1-0.1v-0.1l0.1-0.1l-0.1-0.1v-0.7l0.1,0l-0.1-0.1V25l0.1-1v-0.8l-0.1-0.5c0.1-0.3,0.1-1.3,0.2-3.2l0.1-0.2
		h0c0.1-0.2,0.1-0.6,0.1-1v-0.3l0.4-1.4v-0.7c0.2-1.5,0.6-2.6,1.1-3.5c0.1,0,0.2-0.2,0.3-0.6c0.2-0.1,0.4-0.3,0.7-0.7
		C14.1,10.6,14.6,10.4,15.1,10.4z"/>
	<path class="st1" d="M25,10.8h1.1c0.8,0,2.1,0.5,4,1.4c1.4,1.1,2.2,2,2.4,2.7c0,0.2,0.2,0.6,0.5,1.3c0.2,0,0.3,1.5,0.5,4.5
		c0.1,0,0.1,0.3,0.1,1v0.1c0,0.8,0,1.5-0.1,1.9l0.2,1.9l-0.1,2.3l0.1,1.6l-0.1,2.9c0.1,0.2,0.2,0.9,0.2,2L33.7,35l0.1,1.5l-0.1,0.6
		l0.1,1.1v0.8l0.1,0.5l-0.2,1.1l0.1,2.8l-0.3,3.5c0,0.4-0.2,1.1-0.7,2.1c-0.5,0.5-1.3,1-2.3,1.3c-1,0.3-2.3,0.5-3.7,0.6
		c0,0.1-0.2,0.1-0.5,0.1h-0.4c-0.5-0.1-1.1-0.5-2-1.2L23.5,49l0.4-1.2l-0.1-1.3l0.1-0.2l-0.1-0.3v-1l0.1-0.7v-0.1l0.1-2.4l-0.1-0.8
		l0.1-0.5l0.1-4.3l-0.1-0.6l0.2-2.9c0-0.6-0.1-1.7-0.3-3.2l0.1-0.7l-0.1-1.2l0.1-0.5l-0.1-0.7V26l0.2-1.2c-0.1-0.3-0.1-1.3-0.2-3.1
		l0.1-1.1c-0.1-0.2-0.1-0.8-0.2-2l0.2-0.7v-0.7l0.1-0.9l-0.1-0.8v-0.7L24,14c0-0.2-0.2-0.7-0.5-1.3l-0.1-0.6v-0.5
		C23.7,11.1,24.3,10.8,25,10.8z M27,16c0,1.4,0,2.9-0.1,4.5c0.1,0.5,0.2,1.8,0.2,4c-0.1,0.8-0.1,1.5-0.2,2l0,1.2l0,0.2l0.1,1
		l-0.1,1.1l0.2,1.9l-0.1,5v0.9L27,38.9v2.6l0.1,0.9v0L27,43.3l0.1,0.8l-0.2,1.7v0.4c0,1.1,0.2,1.6,0.7,1.6c1.7-0.3,2.6-0.6,2.6-0.8
		c0.2,0,0.4-0.8,0.5-2.4l-0.1-1.2l0.1-1l-0.1-1.4v-1.1l0.2-1.2v-0.4l-0.2-2.5l-0.1-0.1l0.1-0.6v-0.2l-0.1-1.1l0.1-1.4l-0.1-1.2v-0.6
		l0.1-1.3l-0.1-1.5l0.1-1.6l-0.1-0.6l0.1-0.8l-0.1-1.8v-0.1l-0.1-0.5l0.1-0.4c0-0.8-0.1-1.8-0.2-2.9v-1.2c0-0.8-0.3-1.8-0.9-3.1
		c-0.3-0.5-0.7-0.8-1.5-1l-0.4-0.1C27.2,13.8,27,14,27,14.4V16z"/>
	<path class="st1" d="M38.5,10.4h0.3c0.6,0.1,1,0.1,1.1,0.2v-0.1c1.3,0.5,2.4,1.1,3.4,1.8c1,1,1.6,1.7,1.6,2.2l0.3,2.3l0.2,1l-0.1,1
		c0.2,0.8,0.2,1.5,0.2,2.1v0.6l0.1,2l-0.1,1.3l0.1,0.5l-0.2,0.9c0.1,0.4,0.2,1.4,0.3,3.2l-0.1,0.4l0.2,1.3L45.8,32l0.1,0.7l-0.2,1.9
		c-0.1,0.5-0.5,0.9-1,1.4c-0.1,0.4-0.3,0.7-0.6,0.9c-0.2,0.3-0.9,0.7-2.3,1.1h-0.1l-1.4-0.1c-0.3,0.2-0.5,0.4-0.5,0.6
		c0,0.9,0.1,2.4,0.3,4.4l-0.1,1l0.1,1.2v1.1l0.1,0.7l-0.1,2.8v1c0,0.6-0.2,1-0.5,1.1l-0.3,0.1h-0.3c-0.4,0-0.9-0.3-1.6-1
		c-0.4-0.6-0.6-1-0.6-1.2l0.2-2.1v-0.4l-0.1-1.7v-0.1l0.1-2.1l-0.3-3.5l0.1-0.7l-0.1-2.5v-0.2l0.1-1.6l-0.1-1.3l0.1-0.9L36.6,31
		v-0.2c0.2-1.1,0.2-2.1,0.2-3v-0.1l-0.1-0.8v-2.3l0.4-3l-0.2-1.2l0.1-1.2c-0.1-0.4-0.2-1.3-0.3-2.6c-0.3-2.2-0.5-3.6-0.5-4.4
		c0-0.2,0.3-0.6,0.9-1.2C37.1,10.7,37.6,10.5,38.5,10.4z M37.6,8.7L37.6,8.7L37.6,8.7l0.1-0.1L37.6,8.7L37.6,8.7L37.6,8.7z
		 M39.4,13.9l0.2,1.9c0.1,0,0.3,1.2,0.5,3.6L40,20.3l0.2,1.3c-0.1,1.6-0.2,2.6-0.3,3.2c-0.1,0.1-0.1,0.3-0.1,0.6l0.1,1.1l-0.1,1.2
		l0.1,0.5L39.7,31l0.1,0.9l-0.1,0.6l0.1,1.8v0.3c0.1,0.3,0.4,0.5,0.8,0.5c0.8,0,1.4-0.3,1.8-1c0.2-0.7,0.3-1.3,0.3-1.8v-2.5l-0.3-3
		l-0.1-0.3v-0.3l0.1-1.7v-0.8l-0.1-0.9l0.1-1.3L42.3,20l0.1-0.7v-0.1l-0.1-0.9v-0.9l-0.5-2.8c-0.3-0.9-0.8-1.4-1.6-1.4H40
		C39.7,13.2,39.4,13.5,39.4,13.9z M40.6,8.6h-0.1l0-0.1l0,0h0.1L40.6,8.6L40.6,8.6z M43.6,15.8h-0.2l-0.1-0.1c0-0.1,0.1-0.2,0.2-0.2
		c0.1,0,0.2,0.1,0.2,0.1v0C43.7,15.7,43.6,15.8,43.6,15.8z M43.4,9.6L43.4,9.6L43.4,9.6l0.2,0L43.4,9.6L43.4,9.6L43.4,9.6z
		 M43.5,9.4V9.2L43.7,9h0.1c0.2,0,0.4,0.1,0.4,0.4l-0.2,0.2h-0.3L43.5,9.4z M43.8,14.4L43.8,14.4l-0.2-0.1v-0.1
		c0-0.1,0.1-0.2,0.3-0.2h0c0.1,0,0.2,0.1,0.2,0.2v0C44,14.3,43.9,14.4,43.8,14.4z M44.1,10.9h-0.2c-0.1,0-0.1-0.1-0.2-0.1
		c0-0.1,0.1-0.2,0.3-0.2c0.2,0,0.3,0.1,0.3,0.2v0.1L44.1,10.9z M43.8,11.3L43.8,11.3l0-0.2h0.1L43.8,11.3L43.8,11.3z M44.7,11.5
		L44.7,11.5l0.6-0.3C45,11.5,44.8,11.5,44.7,11.5z M45.5,16.1c-0.2,0-0.3-0.1-0.3-0.2c0-0.1,0.1-0.2,0.2-0.2c0.2,0,0.3,0.1,0.3,0.2
		v0.1C45.7,16,45.6,16.1,45.5,16.1z"/>
</g>
<g>
</g>
<g>
</g>
<g>
</g>
<g>
</g>
<g>
</g>
</svg>
