<?xml version="1.0" encoding="utf-8"?>
<!-- Generator: Adobe Illustrator 21.0.0, SVG Export Plug-In . SVG Version: 6.00 Build 0)  -->
<svg version="1.1" id="Capa_1" xmlns="http://www.w3.org/2000/svg" xmlns:xlink="http://www.w3.org/1999/xlink" x="0px" y="0px"
	 viewBox="0 0 206.7 130.2" style="enable-background:new 0 0 206.7 130.2;" xml:space="preserve">
<style type="text/css">
	.st0{fill:#E4294D;}
	.st1{fill:#FFC900;}
	.st2{fill:#FFFFFF;}
</style>
<g>
	<g>
		<path class="st0" d="M186.6,125.7c2-0.3,0.6,0.6,2-0.3c1.4-0.8,0.8-2,2.5-2.5c1.7-0.6,2.8-4,2.8-4s-1.1-2,0.6-4
			c1.7-2,3.4-1.4,3.7-2.3c0.3-0.8,2.3-3.4,4-5.9c1.7-2.5,2-3.1,2.5-4c0.6-0.8,1.4-2.5,1.4-2.5l0.6-4.5c0,0-0.3-1.7-1.1-5.4
			c-0.8-3.7,0.8-2.5-0.8-3.7c-1.7-1.1-1.4-2-2.3-2.8c-0.8-0.8,0.6-1.1-2.5-2.8c-3.1-1.7-1.4,2.3-4.5-2.5c-3.1-4.8-2-0.8-3.4-5.9
			c-1.4-5.1-2.5-7.6-2.5-7.6l-0.8-4.2c0,0-0.8-0.8-0.3-2.3c0.6-1.4,1.4-3.7,1.4-3.7s1.1-1.7,2-2.8c0.8-1.1,2.8-2.5,2.8-2.5
			s1.4-1.7,2.5-2.9c-1.4-0.1-2.8,0.1-4,0.1c-2,0-5.6-0.3-7.9-0.3c-2.3,0-9.6,0-10.4-0.3c-0.8-0.3-3.7-1.1-4.8-2.5
			c-1.1-1.4-2.5-3.1-2.5-3.1l-5.9-2.5c0,0-1.4,0-2.8-0.6c-1.3-0.5-1.9-2.1-2.2-5.9c0-0.3,0-0.6-0.1-0.9c-0.1-1.9-0.3-2.5-0.6-2.6
			c-0.4-0.3-0.8,0.4-1.1-0.5c-0.4-1,0-1.3,0.8-2.2c0,0,0,0,0,0c-0.4-0.3-1.2-1-2-2.4c-1.1-2-1.7-2.8-1.7-3.7c0-0.8-0.6-2.3-0.6-2.3
			c-1.4,1.7,1.4,1.7-3.4,2.8c-4.8,1.1-4.2,0.3-4.8,1.1c-0.6,0.8,3.1,3.1-0.6,0.8c-3.7-2.3-5.1-2.3-5.6-3.7c-0.6-1.4,0.3-2-1.1-2.8
			c-1.4-0.8-1.7-0.6-2.3-1.7c-0.6-1.1,2-0.6-1.1-2.5c-3.1-2-4.2-3.1-4.2-3.1c-3.4,0-5.4,0.3-5.4,0.3s0,0-1.1,1.7
			c-1.1,1.7-1.4,2.3-2.3,2.3c-0.8,0-2.8,0-4.2,0c-1.4,0,0.8-0.3-2.5,0.3c-3.4,0.6-5.1-0.6-5.1,0.6s3.7,0.3-0.6,2.8
			c-4.2,2.5-2.5,1.4-4.8,3.4c-2.3,2,2-0.3-2.3,2c-4.2,2.3-4.2,2.3-4.2,2.3s0.8,4.2-0.8,0.6c-1.6-3.5-3-10.8-3.1-11.5
			c-0.2-0.1-0.5-0.3-0.9-0.6c-2.3-1.7-3.7-2.5-3.7-4c0-1.4,2.8,0.6,0-2.8c-2.8-3.4,0-2.3-2.8-3.4C81.6,0.6,80.7,0,80.7,0
			s1.4,0.8-1.4,1.7c-2.8,0.8,0-2-2.8,0.8c-2.8,2.8-0.8-0.6-2.8,2.8c-2,3.4-3.4,1.7-2,3.4s1.4,4.2,2,6.2c0.6,2,0.6,0.8,1.4,2.8
			c0.8,2,0.3,2,0.8,4.2c0.6,2.3,2,3.7,2,5.9s3.4,4.2,0,2.3c-3.4-2-4.8-4.5-5.9-5.6c-1.1-1.1-2.8-3.1-2.8-3.1s4.2-0.8-1.1-0.3
			s-1.1,0.6-5.4,0.6s-7.3-4.2-7.3-4.2s-3.4,0.8-4.8,2c-1.4,1.1,4.8-0.8-1.4,1.1s-2,0.6-6.2,2c-4.2,1.4-7.1,1.7-7.1,1.7L31,19.2
			l-4-4.2l-4.8-1.4c0,0,0-0.8-1.1,0.8c-1.1,1.7-0.8,0.8-1.7,2.8c-0.8,2-1.1,5.4-0.6,6.2c0.6,0.8,2.8,0,1.7,2.5
			c-1.1,2.5-1.7,0.8-1.7,4c0,3.1,2.3,2.3-1.4,4c-3.7,1.7,0.3-0.6-3.7,1.7s-3.1,0.8-5.1,2.8s2.8-0.8-2,2c-4.8,2.8-5.1,0-5.1,3.7
			s-3.7,4,0,3.7c3.7-0.3,10.7,1.7,11.6,1.7c0.8,0,4,0,4,0s1.1-0.6,2.5,1.1c1.4,1.7-2.8-0.8,2.5,3.1c5.4,4,1.1,0,5.4,4
			s6.5,4.5,7.3,5.1c0.8,0.6-6.2-3.1,2.3,1.4c8.5,4.5,7.1,3.4,8.5,4.5c1.4,1.1,0.6,2.5,0.6,2.5s-3.1-3.1,1.7,2.3
			c4.8,5.4,0.8,4.2,4.8,5.4c4,1.1,4.8,0.8,6.5,1.7c1.7,0.8-0.6,0,1.7,0.8c2.3,0.8-0.3-0.3,2.3,0.8c2.5,1.1,3.4,1.4,4,2.3
			c0.6,0.8-1.1,1.1,3.1,2.3c4.2,1.1,1.7,0.6,4.2,1.1c2.5,0.6,1.4-0.8,4.5,0.6c3.1,1.4,3.4,1.4,5.4,2c2,0.6,2,0.6,4.8,1.1
			c2.8,0.6,5.4,1.1,5.4,1.1c-0.1,0-0.1-0.1-0.2-0.1c0,0-0.1,0-0.1,0c-0.4-0.2-0.6-0.2-0.6-0.3c0,0,0,0,0,0c0,0,0,0,0,0
			c0.1,0,0.4,0.2,0.6,0.3c0,0,0.1,0,0.1,0c0.1,0,0.2,0.1,0.2,0.1l0,0c0.3,0.1,0.8,0.3,1.4,0.6c4.2,1.7,2.3,0.3,4.2,1.7
			c2,1.4,3.1,1.4,4,2c0.8,0.6,0-0.3,0.8,0.6c0.8,0.8,1.7,0.6,2.3,1.7c0.6,1.1,1.4,0.6,2.3,1.4c0.8,0.8,1.4-0.8,2.5,1.1
			c1.1,2,1.1,2,1.1,2l5.9,0.3c0,0,0.6,2.8,4,4c3.4,1.1,2.3,1.7,6.5,2c4.2,0.3,4.2,0.3,5.9,0.3c1.7,0,2.8,0.3,5.1,0.6
			c2.3,0.3,1.1-0.3,6.5,1.1c5.4,1.4,5.9,1.4,7.3,2c1.4,0.6,4.8,1.7,6.2,2c1.4,0.3,1.1,0,3.4,0.6c2.3,0.6,2.3-1.1,4.8-0.6
			s4.2-0.8,5.6,1.1c1.4,2,1.1,1.7,3.4,3.7c2.3,2,1.7,3.1,2.3,4.2c0.6,1.1,0.6-0.3,0.6,1.1s1.7,0.6,1.7,2c0,1.4-2.7,2.2,1,2.3l1-2.5
			C184.4,127.7,184.7,126,186.6,125.7z"/>
		<g>
			<g>
				<path class="st1" d="M163.1,90c0.2-3.5,3.2-6.1,6.2-7.8c3-1.7,6.5-3,9.8-2.2c1.5,0.4,2.8,1.2,4,2.1c3.9,3.3,5.5,9,4,13.8
					c-1.5,4.9-5.9,9.2-10.9,9.4C160.2,106,162.9,93,163.1,90z"/>
			</g>
			<g>
				<path class="st2" d="M173.5,89.9c0.5-1.1,0.9-2.3,1.4-3.4c0.2-0.5,0.4-1,0.8-1.3c0.5,1.5,1,2.9,1.5,4.4c0,0.1,0,0.1,0.1,0.2
					c0,0,0.1,0,0.1,0c1.7,0.3,3.4,0.6,5.1,0.9c-1.3,1-2.6,2.1-3.8,3.2c0.5,1.7,0.9,3.3,1.2,5c-1.5-0.6-2.9-1.5-4-2.5
					c-0.1-0.1-0.2-0.2-0.4-0.2c-0.1,0-0.2,0-0.2,0.1c-1.4,0.8-2.9,1.6-4.3,2.5c0.3-1.5,0.7-2.9,1-4.4c0-0.1,0-0.2,0-0.3
					c0-0.1-0.1-0.1-0.2-0.2c-1.1-0.8-2.1-1.5-3.2-2.3c-0.4-0.3-0.8-0.6-1-1c1.8-0.1,3.7-0.2,5.6-0.3L173.5,89.9z"/>
			</g>
		</g>
	</g>
</g>
<g>
</g>
<g>
</g>
<g>
</g>
<g>
</g>
<g>
</g>
</svg>
