<?xml version="1.0" encoding="utf-8"?>
<!-- Generator: Adobe Illustrator 21.0.0, SVG Export Plug-In . SVG Version: 6.00 Build 0)  -->
<svg version="1.1" id="Capa_1" xmlns="http://www.w3.org/2000/svg" xmlns:xlink="http://www.w3.org/1999/xlink" x="0px" y="0px"
	 viewBox="0 0 94 83.6" style="enable-background:new 0 0 94 83.6;" xml:space="preserve">
<style type="text/css">
	.st0{fill:#6E4012;}
</style>
<g>
	<g>
		<path class="st0" d="M27.9,46.2c-1.5,6.9-0.8,14.2,1.9,20.7c0.2,0.4,0.3,0.8,0.3,1.2c-0.1,1-1.3,1.7-2.3,1.5c-1-0.2-1.8-1-2.5-1.7
			c-1.5-1.6-2.9-3.5-3.9-5.5c-2.3-4.7-2.7-10.1-2.2-15.3c0.4-5.2,1.5-10.3,1.8-15.5c0.2-3.2,0.1-6.5-1.4-9.3
			c-0.7-1.4-1.8-2.7-2.3-4.2c1.7-0.1,3.4,0.8,4.5,2.1s1.9,2.8,2.6,4.4c3,7.1,4.5,15,3.2,22.6L27.9,46.2z"/>
	</g>
	<g>
		<path class="st0" d="M76.5,60.2c-1.5,6.9-0.8,14.2,1.9,20.7c0.2,0.4,0.3,0.8,0.3,1.2c-0.1,1-1.3,1.7-2.3,1.5c-1-0.2-1.8-1-2.5-1.7
			c-1.5-1.6-2.9-3.5-3.9-5.5c-2.3-4.7-2.7-10.1-2.2-15.3s1.5-10.3,1.8-15.5c0.2-3.2,0.1-6.5-1.4-9.3c-0.7-1.4-1.8-2.7-2.3-4.2
			c1.7-0.1,3.4,0.8,4.5,2.1s1.9,2.8,2.6,4.4c3,7.1,4.5,15,3.2,22.6L76.5,60.2z"/>
	</g>
	<g>
		<path class="st0" d="M10.6,58.6c-1.5,6.9-0.8,14.2,1.9,20.7c0.2,0.4,0.3,0.8,0.3,1.2c-0.1,1-1.3,1.7-2.3,1.5c-1-0.2-1.8-1-2.5-1.7
			c-1.5-1.6-2.9-3.5-3.9-5.5c-2.3-4.7-2.7-10.1-2.2-15.3S3.4,49.2,3.7,44c0.2-3.2,0.1-6.5-1.4-9.3c-0.7-1.4-1.8-2.7-2.3-4.2
			c1.7-0.1,3.4,0.8,4.5,2.1s1.9,2.8,2.6,4.4c3,7.1,4.5,15,3.2,22.6L10.6,58.6z"/>
	</g>
	<g>
		<path class="st0" d="M91.8,40.5c-1.5,6.9-0.8,14.2,1.9,20.7c0.2,0.4,0.3,0.8,0.3,1.2c-0.1,1-1.3,1.7-2.3,1.5s-1.8-1-2.5-1.7
			c-1.5-1.6-2.9-3.5-3.9-5.5c-2.3-4.7-2.7-10.1-2.2-15.3c0.4-5.2,1.5-10.3,1.8-15.5c0.2-3.2,0.1-6.5-1.4-9.3
			c-0.7-1.4-1.8-2.7-2.3-4.2c1.7-0.1,3.4,0.8,4.5,2.1c1.2,1.2,1.9,2.8,2.6,4.4c3,7.1,4.5,15,3.2,22.6L91.8,40.5z"/>
	</g>
	<g>
		<path class="st0" d="M46.1,39.6c1.5,9.7,0.8,20.1-1.9,29.2c-0.2,0.6-0.3,1.1-0.3,1.7c0.1,1.5,1.3,2.3,2.3,2.1
			c1-0.3,1.8-1.4,2.5-2.4c1.5-2.3,2.9-4.9,3.9-7.7c2.3-6.6,2.7-14.2,2.2-21.5S53.3,26.4,53,19c-0.2-4.5-0.1-9.1,1.4-13.1
			c0.7-2,1.8-3.8,2.3-5.9c-1.7-0.1-3.4,1.2-4.5,2.9c-1.2,1.8-1.9,4-2.6,6.2c-3,10-4.5,21.2-3.2,31.9L46.1,39.6z"/>
	</g>
</g>
<g>
</g>
<g>
</g>
<g>
</g>
<g>
</g>
<g>
</g>
</svg>
