<?xml version="1.0" encoding="utf-8"?>
<!-- Generator: Adobe Illustrator 21.0.0, SVG Export Plug-In . SVG Version: 6.00 Build 0)  -->
<svg version="1.1" id="Capa_1" xmlns="http://www.w3.org/2000/svg" xmlns:xlink="http://www.w3.org/1999/xlink" x="0px" y="0px"
	 viewBox="0 0 56.4 56.5" style="enable-background:new 0 0 56.4 56.5;" xml:space="preserve">
<style type="text/css">
	.st0{fill:#6E4012;}
	.st1{fill:#FFFFFF;}
	.st2{fill:#A27C52;}
	.st3{fill:#9A744B;}
	.st4{fill:#653910;}
</style>
<g>
	<g id="sNxXRV_1_">
		<g>
			<g>
				<path class="st0" d="M50.7,32.2c-2.2-2.6-5.1-3.9-8.5-3.9c-2.2,0-4.3,0.3-6.5,0.5c-3.5,0.4-7,0.8-10.5,1.1
					c-0.5,0-1.2-0.2-1.6-0.5c-6.5-4.8-11-11-12.2-19.2c-0.2-1.7,0-3.6,0.5-5.2c1.3-4.2,6-6.3,10-4.2c2.6,1.3,4.9,3.2,7.4,4.8
					c-0.8,2.1-1.1,4-0.5,6c1.1,3.6,3.5,5.8,7.1,6.6c3.4,0.7,6.4-0.2,8.7-2.9c0.4-0.5,0.8-0.6,1.4-0.3c1.6,0.7,3.3,1.2,4.9,1.9
					C61.8,21.7,53.8,30.7,50.7,32.2z"/>
			</g>
			<g>
				<path class="st1" d="M19.7,33.6c3.3,0,6.6,0,9.9,0c-0.1,1.7-1.9,3.2-4.2,3.5C22.7,37.4,20.5,36,19.7,33.6z"/>
			</g>
			<g>
				<path class="st1" d="M32.5,8.4c3,1.6,5.8,3.2,8.7,4.8c-1.4,1.5-3.6,1.8-5.7,0.8C33.2,12.9,32.1,10.9,32.5,8.4z"/>
			</g>
		</g>
	</g>
	<g>
		<g>
			<path class="st2" d="M43,32.2c-3.1-0.1-6.2,0.3-9.2,0.5c-0.8,4.7-4,7.8-8.3,8.2c-4.9,0.4-8-2-10.2-8.2c-2.7-0.2-5.6-0.6-8.4-0.6
				c-1.6,0-3,0.4-4.1,1.2c0.1,0.1,0.2,0.2,0.3,0.3c2,2.2,2.5,5.4,4.2,7.8c2.3,3.4,6.6,5,10.7,5.9c3.7,0.8,7.5,1.2,11.3,1.6
				c2.1,0.2,4.2,0.3,6.2,1c1.6,0.5,3.1,1.3,4.2,2.4c1.1-0.7,2.2-1.4,3.2-2.2c3-2.3,5.5-5,6.4-8.8C50.3,36.9,47.4,32.4,43,32.2z"/>
		</g>
		<g>
			<path class="st2" d="M29.2,48.9c-3.8-0.3-7.6-0.8-11.3-1.6c-4.1-0.9-8.3-2.4-10.7-5.9c-1.7-2.5-2.2-5.6-4.2-7.8
				c-0.1-0.1-0.2-0.2-0.3-0.3c-1.2,0.8-2,2-2.4,3.6c-1.2,4.5,1,7.6,2.2,9.1c5,6.2,11.7,9.5,19.5,10.3c6.4,0.7,12.2-0.9,17.4-4.1
				c-1.1-1.2-2.6-2-4.2-2.4C33.4,49.3,31.3,49.1,29.2,48.9z"/>
		</g>
	</g>
	<g>
		<g>
			<g>
				<path class="st3" d="M35.4,49.9c-2-0.6-4.1-0.8-6.2-1c-3.8-0.3-7.6-0.8-11.3-1.6c-4.1-0.9-8.3-2.4-10.7-5.9
					c-1.7-2.5-2.2-5.6-4.2-7.8c-0.1-0.1-0.2-0.2-0.3-0.3c-1.2,0.8-2,2-2.4,3.6c-1.2,4.5,1,7.6,2.2,9.1c5,6.2,11.7,9.5,19.5,10.3
					c6.4,0.7,12.2-0.9,17.4-4.1C38.4,51.2,36.9,50.4,35.4,49.9z"/>
			</g>
		</g>
	</g>
	<g>
		<g>
			<g>
				<path class="st4" d="M25.2,23.1c-1.3-1.6-2.3-3.5-3.5-5.2c-1-1.4-2.1-2.7-2.8-4.2c-1.3-2.5-1.5-5.4-2-8.2
					c-0.3-1.7-0.7-3.3-1.2-4.9C14,1.4,12.5,3,11.9,5c-0.5,1.6-0.7,3.5-0.5,5.2c1.2,8.2,5.7,14.4,12.2,19.2c0.4,0.3,1.1,0.5,1.6,0.5
					c2.3-0.2,4.6-0.5,6.9-0.7c-0.6-0.5-1.3-1-1.9-1.5C28.4,26.3,26.6,24.9,25.2,23.1z"/>
			</g>
		</g>
	</g>
</g>
</svg>
