<?xml version="1.0" encoding="utf-8"?>
<!-- Generator: Adobe Illustrator 21.0.0, SVG Export Plug-In . SVG Version: 6.00 Build 0)  -->
<svg version="1.1" id="Capa_1" xmlns="http://www.w3.org/2000/svg" xmlns:xlink="http://www.w3.org/1999/xlink" x="0px" y="0px"
	 viewBox="0 0 645.3 147" style="enable-background:new 0 0 645.3 147;" xml:space="preserve">
<style type="text/css">
	.st0{fill:#FFFFFF;}
	.st1{fill:#005695;}
	.st2{fill:#005A8D;}
	.st3{fill:#8E744B;}
	.st4{fill:#E32526;}
	.st5{fill:#EE3D43;}
	.st6{fill:#005FA9;}
	.st7{fill:#E4294D;}
	.st8{fill:#6E4012;}
</style>
<g>
	<path class="st0" d="M59.8,29.4c-12,0-23.9-0.1-35.9,0.4c-3,0.1-6.1,0.3-8.9,1.1C11.6,32,9.3,34,7.5,36.1
		c-7.4,8.6-7.7,18.7-7.4,28.4c0.5,14.1,1.8,28.3,3.2,42.4c0.2,2.3,0.5,4.7,2.8,6.5c3.5,2.8,10,3.1,15.8,3.2
		c65.4,0.6,130.8,1.1,196.2,1.7c33.1,0.3,66.3,0.6,99.3-0.8c7.8-0.3,16.4-1.1,21.2-4.9c4.2-3.4,3.9-8,3.3-12.2
		c-2.6-21.4,3.5-42.5,0.9-63.9c-0.1-1.2-0.1-2.5-1.2-3.6c-2.9-2.9-21.3-3.7-27.5-3.2c-6.8,0.6-13.5,0.4-20.4,0.3
		c-18.9-0.1-37.8-0.1-56.7-0.2c-37.8-0.1-75.6-0.2-113.4-0.3C102.3,29.6,81.1,29.5,59.8,29.4z"/>
	<path class="st0" d="M447.3,29.4c-8.4,0-16.7-0.1-25.1,0.4c-2.1,0.1-4.3,0.3-6.2,1.1c-2.4,1.1-4.1,3.1-5.3,5.2
		c-5.2,8.6-5.4,18.7-5.2,28.4c0.3,14.1,1.3,28.3,2.2,42.4c0.2,2.3,0.4,4.7,1.9,6.5c2.4,2.8,7,3.1,11,3.2c45.7,0.6,91.4,1.1,137,1.7
		c23.1,0.3,46.3,0.6,69.3-0.8c5.4-0.3,11.5-1.1,14.8-4.9c2.9-3.4,2.7-8,2.3-12.2c-1.8-21.4,2.4-42.5,0.6-63.9
		c-0.1-1.2-0.1-2.5-0.8-3.6c-2-2.9-14.9-3.7-19.2-3.2c-4.8,0.6-9.4,0.4-14.2,0.3C597.4,30,584.2,30,571,29.9
		c-26.4-0.1-52.8-0.2-79.2-0.3C477,29.6,462.2,29.5,447.3,29.4z"/>
	<g id="gqIFzw_1_">
		<g>
			<path class="st1" d="M137,49.3C137.1,49.3,137.1,49.3,137,49.3c0.1-0.6,0.5-0.9,1-0.9c0.7,0,1.4,0,2.1,0c0.7,0,1.3,0.3,1.6,1
				c0.9,1.6,1.8,3.3,2.7,4.9c0.9,1.7,1.8,3.3,2.8,5c0,0,0.1,0.1,0.1,0.1c0-0.1,0-0.1,0-0.2c0-3.2,0-6.3,0-9.5c0-0.1,0-0.3,0-0.4
				c0.1-0.4,0.5-0.7,0.9-0.7c0.1,0,0.2,0,0.2,0c8.2,0,16.4,0,24.6,0c0.1,0,0.2,0,0.4,0c0.3,0.1,0.5,0.3,0.5,0.6c0,0.4,0,0.7,0,1.1
				c0,0.4-0.3,0.6-0.7,0.6c-0.1,0-0.1,0-0.2,0c-7.4,0-14.9,0-22.3,0c-0.1,0-0.1,0-0.2,0c-0.1,0-0.1,0-0.1,0.1c0,0,0,0.1,0,0.1
				c0,4.1,0,8.2,0,12.4c0,0.4-0.1,0.7-0.4,0.9c-0.2,0.1-0.4,0.2-0.6,0.2c-0.7,0-1.3,0-2,0c-0.6,0-1.1-0.3-1.5-0.9
				c-1.8-3.3-3.7-6.6-5.5-9.9c-0.1-0.1-0.1-0.2-0.2-0.3c0,0.1,0,0.1,0,0.2c0,3.2,0,6.4,0.1,9.6c0,0.2,0,0.4,0,0.6
				c-0.1,0.4-0.5,0.7-0.9,0.7c-0.5,0-0.9,0-1.4,0c-0.5,0-0.9-0.3-1-0.8c0,0,0-0.1,0-0.1C137,59.1,137,54.2,137,49.3z"/>
			<path class="st1" d="M197.7,48.3c0.3,0.1,0.5,0.3,0.6,0.6c0,0.1,0,0.2,0,0.2c0,0.4,0,0.7,0,1.1c0,0.5-0.3,0.8-0.8,0.8
				c-3.2,0-6.3,0-9.5,0c-0.4,0-0.5-0.2-0.5-0.5c0-0.2,0-0.4,0-0.6c0-0.3,0.2-0.5,0.5-0.6c0.7-0.1,1.4-0.2,2.1-0.2
				c0.6-0.1,1.3-0.1,1.9-0.2c0.8-0.1,1.5-0.2,2.3-0.2c0.7-0.1,1.3-0.1,2-0.2c0.3,0,0.6-0.1,1-0.1c0,0,0.1,0,0.1,0
				C197.5,48.3,197.6,48.3,197.7,48.3z"/>
			<path class="st1" d="M189.8,59.8c0,0.2,0,0.4,0.1,0.5c0.3,1.2,1.1,1.9,2.3,2.1c1.2,0.2,2.2-0.1,2.9-1.2c0.2-0.2,0.4-0.4,0.7-0.4
				c0.6,0,1.2,0,1.8,0c0.4,0,0.6,0.4,0.6,0.7c-0.2,0.9-0.7,1.6-1.5,2.2c-0.8,0.6-1.8,1-2.8,1.2c-1.1,0.2-2.2,0.2-3.3-0.2
				c-1.4-0.5-2.5-1.5-3.1-2.8c-0.6-1.2-0.8-2.4-0.7-3.8c0.1-1.5,0.7-2.9,1.8-4c0.8-0.8,1.9-1.3,3-1.5c1.3-0.2,2.5-0.1,3.7,0.4
				c1.5,0.6,2.4,1.7,2.9,3.2c0.3,0.9,0.4,1.8,0.4,2.7c0,0.4-0.4,0.7-0.8,0.7c-0.1,0-0.2,0-0.2,0c-2.5,0-4.9,0-7.4,0
				C190,59.8,189.9,59.8,189.8,59.8z M195.4,57.4c-0.1-1.2-1.2-2.4-2.8-2.4c-1.4,0-2.7,1.3-2.6,2.4
				C191.7,57.4,193.5,57.4,195.4,57.4z"/>
			<path class="st1" d="M154.7,59.8c0,0.2,0,0.3,0.1,0.5c0.3,1.2,1.2,2,2.3,2.2c1.1,0.1,2.1-0.2,2.8-1.2c0.2-0.2,0.4-0.4,0.7-0.4
				c0.6,0,1.2,0,1.8,0c0.4,0,0.6,0.4,0.6,0.7c-0.2,1-0.8,1.7-1.7,2.3c-0.9,0.6-1.8,1-2.9,1.1c-0.9,0.1-1.8,0.1-2.7-0.2
				c-1.5-0.5-2.7-1.5-3.4-2.9c-0.6-1.2-0.8-2.4-0.7-3.7c0.1-1.7,0.8-3.1,2.1-4.3c0.9-0.7,1.8-1.1,3-1.3c1.2-0.1,2.5,0,3.6,0.5
				c1.5,0.7,2.4,1.8,2.9,3.4c0.2,0.7,0.3,1.5,0.3,2.2c0,0.1,0,0.2,0,0.3c-0.1,0.4-0.4,0.6-0.8,0.7c-0.1,0-0.2,0-0.2,0
				c-2.5,0-4.9,0-7.4,0C154.9,59.8,154.8,59.8,154.7,59.8z M154.8,57.4c1.8,0,3.7,0,5.5,0c0-1.2-1.4-2.4-2.8-2.4
				C156,55.1,154.7,56.3,154.8,57.4z"/>
			<path class="st1" d="M165.4,60.8c0.4,0,0.7,0,1.1,0.1c0.2,0,0.4,0.1,0.4,0.3c0.3,0.7,0.8,1,1.5,1.2c0.7,0.2,1.4,0.2,2.1,0
				c0.4-0.1,0.7-0.4,0.9-0.8c0.1-0.4,0-0.8-0.4-1c-0.3-0.2-0.7-0.3-1-0.4c-0.8-0.2-1.7-0.4-2.5-0.6c-1-0.2-1.8-0.6-2.5-1.4
				c-1-1.1-0.9-2.8,0-4c0.6-0.8,1.4-1.2,2.4-1.4c1.4-0.3,2.8-0.3,4.2,0.1c0.9,0.3,1.7,0.8,2.3,1.5c0.3,0.4,0.5,0.9,0.5,1.4
				c0,0.3-0.2,0.5-0.5,0.5c-0.6,0-1.1,0-1.7,0c-0.3,0-0.5-0.1-0.6-0.4c-0.2-0.5-0.7-0.8-1.2-1c-0.7-0.2-1.3-0.2-2,0
				c-0.5,0.1-0.8,0.4-0.8,0.9c0,0.3,0.1,0.6,0.3,0.7c0.3,0.1,0.5,0.3,0.8,0.4c1,0.3,1.9,0.5,2.9,0.7c0.9,0.2,1.7,0.5,2.3,1.2
				c0.7,0.7,0.9,1.5,0.9,2.4c-0.1,1.5-0.9,2.4-2.2,3c-0.8,0.4-1.7,0.6-2.7,0.6c-0.7,0-1.5,0-2.2-0.2c-1.2-0.3-2.2-0.8-3-1.8
				c-0.4-0.5-0.6-1-0.5-1.6c0-0.4,0.3-0.6,0.6-0.6c0,0,0,0,0,0C164.9,60.9,165.1,60.9,165.4,60.8C165.4,60.9,165.4,60.8,165.4,60.8z
				"/>
			<path class="st1" d="M175.9,53c0-0.1,0-0.1,0-0.2c0-1.1,0-2.2,0-3.3c0-0.7,0.4-1,1-1c0.4,0,0.8,0,1.1,0c0.6,0,1,0.4,1,1
				c0,1.1,0,2.2,0,3.3c0,0.1,0,0.1,0,0.2c0.1,0,0.1,0,0.2,0c0.6,0,1.2,0,1.9,0c0.4,0,0.7,0.2,0.7,0.7c0,0.3,0,0.6,0,0.9
				c0,0.4-0.3,0.6-0.6,0.6c-0.7,0-1.3,0-2,0c-0.1,0-0.2,0-0.2,0.2c0,1.8,0,3.6,0,5.3c0,0.9,0.7,1.6,1.6,1.7c0.2,0,0.3,0,0.5,0
				c0.3,0,0.6,0.3,0.6,0.6c0,0.4,0,0.8,0,1.2c0,0.3-0.3,0.6-0.6,0.6c-0.6,0-1.2,0-1.9,0c-1.6-0.1-2.8-1.2-3.2-2.8
				c-0.1-0.3-0.1-0.7-0.1-1c0-1.8,0-3.7,0-5.5c0-0.2,0-0.2-0.2-0.2c-0.2,0-0.3,0-0.5,0c-0.3,0-0.7-0.3-0.7-0.7c0-0.3,0-0.6,0-0.9
				c0-0.4,0.3-0.7,0.7-0.7C175.4,53,175.6,53,175.9,53z"/>
			<path class="st1" d="M185.7,56.7c0,2.4,0,4.7,0,7.1c0,0.7-0.4,1-1,1c-0.4,0-0.8,0-1.2,0c-0.5,0-1-0.3-1-1c0-0.5,0-1.1,0-1.6
				c0-4.2,0-8.5,0-12.7c0-0.5,0.2-0.8,0.7-1c0,0,0.1,0,0.1,0c0.5,0,1.1,0,1.6,0c0.4,0,0.8,0.4,0.8,1
				C185.7,51.9,185.7,54.3,185.7,56.7z"/>
		</g>
	</g>
	<g id="RmX2yf_1_">
		<g>
			<path class="st2" d="M248.8,63.1c0-0.2,0-0.4,0-0.6c0,0,0.1-0.1,0.2-0.1c0.4-0.1,0.8-0.1,1.1-0.1c0.6-0.1,0.7-0.3,0.5-0.8
				c-0.2-0.6-0.5-1.2-0.8-1.8c-0.1-0.3-0.2-0.5-0.3-0.8c0-0.1-0.1-0.1-0.2-0.1c-1.6,0-3.3,0-4.9,0c-0.1,0-0.2,0-0.2,0.1
				c-0.4,0.7-0.8,1.5-1.1,2.2c-0.1,0.2-0.1,0.4-0.1,0.6c0,0.3,0.1,0.5,0.4,0.5c0.4,0.1,0.8,0.1,1.2,0.2c0.1,0,0.2,0,0.3,0
				c0,0.2,0,0.5,0,0.7c-0.1,0-0.2,0-0.2,0c-4,0-7.9,0-11.9,0c-0.2,0-0.3-0.1-0.3-0.3c0-0.5,0-0.5,0.5-0.5c0.2,0,0.5,0,0.7-0.1
				c0.5-0.1,0.7-0.2,0.7-0.7c0-0.2,0-0.4,0-0.7c0-2.6,0-5.2,0-7.8c0-0.1,0-0.1,0-0.2c0,0,0,0-0.1,0c-2,3.5-4.1,7-6.2,10.6
				c-2-3.6-4-7.1-6-10.7c0,0,0,0,0,0c0,0,0,0.1,0,0.1c0,2.6,0,5.1,0,7.7c0,0.4,0.1,0.8,0.1,1.1c0.1,0.3,0.3,0.5,0.6,0.5
				c0.4,0.1,0.9,0.1,1.3,0.1c0.1,0,0.2,0,0.2,0c0,0.2,0,0.5,0,0.7c-1.9,0-3.8,0-5.8,0c0-0.2,0-0.5,0-0.7c0.4,0,0.7,0,1.1-0.1
				c0.2,0,0.4-0.1,0.5-0.1c0.3-0.1,0.4-0.2,0.5-0.5c0.1-0.4,0.2-0.8,0.2-1.1c0-2.8,0-5.6,0-8.5c0-0.2,0-0.5-0.1-0.7
				c0-0.3-0.2-0.4-0.5-0.5c-0.3,0-0.6-0.1-0.9-0.1c-0.2,0-0.2,0-0.2-0.2c0-0.5,0-0.5,0.5-0.5c1.4,0,2.8,0,4.2,0
				c0.2,0,0.2,0.1,0.3,0.2c1.7,3,3.3,6,5,8.9c0,0.1,0.1,0.1,0.1,0.2c0.1-0.1,0.1-0.2,0.1-0.2c1.7-3,3.4-6,5.2-9
				c0.1-0.1,0.1-0.2,0.3-0.2c1.4,0,2.7,0,4.1,0c0.2,0,0.2,0,0.2,0.2c0,0.4,0,0.4-0.4,0.5c-0.2,0-0.4,0-0.6,0.1
				c-0.4,0.1-0.6,0.2-0.7,0.7c0,0.2,0,0.4,0,0.7c0,2.9,0,5.8,0,8.7c0,0.3,0.1,0.6,0.1,0.9c0,0.2,0.2,0.3,0.4,0.4
				c0.9,0.2,1.8,0.2,2.7-0.2c0.3-0.1,0.6-0.4,0.8-0.7c0.4-0.7,0.8-1.4,1.2-2c1.8-3.1,3.5-6.2,5.3-9.3c0.1-0.2,0.2-0.2,0.4-0.2
				c0.3,0,0.4,0.1,0.6,0.4c1.5,3.2,3,6.4,4.5,9.6c0.3,0.5,0.5,1.1,0.9,1.5c0.9,0.8,1.8,1.1,3,1c0.2,0,0.4-0.1,0.6-0.1
				c0.2,0,0.4-0.2,0.4-0.4c0-0.2,0.1-0.4,0.1-0.6c0-2,0-4,0-6c0-1.1,0-2.1,0-3.2c0-0.2,0-0.3,0-0.5c-0.1-0.5-0.3-0.6-0.9-0.7
				c-0.2,0-0.5,0-0.7-0.1c0-0.2,0-0.5,0-0.7c0,0,0.1,0,0.1,0c2.7,0,5.4,0,8.2,0c1.2,0,2.3,0.2,3.4,0.8c0.6,0.3,1.2,0.8,1.4,1.5
				c0.4,1.1,0.1,2.2-0.8,2.9c-0.7,0.6-1.6,0.8-2.5,1c-0.2,0.1-0.5,0.1-0.7,0.1c0,0-0.1,0-0.1,0c0.4,0.1,0.7,0.3,1.1,0.4
				c1,0.4,1.7,1,2.2,1.9c0.2,0.5,0.5,1,0.7,1.5c0.2,0.4,0.5,0.8,0.8,1.1c0.2,0.2,0.5,0.3,0.8,0.3c0.5,0,0.9-0.2,0.9-0.8
				c0-0.2,0.1-0.2,0.2-0.2c0.3,0,0.5,0,0.8,0c0,1-0.4,1.8-1.3,2.2c-1.3,0.5-2.7,0.5-4-0.1c-0.8-0.4-1.3-1.1-1.6-2
				c-0.2-0.6-0.4-1.3-0.6-2c-0.1-0.3-0.2-0.5-0.2-0.8c-0.3-0.8-0.8-1.2-1.6-1.2c-0.6-0.1-1.2-0.1-1.9-0.1c-0.1,0-0.2,0-0.2,0.2
				c0,1.4,0,2.9,0,4.3c0,0.2,0,0.3,0,0.5c0.1,0.3,0.2,0.5,0.6,0.6c0.4,0,0.7,0.1,1.1,0.1c0.2,0,0.3,0,0.3,0.2c0,0.2,0,0.3,0,0.5
				C258.9,63.1,253.9,63.1,248.8,63.1z M262,53.4c0,0.8,0,1.5,0,2.3c0,0.2,0.1,0.2,0.2,0.2c0.6,0,1.2,0,1.8-0.1
				c0.6-0.1,1.3-0.2,1.8-0.5c0.8-0.4,1.2-0.9,1.3-1.8c0.1-1.2-0.2-2.2-1.6-2.6c-1.1-0.3-2.2-0.3-3.4-0.2c-0.2,0-0.2,0.1-0.2,0.2
				C262,51.9,262,52.7,262,53.4z M244.7,58c1.5,0,3,0,4.5,0c-0.7-1.5-1.3-3-2-4.5C246.3,55.1,245.5,56.5,244.7,58z"/>
			<path class="st2" d="M275,63.1c0.3-1.5,0.2-3,0-4.5c0.3,0,0.7,0,1,0c0,0,0.1,0.1,0.1,0.2c0.1,0.7,0.3,1.3,0.7,1.8
				c0.7,1.1,1.7,1.7,2.9,1.9c0.9,0.2,1.9,0.2,2.8-0.1c0.8-0.3,1.5-0.7,1.7-1.6c0.2-0.7,0-1.3-0.5-1.8c-0.5-0.5-1.1-0.8-1.8-1.1
				c-1.1-0.5-2.2-0.7-3.3-1c-0.8-0.2-1.6-0.5-2.3-1c-1.8-1.2-1.6-3.4-0.3-4.6c0.9-0.8,1.9-1.2,3-1.4c1.4-0.2,2.8-0.1,4.2,0.4
				c0.2,0.1,0.5,0.1,0.7,0.2c0.3,0.1,0.5,0,0.6-0.3c0.1-0.2,0.2-0.3,0.5-0.3c0.2,0,0.5,0,0.7,0c-0.1,0.7-0.2,1.3-0.3,1.9
				c0,0.6,0,1.3,0.1,1.9c-0.3,0-0.7,0-1,0c0-0.2,0-0.4-0.1-0.6c-0.2-1.2-0.9-1.9-2-2.3c-1.1-0.4-2.2-0.4-3.3-0.1
				c-0.6,0.2-1.2,0.5-1.5,1.1c-0.4,0.7-0.3,1.3,0.4,1.8c0.6,0.5,1.3,0.7,2,1c1,0.3,2,0.6,3,0.8c0.7,0.2,1.5,0.5,2.2,0.9
				c1.8,1,2.3,3.1,1,4.8c-0.8,1-1.8,1.6-3,1.9c-1.8,0.5-3.6,0.4-5.3-0.3c-0.4-0.1-0.7-0.3-1.1-0.4c-0.1,0-0.3,0-0.3,0
				c-0.2,0.2-0.4,0.3-0.5,0.5c-0.1,0.1-0.1,0.1-0.3,0.1C275.6,63.1,275.3,63.1,275,63.1z"/>
		</g>
	</g>
	<g id="jy7DGE_1_">
		<g>
			<path class="st3" d="M157.6,102.2c2.3-1.2,4.8-1.7,7.4-2c4.6-0.6,9.1,0,13.6,0.5c3.5,0.4,7,0.8,10.5,0.1c4-0.7,6.6-3.1,8-6.8
				c0.2-0.4,0.3-0.8,0.4-1.3c0,4.8-4.1,9.5-8.9,10.3c-3.8,0.7-7.6,0.3-11.4-0.3c-4.9-0.8-9.8-1.3-14.8-1
				C160.8,101.7,159.2,102,157.6,102.2z"/>
			<path class="st4" d="M197.5,87.1c-0.2,2.6-0.8,5-2,7.3c-1.5,3-4.1,4.4-7.3,4.8c-3.8,0.5-7.5,0.2-11.2-0.3
				c-4.6-0.6-9.1-0.8-13.7,0.1c-0.1,0-0.2,0-0.5,0c0.4-0.2,0.6-0.3,0.8-0.4c2.5-1,5-1.6,7.7-1.7c3.8,0,7.5,0.2,11.3,0.3
				c2.1,0,4.2,0.1,6.3-0.2c4.2-0.6,6.7-3.4,8-7.3C197.1,88.8,197.3,88,197.5,87.1z"/>
			<path class="st3" d="M191.9,94.5c-2.5-2.8-4.8-5.5-7.1-8.1c-0.1,0-0.2,0.1-0.3,0.1c-0.1,2.6-1.1,5.2-0.6,7.9c-0.7,0-1.4,0-2.1,0
				c1.2-3.7,1-7.6,1.9-11.5c2.4,2.8,4.7,5.4,7,8.1c0.1,0,0.2-0.1,0.3-0.1c0.2-2.7,1.1-5.3,0.6-8c0.7,0,1.5,0,2.4,0
				c-1.1,1.4-0.9,3.2-1.2,4.7C192.5,89.8,192.3,92,191.9,94.5z"/>
			<path class="st3" d="M175.6,94.5c-1.3,0.3-1.9,0-2.5-1.2c-0.8-1.6-1.5-3.1-2.3-4.8c0.7-0.1,1.3-0.1,1.9-0.3
				c1.2-0.3,1.7-1.1,1.6-2.2c-0.1-1.1-0.6-1.6-1.8-1.9c-0.3-0.1-0.5-0.1-0.8-0.1c-1.5-0.1-1.6,0.1-1.8,1.5c-0.3,2.3-0.6,4.5-0.9,6.8
				c-0.1,0.7,0,1.4,0,2.2c-0.6,0-1.4,0-2.3,0c0.9-1.6,1.9-10.1,1.3-11.6c1.9,0.1,3.7,0.1,5.5,0.3c1.3,0.2,2.2,1.2,2.3,2.6
				c0.1,1.3-0.3,2.3-1.4,3c-0.4,0.3-0.9,0.4-1.5,0.7C173.9,91.2,174.7,92.9,175.6,94.5z"/>
			<path class="st3" d="M164.2,82.9c0.6,0,1.4,0,2.3,0c-1,1.5-0.8,3.3-1.1,5c-0.2,1.3-0.3,2.6-0.6,3.8c-0.9,2.9-5,4.1-7.3,2.1
				c-1.4-1.2-1.3-2.7-1.1-4.3c0.2-1.7,0.5-3.3,0.7-5c0.1-0.5-0.1-1-0.2-1.6c0.8,0,1.6,0,2.2,0c-0.3,1.4-0.6,3-0.8,4.5
				c-0.2,0.9-0.2,1.9-0.4,2.8c-0.2,1.6,0.4,2.7,1.7,3.1c1.5,0.5,3.1-0.2,3.7-1.6c0.3-0.8,0.5-1.6,0.6-2.5c0.2-1.4,0.4-2.7,0.5-4.1
				C164.2,84.5,164.2,83.7,164.2,82.9z"/>
			<path class="st3" d="M150.5,94.4c-0.6,0-1.4,0-2,0c0.4-2.4,0.9-4.9,1.3-7.4c0.1-0.7,0.2-1.4,0.4-2.1c0.1-0.5-0.1-0.8-0.6-0.8
				c-1,0.1-2.1,0.1-3.1,0.2c0.1-1.3,0.1-1.3,1.5-1.3c2.4,0,4.9,0,7.4,0c0,0.5,0.1,1,0.1,1.4c-1-0.1-1.9-0.2-2.9-0.3
				c-0.6-0.1-0.8,0.3-0.9,0.8c-0.4,2.5-0.8,5.1-1.2,7.6C150.4,93.1,150.5,93.7,150.5,94.4z"/>
			<path class="st3" d="M178.6,82.9c0.9,0,1.7,0,2.4,0c-1,3.7-1.3,7.6-1.6,11.5c-0.5,0-1.3,0-1.9,0c0.3-1.9,0.6-3.8,0.8-5.7
				C178.5,86.8,179.2,84.9,178.6,82.9z"/>
		</g>
	</g>
	<g id="QE7AvY_1_">
		<g>
			<path class="st5" d="M248.8,98.6c0-2.6,0-5.2,0-7.8c0,0-0.1,0-0.1,0c-0.1,0.4-0.2,0.7-0.3,1.1c-0.5,2.1-0.9,4.3-1.4,6.4
				c-0.1,0.3-0.1,0.4-0.4,0.4c-0.9,0-1.7,0-2.6,0c-0.3,0-0.4-0.1-0.4-0.4c-0.5-2.4-1.1-4.8-1.6-7.2c0-0.1-0.1-0.2-0.1-0.3
				c0,0-0.1,0-0.1,0c0,2.6,0,5.2,0,7.8c-0.8,0-1.5,0-2.3,0c-0.2,0-0.5,0-0.7,0c-0.2,0-0.3-0.1-0.3-0.3c0-0.1,0-0.1,0-0.2
				c0-3.6,0-7.1,0-10.7c0-0.5,0-0.5,0.5-0.5c1.1,0,2.2,0,3.3,0c0.8,0,1.4,0.4,1.7,1.1c0.3,0.8,0.5,1.7,0.7,2.5
				c0.2,0.9,0.4,1.9,0.6,2.8c0,0,0.1,0,0.1,0c0.1-0.4,0.2-0.8,0.3-1.2c0.2-1.1,0.4-2.2,0.7-3.3c0.1-0.5,0.3-0.9,0.6-1.3
				c0.2-0.4,0.6-0.5,1.1-0.5c1.3,0,2.5,0,3.8,0c0.3,0,0.3,0.2,0.3,0.4c0,1.8,0,3.7,0,5.5c0,1.8,0,3.6,0,5.3c0,0.3-0.1,0.4-0.4,0.4
				C250.7,98.6,249.8,98.6,248.8,98.6z"/>
			<path class="st5" d="M231.4,92.8c0.2,0.2,0.4,0.3,0.6,0.5c0.4,0.5,0.6,1.1,0.6,1.8c0,0.5,0,1.1-0.1,1.6c-0.3,1.1-1.3,1.9-2.5,1.9
				c-2.5,0-5,0-7.6,0c0,0-0.1,0-0.1,0c0-3.8,0-7.7,0-11.6c0.1,0,0.2,0,0.4,0c2.4,0,4.9,0,7.3,0c1.4,0,2.7,1.2,2.7,2.7
				c0,0.4,0,0.8,0,1.2c-0.1,0.7-0.4,1.3-1,1.8C231.5,92.7,231.5,92.7,231.4,92.8z M225.9,94c0.4-0.7,0.8-1.4,1.2-2.1
				c0-0.1,0.2-0.1,0.2-0.1c0.3,0,0.5,0,0.8,0c0.6,0,1.1-0.4,1.1-0.9c0-0.5-0.4-1-1.1-1c-0.8,0-1.5,0-2.3,0c-0.3,0-0.4,0.1-0.4,0.4
				c0,1.8,0,3.6,0,5.3c0,0.1,0,0.2,0,0.3c1,0,1.9,0,2.8,0c0.4,0,0.8-0.5,0.8-0.9c0-0.4-0.3-0.9-0.8-1c-0.2,0-0.5,0-0.8,0
				C227.1,94,226.5,94,225.9,94z"/>
			<path class="st5" d="M262.8,92.8c0.6,0.4,1,1,1.1,1.6c0.1,0.8,0.2,1.7-0.1,2.5c-0.5,1.1-1.3,1.6-2.4,1.7c-2.5,0-5,0-7.4,0
				c-0.3,0-0.3-0.2-0.3-0.4c0-3.2,0-6.3,0-9.5c0-0.5,0-0.9,0-1.4c0-0.2,0-0.3,0.3-0.3c2.5,0,5,0,7.5,0c1.3,0,2.5,1.2,2.5,2.5
				c0,0.4,0,0.9,0,1.3c0,0.7-0.3,1.3-0.9,1.8C262.9,92.6,262.9,92.7,262.8,92.8z M257.3,93.9c0.3-0.5,0.6-1,0.9-1.5
				c0.2-0.5,0.6-0.7,1.1-0.6c0.1,0,0.3,0,0.4,0c0.4,0,0.6-0.2,0.8-0.5c0.4-0.7-0.1-1.4-0.9-1.4c-0.8,0-1.5,0-2.3,0
				c-0.3,0-0.4,0.1-0.4,0.4c0,1.8,0,3.5,0,5.3c0,0.1,0,0.2,0,0.3c1,0,1.9,0,2.9,0c0.4,0,0.8-0.4,0.8-0.9c0-0.4-0.3-0.9-0.7-1
				c-0.2,0-0.4-0.1-0.6-0.1C258.7,93.9,258,93.9,257.3,93.9z"/>
			<path class="st6" d="M219.4,86.6c0.8-1.3,1.9-2.1,3.2-2.7c1.8-0.9,3.6-1.3,5.6-1.6c2.7-0.4,5.4-0.3,8.1-0.1
				c3.6,0.2,7.2,0.4,10.8,0.5c2.5,0.1,5.1,0.3,7.6,0.4c3.6,0.2,7.2,0.3,10.7,0.4c2.7,0.1,5.5,0,8.2-0.5c0.7-0.1,1.3-0.3,1.9-0.5
				c0.6-0.2,1.2-0.4,1.9-0.6c-0.3,0.3-0.6,0.7-1,0.9c-1.1,0.9-2.4,1.3-3.7,1.7c-1.9,0.5-3.8,0.7-5.7,0.7c-2.3,0-4.6-0.1-7-0.2
				c-1.7-0.1-3.4-0.2-5.2-0.2c-2.1-0.1-4.3-0.2-6.4-0.3c-3.7-0.2-7.3-0.4-11-0.6c-1.9-0.1-3.8-0.2-5.7-0.2c-3.1,0-6.2,0.3-9.1,1.3
				c-0.6,0.2-1.2,0.4-1.7,0.7C220.4,86,219.9,86.3,219.4,86.6z"/>
			<path class="st6" d="M277.2,99c-1.1,1.5-2.6,2.5-4.4,3.1c-1.6,0.6-3.4,0.9-5.1,1.1c-1.9,0.1-3.8,0.3-5.6,0.2
				c-2.3,0-4.5-0.2-6.8-0.3c-1.7-0.1-3.4-0.2-5.2-0.3c-2.1-0.1-4.2-0.3-6.2-0.4c-1.6-0.1-3.2-0.2-4.9-0.3c-1.9-0.1-3.8-0.2-5.7-0.3
				c-2,0-4,0-6,0c-1.7,0-3.3,0.2-5,0.6c-1.1,0.2-2.2,0.6-3.2,1.1c0,0,0,0-0.1-0.1c0.3-0.3,0.5-0.6,0.8-0.8c1.3-1.1,2.8-1.6,4.5-2
				c2.4-0.5,4.8-0.7,7.2-0.6c3.1,0.1,6.2,0.2,9.3,0.4c3.6,0.2,7.2,0.4,10.7,0.5c3.6,0.2,7.1,0.3,10.7,0.4c2.1,0,4.3,0,6.4-0.1
				c2.3-0.1,4.5-0.5,6.6-1.4C276,99.7,276.6,99.3,277.2,99z"/>
			<path class="st5" d="M275.3,92.8c0,0.9,0.1,1.7,0,2.6c-0.2,1.7-1.7,3.2-3.5,3.4c-1.3,0.1-2.6,0.2-3.8-0.1
				c-1.8-0.4-3.1-2.1-3.1-3.9c0-1.3,0-2.7,0-4c0-2.2,1.8-4.1,4.1-4.1c0.8,0,1.6,0,2.5,0c1.9,0,3.7,1.5,3.9,3.5
				C275.3,91,275.3,91.9,275.3,92.8C275.3,92.8,275.3,92.8,275.3,92.8z M272.1,92.7c0-0.5,0-1.1,0-1.6c0,0,0,0,0-0.1
				c0-0.8-0.6-1.3-1.4-1.3c-0.4,0-0.8,0-1.3,0c-0.7,0-1.3,0.6-1.3,1.3c0,1.2,0,2.3,0,3.5c0,0.7,0.6,1.3,1.4,1.3c0.4,0,0.8,0,1.2,0
				c0.9,0,1.5-0.6,1.5-1.5C272.1,93.8,272.1,93.3,272.1,92.7z"/>
			<path class="st5" d="M237,87c0,3.9,0,7.7,0,11.6c-0.1,0-0.2,0-0.3,0c-0.9,0-1.7,0-2.6,0c-0.3,0-0.4-0.1-0.4-0.4
				c0-3.2,0-6.5,0-9.7c0-0.4,0-0.8,0-1.2c0-0.1,0.1-0.3,0.2-0.3C235,87,236,87,237,87z"/>
		</g>
	</g>
	<path class="st7" d="M337.7,9.9c-8.2,4.7-14.3,12.5-18.3,21c-4,8.5-6.1,17.8-7.7,27.1c-1.5,8.8-2.5,17.7-1.9,26.6
		c1.3,18.6,10.1,36.6,24,49c5.1,4.5,10.8,8.3,17.2,10.5c8,2.8,16.7,2.9,25.2,2.8c10.4-0.1,21-0.7,30.8-4.2
		c13.8-4.9,25.5-15.7,31.3-29.2c4-9.3,5.4-19.6,5.9-29.7c0.6-11.7-0.1-23.5-2.5-35.1c-1.2-5.9-2.9-11.7-5.7-17
		c-2.9-5.2-6.9-9.8-11-14c-4-4.1-8.3-8.1-13.3-11c-12.8-7.5-28.5-7.1-43.3-6.6C368.3,0.3,349.2,3.4,337.7,9.9z"/>
	<g>
		<path class="st0" d="M318.8,61.5c0.6,0,0.9,0.2,0.9,0.5c0,0.2-0.2,0.4-0.7,0.5c-0.4,0-0.8-0.1-1-0.3v-0.2
			C318.2,61.6,318.4,61.5,318.8,61.5z M321,72.5v0.1l-1.5,0.5C320.2,72.7,320.7,72.5,321,72.5z M322.6,74.1h0.6
			c0.2,0.1,0.4,0.2,0.5,0.3c0,0.3-0.3,0.5-0.8,0.5c-0.4,0-0.7-0.1-0.7-0.4v-0.2L322.6,74.1z M324.5,77.8v0.4l-0.6,0.5h-0.2
			c-0.7,0-1.1-0.3-1.1-0.9l0.6-0.5h0.7L324.5,77.8z M323.7,65.6h0.2l0.3,0.3V66c0,0.3-0.2,0.4-0.7,0.4h-0.1
			c-0.3-0.1-0.5-0.2-0.5-0.4v-0.1C323.1,65.7,323.3,65.6,323.7,65.6z M323.6,73v0.2l-0.1,0.3h-0.1v-0.3L323.6,73z M324.2,62.3h0.4
			l0.4,0.3c0,0.3-0.2,0.4-0.7,0.4c-0.3-0.1-0.4-0.1-0.4-0.2v-0.1C324,62.4,324.1,62.3,324.2,62.3z M324.8,77.1v0.1l-0.2,0.1h-0.1
			l-0.2-0.1v-0.1l0.2-0.1h0.1L324.8,77.1z M341.2,25.4h1.1c4,0,7.2,1.8,9.6,5.3c0.3,0,0.7,0.6,1.2,1.8c0.1,0.3,0.4,1.9,0.6,4.7v0.2
			l-0.4,2.8v1.6c-0.1,5-0.5,7.5-1.1,7.5c0,0.4-0.6,0.8-1.7,1.2c-0.9,0-2.3-0.9-4-2.8c-0.5-0.8-0.7-1.6-0.7-2.5v-1.2
			c0.6-3,1-4.8,1-5.3l0.1-2v-1.5c-0.3-2.3-0.8-3.5-1.4-3.5c0-0.1-0.2-0.2-0.7-0.3c-3,0.3-4.5,0.6-4.5,0.9c-1,0.7-1.6,1.9-1.6,3.5
			c-0.1,0-0.3,0.7-0.5,2.1l0.1,0.6l-0.2,2.1l0.3,5.4v8.1l-0.1,3.7c0,0.9,1,1.6,3.1,1.9c4.1,1.1,7.7,3.6,10.7,7.4
			c0.9,1.3,1.5,3,2.1,5.1c0.3,1.2,0.7,4.5,1.2,9.7l-0.3,3.2l0.2,11.6l-0.2,1.9v0.8l0.1,1.8c-0.2,2-0.5,3.9-0.8,5.7
			c0,0.4-0.5,1.3-1.5,2.7c0,0.5-0.3,1-1,1.6c0,1-1.6,2.5-4.7,4.5c-1.3,0.6-2.5,0.9-3.5,1.1h-0.1l-0.1-0.1l-0.5,0.1H342l-0.5-0.1v0.1
			c-2.5-0.6-4.4-1.6-5.7-3.1c-2-2.3-3-4.3-3-6l-2-8c-0.4-3.1-0.7-7-0.8-11.8l0.2-3l-0.4-4.9v-1.3c0-1-0.5-2.2-1.5-3.7l-1.5-2.6
			c0.8-3.1,1.6-5.1,2.5-5.9c1.1-1.5,1.6-2.9,1.6-4.4c0-0.7,0.2-2.1,0.7-4l-0.1-0.7v-2.7l0.1-1.5l-0.1-1.3l0.2-4.9l-0.3-3.9l0.2-2.3
			l-0.2-2.9c0-1.2,0.4-3,1.1-5.5c0-0.4,0.5-1.4,1.6-2.9c0.1-0.9,0.7-1.6,1.6-2.2c2.2-1.3,3.6-2,4.4-2
			C340.3,25.5,340.7,25.4,341.2,25.4z M332.7,79.6h0.4l0.1,0.2l-0.1,0.1h-0.2l-0.3-0.2L332.7,79.6z M336.8,72.4l0.1,0.1v0.4l-0.1,2
			l0.1,2.1l-0.2,3v2.3l-0.1,0.6l0.3,3.7v2c0.2,1.9,0.3,4.1,0.3,6.7v2.2c0.4,2,1.1,5.4,2.3,10.2c0,1.3,0.4,2.2,1.2,2.7h1.5
			c1.8,0,3.6-1.3,5.3-4c0.5-3.7,0.8-6,0.8-6.9l0.2-5.2v-0.3c-0.1-3.1-0.3-5.3-0.5-6.4c0.1-2.3,0.2-4.1,0.5-5.4
			c0-1.6-0.5-5.3-1.6-11.1c-0.9-3.3-2.3-5-4-5h-1.1c-2.3,0-3.6,0.7-4,2.2C337.4,69,337.1,70.4,336.8,72.4z M341,79.3L341,79.3
			l0.1,0.1l-0.2,0.2l-0.1-0.1v-0.1L341,79.3z"/>
		<path class="st0" d="M365.2,30c1.7,0,5.2,0.3,10.4,1c2.4,0.4,4.1,1.1,5.3,2c0.7,0.9,1.1,1.6,1.1,2.2c0,1.4-0.6,2.2-1.7,2.3
			c-4.8-0.6-8.1-0.9-9.8-0.9c-0.9,0-1.7,0.6-2.3,1.8c-0.5,5.4-0.7,9-0.7,10.7c-0.2,0-0.4,1.1-0.5,3.2l0.1,2.6l-0.2,2.2
			c0,2.6,0.4,3.9,1.3,3.9V61c0.3-0.1,0.9-0.2,1.7-0.2h1.2c2.3,0,4.7,1.9,7.3,5.6c0.8,1.7,1.2,3.3,1.2,5c0.2,0.6,0.4,1.8,0.5,3.7
			c0.1,0,0.3,1.2,0.3,3.6c0.3,0.6,0.5,2.7,0.6,6.4l0.4,4.7l-0.3,7.5v0.5l0.1,1.1c0,1.9-0.5,3.7-1.4,5.6c-0.4,3.1-0.8,4.6-1.2,4.6
			l-0.6,1.7c-0.7,1.3-1.5,2.6-2.5,3.9c-0.1,0-0.2,0.2-0.2,0.7c-0.6,0.8-1.4,1.3-2.2,1.5c-1.6,0.9-2.6,1.3-2.8,1.3H370
			c-1.3,0-3-0.8-5.1-2.5c-2.2-2.6-3.3-4.5-3.3-5.9c-0.6-1.9-1.2-4.7-1.8-8.2l-0.3-3.3c0-1.2,0.3-3.7,0.8-7.5c0-1.6,0.7-2.9,2.2-3.7
			c0.3,0,0.6-0.1,0.8-0.3c0.6,0.1,1,0.2,1.3,0.5c0.7,0,1.5,1.2,2.5,3.5l-0.6,5.9l0.1,1l-0.2,1.9c0.6,4.4,1.4,7.6,2.2,9.7
			c0,1.2,0.4,1.7,1.1,1.7c0.6,0,1.3-1,2.3-3c0.3-0.5,0.6-1.7,1.1-3.5c0.5-1,1.1-3.2,1.7-6.6c0-8.6-0.2-13.7-0.7-15.4v-3.1
			c-0.6-5.8-1.2-9.5-1.7-11.2c-0.5-0.5-0.9-0.7-1.2-0.7l-0.4,0.1v-0.1c-1.4,0.6-2.6,1.4-3.7,2.6c-0.5,0.7-1,1.1-1.5,1.1h-0.7
			c-2-0.7-3.5-1.8-4.3-3.4c-0.3-0.6-0.5-1.4-0.6-2.2c0.3-1.5,0.5-3.2,0.6-5.1l-0.1-1v-1l-0.1-3.2l0.2-2.5l-0.1-1.2l0.4-2.5V47
			c0-1,0.2-2.9,0.6-5.9l-0.1-3.2c0.4-3.6,0.8-5.4,1.1-5.4C363.2,30.9,364.2,30,365.2,30z"/>
		<path class="st0" d="M395.4,28.9c3.4,0,5.8,1,7.4,3.1c1.3,1.1,2,2.8,2,5l0.6,2.7v1l-0.6,7.5l-0.2,1.1c0.1,2.2,0.2,3.5,0.3,4
			l-0.1,2.5c0,0.3,0.1,0.7,0.4,1.2c0.8-0.2,1.2-0.4,1.2-0.7c0.1,0,0.3-0.4,0.6-1.2c0.1,0,0.4-0.9,0.7-2.8c0.4-0.5,0.7-1.6,1-3.1
			c0.5-0.4,0.9-1.5,1.3-3.2c0.5-0.5,0.9-2,1.4-4.6c1.5-3.5,2.2-5.9,2.2-7c0.3-0.7,0.7-1.3,1.2-1.7c0-0.4,0.9-0.7,2.6-1.1h0.1
			l1.3,0.7c0.5,0.9,0.8,1.5,1,1.6c0.4,0.4,0.6,0.8,0.6,1.1l-0.2,0.7l0.1,0.7c-0.5,1.4-0.9,2.9-1.2,4.5c-1,2.4-1.5,3.9-1.5,4.4
			c-0.7,1.5-1.3,3.3-1.8,5.3c-0.6,0.7-1.2,2.3-1.7,4.7c-0.4,0.7-1,2.3-1.7,4.7c-0.6,0.5-1,2-1.3,4.4l-1,2.5h0.1
			c-0.8,2.1-1.2,3.4-1.2,3.8c0,0.6,0.3,0.9,1,0.9c0.6,0,1.3-0.7,2.3-2.1c0.4-0.3,1.5-0.7,3.3-1c0-0.1,0.4-0.2,1.3-0.2
			c2,0,4.1,1.4,6.5,4.3c0.3,0.5,0.9,1.9,1.6,4.2h-0.1c0.7,1.5,1.1,2.8,1.1,4l-0.1,0.3l0.4,2.8l-0.1,1.2l0.2,2.1l-0.1,0.9l0.1,0.1
			l-0.1,0.1l0.4,3.2v1.3l-0.2,1.3l0.2,2l-0.3,1.8l0.1,2.1c-0.2,2.5-0.5,4.1-0.9,4.7l-1,3.4v1.3c0,0.6-0.1,1.1-0.3,1.7l0.1,0.1
			c-0.3,1.3-0.6,2.2-1.1,2.6c0,0.6-0.9,1.7-2.8,3.2c-1.7,1.3-3.1,2-4.2,2.1l-0.1,0.1c-0.4,0-0.6,0.1-0.6,0.2l-0.1-0.1h-0.4l-0.1,0.1
			c-1.4-0.1-3-0.9-4.7-2.3c-1.9-1.6-2.8-3.8-2.8-6.6v-0.1l0.4-3.2l-0.1-2.3l0.1-2.3l-0.6-3.9v-4.8l0.2-2.3v-0.2
			c-0.3-1.4-0.5-3.5-0.8-6.3c0-0.3-0.3-0.6-0.9-1c-0.3,0-0.7,0.5-1.2,1.4c-0.2,0-0.4,0.8-0.6,2.5c-0.3,0-0.5,1.5-0.7,4.6
			c-0.6,1.6-1.1,2.9-1.3,4.1c-1,1.2-1.9,3.7-2.5,7.3h0.1c-0.1,1.2-0.7,3-1.7,5.4c0,0.7-0.2,1.6-0.6,2.5h0.1
			c-0.7,1.5-1.1,2.9-1.1,4.1c-0.7,1.9-1.7,2.8-2.9,2.8l-0.7-0.1v0.1c-0.4-0.1-1.1-0.5-2-1.2c-1-0.6-1.5-1.2-1.5-1.9
			c0.3-0.6,0.4-1.2,0.5-2.1c0.5-0.8,0.7-1.9,0.7-3.5c1-2.8,1.6-4.3,1.6-4.6l0.7-3.4c0.5-2,1.4-4.8,2.8-8.5c0.4,0,0.8-1.8,1.2-5.3
			c0-0.5,0.4-1.9,1.3-4l0.2-1.6c0-0.4-0.9-0.8-2.6-1.2c-2-1.1-3.6-2.6-4.9-4.7c-0.6-1-1.2-2.1-1.6-3.4h0.1l-0.2-1L389,71
			c-0.3-1.2-0.7-3.1-1-5.7v-4.8l-0.5-4.1l0.1-0.1v-0.2c-0.2-4.8-0.5-8.4-0.8-10.9l0.1-0.1v-0.1c0-5,0.5-8.3,1.6-9.9
			c0-0.4,0.5-1.3,1.6-2.5c0.3-0.6,0.9-1.3,2-2.1l2.2-1.5L395.4,28.9z M393.8,45.2v1.3c0.3,2.3,0.6,6.3,0.7,11.8l0.4,2.8l-0.2,1.8
			l0.1,1.7h-0.1l0.9,6c0,0.4-0.1,0.6-0.2,0.6c0.1,0.3,0.2,0.5,0.3,0.5h0.5c0.1,0,0.3-0.2,0.4-0.5l-0.1-0.3c0.4-1.2,0.7-2.6,1-4
			l-0.2-2c0.4-2.8,0.6-4.8,0.6-6l0.4-2.6c-0.3-1.8-0.5-3.7-0.6-5.6l0.1-1.6V49l-0.2-1.8c0.4-3,0.6-4.9,0.6-5.8v-0.8
			c-0.3-3.2-0.8-4.9-1.5-4.9h-0.3c-0.7,0-1.5,1.2-2.5,3.6C393.9,39.6,393.8,41.5,393.8,45.2z M413.5,81.4l-0.1,4l0.3,4l-0.1,0.4
			l0.4,2.6v0.2l-0.4,3.1c0,1.2,0.3,4.1,0.8,8.7v2.8l-0.2,3.2v0.7c0,0.4,0.3,0.8,0.8,1.1h0.2c1.4-0.6,2.1-1.9,2.1-3.9
			c0.3-1.3,0.5-2.6,0.6-4c0.9-1.3,1.3-2.2,1.3-2.6l0.4-8.7l-0.1-1.2l0.1-2.4l-0.4-1.6v-4.4c0-1.7-0.4-4-1.3-6.9
			c-0.4-0.9-0.9-1.3-1.7-1.3c-1.4,0.4-2.1,1.3-2.1,2.7C414.2,79.2,413.9,80.3,413.5,81.4z"/>
	</g>
	<g>
		<g>
			<path class="st8" d="M464.5,45.3L464.5,45.3c1,0,1.8,0.4,2.5,1.3c0.3,0.3,0.4,0.8,0.4,1.4l0,0.4h0c0,0.2,0.1,1,0.2,2.4l0,0.4v0.2
				l0.1,0.5h0l0,0v0.1l0.1,0.7l-0.1,0.7l0.1,1.3v0.1c0,0.2-0.1,0.5-0.2,1.1l0,0.2l0.1,1.5h0l0.1,0.4c0,0.2-0.1,0.9-0.1,2.1l0,0.4
				l-0.1,1.1l0.1,1.1v0l0,0l0,0.1l0.1,0.6l-0.1,0.6v0l0,0l0,0l-0.3,1.2c-0.1,0.3-0.3,0.6-0.6,0.9c-0.1,0.2-0.4,0.4-0.7,0.5l-0.4,0.4
				c-0.1,0-0.3,0.1-0.4,0.1H465c-0.8,0-1.5-0.6-2.3-1.7c-0.1-0.1-0.2-0.4-0.3-0.7h0l-0.3-1c0-0.2,0-0.5-0.1-0.9l0-0.1l0-0.8h0l0,0
				v-0.1l-0.1-1l0-1l-0.1-1.2v-0.4l0.1-1.2l-0.2-1.2c0-0.7,0-1.1,0.1-1.3l-0.1-2.1l0-0.4l0-0.9l0-0.5l0-0.8v-0.2
				c0-0.9,0.1-1.5,0.2-1.8l0.2-0.6h0c0.2-0.3,0.3-0.7,0.5-1.2c0.4-0.6,0.8-0.9,1.1-0.9C464.1,45.3,464.3,45.3,464.5,45.3z
				 M463.6,49.1l0,0.1l-0.1,1.1v0.8l0.1,0.4v0.1l-0.1,0.4l0,0.5l-0.1,0.6c0,0.6,0,1,0.1,1.1l0,1.1v0.3l0,0.3l0.2,1.6v0.1l-0.1,1.3
				l0,0.5l0,0.2c0,0.1,0.1,0.4,0.1,0.9l0,0.4l0.1,1.1v0.8c0,0.7,0.1,1.3,0.2,1.8c0.1,0,0.1,0.3,0.2,1c0,0.1,0.1,0.2,0.4,0.4h0.4
				c0.3,0,0.6-0.4,0.9-0.9c0.1-0.3,0.2-0.5,0.2-0.7v-0.6c0-0.9,0-1.4-0.1-1.6l0,0l0-0.3v-0.1c0-0.4,0-0.8,0.1-1.1v0l-0.1-0.9v-0.2
				c0-0.6,0.1-1,0.1-1l0,0v-0.1l0-0.1l0,0h0c0-0.1-0.1-0.7-0.2-1.9c0-0.8,0.1-1.3,0.2-1.5l0,0l0-0.2l0-0.6l0-0.3l0,0l0,0h0l0,0
				l0-0.4l0-0.2h0l0.1-0.3l-0.1-0.2h0l-0.2-1.7l0-0.5l0-1h0l0,0v0l-0.1-1.1l0-0.3c0-0.7-0.2-1.1-0.6-1.1c-0.7,0.1-1,0.2-1,0.4
				c-0.3,0.5-0.5,1-0.5,1.6L463.6,49.1z"/>
			<path class="st8" d="M469.8,45.7c0.1,0.1,0.3,0.1,0.6,0.2l0,0l0.3,0l0.2,0c1.1,0.1,1.8,0.1,2,0.2l0,0h0c0.5,0.1,0.8,0.3,1,0.5
				c0.2,0.3,0.3,0.5,0.3,0.5v0.1c-0.1,0.3-0.3,0.4-0.5,0.4l-1.5-0.1v0l0,0h0l-1.1,0H471c-0.3,0-0.4,0.2-0.4,0.6v0.1l0.1,1.7
				c0,0.6,0.1,1.3,0.1,2.2c0,0,0,0.1,0,0.2h0l0.1,0.5l0,0.6v0.9c0,0.1,0.1,0.2,0.4,0.4c1,0,1.7,0.2,1.9,0.7c0.2,0.3,0.3,0.4,0.3,0.5
				c0,0.2-0.2,0.3-0.5,0.4l-0.4,0.1l-1.4-0.1c-0.2,0.1-0.3,0.3-0.3,0.6c-0.1,0-0.1,0.4-0.1,1.1l0,0.8l0,0.2l0.1,0.9
				c0,0.4,0,0.7-0.1,0.9l0,0.9V62l-0.1,1v0.4l0,0.6l0,0.4l-0.2,0.9l0.1,1c0,0.1-0.1,0.3-0.4,0.6l-0.2,0H470c-0.2,0-0.4-0.1-0.5-0.3
				c-0.4-0.3-0.6-0.6-0.6-1L469,65v-0.2l0.1-0.6l-0.1-0.5l0.1-0.8l0-0.3l0.1-0.5V61l0,0l0,0v-0.2l0.1-0.5l0-0.5l0-0.7v-0.4l-0.1-0.7
				v-0.3l0,0l0.1-1.2V56l0-0.7v-0.1c0-0.8,0.1-1.3,0.1-1.6l-0.1-2.1v-0.4c-0.1-0.4-0.1-1-0.2-1.8l-0.2-2.8c0.1-0.5,0.3-0.7,0.6-0.7
				C469.5,45.8,469.6,45.7,469.8,45.7z M470.3,63.2c0.2,0,0.2,0.1,0.2,0.1c0,0.1-0.1,0.1-0.2,0.1c-0.1,0-0.2,0-0.2-0.1v-0.1
				C470.1,63.3,470.2,63.2,470.3,63.2z M470.8,66L470.8,66l-0.4,0.2C470.6,66,470.7,66,470.8,66z M471.2,66.4h0.1
				c0.1,0,0.1,0,0.1,0.1c0,0.1-0.1,0.1-0.2,0.1C471.2,66.6,471.1,66.6,471.2,66.4L471.2,66.4L471.2,66.4z M471.7,67.3v0.1l-0.1,0.1
				h0c-0.2,0-0.3-0.1-0.3-0.3l0.1-0.1h0.2L471.7,67.3z M471.5,64.3L471.5,64.3l0.2,0.1v0c0,0.1-0.1,0.1-0.2,0.1h0
				c-0.1,0-0.1-0.1-0.1-0.1v0C471.3,64.3,471.4,64.3,471.5,64.3z M471.4,66.1L471.4,66.1l0,0.1h0L471.4,66.1L471.4,66.1z
				 M471.6,63.4h0.1l0.1,0.1c0,0.1-0.1,0.1-0.2,0.1c-0.1,0-0.1,0-0.1-0.1L471.6,63.4C471.5,63.5,471.6,63.4,471.6,63.4z M471.8,67.1
				L471.8,67.1L471.8,67.1L471.8,67.1L471.8,67.1L471.8,67.1L471.8,67.1L471.8,67.1L471.8,67.1z M473.8,67.8L473.8,67.8l0.1,0.1
				L473.8,67.8L473.8,67.8L473.8,67.8L473.8,67.8z M475.8,67.7L475.8,67.7L475.8,67.7L475.8,67.7L475.8,67.7L475.8,67.7L475.8,67.7z
				"/>
			<path class="st8" d="M484,45.1h0.1c0.1,0,0.4,0.1,0.8,0.2c1.1,0,1.7,0.1,1.9,0.4c0.3,0.4,0.5,0.6,0.5,0.8c0,0.2-0.3,0.3-0.8,0.4
				l-1.1-0.1c-0.1,0.1-0.2,0.1-0.3,0.2v0.8c0,0.4,0,0.8,0.1,1l0,1V50l0,0.5l0,0.4l0,0.4v0.4l0,0.8l0,0.6l-0.1,0.6
				c0.1,1.5,0.1,2.5,0.2,3c0.1,0.2,0.1,0.7,0.1,1.3c0,0,0.1,0.1,0.1,0.4l0,0.5l0.1,2l0,0.2l-0.1,1.8l0,0.1l0.1,0.4l0.1,2.8
				c0,0.2-0.2,0.4-0.5,0.6h-0.1c-0.3,0-0.6-0.2-0.9-0.6c0-0.1-0.1-0.2-0.2-0.4v-0.7l-0.1-1.1l0-0.4c-0.1-0.4-0.1-0.8-0.1-1.1
				c0.1-0.4,0.1-1.1,0.1-2.1l-0.1-1.3l0-0.4v-0.4c-0.1-1.2-0.2-1.9-0.3-2.2l0-2.1l0.1-1v-0.7l0-0.8c0-0.1,0.1-0.3,0.1-0.6l-0.1-0.9
				v-0.4c0-1.8-0.1-2.8-0.2-2.8c-0.1-0.1-0.2-0.2-0.2-0.2l-0.2,0c-0.4,0-0.8-0.2-1.2-0.6c-0.1-0.2-0.2-0.3-0.2-0.4v-0.1
				c0.1-0.4,0.4-0.5,0.7-0.5h0.1l0.5,0.1h0.3L484,45.1z"/>
			<path class="st8" d="M493.1,45.2h0.1c0.3,0,0.5,0.3,0.8,0.8l0.1,0.3l0,0.5l0.1,0.4l0,0.4l0,0.6l0,0.5l0,0.4l-0.1,0.4
				c0.1,0.2,0.1,0.7,0.2,1.5c0.1,0.6,0.2,1.5,0.3,2.8l0,0.4l0,0.3c0,0.8-0.1,1.3-0.2,1.7l0,0.3l0,0.5l0,0.9l0,0.4l0.1,0.4l0,0.5
				l0,0.6l-0.1,1.7l0,0.1c0,0.6,0.1,1.1,0.2,1.7c0.1,0.9,0.2,1.5,0.2,1.7V65l-0.1,1.2V67c0,0.3-0.1,0.5-0.4,0.6h0v0l0,0h-0.2l0,0h0
				v0c-0.3-0.1-0.5-0.3-0.8-0.7c-0.1-0.1-0.2-0.4-0.2-1l0-0.5v-0.3c0-0.4-0.1-1.3-0.3-2.7l-0.1-0.8V61l0.1-0.5c0-0.1,0-0.4,0-0.6
				v-1.6c0-0.6-0.2-0.9-0.5-0.9c-0.3,0-0.4,0-0.4,0l0,0h0c-0.5-0.1-1-0.1-1.4-0.1c-0.4,0-0.6,0.1-0.7,0.3v0.1l0.1,0.8l0,0.4l0,0.6
				c0,0.3,0,0.5-0.1,0.7l0,0v0l-0.1,0.4v0.1c0.1,1.2,0.2,2,0.2,2.2l-0.1,0.4l0.1,1v0.1l0,0.1l0,0l0,0.1v0.1l0,0.1h0l-0.1,0.2l0,0.4
				l-0.1,0.5l0,1.1v0c0,0.2-0.2,0.4-0.5,0.5h-0.2c-0.3-0.1-0.5-0.3-0.8-0.7c-0.1-0.2-0.2-0.5-0.2-0.9l0.1-1.4v-0.1l0-0.6v-1.1l0-0.5
				v-0.1l-0.1-0.7h0c0-0.1-0.1-0.4-0.1-0.9v-0.1c0.1-0.4,0.1-1,0.1-1.8l0,0v0l0,0l0-0.3V58l0,0l0,0c-0.1-0.5-0.2-1-0.2-1.4v0l0,0
				l0,0v0l-0.1-0.4l0.1-0.2h0l0.1-0.3v-0.3l0-0.2l0.1-0.9v-0.1l0,0l0,0c0.1-0.4,0.2-0.7,0.2-0.8l0,0l0-0.1l0-0.2h0l0,0v-0.1l0,0l0,0
				V52c0-0.2,0-0.5,0.1-0.8l-0.1-0.6l0.1-0.8l-0.1-0.4l0.1-0.6v-1.4l0.1-0.8v-0.4c0.1-0.5,0.4-0.7,0.7-0.7c0.5,0,0.8,0.3,1,0.9v0.2
				c0,0.2,0,0.4-0.1,0.7h0l0,0.1l0,0.7l0,0.6l-0.1,1.4l0,0.2l0,0.7l0,0.2l0,0.1l0.1,0.7l-0.1,0.7L490,53l-0.1,0.4h0l-0.1,1.1
				c0,0-0.1,0.2-0.1,0.5v0.2c0,0.3,0.3,0.4,0.8,0.4v0l0,0h0c0.3,0,0.9,0.1,1.9,0.2c0.2,0,0.3-0.1,0.4-0.3l0-0.3l0.1-1.3l-0.1-1.5
				c-0.1-0.9-0.2-1.7-0.3-2.5c0,0,0-0.1-0.1-0.3v-0.9l0-0.7l0-0.6V47l-0.1-0.8c0-0.6,0.1-0.9,0.3-0.9
				C492.7,45.2,492.9,45.2,493.1,45.2z"/>
			<path class="st8" d="M496.8,45.6h0.7c0.6,0,1.1,0,1.7,0.1v0c0.5,0.1,0.8,0.1,1,0.2c0.4,0.1,0.5,0.2,0.5,0.4
				c0.1,0.2,0.2,0.3,0.3,0.4V47c-0.1,0.2-0.4,0.3-0.7,0.3c-0.8-0.1-1.5-0.2-1.9-0.2H498c-0.4,0-0.7,0.1-0.7,0.4c0,1.5,0.1,2.5,0.2,3
				l0.1,1l-0.1,1l0,0.2c-0.1,0.7-0.2,1.2-0.2,1.4c0,0.5,0.2,0.7,0.5,0.7c0,0,0.2,0.1,0.7,0.1c0.4,0,0.9,0.1,1.4,0.3
				c0.4,0.3,0.6,0.6,0.6,0.9c0,0.2-0.2,0.4-0.5,0.4c-0.6-0.1-1.4-0.2-2.3-0.3c-0.2,0-0.3,0.2-0.3,0.6l-0.1,0.8l0,0.1l0,0.3l0.1,0.7
				v0.4l-0.1,0.9h0l-0.2,0.9h0l-0.1,0.4l0.1,0.3l0,0c0,0.2,0.1,0.3,0.1,0.4v0.6l0,0.7l-0.1,0.5c0,1.1,0.1,1.7,0.3,1.7
				c0,0.1,0.8,0.2,2.3,0.2c0.4,0.1,0.7,0.3,0.8,0.5c0.1,0.2,0.2,0.4,0.2,0.4c0,0.4-0.3,0.6-0.8,0.6h-0.2c-0.3,0-0.5,0-0.8-0.1l0,0h0
				c-1,0-1.7-0.1-2.1-0.3c-0.3-0.2-0.6-0.4-0.8-0.7c-0.3-0.4-0.4-0.8-0.4-1.2l0-1.3l0.1-1.2c-0.1-0.3-0.1-0.8-0.2-1.5
				c0.1-0.4,0.2-0.6,0.2-0.8l0.1-0.9V59l-0.1-0.7v-0.9l0.1-0.6v-1l-0.2-0.9l0-0.4l0-0.5c0-0.6,0.1-1.2,0.2-1.7v0l-0.1-1.6h0
				c-0.1-0.4-0.1-1.2-0.2-2.2h0l0,0v-0.7l0,0l0,0v0l0.1-0.3l0-0.5c0-0.6,0.1-0.9,0.3-0.9C496.1,45.7,496.4,45.6,496.8,45.6z"/>
			<path class="st8" d="M509.9,45.7c0.1,0.1,0.3,0.1,0.6,0.2l0,0l0.3,0l0.2,0c1.1,0.1,1.8,0.1,2,0.2l0,0h0c0.5,0.1,0.8,0.3,1,0.5
				c0.2,0.3,0.3,0.5,0.3,0.5v0.1c-0.1,0.3-0.3,0.4-0.5,0.4l-1.5-0.1v0l0,0h0l-1.1,0h-0.1c-0.3,0-0.4,0.2-0.4,0.6v0.1l0.1,1.7
				c0,0.6,0.1,1.3,0.1,2.2c0,0,0,0.1,0,0.2h0l0.1,0.5l0,0.6v0.9c0,0.1,0.1,0.2,0.4,0.4c1,0,1.7,0.2,1.9,0.7c0.2,0.3,0.3,0.4,0.3,0.5
				c0,0.2-0.2,0.3-0.5,0.4l-0.4,0.1l-1.4-0.1c-0.2,0.1-0.3,0.3-0.3,0.6c-0.1,0-0.1,0.4-0.1,1.1l0,0.8l0,0.2l0.1,0.9
				c0,0.4,0,0.7-0.1,0.9l0,0.9V62l-0.1,1v0.4l0,0.6l0,0.4l-0.2,0.9l0.1,1c0,0.1-0.1,0.3-0.4,0.6l-0.2,0h-0.1c-0.2,0-0.4-0.1-0.5-0.3
				c-0.4-0.3-0.6-0.6-0.6-1l0.1-0.6v-0.2l0.1-0.6l-0.1-0.5l0.1-0.8l0-0.3l0.1-0.5V61l0,0l0,0v-0.2l0.1-0.5l0-0.5l0-0.7v-0.4
				l-0.1-0.7v-0.3l0,0l0.1-1.2V56l0-0.7v-0.1c0-0.8,0.1-1.3,0.1-1.6l-0.1-2.1v-0.4c-0.1-0.4-0.1-1-0.2-1.8l-0.2-2.8
				c0.1-0.5,0.3-0.7,0.6-0.7C509.6,45.8,509.7,45.7,509.9,45.7z M510.3,63.2c0.2,0,0.2,0.1,0.2,0.1c0,0.1-0.1,0.1-0.2,0.1
				c-0.1,0-0.2,0-0.2-0.1v-0.1C510.2,63.3,510.2,63.2,510.3,63.2z M510.9,66L510.9,66l-0.4,0.2C510.7,66,510.8,66,510.9,66z
				 M511.3,66.4h0.1c0.1,0,0.1,0,0.1,0.1c0,0.1-0.1,0.1-0.2,0.1C511.2,66.6,511.2,66.6,511.3,66.4L511.3,66.4L511.3,66.4z
				 M511.8,67.3v0.1l-0.1,0.1h0c-0.2,0-0.3-0.1-0.3-0.3l0.1-0.1h0.2L511.8,67.3z M511.5,64.3L511.5,64.3l0.2,0.1v0
				c0,0.1-0.1,0.1-0.2,0.1h0c-0.1,0-0.1-0.1-0.1-0.1v0C511.4,64.3,511.5,64.3,511.5,64.3z M511.5,66.1L511.5,66.1l0,0.1h0
				L511.5,66.1L511.5,66.1z M511.7,63.4h0.1l0.1,0.1c0,0.1-0.1,0.1-0.2,0.1c-0.1,0-0.1,0-0.1-0.1L511.7,63.4
				C511.6,63.5,511.6,63.4,511.7,63.4z M511.8,67.1L511.8,67.1L511.8,67.1L511.8,67.1L511.8,67.1L511.8,67.1L511.8,67.1L511.8,67.1
				L511.8,67.1z M513.8,67.8L513.8,67.8l0.1,0.1L513.8,67.8L513.8,67.8L513.8,67.8L513.8,67.8z M515.9,67.7L515.9,67.7L515.9,67.7
				L515.9,67.7L515.9,67.7L515.9,67.7L515.9,67.7z"/>
			<path class="st8" d="M517.6,45.3L517.6,45.3c1,0,1.8,0.4,2.5,1.3c0.3,0.3,0.4,0.8,0.4,1.4l0,0.4h0c0,0.2,0.1,1,0.2,2.4l0,0.4v0.2
				l0.1,0.5h0l0,0v0.1l0.1,0.7l-0.1,0.7l0.1,1.3v0.1c0,0.2-0.1,0.5-0.2,1.1l0,0.2l0.1,1.5h0l0.1,0.4c0,0.2-0.1,0.9-0.1,2.1l0,0.4
				l-0.1,1.1l0.1,1.1v0l0,0l0,0.1l0.1,0.6l-0.1,0.6v0l0,0l0,0l-0.3,1.2c-0.1,0.3-0.3,0.6-0.6,0.9c-0.1,0.2-0.4,0.4-0.7,0.5l-0.4,0.4
				c-0.1,0-0.3,0.1-0.4,0.1H518c-0.8,0-1.5-0.6-2.3-1.7c-0.1-0.1-0.2-0.4-0.3-0.7h0l-0.3-1c0-0.2,0-0.5-0.1-0.9l0-0.1l0-0.8h0l0,0
				v-0.1l-0.1-1l0-1l-0.1-1.2v-0.4l0.1-1.2l-0.2-1.2c0-0.7,0-1.1,0.1-1.3l-0.1-2.1l0-0.4l0-0.9l0-0.5l0-0.8v-0.2
				c0-0.9,0.1-1.5,0.2-1.8l0.2-0.6h0c0.2-0.3,0.3-0.7,0.5-1.2c0.4-0.6,0.8-0.9,1.1-0.9C517.2,45.3,517.4,45.3,517.6,45.3z
				 M516.7,49.1l0,0.1l-0.1,1.1v0.8l0.1,0.4v0.1l-0.1,0.4l0,0.5l-0.1,0.6c0,0.6,0,1,0.1,1.1l0,1.1v0.3l0,0.3l0.2,1.6v0.1l-0.1,1.3
				l0,0.5l0,0.2c0,0.1,0.1,0.4,0.1,0.9l0,0.4l0.1,1.1v0.8c0,0.7,0.1,1.3,0.2,1.8c0.1,0,0.1,0.3,0.2,1c0,0.1,0.1,0.2,0.4,0.4h0.4
				c0.3,0,0.6-0.4,0.9-0.9c0.1-0.3,0.2-0.5,0.2-0.7v-0.6c0-0.9,0-1.4-0.1-1.6l0,0l0-0.3v-0.1c0-0.4,0-0.8,0.1-1.1v0l-0.1-0.9v-0.2
				c0-0.6,0.1-1,0.1-1l0,0v-0.1l0-0.1l0,0h0c0-0.1-0.1-0.7-0.2-1.9c0-0.8,0.1-1.3,0.2-1.5l0,0l0-0.2l0-0.6l0-0.3l0,0l0,0h0l0,0
				l0-0.4l0-0.2h0l0.1-0.3l-0.1-0.2h0l-0.2-1.7l0-0.5l0-1h0l0,0v0l-0.1-1.1l0-0.3c0-0.7-0.2-1.1-0.6-1.1c-0.7,0.1-1,0.2-1,0.4
				c-0.3,0.5-0.5,1-0.5,1.6L516.7,49.1z"/>
			<path class="st8" d="M522.6,45.6l0.6,0h0.5c0.2,0,0.5,0,0.7,0.1v0c0.7,0.1,1.2,0.3,1.6,0.5c0.7,0.5,1.1,1,1.3,1.4l0,0.7v0.5l0,1
				c-0.1,0.1-0.1,0.3-0.1,0.5v0.2c0.1,0.2,0.1,0.5,0.1,1c0,0.3-0.1,0.7-0.2,1v0.3c0,0.2,0,0.4,0.1,0.6l0,0v0l0,0.4l0,0.6
				c0,0.4-0.1,0.8-0.2,1.2c0,0.4-0.1,0.7-0.1,0.8h0c-0.3,0.3-0.5,0.6-0.7,0.8c0,0.1,0,0.1-0.1,0.2l0,0v0l-0.1,0.3
				c0,0.1,0.2,0.7,0.7,1.6c0.4,1.5,0.6,2.2,0.6,2.3V62l-0.1,0.6l0,0.4l-0.1,0.5v0.2l0.1,0.6v0l0,0.1l0.1,0.4l-0.1,0.5v0l0,0.9
				c0,0.2,0.1,0.6,0.2,1.2l0.1,0.4v0c-0.1,0.3-0.2,0.4-0.4,0.4h-0.1l0,0h0l-0.1,0c-0.3,0-0.7-0.4-1.2-1.1c-0.1-0.2-0.2-0.7-0.2-1.7
				v0l0-0.5v-0.5l-0.1-0.7l0.1-1.7c0-0.5-0.2-1.3-0.6-2.4c-0.2-0.7-0.4-1-0.6-1h-0.5c-0.2,0-0.4,0.2-0.4,0.5v0.1l0.1,0.9l0,0.6
				l-0.1,0.8v0.4l0,0l-0.1,0.4l0,0.3c0,0.7,0,1.2,0,1.6l0.1,0.6l0,0.6l0,0.7l0,0l0,0l0,0.3c-0.1,0.8-0.3,1.2-0.5,1.2h-0.2
				c-0.2,0-0.4-0.2-0.6-0.4c-0.3-0.3-0.4-0.5-0.4-0.7v-0.1l0-1.1l-0.1-0.5v-0.3l0-0.8l0-0.3l0-0.3l-0.1-0.6l0.1-1.9l-0.2-1
				c0-0.4,0-0.9,0.1-1.5l0-1.1l0.1-0.5l0-0.3l0-0.7l0-0.3v-0.1l0-0.2c0-0.5-0.1-1.2-0.2-2.1l0.1-0.6l0-0.7c-0.1-0.4-0.1-1-0.2-1.6
				l-0.1-1.4l0-0.6l0-0.4c0-0.9,0.1-1.4,0.2-1.4C522.2,45.8,522.4,45.7,522.6,45.6z M523.5,47.5l0.1,1.3v0.4l0.1,1.7l0,0.7
				c0.1,0.1,0.1,0.9,0.1,2.3c0,0.3,0.1,0.5,0.1,0.7l0,0.5l0.1,0.4v0.1l-0.1,0.6c0,0.3,0.1,0.5,0.3,0.5h0.1c0.3,0,0.7-0.2,1.2-0.7
				c0.1-0.5,0.2-0.9,0.2-1.3v0l0,0l0,0v0c0-0.1,0.1-0.6,0.1-1.3l0-0.7l0.1-0.8l0-0.5l0-1.4l-0.2-0.4l0.2-1v-0.2
				c0-0.2-0.1-0.5-0.2-0.8c-0.2-0.2-0.6-0.3-1.3-0.3h-0.1C523.7,47.2,523.5,47.3,523.5,47.5z"/>
			<path class="st8" d="M536.3,45.4c0.2,0,0.4,0.2,0.7,0.6c0.2,0.1,0.2,0.3,0.2,0.4v0.3l0,0l0,0v0.6l0.2,2.4h0l0,0.1
				c0.1,1.1,0.2,1.7,0.2,1.7l0,0l0,0.3V52l0,0.4l0,0.5v0.3l0,0.6l0,0.2c0,0.3-0.1,0.7-0.2,1.3c0,0.6,0.1,1.1,0.2,1.5v0.9l-0.1,0.8
				v0.2l0,0l0,0v0c0.1,0.4,0.1,0.9,0.1,1.4v0.4l-0.1,0.8v0.2l0.1,1v0.3c-0.1,1-0.2,1.9-0.2,2.6l0,0l0,0.4v0.4c0,0.4-0.1,0.7-0.4,0.9
				c0,0-0.1,0.1-0.2,0.1c-0.3,0-0.5-0.2-0.7-0.4c-0.3-0.3-0.4-0.6-0.4-1v-0.2l0.1-0.5l-0.1-0.5c0.1-0.6,0.1-1,0.2-1.2l0,0v-1.1
				l0-1.2l0.1-0.9h0l0,0v-0.1l-0.1-1.6l0-0.5l0-0.3v-0.1l0-0.6v-0.1c0-0.2-0.1-0.5-0.2-0.9h0l-0.1-0.6l0-0.2v-0.1
				c0-0.1-0.1-0.2-0.1-0.2h-0.1c-0.1,0.1-0.2,0.4-0.4,1.1l-0.2,1.3l-0.1,1.2c-0.2,0.4-0.3,0.8-0.3,1.1v0.2l0,0.2l-0.2,1.2
				c-0.1,0.1-0.2,0.6-0.3,1.5l-0.2,2h0l0,0v0.3l0,0v0h0c0.2,0.6,0.3,1.1,0.3,1.5v0c0,0.4-0.1,0.6-0.4,0.7h-0.2l0,0l0,0h0
				c-0.2,0-0.5-0.2-0.8-0.6c-0.2-0.2-0.3-0.5-0.3-0.7h0c-0.1-0.4-0.2-1.1-0.4-2h0c-0.2-1.3-0.4-2.3-0.6-2.9l0,0c0-0.9-0.1-1.6-0.2-2
				l0-0.7l0-0.3c0-0.6-0.1-1.3-0.3-2l-0.2-2.6l0-0.3c-0.1-0.2-0.2-0.2-0.2-0.2h-0.1c-0.1,0-0.2,0.3-0.3,1h0l0,0l-0.1,0.4l0.1,1.1
				c-0.1,0.3-0.1,0.7-0.1,1.2v0.1l0,0.1l0,0.2v0.2l0,0.3c0,0.6,0.2,1.3,0.3,2h0l0,0v0l0,0l0,0V60l0.2,1.8l-0.1,0.5
				c0.1,0.2,0.1,0.3,0.1,0.5l-0.1,0.6h0l0,0v0.3l0,0l0,0v0l0.1,0.9V65l0.1,1.2l-0.1,0.5h0c-0.1,0.2-0.2,0.3-0.4,0.3l-0.2,0
				c-0.3,0-0.6-0.3-0.9-0.8c-0.1,0-0.2-0.5-0.2-1.4l0-0.3V64l0-0.1h0l-0.1-0.4l0.1-0.5l0-0.6l0-0.5c-0.1-1-0.1-1.5-0.2-1.8h0
				c-0.1-0.1-0.1-0.6-0.2-1.3h0l-0.2-1h0l0-0.3l0-0.2l-0.1-0.7v-0.3l0.1-0.5h0l0,0v-0.1l0.1-1l-0.1-0.7c0.1-0.3,0.1-0.7,0.2-1h0
				c0.1-0.1,0.1-0.5,0.1-1.1l0-0.1l0-0.2h0l0,0l0-0.3v-0.7l0-0.2l0-0.1l0-0.8l0-1.2l0-0.1h0l-0.1-0.2l0.1-0.3l0,0
				c0-0.4,0.1-0.8,0.2-1.1l0,0v-0.6l0,0l0,0v-0.1c0.1-0.5,0.2-0.8,0.4-0.8l0.2,0.1l0.3-0.1l0.7,0.1h0.1l0.3-0.1h0l0.4,0.3
				c0.4,0.3,0.6,0.7,0.6,1.1l0.1,1.9l0,0.4l0,0.4l0,0.2c0.1,0.3,0.2,1,0.3,2.2c0.1,0.2,0.2,0.8,0.3,1.8v0.1l0,0.2l0.1,1.5l0.2,0.9
				c0.1,0.1,0.1,0.2,0.2,0.3h0.1c0.1,0,0.3-0.4,0.4-1.3c0.1-0.2,0.2-0.4,0.2-0.5v-0.3c0-0.3,0.1-1,0.2-2.2c0-0.4,0.1-0.8,0.2-1
				l0-0.6c0.1-1.1,0.2-1.8,0.3-2.1v-0.3l0.1-0.6l0-0.2l0-0.3v-0.6c0-0.5,0.1-0.8,0.4-1c0-0.1,0.2-0.1,0.5-0.2v0l0,0h0.1l0,0l0.3,0
				L536.3,45.4z"/>
			<path class="st8" d="M537.7,87.1L537.7,87.1l0.1,0.1l-0.2,0.1l-0.1-0.1v-0.1L537.7,87.1z M542.4,45.1L542.4,45.1
				c0.3,0,0.6,0.3,1,1l0.1,0.6l0,0.2v0.2c0.1,0.5,0.2,1.2,0.2,2.1c0.1,1.1,0.2,1.9,0.2,2.3l0,0.6l0.1,0.5l0,0.5v0.6l0.1,1.3l0.1,1
				l0,0.4l0,0.4v0.5l0.1,0.5l0,0.3c0.1,0.9,0.1,1.5,0.2,1.6h0c0.1,0.5,0.1,0.9,0.2,1.2c0.1,0,0.1,0.5,0.1,1.4l0,0.3
				c0.1,0.3,0.2,0.6,0.2,1c0.1,0.2,0.2,0.4,0.2,0.6v0.4c0,0.1,0,0.2,0.1,0.4h0l0,0v0.1l0.2,1.1v0.2c0,0.3-0.2,0.5-0.5,0.6h-0.1
				c-0.2,0-0.4-0.1-0.7-0.4c-0.3-0.3-0.4-0.7-0.4-1.3l-0.1-1.1c-0.1-0.3-0.1-0.6-0.2-1l0,0h0c-0.2-0.8-0.3-1.5-0.3-2.1
				c-0.1-0.2-0.2-0.2-0.3-0.3l0,0l-0.1,0H542l-0.8-0.1c-0.2,0.1-0.3,0.2-0.3,0.4l-0.1,0.4l0.1,0.4c0,0.8-0.1,1.2-0.1,1.3l0,0v0.4
				l-0.2,1.1c0,0.3,0,0.7-0.1,1.2v0.2l0.1,0.7v0c0,0.1-0.1,0.3-0.3,0.5c0,0-0.1,0.1-0.2,0.1l-0.5-0.2c-0.5-0.4-0.8-0.8-0.8-1.3v-0.5
				l0,0c0.1-0.7,0.2-1.2,0.2-1.5h0c0-0.2,0.1-0.7,0.2-1.5l0-0.8l0-0.3h0l0,0v-0.3c0.1-0.7,0.2-1.1,0.2-1.5v-0.1l0,0l0,0l0.1-0.3
				l0-0.4v-0.5l0.1-0.6l0-0.3l0-1.1l0-0.2l0.1-0.6l0-0.5c0-0.1,0-0.2,0.1-0.2l0,0l0.2-0.8l0,0l0.1-0.8l-0.1-0.4
				c0-0.4,0.1-1.1,0.3-2.1c0-0.7,0-1.4,0.1-2.1l0-0.4l0.1-0.7l0-0.4c0-0.5,0.1-1,0.3-1.4l0,0c0.1-0.1,0.2-0.2,0.3-0.2l0.4-0.1
				l0.4,0.1l0.4-0.2C542.1,45.2,542.3,45.1,542.4,45.1z M541.7,49.2l0,0.4c-0.1,0.2-0.1,0.4-0.1,0.8c0,0,0,0.1,0,0.2h0l-0.1,0.4v0.1
				l0,0.2c-0.1,0.5-0.2,1-0.2,1.5v1c0,0.2,0,0.4-0.1,0.7h0c-0.1,0.3-0.1,0.8-0.2,1.3v0.9l0,0.1l0,0l0,0.3l0,1.2l0,0v0
				c0,0.4,0.2,0.7,0.5,0.7l0.7,0h0.1c0.2-0.1,0.3-0.2,0.3-0.4h0l0,0v0l0,0l0-0.1v-0.1l0-0.1h0l0,0v0l0,0v0l0,0h0l0-0.1l-0.1-1.3
				l0-0.4c-0.1-1.1-0.2-2.2-0.2-3.2l0-0.4l-0.1-0.5l0,0v-0.2l0,0l0.1-0.4c0-0.6-0.1-1-0.1-1l0,0l-0.1-0.8c-0.1-0.1-0.2-0.3-0.2-0.4
				l0-0.3l-0.1-0.1h-0.1C541.8,49,541.7,49.1,541.7,49.2z M545,52.7L545,52.7c0,0.2,0,0.3-0.1,0.3c-0.1,0-0.1-0.1-0.1-0.2
				c0-0.1,0-0.1,0.1-0.2h0.1L545,52.7z M545.2,67.2L545.2,67.2c-0.1-0.1-0.2-0.2-0.2-0.4l0,0c0.2,0,0.3,0,0.3,0l0,0
				c0.1,0.1,0.1,0.2,0,0.2l0,0l0.1,0.1v0.1l0,0l-0.1,0l0-0.1C545.4,67.2,545.3,67.2,545.2,67.2z M545.9,53.9L545.9,53.9l-0.1,0.2h0
				c-0.1,0-0.1-0.1-0.1-0.2l0.1-0.1L545.9,53.9L545.9,53.9z M546,53.1L546,53.1l-0.1,0.1l-0.1-0.1V53l0.1-0.1h0.1
				C546,53,546,53,546,53.1z M546.2,51.9L546.2,51.9v0.2h-0.1l0-0.1L546.2,51.9L546.2,51.9L546.2,51.9z M546.2,68h0.1
				c0.1,0,0.1,0.1,0.1,0.2c0,0.1-0.1,0.2-0.2,0.2h0l-0.1-0.1C546.1,68.1,546.2,68,546.2,68z"/>
			<path class="st8" d="M547.1,45.3c0.2,0,0.4,0.1,0.7,0.3c0.3,0.4,0.4,0.6,0.4,0.8v0l0,0.4l0.1,0.6l-0.1,0.4
				c0.1,0.8,0.1,1.7,0.2,2.9l-0.1,1v0.2l-0.1,0.7l0,0.3l-0.1,0.8l0,0.4c0,0.3-0.1,1.1-0.2,2.3c0,0.2,0,0.5-0.1,1v0.7l0.1,1.3
				l-0.1,1.6c0,1.3,0.1,2.2,0.2,2.7c0.1,0.6,0.2,1.2,0.2,1.7c0.2,0.2,0.3,0.3,0.6,0.3h0.2c0.5,0,0.8-0.1,1.1-0.1v0l0,0h0.4l0,0l0,0
				h0c0.5,0.1,0.8,0.2,0.8,0.4c0.2,0.3,0.3,0.5,0.3,0.6v0.1c0,0.3-0.4,0.5-1.2,0.6l0,0l-0.7,0.1l-0.6,0H549c-0.3,0-0.7,0.1-1.1,0.4
				l-0.2,0c-0.3,0-0.6-0.2-1.1-0.6c-0.1-0.2-0.2-0.4-0.2-0.6l0.1-0.6v-0.2c-0.2-1.2-0.4-2.6-0.4-4l0-0.6l0.1-1.5V59l-0.1-1.2
				c0-0.8,0.1-1.4,0.2-2l0.1-0.4l0-0.2l0.1-2.3c0.1-0.8,0.1-1.6,0.1-2.4l0-0.9v-0.2l-0.1-0.7v-2.6c0-0.1,0-0.2,0.1-0.2l0,0v-0.3
				C546.6,45.4,546.8,45.3,547.1,45.3z"/>
			<path class="st8" d="M560.6,67.2c-0.3-0.3-0.4-0.5-0.5-0.7c-0.1-0.2-0.2-0.5-0.2-0.8c-0.2-0.7-0.2-1.5-0.2-2.3l0-0.5l-0.1-1.1
				l0-0.3l0-0.3l0-1.3v-0.6l-0.1-1.6l0.1-0.5l-0.1-0.5l0.1-0.6v-0.9l0-0.4l0-0.4l0.1-1.8l-0.1-0.5l0.1-2.2l0-0.2l0-0.3l0-0.8V48
				l0-0.4c0.6-1.4,1.4-2.1,2.6-2.1c0.2,0,0.3,0.1,0.4,0.2c0.4,0.1,0.6,0.2,0.6,0.2c0.5,0.1,0.8,0.4,1,0.7c0.4,0.3,0.6,0.6,0.6,0.7
				c0.3,0.4,0.4,1,0.4,1.8l0,0.2l0,0.3v0.2c-0.2,1.5-0.3,2.6-0.3,3.1v0.6l0,0.1c-0.3,0.7-0.6,1-0.8,1h0c-0.5-0.1-0.8-0.3-0.8-0.6v-1
				c0.1-1.5,0.2-2.4,0.3-2.6l0-0.1l0,0v-0.3l0,0l0,0v-0.2l0,0c0,0,0-0.1,0.1-0.4c0-0.3,0-0.6-0.1-0.9c0-0.4-0.3-0.7-0.8-1v0
				l-0.7-0.3l-0.2,0.1c-0.2,0-0.3,0.3-0.4,1c0.1,0.3,0.1,0.5,0.1,0.6s0,0.3-0.1,0.6l0.1,0.9c0,0.1-0.1,0.2-0.1,0.4V51l0,1.1l0.1,0.4
				c0,0.3,0,0.6-0.1,0.9l0,1.1c0,0.5,0,0.9-0.1,1.2l0.1,0.4l-0.1,0.8l0.1,1.6v0.4l0,0.7l0.1,0.9v0.8l0,0.9l0.1,0.4l-0.1,0.5l0.2,2.3
				c0,0.5,0.2,0.7,0.5,0.7c0.2,0,0.3,0,0.3-0.1c0.2,0,0.3-0.5,0.5-1.4c0-0.5,0.1-0.9,0.1-1.1l0.2-1.6c0-0.9,0.1-1.4,0.3-1.5
				c0.4-0.5,0.7-0.7,1-0.7h0l0,0c0.3,0.1,0.5,0.6,0.5,1.4c-0.1,1.7-0.2,2.8-0.3,3.1c0,0.5-0.1,0.9-0.2,1.2c0,0.3-0.3,0.7-1,1.4
				c-0.8,0.6-1.3,0.9-1.8,0.9h-0.3C561.2,67.6,561,67.5,560.6,67.2z"/>
			<path class="st8" d="M571.4,45.2h0.1c0.3,0,0.5,0.3,0.8,0.8l0.1,0.3l0,0.5l0.1,0.4l0,0.4l0,0.6l0,0.5l0,0.4l-0.1,0.4
				c0.1,0.2,0.1,0.7,0.2,1.5c0.1,0.6,0.2,1.5,0.3,2.8l0,0.4l0,0.3c0,0.8-0.1,1.3-0.2,1.7l0,0.3l0,0.5l0,0.9l0,0.4l0.1,0.4l0,0.5
				l0,0.6l-0.1,1.7l0,0.1c0,0.6,0.1,1.1,0.2,1.7c0.1,0.9,0.2,1.5,0.2,1.7V65l-0.1,1.2V67c0,0.3-0.1,0.5-0.4,0.6h0v0l0,0h-0.2l0,0h0
				v0c-0.3-0.1-0.5-0.3-0.8-0.7c-0.1-0.1-0.2-0.4-0.2-1l0-0.5v-0.3c0-0.4-0.1-1.3-0.3-2.7l-0.1-0.8V61l0.1-0.5c0-0.1,0-0.4,0-0.6
				v-1.6c0-0.6-0.2-0.9-0.5-0.9c-0.3,0-0.4,0-0.4,0l0,0h0c-0.5-0.1-1-0.1-1.4-0.1c-0.4,0-0.6,0.1-0.7,0.3v0.1l0.1,0.8l0,0.4l0,0.6
				c0,0.3,0,0.5-0.1,0.7l0,0v0l-0.1,0.4v0.1c0.1,1.2,0.2,2,0.2,2.2l-0.1,0.4l0.1,1v0.1l0,0.1l0,0l0,0.1v0.1l0,0.1h0l-0.1,0.2l0,0.4
				l-0.1,0.5l0,1.1v0c0,0.2-0.2,0.4-0.5,0.5h-0.2c-0.3-0.1-0.5-0.3-0.8-0.7c-0.1-0.2-0.2-0.5-0.2-0.9l0.1-1.4v-0.1l0-0.6v-1.1l0-0.5
				v-0.1l-0.1-0.7h0c0-0.1-0.1-0.4-0.1-0.9v-0.1c0.1-0.4,0.1-1,0.1-1.8l0,0v0l0,0l0-0.3V58l0,0l0,0c-0.1-0.5-0.2-1-0.2-1.4v0l0,0
				l0,0v0l-0.1-0.4l0.1-0.2h0l0.1-0.3v-0.3l0-0.2l0.1-0.9v-0.1l0,0l0,0c0.1-0.4,0.2-0.7,0.2-0.8l0,0l0-0.1l0-0.2h0l0,0v-0.1l0,0l0,0
				V52c0-0.2,0-0.5,0.1-0.8l-0.1-0.6l0.1-0.8l-0.1-0.4l0.1-0.6v-1.4l0.1-0.8v-0.4c0.1-0.5,0.4-0.7,0.7-0.7c0.5,0,0.8,0.3,1,0.9v0.2
				c0,0.2,0,0.4-0.1,0.7h0l0,0.1l0,0.7l0,0.6l-0.1,1.4l0,0.2l0,0.7l0,0.2l0,0.1l0.1,0.7l-0.1,0.7l0.1,0.5l-0.1,0.4h0l-0.1,1.1
				c0,0-0.1,0.2-0.1,0.5v0.2c0,0.3,0.3,0.4,0.8,0.4v0l0,0h0c0.3,0,0.9,0.1,1.9,0.2c0.2,0,0.3-0.1,0.4-0.3l0-0.3l0.1-1.3l-0.1-1.5
				c-0.1-0.9-0.2-1.7-0.3-2.5c0,0,0-0.1-0.1-0.3v-0.9l0-0.7l0-0.6V47l-0.1-0.8c0-0.6,0.1-0.9,0.3-0.9
				C571,45.2,571.2,45.2,571.4,45.2z"/>
			<path class="st8" d="M576.6,45.3L576.6,45.3c1,0,1.8,0.4,2.5,1.3c0.3,0.3,0.4,0.8,0.4,1.4l0,0.4h0c0,0.2,0.1,1,0.2,2.4l0,0.4v0.2
				l0.1,0.5h0l0,0v0.1l0.1,0.7l-0.1,0.7l0.1,1.3v0.1c0,0.2-0.1,0.5-0.2,1.1l0,0.2l0.1,1.5h0l0.1,0.4c0,0.2-0.1,0.9-0.1,2.1l0,0.4
				l-0.1,1.1l0.1,1.1v0l0,0l0,0.1l0.1,0.6l-0.1,0.6v0l0,0l0,0l-0.3,1.2c-0.1,0.3-0.3,0.6-0.6,0.9c-0.1,0.2-0.4,0.4-0.7,0.5l-0.4,0.4
				c-0.1,0-0.3,0.1-0.4,0.1H577c-0.8,0-1.5-0.6-2.3-1.7c-0.1-0.1-0.2-0.4-0.3-0.7h0l-0.3-1c0-0.2,0-0.5-0.1-0.9l0-0.1l0-0.8h0l0,0
				v-0.1l-0.1-1l0-1l-0.1-1.2v-0.4l0.1-1.2l-0.2-1.2c0-0.7,0-1.1,0.1-1.3l-0.1-2.1l0-0.4l0-0.9l0-0.5l0-0.8v-0.2
				c0-0.9,0.1-1.5,0.2-1.8l0.2-0.6h0c0.2-0.3,0.3-0.7,0.5-1.2c0.4-0.6,0.8-0.9,1.1-0.9C576.1,45.3,576.4,45.3,576.6,45.3z
				 M575.7,49.1l0,0.1l-0.1,1.1v0.8l0.1,0.4v0.1l-0.1,0.4l0,0.5l-0.1,0.6c0,0.6,0,1,0.1,1.1l0,1.1v0.3l0,0.3l0.2,1.6v0.1l-0.1,1.3
				l0,0.5l0,0.2c0,0.1,0.1,0.4,0.1,0.9l0,0.4l0.1,1.1v0.8c0,0.7,0.1,1.3,0.2,1.8c0.1,0,0.1,0.3,0.2,1c0,0.1,0.1,0.2,0.4,0.4h0.4
				c0.3,0,0.6-0.4,0.9-0.9c0.1-0.3,0.2-0.5,0.2-0.7v-0.6c0-0.9,0-1.4-0.1-1.6l0,0l0-0.3v-0.1c0-0.4,0-0.8,0.1-1.1v0l-0.1-0.9v-0.2
				c0-0.6,0.1-1,0.1-1l0,0v-0.1l0-0.1l0,0h0c0-0.1-0.1-0.7-0.2-1.9c0-0.8,0.1-1.3,0.2-1.5l0,0l0-0.2l0-0.6l0-0.3l0,0l0,0h0l0,0
				l0-0.4l0-0.2h0l0.1-0.3l-0.1-0.2h0l-0.2-1.7l0-0.5l0-1h0l0,0v0l-0.1-1.1l0-0.3c0-0.7-0.2-1.1-0.6-1.1c-0.7,0.1-1,0.2-1,0.4
				c-0.3,0.5-0.5,1-0.5,1.6L575.7,49.1z"/>
			<path class="st8" d="M582,67.2c-0.3-0.3-0.4-0.5-0.4-0.7c-0.1-0.2-0.2-0.5-0.2-0.8c-0.2-0.7-0.2-1.5-0.2-2.3l0-0.5l-0.1-1.1
				l0-0.3l0-0.3l0-1.3v-0.6l-0.1-1.6l0.1-0.5l-0.1-0.5L581,56v-0.9l0-0.4l0-0.4l0.1-1.8l-0.1-0.5l0.1-2.2l0-0.2l0-0.3l0-0.8V48
				l0-0.4c0.6-1.4,1.4-2.1,2.6-2.1c0.2,0,0.3,0.1,0.4,0.2c0.4,0.1,0.6,0.2,0.6,0.2c0.5,0.1,0.8,0.4,1,0.7c0.4,0.3,0.6,0.6,0.6,0.7
				c0.3,0.4,0.4,1,0.4,1.8l0,0.2l0,0.3v0.2c-0.2,1.5-0.3,2.6-0.3,3.1v0.6l0,0.1c-0.3,0.7-0.6,1-0.8,1h0c-0.5-0.1-0.8-0.3-0.8-0.6v-1
				c0.1-1.5,0.2-2.4,0.3-2.6l0-0.1l0,0v-0.3l0,0l0,0v-0.2l0,0c0,0,0-0.1,0.1-0.4c0-0.3,0-0.6-0.1-0.9c0-0.4-0.3-0.7-0.8-1v0
				l-0.7-0.3l-0.2,0.1c-0.2,0-0.3,0.3-0.4,1c0.1,0.3,0.1,0.5,0.1,0.6s0,0.3-0.1,0.6l0.1,0.9c0,0.1-0.1,0.2-0.1,0.4V51l0,1.1l0.1,0.4
				c0,0.3,0,0.6-0.1,0.9l0,1.1c0,0.5,0,0.9-0.1,1.2l0.1,0.4l-0.1,0.8l0.1,1.6v0.4l0,0.7l0.1,0.9v0.8l0,0.9l0.1,0.4l-0.1,0.5l0.2,2.3
				c0,0.5,0.2,0.7,0.5,0.7c0.2,0,0.3,0,0.3-0.1c0.2,0,0.3-0.5,0.5-1.4c0-0.5,0.1-0.9,0.1-1.1l0.2-1.6c0-0.9,0.1-1.4,0.3-1.5
				c0.4-0.5,0.7-0.7,1-0.7h0l0,0c0.3,0.1,0.5,0.6,0.5,1.4c-0.1,1.7-0.2,2.8-0.3,3.1c0,0.5-0.1,0.9-0.2,1.2c0,0.3-0.3,0.7-1,1.4
				c-0.8,0.6-1.3,0.9-1.8,0.9h-0.3C582.6,67.6,582.4,67.5,582,67.2z"/>
			<path class="st8" d="M590.3,45.3L590.3,45.3c1,0,1.8,0.4,2.5,1.3c0.3,0.3,0.4,0.8,0.4,1.4l0,0.4h0c0,0.2,0.1,1,0.2,2.4l0,0.4v0.2
				l0.1,0.5h0l0,0v0.1l0.1,0.7l-0.1,0.7l0.1,1.3v0.1c0,0.2-0.1,0.5-0.2,1.1l0,0.2l0.1,1.5h0l0.1,0.4c0,0.2-0.1,0.9-0.1,2.1l0,0.4
				l-0.1,1.1l0.1,1.1v0l0,0l0,0.1l0.1,0.6l-0.1,0.6v0l0,0l0,0l-0.3,1.2c-0.1,0.3-0.3,0.6-0.6,0.9c-0.1,0.2-0.4,0.4-0.7,0.5l-0.4,0.4
				c-0.1,0-0.3,0.1-0.4,0.1h-0.3c-0.8,0-1.5-0.6-2.3-1.7c-0.1-0.1-0.2-0.4-0.3-0.7h0l-0.3-1c0-0.2,0-0.5-0.1-0.9l0-0.1l0-0.8h0l0,0
				v-0.1l-0.1-1l0-1l-0.1-1.2v-0.4l0.1-1.2l-0.2-1.2c0-0.7,0-1.1,0.1-1.3l-0.1-2.1l0-0.4l0-0.9l0-0.5l0-0.8v-0.2
				c0-0.9,0.1-1.5,0.2-1.8l0.2-0.6h0c0.2-0.3,0.3-0.7,0.5-1.2c0.4-0.6,0.8-0.9,1.1-0.9C589.9,45.3,590.1,45.3,590.3,45.3z
				 M589.4,49.1l0,0.1l-0.1,1.1v0.8l0.1,0.4v0.1l-0.1,0.4l0,0.5l-0.1,0.6c0,0.6,0,1,0.1,1.1l0,1.1v0.3l0,0.3l0.2,1.6v0.1l-0.1,1.3
				l0,0.5l0,0.2c0,0.1,0.1,0.4,0.1,0.9l0,0.4l0.1,1.1v0.8c0,0.7,0.1,1.3,0.2,1.8c0.1,0,0.1,0.3,0.2,1c0,0.1,0.1,0.2,0.4,0.4h0.4
				c0.3,0,0.6-0.4,0.9-0.9c0.1-0.3,0.2-0.5,0.2-0.7v-0.6c0-0.9,0-1.4-0.1-1.6l0,0l0-0.3v-0.1c0-0.4,0-0.8,0.1-1.1v0l-0.1-0.9v-0.2
				c0-0.6,0.1-1,0.1-1l0,0v-0.1l0-0.1l0,0h0c0-0.1-0.1-0.7-0.2-1.9c0-0.8,0.1-1.3,0.2-1.5l0,0l0-0.2l0-0.6l0-0.3l0,0l0,0h0l0,0
				l0-0.4l0-0.2h0l0.1-0.3l-0.1-0.2h0l-0.2-1.7l0-0.5l0-1h0l0,0v0l-0.1-1.1l0-0.3c0-0.7-0.2-1.1-0.6-1.1c-0.7,0.1-1,0.2-1,0.4
				c-0.3,0.5-0.5,1-0.5,1.6L589.4,49.1z"/>
			<path class="st8" d="M595.5,45.3c0.2,0,0.4,0.1,0.7,0.3c0.3,0.4,0.4,0.6,0.4,0.8v0l0,0.4l0.1,0.6l-0.1,0.4
				c0.1,0.8,0.1,1.7,0.2,2.9l-0.1,1v0.2l-0.1,0.7l0,0.3l-0.1,0.8l0,0.4c0,0.3-0.1,1.1-0.2,2.3c0,0.2,0,0.5-0.1,1v0.7l0.1,1.3
				l-0.1,1.6c0,1.3,0.1,2.2,0.2,2.7c0.1,0.6,0.2,1.2,0.2,1.7c0.1,0.2,0.3,0.3,0.6,0.3h0.2c0.5,0,0.8-0.1,1.1-0.1v0l0,0h0.4l0,0l0,0
				h0c0.5,0.1,0.8,0.2,0.8,0.4c0.2,0.3,0.3,0.5,0.3,0.6v0.1c0,0.3-0.4,0.5-1.2,0.6l0,0l-0.7,0.1l-0.6,0h-0.2c-0.3,0-0.7,0.1-1.1,0.4
				l-0.2,0c-0.3,0-0.6-0.2-1.1-0.6c-0.2-0.2-0.2-0.4-0.2-0.6l0.1-0.6v-0.2c-0.2-1.2-0.4-2.6-0.5-4l0-0.6l0.1-1.5V59l-0.1-1.2
				c0-0.8,0.1-1.4,0.2-2l0.1-0.4l0-0.2l0.1-2.3c0.1-0.8,0.1-1.6,0.1-2.4l0-0.9v-0.2l-0.1-0.7v-2.6c0-0.1,0-0.2,0.1-0.2l0,0v-0.3
				C595.1,45.4,595.2,45.3,595.5,45.3z"/>
			<path class="st8" d="M599.6,87.1L599.6,87.1l0.1,0.1l-0.2,0.1l-0.1-0.1v-0.1L599.6,87.1z M604.3,45.1L604.3,45.1
				c0.3,0,0.6,0.3,1,1l0.1,0.6l0,0.2v0.2c0.1,0.5,0.1,1.2,0.2,2.1c0.1,1.1,0.2,1.9,0.2,2.3l0,0.6l0.1,0.5l0,0.5v0.6l0.1,1.3l0.1,1
				l0,0.4l0,0.4v0.5l0.1,0.5l0,0.3c0.1,0.9,0.1,1.5,0.2,1.6h0c0.1,0.5,0.1,0.9,0.2,1.2c0.1,0,0.1,0.5,0.1,1.4l0,0.3
				c0.1,0.3,0.2,0.6,0.2,1c0.1,0.2,0.2,0.4,0.2,0.6v0.4c0,0.1,0,0.2,0.1,0.4h0l0,0v0.1l0.2,1.1v0.2c0,0.3-0.2,0.5-0.5,0.6h-0.1
				c-0.2,0-0.4-0.1-0.7-0.4c-0.3-0.3-0.5-0.7-0.5-1.3l-0.1-1.1c-0.1-0.3-0.1-0.6-0.2-1l0,0h0c-0.2-0.8-0.3-1.5-0.3-2.1
				c-0.1-0.2-0.2-0.2-0.3-0.3l0,0l-0.1,0h-0.4l-0.8-0.1c-0.2,0.1-0.3,0.2-0.3,0.4l-0.1,0.4l0.1,0.4c0,0.8-0.1,1.2-0.1,1.3l0,0v0.4
				l-0.2,1.1c0,0.3,0,0.7-0.1,1.2v0.2l0.1,0.7v0c0,0.1-0.1,0.3-0.3,0.5c0,0-0.1,0.1-0.2,0.1l-0.5-0.2c-0.5-0.4-0.8-0.8-0.8-1.3v-0.5
				l0,0c0.1-0.7,0.2-1.2,0.2-1.5h0c0-0.2,0.1-0.7,0.2-1.5l0-0.8l0-0.3h0l0,0v-0.3c0.1-0.7,0.2-1.1,0.2-1.5v-0.1l0,0l0,0l0.1-0.3
				l0-0.4v-0.5l0.1-0.6l0-0.3l0-1.1l0-0.2l0.1-0.6l0-0.5c0-0.1,0-0.2,0.1-0.2l0,0l0.2-0.8l0,0l0.1-0.8l-0.1-0.4
				c0-0.4,0.1-1.1,0.3-2.1c0-0.7,0-1.4,0.1-2.1l0-0.4l0.1-0.7l0-0.4c0-0.5,0.1-1,0.3-1.4l0,0c0.1-0.1,0.2-0.2,0.3-0.2l0.4-0.1
				l0.5,0.1l0.4-0.2C604,45.2,604.1,45.1,604.3,45.1z M603.6,49.2l0,0.4c-0.1,0.2-0.1,0.4-0.1,0.8c0,0,0,0.1,0,0.2h0l-0.1,0.4v0.1
				l0,0.2c-0.1,0.5-0.2,1-0.2,1.5v1c0,0.2,0,0.4-0.1,0.7h0c-0.1,0.3-0.1,0.8-0.2,1.3v0.9l0,0.1l0,0l0,0.3l0,1.2l0,0v0
				c0,0.4,0.2,0.7,0.5,0.7l0.7,0h0.1c0.2-0.1,0.3-0.2,0.3-0.4h0l0,0v0l0,0l0-0.1v-0.1l0-0.1h0l0,0v0l0,0v0l0,0h0l0-0.1l-0.1-1.3
				l0-0.4c-0.1-1.1-0.2-2.2-0.2-3.2l0-0.4l-0.1-0.5l0,0v-0.2l0,0l0.1-0.4c0-0.6-0.1-1-0.1-1l0,0l-0.1-0.8c-0.1-0.1-0.2-0.3-0.2-0.4
				l0-0.3l-0.1-0.1h-0.1C603.6,49,603.6,49.1,603.6,49.2z M606.9,52.7L606.9,52.7c0,0.2,0,0.3-0.1,0.3s-0.1-0.1-0.1-0.2
				c0-0.1,0-0.1,0.1-0.2h0.1L606.9,52.7z M607.1,67.2L607.1,67.2c-0.1-0.1-0.2-0.2-0.2-0.4l0,0c0.2,0,0.3,0,0.3,0l0,0
				c0.1,0.1,0.1,0.2,0,0.2l0,0l0.1,0.1v0.1l0,0l-0.1,0l0-0.1C607.3,67.2,607.2,67.2,607.1,67.2z M607.8,53.9L607.8,53.9l-0.1,0.2h0
				c-0.1,0-0.1-0.1-0.1-0.2l0.1-0.1L607.8,53.9L607.8,53.9z M607.9,53.1L607.9,53.1l-0.1,0.1l-0.1-0.1V53l0.1-0.1h0.1
				C607.8,53,607.9,53,607.9,53.1z M608.1,51.9L608.1,51.9v0.2H608l0-0.1L608.1,51.9L608.1,51.9L608.1,51.9z M608.1,68h0.1
				c0.1,0,0.1,0.1,0.1,0.2c0,0.1-0.1,0.2-0.2,0.2h0l-0.1-0.1C608,68.1,608.1,68,608.1,68z"/>
			<path class="st8" d="M610,45.1h0.1c0.1,0,0.4,0.1,0.8,0.2c1.1,0,1.7,0.1,1.9,0.4c0.3,0.4,0.5,0.6,0.5,0.8c0,0.2-0.3,0.3-0.8,0.4
				l-1.1-0.1c-0.1,0.1-0.2,0.1-0.3,0.2v0.8c0,0.4,0,0.8,0.1,1l0,1V50l0,0.5l0,0.4l0,0.4v0.4l0,0.8l0,0.6l-0.1,0.6
				c0.1,1.5,0.1,2.5,0.2,3c0.1,0.2,0.1,0.7,0.1,1.3c0,0,0.1,0.1,0.1,0.4l0,0.5l0.1,2l0,0.2l-0.1,1.8l0,0.1l0.1,0.4l0.1,2.8
				c0,0.2-0.2,0.4-0.5,0.6h-0.1c-0.3,0-0.6-0.2-0.9-0.6c0-0.1-0.1-0.2-0.2-0.4v-0.7l-0.1-1.1l0-0.4c-0.1-0.4-0.1-0.8-0.1-1.1
				c0.1-0.4,0.1-1.1,0.1-2.1l-0.1-1.3l0-0.4v-0.4c-0.1-1.2-0.2-1.9-0.3-2.2l0-2.1l0.1-1v-0.7l0-0.8c0-0.1,0.1-0.3,0.1-0.6l-0.1-0.9
				v-0.4c0-1.8-0.1-2.8-0.2-2.8c-0.1-0.1-0.2-0.2-0.2-0.2l-0.2,0c-0.4,0-0.8-0.2-1.2-0.6c-0.1-0.2-0.2-0.3-0.2-0.4v-0.1
				c0.1-0.4,0.4-0.5,0.7-0.5h0.1l0.5,0.1h0.3L610,45.1z"/>
			<path class="st8" d="M615.2,45.6h0.7c0.6,0,1.1,0,1.7,0.1v0c0.5,0.1,0.8,0.1,1,0.2c0.4,0.1,0.5,0.2,0.5,0.4
				c0.1,0.2,0.2,0.3,0.3,0.4V47c-0.1,0.2-0.4,0.3-0.7,0.3c-0.8-0.1-1.5-0.2-1.9-0.2h-0.3c-0.4,0-0.7,0.1-0.7,0.4
				c0,1.5,0.1,2.5,0.2,3l0.1,1l-0.1,1l0,0.2c-0.1,0.7-0.2,1.2-0.2,1.4c0,0.5,0.2,0.7,0.5,0.7c0,0,0.2,0.1,0.7,0.1
				c0.4,0,0.9,0.1,1.4,0.3c0.4,0.3,0.6,0.6,0.6,0.9c0,0.2-0.2,0.4-0.5,0.4c-0.6-0.1-1.4-0.2-2.3-0.3c-0.2,0-0.3,0.2-0.3,0.6
				l-0.1,0.8l0,0.1l0,0.3l0.1,0.7v0.4l-0.1,0.9h0l-0.2,0.9h0l-0.1,0.4l0.1,0.3l0,0c0,0.2,0.1,0.3,0.1,0.4v0.6l0,0.7l-0.1,0.5
				c0,1.1,0.1,1.7,0.3,1.7c0,0.1,0.8,0.2,2.3,0.2c0.4,0.1,0.7,0.3,0.8,0.5c0.1,0.2,0.2,0.4,0.2,0.4c0,0.4-0.3,0.6-0.8,0.6h-0.2
				c-0.3,0-0.5,0-0.8-0.1l0,0h0c-1,0-1.7-0.1-2.1-0.3c-0.3-0.2-0.6-0.4-0.8-0.7c-0.3-0.4-0.4-0.8-0.4-1.2l0-1.3l0.1-1.2
				c-0.1-0.3-0.1-0.8-0.2-1.5c0.1-0.4,0.2-0.6,0.2-0.8l0.1-0.9V59l-0.1-0.7v-0.9l0.1-0.6v-1l-0.2-0.9l0-0.4l0-0.5
				c0-0.6,0.1-1.2,0.2-1.7v0l-0.1-1.6h0c-0.1-0.4-0.1-1.2-0.2-2.2h0l0,0v-0.7l0,0l0,0v0l0.1-0.3l0-0.5c0-0.6,0.1-0.9,0.3-0.9
				C614.5,45.7,614.8,45.6,615.2,45.6z"/>
			<path class="st8" d="M469.6,78.7c0.2,0,0.4,0.2,0.7,0.6c0.2,0.1,0.2,0.3,0.2,0.4v0.3l0,0l0,0v0.6l0.2,2.4h0l0,0.1
				c0.1,1.1,0.2,1.7,0.2,1.7l0,0l0,0.3v0.1l0,0.4l0,0.5v0.3l0,0.6l0,0.2c0,0.3-0.1,0.7-0.2,1.3c0,0.6,0.1,1.1,0.2,1.5v0.9l-0.1,0.8
				v0.2l0,0l0,0v0c0.1,0.4,0.1,0.9,0.1,1.4v0.4l-0.1,0.8v0.2l0.1,1v0.3c-0.1,1-0.2,1.9-0.2,2.6l0,0l0,0.4v0.4c0,0.4-0.1,0.7-0.4,0.9
				c0,0-0.1,0.1-0.2,0.1c-0.3,0-0.5-0.2-0.7-0.4c-0.3-0.3-0.4-0.6-0.4-1v-0.2l0.1-0.5l-0.1-0.5c0.1-0.6,0.1-1,0.2-1.2l0,0v-1.1
				l0-1.2l0.1-0.9h0l0,0v-0.1l-0.1-1.6l0-0.5l0-0.3v-0.1l0-0.6v-0.1c0-0.2-0.1-0.5-0.2-0.9h0l-0.1-0.6l0-0.2v-0.1
				c0-0.1-0.1-0.2-0.1-0.2h-0.1c-0.1,0.1-0.2,0.4-0.4,1.1l-0.2,1.3l-0.1,1.2c-0.2,0.4-0.3,0.8-0.3,1.1v0.2l0,0.2l-0.2,1.2
				c-0.1,0.1-0.2,0.6-0.3,1.5l-0.2,2h0l0,0v0.3l0,0v0h0c0.2,0.6,0.3,1.1,0.3,1.5v0c0,0.4-0.1,0.6-0.4,0.7H467l0,0l0,0h0
				c-0.2,0-0.5-0.2-0.8-0.6c-0.2-0.2-0.3-0.5-0.3-0.7h0c-0.1-0.4-0.2-1.1-0.4-2h0c-0.2-1.3-0.4-2.3-0.6-2.9l0,0c0-0.9-0.1-1.6-0.2-2
				l0-0.7l0-0.3c0-0.6-0.1-1.3-0.3-2l-0.2-2.6l0-0.3c-0.1-0.2-0.2-0.2-0.2-0.2H464c-0.1,0-0.2,0.3-0.3,1h0l0,0l-0.1,0.4l0.1,1.1
				c-0.1,0.3-0.1,0.7-0.1,1.2V90l0,0.1l0,0.2v0.2l0,0.3c0,0.6,0.2,1.3,0.3,2h0l0,0v0l0,0l0,0v0.4l0.2,1.8l-0.1,0.5
				c0.1,0.2,0.1,0.3,0.1,0.5l-0.1,0.6h0l0,0v0.3l0,0l0,0v0l0.1,0.9v0.4l0.1,1.2l-0.1,0.5h0c-0.1,0.2-0.2,0.3-0.4,0.3l-0.2,0
				c-0.3,0-0.6-0.3-0.9-0.8c-0.1,0-0.2-0.5-0.2-1.4l0-0.3v-0.6l0-0.1h0l-0.1-0.4l0.1-0.5l0-0.6l0-0.5c-0.1-1-0.1-1.5-0.2-1.8h0
				c-0.1-0.1-0.1-0.6-0.2-1.3h0l-0.2-1h0l0-0.3l0-0.2l-0.1-0.7v-0.3l0.1-0.5h0l0,0v-0.1l0.1-1l-0.1-0.7c0.1-0.3,0.1-0.7,0.2-1h0
				c0.1-0.1,0.1-0.5,0.1-1.1l0-0.1l0-0.2h0l0,0l0-0.3v-0.7l0-0.2l0-0.1l0-0.8l0-1.2l0-0.1h0l-0.1-0.2l0.1-0.3l0,0
				c0-0.4,0.1-0.8,0.2-1.1l0,0v-0.6l0,0l0,0v-0.1c0.1-0.5,0.2-0.8,0.4-0.8l0.2,0.1l0.3-0.1l0.7,0.1h0.1l0.3-0.1h0l0.4,0.3
				c0.4,0.3,0.6,0.7,0.6,1.1l0.1,1.9l0,0.4l0,0.4l0,0.2c0.1,0.3,0.2,1,0.3,2.2c0.1,0.2,0.2,0.8,0.3,1.8V87l0,0.2l0.1,1.5l0.2,0.9
				c0.1,0.1,0.1,0.2,0.2,0.3h0.1c0.1,0,0.3-0.4,0.4-1.3c0.1-0.2,0.2-0.4,0.2-0.5v-0.3c0-0.3,0.1-1,0.2-2.2c0-0.4,0.1-0.8,0.2-1
				l0-0.6c0.1-1.1,0.2-1.8,0.3-2.1v-0.3l0.1-0.6l0-0.2l0-0.3V80c0-0.5,0.1-0.8,0.4-1c0-0.1,0.2-0.1,0.5-0.2v0l0,0h0.1l0,0l0.3,0
				L469.6,78.7z"/>
			<path class="st8" d="M471,120.3L471,120.3l0.1,0.1l-0.2,0.1l-0.1-0.1v-0.1L471,120.3z M475.7,78.3L475.7,78.3c0.3,0,0.6,0.3,1,1
				l0.1,0.6l0,0.2v0.2c0.1,0.5,0.1,1.2,0.2,2.1c0.1,1.1,0.2,1.9,0.2,2.3l0,0.6l0.1,0.5l0,0.5v0.6l0.1,1.3l0.1,1l0,0.4l0,0.4v0.5
				l0.1,0.5l0,0.3c0.1,0.9,0.1,1.5,0.2,1.6h0c0.1,0.5,0.1,0.9,0.2,1.2c0.1,0,0.1,0.5,0.1,1.4l0,0.3c0.1,0.3,0.2,0.6,0.2,1
				c0.1,0.2,0.2,0.4,0.2,0.6v0.4c0,0.1,0,0.2,0.1,0.4h0l0,0v0.1l0.2,1.1v0.2c0,0.3-0.2,0.5-0.5,0.6h-0.1c-0.2,0-0.4-0.1-0.7-0.4
				c-0.3-0.3-0.5-0.7-0.5-1.3l-0.1-1.1c-0.1-0.3-0.1-0.6-0.2-1l0,0h0c-0.2-0.8-0.3-1.5-0.3-2.1c-0.1-0.2-0.2-0.2-0.3-0.3l0,0l-0.1,0
				h-0.4l-0.8-0.1c-0.2,0.1-0.3,0.2-0.3,0.4l-0.1,0.4l0.1,0.4c0,0.8-0.1,1.2-0.1,1.3l0,0v0.4l-0.2,1.1c0,0.3,0,0.7-0.1,1.2v0.2
				l0.1,0.7v0c0,0.1-0.1,0.3-0.3,0.5c0,0-0.1,0.1-0.2,0.1l-0.5-0.2c-0.5-0.4-0.8-0.8-0.8-1.3v-0.5l0,0c0.1-0.7,0.2-1.2,0.2-1.5h0
				c0-0.2,0.1-0.7,0.2-1.5l0-0.8l0-0.3h0l0,0v-0.3c0.1-0.7,0.2-1.1,0.2-1.5v-0.1l0,0l0,0l0.1-0.3l0-0.4v-0.5l0.1-0.6l0-0.3l0-1.1
				l0-0.2l0.1-0.6l0-0.5c0-0.1,0-0.2,0.1-0.2l0,0l0.2-0.8l0,0l0.1-0.8L473,86c0-0.4,0.1-1.1,0.3-2.1c0-0.7,0-1.4,0.1-2.1l0-0.4
				l0.1-0.7l0-0.4c0-0.5,0.1-1,0.3-1.4l0,0c0.1-0.1,0.2-0.2,0.3-0.2l0.4-0.1l0.5,0.1l0.4-0.2C475.4,78.4,475.6,78.3,475.7,78.3z
				 M475,82.4l0,0.4c-0.1,0.2-0.1,0.4-0.1,0.8c0,0,0,0.1,0,0.2h0l-0.1,0.4v0.1l0,0.2c-0.1,0.5-0.2,1-0.2,1.5v1c0,0.2,0,0.4-0.1,0.7
				h0c-0.1,0.3-0.1,0.8-0.2,1.3V90l0,0.1l0,0l0,0.3l0,1.2l0,0v0c0,0.4,0.2,0.7,0.5,0.7l0.7,0h0.1c0.2-0.1,0.3-0.2,0.3-0.4h0l0,0v0
				l0,0l0-0.1v-0.1l0-0.1h0l0,0v0l0,0v0l0,0h0l0-0.1l-0.1-1.3l0-0.4c-0.1-1.1-0.2-2.2-0.2-3.2l0-0.4l-0.1-0.5l0,0v-0.2l0,0l0.1-0.4
				c0-0.6-0.1-1-0.1-1l0,0l-0.1-0.8c-0.1-0.1-0.2-0.3-0.2-0.4l0-0.3l-0.1-0.1h-0.1C475.1,82.3,475,82.3,475,82.4z M478.3,85.9
				L478.3,85.9c0,0.2,0,0.3-0.1,0.3S478,86.1,478,86c0-0.1,0-0.1,0.1-0.2h0.1L478.3,85.9z M478.5,100.4L478.5,100.4
				c-0.1-0.1-0.2-0.2-0.2-0.4l0,0c0.2,0,0.3,0,0.3,0l0,0c0.1,0.1,0.1,0.2,0,0.2l0,0l0.1,0.1v0.1l0,0l-0.1,0l0-0.1
				C478.7,100.4,478.6,100.4,478.5,100.4z M479.2,87.1L479.2,87.1l-0.1,0.2h0c-0.1,0-0.1-0.1-0.1-0.2l0.1-0.1L479.2,87.1L479.2,87.1
				z M479.3,86.4L479.3,86.4l-0.1,0.1l-0.1-0.1v-0.1l0.1-0.1h0.1C479.2,86.2,479.3,86.2,479.3,86.4z M479.5,85.2L479.5,85.2v0.2
				h-0.1l0-0.1L479.5,85.2L479.5,85.2L479.5,85.2z M479.5,101.2h0.1c0.1,0,0.1,0.1,0.1,0.2c0,0.1-0.1,0.2-0.2,0.2h0l-0.1-0.1
				C479.4,101.3,479.5,101.2,479.5,101.2z"/>
			<path class="st8" d="M480.5,78.6c0.1,0,0.3,0.2,0.5,0.5c0,0,0.1,0.1,0.2,0.2l0.1,0.9l-0.1,1l0,0.2l-0.1,1.6
				c0.1,0.3,0.2,0.8,0.2,1.6v0c0,0.1,0.1,0.1,0.2,0.2h0c0.1,0,0.3-0.2,0.4-0.6c0.4-0.9,0.6-1.4,0.6-1.7c0.3-0.5,0.4-0.9,0.5-1.2
				l0.3-0.9l0.5-1.4c0.2-0.2,0.4-0.3,0.5-0.3h0.2c0.3,0,0.6,0.3,0.8,1V80c-0.2,0.5-0.3,1-0.6,1.4c-0.3,0.8-0.5,1.5-0.7,2
				c-0.1,0.5-0.2,0.9-0.4,1.1l-0.6,1.4c-0.1,0.1-0.3,0.4-0.4,1l-0.2,0.8h0l0,0v0.3l0,0v0h0c0.3,0.7,0.5,1.3,0.5,1.7l0.5,1.2
				c0.3,0.9,0.7,1.8,1.1,3c0.2,1.4,0.4,2.4,0.7,3.1l0.2,1.3c0.3,0.5,0.4,1,0.2,1.4c-0.1,0.4-0.3,0.5-0.5,0.5h0
				c-0.4-0.1-0.6-0.2-0.7-0.4c-0.2-0.5-0.4-1-0.5-1.3l-0.2-1h0c-0.1-0.6-0.3-1.3-0.6-2c-0.1-0.3-0.2-0.8-0.2-1.4
				c-0.3-1-0.6-1.9-0.9-2.8c-0.3-0.6-0.5-1-0.6-1h0c-0.2,0-0.3,0.3-0.3,1l0,0.6l0,0.3l0.1,1.8l0,4.8c0.1,0.6,0.1,1,0.1,1.3v0.2
				c-0.1,0.2-0.2,0.4-0.5,0.4l0,0h0c-0.3-0.1-0.5-0.2-0.7-0.4c-0.4-0.4-0.6-0.8-0.6-1.1l0.1-1.1l0-0.7v-0.5c0-0.3,0.1-0.7,0.1-1.3
				l-0.1-0.5l0.1-0.5l0-1v-0.5l0-1v-0.2l0.1-1.4l0-0.3l0-0.5v-0.1l-0.1-0.7v-0.5l0-0.8l0.1-1.1l-0.1-0.4V85l0-0.5l-0.1-0.6l0-0.4
				l0-0.6l0-0.6v-0.2l0-0.1l0-0.1v-1.2c0.1-1.2,0.2-1.8,0.2-1.8C479.9,78.8,480.2,78.6,480.5,78.6z M481.7,101.3L481.7,101.3v0.2
				V101.3L481.7,101.3L481.7,101.3z M481.8,95.9L481.8,95.9L481.8,95.9l0,0.2l-0.1-0.1L481.8,95.9z M483.2,100.4l0.2,0.1l0.1,0.1
				l0,0.1l-0.1,0.3l-0.3-0.1l-0.1-0.1l0-0.2L483.2,100.4z M485.5,102l0.2,0.1c0,0.1,0,0.2,0,0.4c-0.1,0.1-0.2,0.1-0.5,0.1
				c-0.1-0.2-0.1-0.3-0.1-0.4L485.5,102z M486,98.3L486,98.3l0.2,0.2l-0.2,0.1l-0.1,0L486,98.3z M486.8,101.3h0.4v0.2h-0.4V101.3z"
				/>
			<path class="st8" d="M487.4,78.9c0.3,0,0.5,0.2,0.6,0.6c0.1,0.1,0.1,0.3,0.1,0.8h0c0,0.2,0.1,0.3,0.1,0.5V81l-0.1,0.5v0.4
				c-0.1,0.3-0.1,0.6-0.1,1c0.1,0.3,0.1,0.6,0.1,1l0,0.1h0l0,0.2l0,0.2v0.1l-0.1,1.2c0,0.3,0,0.6,0,0.8l0,0c0,0.2,0.1,0.4,0.2,0.7h0
				c0.1,0.1,0.1,0.4,0.1,0.8l0,0.3l0.1,0.5l-0.1,2.1l0,1.2l0,0.2c0,0.1,0,0.3,0,0.5v0.3c0,0.1,0,0.3,0.1,0.4l0,0l0,1.2v0.2l0,0v0h0
				c0.1,0.2,0.2,0.6,0.2,1.3c0,0.6,0,1-0.1,1.2l0.1,1.1l0,0.2V99l0,0.4c0,0.3-0.2,0.5-0.4,0.8H488c-0.4-0.1-0.6-0.1-0.6-0.3l0-0.1
				c-0.3-0.3-0.4-0.5-0.5-0.6v-0.6l0-0.7l0-0.4l0-1.2V96c0-0.3-0.1-1.2-0.3-2.5l-0.1-0.9v-0.1l0,0l0,0v-0.7l0-0.8l0-0.6l0-0.3l0,0
				v-0.6l0.1-0.7c-0.1-1-0.2-1.7-0.3-2.1l0-0.1h0c-0.1-0.2-0.1-0.7-0.1-1.3h0l0,0v-0.4l0,0l0,0c0.1-0.7,0.1-1.3,0.1-1.8l0,0
				c0.1-0.7,0.2-1.2,0.2-1.3v-0.1l0-0.2l0-0.7l0.1-1.2c0-0.1,0.1-0.4,0.4-0.6l0,0h0l0.1,0L487.4,78.9z M486.8,96.9L486.8,96.9
				L486.8,96.9l0.2,0L486.8,96.9L486.8,96.9z M487.8,100.4L487.8,100.4c0.1-0.2,0.2-0.2,0.3-0.2c0.1,0,0.2,0.1,0.2,0.2
				c0,0.1-0.1,0.2-0.3,0.2C487.9,100.5,487.9,100.5,487.8,100.4z M488.2,101.5L488.2,101.5c0-0.1,0-0.1,0.1-0.2h0
				c0.1,0,0.2,0.1,0.2,0.2v0l-0.1,0.1h-0.1C488.3,101.6,488.2,101.6,488.2,101.5z M488.4,95.6L488.4,95.6l0.1,0l0,0l0,0.1
				L488.4,95.6L488.4,95.6z M488.8,100.2L488.8,100.2c0-0.1,0.1-0.1,0.1-0.1c0.1,0,0.2,0.1,0.2,0.2l-0.1,0.1h-0.1
				C488.8,100.3,488.8,100.3,488.8,100.2z M488.8,98.9l0.2-0.1h0c0.1,0,0.2,0.1,0.3,0.2c0,0.1-0.1,0.1-0.2,0.2H489
				C488.9,99.3,488.9,99.2,488.8,98.9z M489.1,97L489.1,97L489.1,97l0.1-0.1l0.1,0.1v0l-0.1,0.1L489.1,97L489.1,97z M489.2,101.3
				L489.2,101.3c0-0.2,0.1-0.2,0.2-0.2s0.2,0.1,0.2,0.2c0,0.1-0.1,0.1-0.2,0.1h-0.2L489.2,101.3z M489.6,95.4L489.6,95.4l0.1-0.1h0
				c0.1,0,0.2,0,0.2,0.1l-0.1,0.1L489.6,95.4L489.6,95.4z M490.9,95.7L490.9,95.7L490.9,95.7L490.9,95.7L490.9,95.7L490.9,95.7
				L490.9,95.7z"/>
			<path class="st8" d="M490.4,78.9c0.1,0,0.4,0.1,0.8,0.3c0.2,0,0.5,0.3,0.9,0.9l0.3,1.3h0l0.3,1.2c0.2,0.5,0.4,1,0.5,1.7
				c0.2,0.8,0.3,1.3,0.4,1.6c0.2,0.8,0.4,1.3,0.5,1.3c0.1,0,0.2-0.3,0.3-0.9l0.1-0.2l0-0.4v-0.3l0-0.6l0-0.2l-0.1-1.8l0.1-1.2
				l-0.1-1.5l0-0.3l0-0.1c0.1-0.4,0.3-0.6,0.4-0.6l0.2,0l0.3,0c0.2,0,0.5,0.3,0.8,0.9l0,0.1l0,0c0,0.3,0.1,0.8,0.1,1.3
				c0,0.8,0,1.3-0.1,1.6l0,1.1v0.2l0.1,1.7l-0.1,0.6l0.1,0.4l-0.1,0.6h0l-0.2,1.9h0l-0.1,0.3v0.1l0.1,0.4v0.1l-0.1,0.5l0.2,1.3
				c0,0.4,0.1,0.8,0.2,1.3v0.1c0,0.3-0.1,0.7-0.2,1.2l0,0.4v0.3l-0.4,1.1c0,0.2,0,0.3,0.1,0.5l0,0l0.1,1.2l0,0.6l0,0.4
				c-0.1,0.6-0.2,0.8-0.3,0.8c0,0.1-0.1,0.1-0.3,0.1c-0.2,0-0.4-0.1-0.6-0.4c-0.2-0.1-0.3-0.3-0.3-0.5c-0.1-0.1-0.1-0.1-0.1-0.3
				l0.1-0.4c0-0.1,0-0.3-0.1-0.4l0-0.2v-0.2l0-0.4h0l-0.2-1.2v-0.1l0-0.5l-0.2-1.1l-0.1-0.1h0l-0.2-0.7h0l-0.2-0.8l0,0
				c0-0.4-0.1-0.7-0.2-1.1h0L493,91h0c-0.2-0.6-0.3-1.1-0.3-1.8l-0.4-1.9c-0.3-1.2-0.5-1.9-0.7-1.9h-0.1c-0.1,0.1-0.2,0.3-0.2,0.4
				v0.2l-0.1,1.5v0.2l0,0.4l0,0.2l0,0.5l-0.1,0.5l0.2,1.4v0.9c0,1,0.1,1.6,0.2,2l0,0.2v0.4l0,0.2l-0.1,1c0.1,0.4,0.1,0.7,0.1,0.9
				c0,0.2-0.1,0.6-0.2,1.1v0.4l0,0.2l-0.2,0.9l0,0v0.5l0.1,0.6c0,0.2-0.1,0.3-0.4,0.5l-0.1,0l-0.5-0.2c-0.5-0.4-0.8-0.9-0.8-1.4
				c0.1-0.3,0.1-0.9,0.2-1.7c0,0,0.1-0.3,0.1-1v-0.5l0,0l0,0l-0.1-0.4v-0.2l0.1-0.6h0l0,0v-0.2l-0.3-2.8l0.1-0.5
				c0-0.2-0.1-0.7-0.2-1.4l0-0.3l0-0.2v0l0,0l0.1-0.6v-0.4l0-1.4l0.1-1.5v-0.3l0.1-0.6l-0.1-0.4l0.1-0.4l-0.2-1.2V82l-0.1-1.6l0-0.2
				l0-0.7C489.7,79.2,489.9,79,490.4,78.9z"/>
			<path class="st8" d="M500.1,77.9c0.6,0,1.3,0.5,2,1.5c0.4,0.6,0.6,1.2,0.6,1.6c0.1,0.1,0.1,0.4,0.1,0.9v0.7l-0.1,1.5v0.6
				c0,0.2-0.2,0.4-0.5,0.6h-0.2c-0.2,0-0.5-0.2-0.8-0.6c-0.1-0.2-0.2-0.4-0.2-0.6c0.1-0.3,0.1-0.6,0.1-1.1c0,0,0-0.1,0.1-0.4l0-0.6
				l0.1-0.5v0c-0.2-1.3-0.5-2-0.7-2c0,0,0,0-0.1,0h-0.1c-0.2,0-0.5,0.1-0.7,0.3c-0.1,0.3-0.2,0.6-0.4,1.1c-0.1,0.2-0.2,0.5-0.2,0.9
				V82l0,0c-0.1,0.5-0.1,1-0.2,1.5c-0.1,0.2-0.1,0.4-0.1,0.6c0,0.7,0,1.1,0.1,1.1l0,0l0,0.1v0.2l0.1,1l-0.1,0.8l0,0.4l0,0.9L499,90
				l-0.1,0.6l0.1,0.9l0,0.4c0.1,1.5,0.3,2.4,0.4,2.8v0.5l0.1,0.6v0.6c0,0.2,0.1,0.8,0.4,1.8l0.1,0.9l-0.1,0.4
				c0.1,0.2,0.2,0.3,0.3,0.3h0c0.2,0,0.5-0.3,0.8-1c0.1-0.2,0.2-0.5,0.2-0.9c0,0,0.1-0.1,0.1-0.3l0-0.6l0-0.8l0-0.3l0-0.6l-0.1-0.4
				l0-0.4l-0.2-1.9v-0.7l0,0c0-0.2-0.1-0.7-0.1-1.3c-0.1-0.4-0.2-0.6-0.4-0.6c-0.5-0.3-0.7-0.6-0.7-0.7c0-0.1-0.1-0.1-0.1-0.2
				c0-0.3,0.3-0.4,0.8-0.5l0.4,0h0.3l0.2,0v0c0.3,0.1,0.7,0.2,1.3,0.2c0.2,0,0.4,0.2,0.6,0.4c0.1,0.3,0.2,0.5,0.2,0.6
				c0,0.1-0.2,0.3-0.5,0.5c-0.3,0.1-0.4,0.2-0.4,0.4c0,0.1-0.1,0.2-0.1,0.3l0.2,0.6l-0.1,0.4c0.1,0.2,0.1,0.6,0.1,1.3
				c0.1,0.7,0.2,1.1,0.2,1.3l0,0.6l0.1,0.8l0,0.4l0.1,0.4v1.3c-0.1,0.7-0.1,1.1-0.3,1.3c0,0.2-0.1,0.5-0.3,0.9
				c-0.1,0.4-0.3,0.7-0.7,1.1c-0.1,0.2-0.5,0.5-1.1,0.7h-0.2c-0.5,0-0.9-0.2-1.4-0.7c-0.4-0.5-0.6-0.9-0.6-1.3
				c0-0.6-0.1-1.5-0.4-2.6v-0.4l-0.1-0.4l0-0.2c0-0.8-0.1-1.7-0.3-2.8l-0.1-1v-1l-0.1-2l0-0.3l-0.1-0.5c0-0.2,0-0.5,0.1-0.8l0-0.2
				l0-0.9v-0.8l-0.1-0.9l0-0.5l0-0.5c0.1-0.3,0.1-0.9,0.2-1.8v-0.8c0-0.2,0.1-0.4,0.2-0.7c0,0,0.1-0.2,0.1-0.6
				c0.2-0.7,0.5-1.2,0.8-1.5c0.4-0.4,0.9-0.7,1.5-0.7H500.1z"/>
			<path class="st8" d="M512.6,78.9c0.3,0,0.5,0.2,0.6,0.6c0.1,0.1,0.1,0.3,0.1,0.8h0c0,0.2,0.1,0.3,0.1,0.5V81l-0.1,0.5v0.4
				c-0.1,0.3-0.1,0.6-0.1,1c0.1,0.3,0.1,0.6,0.1,1l0,0.1h0l0,0.2l0,0.2v0.1l-0.1,1.2c0,0.3,0,0.6,0,0.8l0,0c0,0.2,0.1,0.4,0.2,0.7h0
				c0.1,0.1,0.1,0.4,0.1,0.8l0,0.3l0.1,0.5l-0.1,2.1l0,1.2l0,0.2c0,0.1,0,0.3,0,0.5v0.3c0,0.1,0,0.3,0.1,0.4l0,0l0,1.2v0.2l0,0v0h0
				c0.1,0.2,0.2,0.6,0.2,1.3c0,0.6,0,1-0.1,1.2l0.1,1.1l0,0.2V99l0,0.4c0,0.3-0.1,0.5-0.4,0.8h-0.1c-0.4-0.1-0.6-0.1-0.6-0.3l0-0.1
				c-0.3-0.3-0.4-0.5-0.5-0.6v-0.6l0-0.7l0-0.4l0-1.2V96c0-0.3-0.1-1.2-0.3-2.5l-0.1-0.9v-0.1l0,0l0,0v-0.7l0-0.8l0-0.6l0-0.3l0,0
				v-0.6l0.1-0.7c-0.1-1-0.2-1.7-0.3-2.1l0-0.1h0c-0.1-0.2-0.1-0.7-0.1-1.3h0l0,0v-0.4l0,0l0,0c0.1-0.7,0.1-1.3,0.1-1.8l0,0
				c0.1-0.7,0.2-1.2,0.2-1.3v-0.1l0-0.2l0-0.7l0.1-1.2c0-0.1,0.1-0.4,0.4-0.6l0,0h0l0.1,0L512.6,78.9z M512,96.9L512,96.9L512,96.9
				l0.2,0L512,96.9L512,96.9z M513,100.4L513,100.4c0.1-0.2,0.2-0.2,0.3-0.2c0.1,0,0.2,0.1,0.2,0.2c0,0.1-0.1,0.2-0.3,0.2
				C513.1,100.5,513.1,100.5,513,100.4z M513.4,101.5L513.4,101.5c0-0.1,0-0.1,0.1-0.2h0c0.1,0,0.2,0.1,0.2,0.2v0l-0.1,0.1h-0.1
				C513.5,101.6,513.4,101.6,513.4,101.5z M513.6,95.6L513.6,95.6l0.1,0l0,0l0,0.1L513.6,95.6L513.6,95.6z M514,100.2L514,100.2
				c0-0.1,0.1-0.1,0.1-0.1c0.1,0,0.2,0.1,0.2,0.2l-0.1,0.1H514C514,100.3,514,100.3,514,100.2z M514,98.9l0.2-0.1h0
				c0.2,0,0.2,0.1,0.3,0.2c0,0.1-0.1,0.1-0.2,0.2h-0.1C514.1,99.3,514.1,99.2,514,98.9z M514.3,97L514.3,97L514.3,97l0.1-0.1
				l0.1,0.1v0l-0.1,0.1L514.3,97L514.3,97z M514.4,101.3L514.4,101.3c0-0.2,0.1-0.2,0.2-0.2c0.1,0,0.2,0.1,0.2,0.2
				c0,0.1-0.1,0.1-0.2,0.1h-0.2L514.4,101.3z M514.8,95.4L514.8,95.4l0.1-0.1h0c0.1,0,0.2,0,0.2,0.1l-0.1,0.1L514.8,95.4L514.8,95.4
				z M516.1,95.7L516.1,95.7L516.1,95.7L516.1,95.7L516.1,95.7L516.1,95.7L516.1,95.7z"/>
			<path class="st8" d="M515.6,78.9c0.1,0,0.4,0.1,0.8,0.3c0.2,0,0.5,0.3,0.9,0.9l0.3,1.3h0l0.3,1.2c0.2,0.5,0.4,1,0.5,1.7
				c0.1,0.8,0.3,1.3,0.4,1.6c0.2,0.8,0.4,1.3,0.5,1.3c0.1,0,0.2-0.3,0.3-0.9l0.1-0.2l0-0.4v-0.3l0-0.6l0-0.2l-0.1-1.8l0.1-1.2
				l-0.1-1.5l0-0.3l0-0.1c0.1-0.4,0.3-0.6,0.4-0.6l0.2,0l0.3,0c0.2,0,0.5,0.3,0.8,0.9l0,0.1l0,0c0,0.3,0.1,0.8,0.1,1.3
				c0,0.8,0,1.3-0.1,1.6l0,1.1v0.2l0.1,1.7l-0.1,0.6l0.1,0.4l-0.1,0.6h0l-0.2,1.9h0l-0.1,0.3v0.1l0.1,0.4v0.1l-0.1,0.5l0.2,1.3
				c0,0.4,0.1,0.8,0.2,1.3v0.1c0,0.3-0.1,0.7-0.2,1.2l0,0.4v0.3l-0.4,1.1c0,0.2,0,0.3,0.1,0.5l0,0L521,98l0,0.6l0,0.4
				c-0.1,0.6-0.2,0.8-0.3,0.8c0,0.1-0.1,0.1-0.3,0.1c-0.2,0-0.4-0.1-0.6-0.4c-0.2-0.1-0.3-0.3-0.3-0.5c-0.1-0.1-0.1-0.1-0.1-0.3
				l0.1-0.4c0-0.1,0-0.3-0.1-0.4l0-0.2v-0.2l0-0.4h0l-0.2-1.2v-0.1l0-0.5l-0.2-1.1l-0.1-0.1h0l-0.2-0.7h0l-0.2-0.8l0,0
				c0-0.4-0.1-0.7-0.2-1.1h0l-0.2-0.7h0c-0.2-0.6-0.3-1.1-0.3-1.8l-0.4-1.9c-0.3-1.2-0.5-1.9-0.7-1.9h-0.1c-0.1,0.1-0.2,0.3-0.2,0.4
				v0.2l-0.1,1.5v0.2l0,0.4l0,0.2l0,0.5l-0.1,0.5l0.2,1.4v0.9c0,1,0.1,1.6,0.2,2l0,0.2v0.4l0,0.2l-0.1,1c0.1,0.4,0.1,0.7,0.1,0.9
				c0,0.2-0.1,0.6-0.2,1.1v0.4l0,0.2l-0.2,0.9l0,0v0.5l0.1,0.6c0,0.2-0.1,0.3-0.4,0.5l-0.1,0l-0.5-0.2c-0.5-0.4-0.8-0.9-0.8-1.4
				c0.1-0.3,0.1-0.9,0.2-1.7c0,0,0.1-0.3,0.1-1v-0.5l0,0l0,0l-0.1-0.4v-0.2l0.1-0.6h0l0,0v-0.2l-0.3-2.8L515,91
				c0-0.2-0.1-0.7-0.2-1.4l0-0.3l0-0.2v0l0,0l0.1-0.6v-0.4l0-1.4l0.1-1.5v-0.3l0.1-0.6l-0.1-0.4l0.1-0.4l-0.2-1.2V82l-0.1-1.6l0-0.2
				l0-0.7C514.9,79.2,515.1,79,515.6,78.9z"/>
			<path class="st8" d="M524.1,78.3l0.2,0c0.6,0,1.3,0.3,2.2,0.7c0.4,0.2,0.9,0.6,1.3,1c0.2,0.3,0.4,0.5,0.4,0.8
				c0.1,0.1,0.1,0.5,0.2,1.3v0l-0.1,0.8l0,0.3c0,0.4-0.1,0.7-0.1,1.1l0,1.1l0,0.3c0,0.5,0.1,1.2,0.1,2.1l0,0.1l-0.1,0.9
				c0,0.1,0,0.5,0,1.3v0.1l-0.1,0.5l0.1,2l0,0.2l-0.1,0.8c0,0.4,0.1,1.1,0.1,2.2l-0.1,0.8l0,0.1l0,1.1c0,0.3-0.2,0.9-0.5,1.7
				c-0.2,0.2-0.4,0.4-0.6,0.7c-0.6,0.3-1,0.5-1.2,0.5c0,0.1-0.6,0.1-1.6,0.1c0,0-0.1,0-0.2,0v0c-0.2,0-0.3,0.1-0.5,0.1
				c-0.3,0-0.5-0.2-0.7-0.6c-0.2-0.3-0.3-0.6-0.3-0.7c0.1-0.5,0.1-0.9,0.3-1.3c-0.1-0.1-0.1-0.3-0.1-0.4l0-0.8c0-0.4,0-0.6,0-0.6
				l0-0.1l0-0.8c0-1,0-1.6-0.1-1.9l0-0.3c0-0.6,0-1.2-0.1-1.7l0-0.2v-0.8l0.1-0.4c0-0.2-0.1-0.9-0.1-2.1l0.1-1.5l0.1-2.1l-0.1-1
				l0.1-0.5c-0.1-0.2-0.2-0.9-0.2-1.9c0,0,0-0.3,0-1c-0.3-0.5-0.5-0.8-0.5-1c0.2-0.4,0.4-0.7,0.7-0.6L524.1,78.3z M524.3,80.6
				c0,0.7,0,1.2,0.1,1.5l-0.1,0.4c0.1,0.2,0.1,0.8,0.1,1.8c0,0.4,0.1,0.9,0,1.4l0,0.4l0,0.3l-0.1,0.7l0,0.2l-0.1,0.7l0.1,0.8l0,0.3
				l0,1.6l-0.1,0.6l0.1,0.7l-0.1,0.4l0.1,0.6l0,0.2v0.2l0.1,2.2l-0.1,1v0.1l0.1,2.1l0,0.3c0,0.3,0.1,0.4,0.3,0.4l0.2,0
				c0.4,0,0.8-0.1,1.2-0.5c0.2-0.1,0.3-0.6,0.4-1.6l0-0.1l-0.1-0.5l0.1-1.7l0-0.8l0-0.3l0-0.3l0.1-0.5v-0.1c0-0.4,0-0.9-0.1-1.5
				l0-0.3l0-0.7l0-0.9l0-0.6l0.1-0.4l-0.1-2.4l0-0.3l0-0.4l0-0.8l0-0.3l0-0.3l0.1-0.7v-0.1l0.1-0.5l0-0.4l0-0.5c0-0.4,0-0.8-0.2-1.2
				c-0.2-0.4-0.7-0.7-1.5-0.7c-0.4,0-0.7,0.1-0.7,0.4L524.3,80.6z"/>
			<path class="st8" d="M530.5,78.5c0.5,0,0.8,0.3,1,1l-0.1,0.7v1.2c0,0.3,0,0.5,0,0.6l0,1.3v0.4l0,1.3l0,0.2l0,0.3v0.4l-0.1,1.5
				l0,1.5l0,0.7l0,0.4l-0.1,1.2c0,0.6,0.1,1.3,0.3,2.1l0.1,0.3c0,0.5,0,0.9-0.1,1.3l0.1,0.4l0,0.6l0.1,1l0,0.4
				c0.1,1.2,0.2,1.8,0.4,1.8c0.1,0.1,0.2,0.1,0.4,0.1h0.2c0.4,0,0.8-0.3,1.1-0.9l0.1-1.2l0-0.1l-0.2-1.6l0-0.3l-0.1-1.2
				c0,0,0-0.1-0.1-0.4l0-0.3l-0.1-1.1l0-0.9c-0.1-0.4-0.1-1.1-0.1-2.1c0-0.5,0-1.4,0-2.7c0.1-1,0.2-1.7,0.3-2.3c0.1,0,0.1-0.7,0-2
				c0,0,0-0.2,0.1-0.7c0.1,0,0.1-0.8-0.1-2.3c0.1-0.3,0.2-0.4,0.2-0.4l0.1,0l0.2,0l0.2-0.1h0c0.2,0,0.4,0.2,0.6,0.5
				c0.2,0.2,0.3,0.4,0.3,0.7c0.1,1.1,0.2,1.8,0.1,1.9l0.1,2c-0.1,0.6-0.2,1.1-0.3,1.6c0,0.4,0,0.9,0,1.3v0.5c0,0.2-0.1,1.1-0.1,2.6
				l0.1,1.8l0,0.4l0,0.9v0.2c0.1,1.3,0.2,2.2,0.2,2.7h0l0,0v0l0.1,0.9c0,1,0,1.6-0.1,1.9c-0.2,0.3-0.3,0.5-0.3,0.7
				c-0.1,0.2-0.2,0.4-0.5,0.6c-0.1,0.2-0.3,0.4-0.8,0.6c-0.3,0.2-0.6,0.3-1,0.3c-0.6,0-0.9-0.1-0.9-0.1v0c-0.6-0.2-1.1-0.5-1.3-0.8
				c-0.4-0.3-0.6-0.9-0.6-1.6c-0.1-0.1-0.1-0.6-0.1-1.3l0.1-0.4v0l0,0l0,0v-0.4l-0.1-0.9c0-0.2,0-0.4,0.1-0.7l0-0.3l0-0.5l-0.3-1.3
				l-0.1-1.6c0.1-0.6,0.1-1.1,0.1-1.5v-0.1l0-1.3l0.1-0.7v0l-0.1-0.8v-0.1l0.1-0.8v-1l0-0.7l0-0.6l0-1.2l0-0.4l0-1.3v0l0.1-0.6v-0.5
				C529.9,78.8,530.2,78.5,530.5,78.5z"/>
			<path class="st8" d="M539.5,78.5c0.8,0,1.5,0.5,2.1,1.5c0.1,0.2,0.3,0.6,0.4,1.2l0,0l0.2,1.4c-0.1,1.2-0.1,1.7-0.2,1.7h0
				c-0.1,0.5-0.2,0.8-0.4,0.9c-0.1,0.2-0.2,0.3-0.2,0.3l-0.1,0l0,0h0l-0.2,0.1c-0.6-0.2-0.9-0.6-0.9-1.1l0-0.3h0
				c0.2-0.3,0.3-0.6,0.3-0.6V83l0-0.5c0-0.4-0.1-1-0.3-1.7h0c-0.1-0.5-0.3-0.7-0.5-0.7h0c-0.3,0-0.6,0.1-0.7,0.4l-0.1,0.4h0
				c-0.1,0.3-0.1,0.7-0.2,1.2h0c0,0.2-0.1,0.5-0.1,1l0.1,0.4l0,0.9c0,0.7,0,1.2,0.1,1.5l0,0l0,0.5l0,0.1c0,0.2,0.1,0.5,0.2,0.9h0
				c0.1,0.3,0.2,0.6,0.5,0.9c0,0,0.4,0.4,1.3,1.2l0.5,0.6c0.6,0.7,0.8,1.3,0.8,1.9l0.1,0.4h0l0,0l0,0.3v0.7l0.1,0.6l0,0.3l0.1,0.8
				l-0.2,1.4v0.3l-0.1,1.4l0,0.1h0c-0.1,0.5-0.3,0.8-0.5,1c0,0.3-0.2,0.5-0.4,0.8c-0.6,0.5-1,0.7-1.3,0.8l-0.2,0.1v0l0,0h0
				c-0.9,0-1.7-0.6-2.4-1.8c-0.2-0.8-0.4-1.7-0.6-2.7l0,0l0-0.3l0-0.1h0c0-0.2,0.1-0.4,0.1-0.8l0-1c0-0.2,0.1-0.4,0.2-0.6l0-0.2
				c0-0.1,0.1-0.1,0.2-0.2l0.2,0c0.1-0.1,0.2-0.1,0.4-0.1c0.1,0,0.2,0.1,0.4,0.3l0.3,0.4c0.1,0.3,0.1,0.5,0.1,0.7l-0.1,0.6l0,0.2
				l0,1c0.1,0.4,0.1,0.7,0.1,0.8h0c0.1,0.2,0.2,0.5,0.2,0.8h0c0.1,0.5,0.2,0.8,0.2,0.9h0c0.1,0.3,0.2,0.5,0.4,0.5
				c0.2,0,0.4-0.2,0.7-0.5c0.3-0.5,0.4-0.9,0.4-1.1c0-0.3,0.1-0.6,0.2-1l0,0v-0.5l0,0l0,0c0-0.6,0.1-1.1,0.1-1.5l-0.1-0.6v-0.4l0,0
				c0,0-0.1-0.4-0.1-1.2c0-0.3-0.2-0.9-0.5-1.8c-0.3-0.4-0.7-0.8-1.3-1.2c-0.7-0.6-1.2-1.2-1.3-1.5l-0.2-0.5v-0.2
				c-0.1-0.4-0.1-1-0.2-1.6c0,0,0-0.1-0.1-0.4v-0.1l0-0.6l0-0.6v-0.2l0.1-0.7l0-0.3l0-0.6v-0.6c0-0.2,0-0.3,0.1-0.4l0,0
				c0.1-0.8,0.3-1.4,0.4-1.7c0.2-0.2,0.5-0.5,1.1-0.8C538.8,78.6,539.1,78.6,539.5,78.5z"/>
			<path class="st8" d="M545.2,78.4h0.1c0.1,0,0.4,0.1,0.8,0.2c1.1,0,1.7,0.1,1.9,0.4c0.3,0.4,0.5,0.6,0.5,0.8
				c0,0.2-0.3,0.3-0.8,0.4l-1.1-0.1c-0.1,0.1-0.2,0.1-0.3,0.2v0.8c0,0.4,0,0.8,0.1,1l0,1v0.1l0,0.5l0,0.4l0,0.4V85l0,0.8l0,0.6
				l-0.1,0.6c0.1,1.5,0.1,2.5,0.2,3c0.1,0.2,0.1,0.7,0.1,1.3c0,0,0.1,0.1,0.1,0.4l0,0.5l0.1,2l0,0.2l-0.1,1.8l0,0.1l0.1,0.4l0.1,2.8
				c0,0.2-0.2,0.4-0.5,0.6h-0.1c-0.3,0-0.6-0.2-0.9-0.6c0-0.1-0.1-0.2-0.2-0.4v-0.7l-0.1-1.1l0-0.4c-0.1-0.4-0.1-0.8-0.1-1.1
				c0.1-0.4,0.1-1.1,0.1-2.1l-0.1-1.3l0-0.4v-0.4c-0.1-1.2-0.2-1.9-0.3-2.2l0-2.1l0.1-1v-0.7l0-0.8c0-0.1,0.1-0.3,0.1-0.6l-0.1-0.9
				v-0.4c0-1.8-0.1-2.8-0.2-2.8c-0.1-0.1-0.2-0.2-0.2-0.2l-0.2,0c-0.4,0-0.8-0.2-1.2-0.6c-0.1-0.2-0.2-0.3-0.2-0.4v-0.1
				c0.1-0.4,0.4-0.5,0.7-0.5h0.1l0.5,0.1h0.3L545.2,78.4z"/>
			<path class="st8" d="M549.9,78.8l0.6,0h0.5c0.2,0,0.5,0,0.7,0.1v0c0.7,0.1,1.2,0.3,1.6,0.5c0.7,0.5,1.1,1,1.3,1.4l0,0.7v0.5l0,1
				c-0.1,0.1-0.1,0.3-0.1,0.5v0.2c0.1,0.2,0.1,0.5,0.1,1c0,0.3-0.1,0.7-0.2,1v0.3c0,0.2,0,0.4,0.1,0.6l0,0v0l0,0.4l0,0.6
				c0,0.4-0.1,0.8-0.2,1.2c0,0.4-0.1,0.7-0.1,0.8h0c-0.3,0.3-0.5,0.6-0.7,0.8c0,0.1,0,0.1-0.1,0.2l0,0v0l-0.1,0.3
				c0,0.1,0.2,0.7,0.7,1.6c0.4,1.5,0.6,2.2,0.6,2.3v0.4l-0.1,0.6l0,0.4l-0.1,0.5v0.2l0.1,0.6v0l0,0.1l0.1,0.4l-0.1,0.5v0l0,0.9
				c0,0.2,0.1,0.6,0.2,1.2l0.1,0.4v0c-0.1,0.3-0.2,0.4-0.4,0.4h-0.1l0,0h0l-0.1,0c-0.3,0-0.7-0.4-1.2-1.1c-0.1-0.2-0.2-0.7-0.2-1.7
				v0l0-0.5v-0.5l-0.1-0.7l0.1-1.7c0-0.5-0.2-1.3-0.6-2.4c-0.1-0.7-0.4-1-0.6-1h-0.4c-0.2,0-0.4,0.2-0.4,0.5v0.1l0.1,0.9l0,0.6
				l-0.1,0.8V95l0,0l-0.1,0.4l0,0.3c0,0.7,0,1.2,0,1.6l0.1,0.6l0,0.6l0,0.7l0,0l0,0l0,0.3c-0.1,0.8-0.3,1.2-0.5,1.2h-0.2
				c-0.2,0-0.4-0.2-0.6-0.4c-0.3-0.3-0.4-0.5-0.4-0.7v-0.1l0-1.1l-0.1-0.5v-0.3l0-0.8l0-0.3l0-0.3l-0.1-0.6l0.1-1.9l-0.2-1
				c0-0.4,0-0.9,0.1-1.5l0-1.1l0.1-0.5l0-0.3l0-0.7l0-0.3v-0.1l0-0.2c0-0.5-0.1-1.2-0.2-2.1l0.1-0.6l0-0.7c-0.1-0.4-0.1-1-0.2-1.6
				l-0.1-1.4l0-0.6l0-0.4c0-0.9,0.1-1.4,0.2-1.4C549.5,79,549.7,78.9,549.9,78.8z M550.8,80.7l0.1,1.3v0.4l0.1,1.7l0,0.7
				c0.1,0.1,0.1,0.9,0.1,2.3c0,0.3,0.1,0.5,0.1,0.7l0,0.5l0.1,0.4v0.1l-0.1,0.6c0,0.3,0.1,0.5,0.3,0.5h0.1c0.3,0,0.7-0.2,1.2-0.7
				c0.1-0.5,0.2-0.9,0.2-1.3v0l0,0l0,0v0c0-0.1,0.1-0.6,0.1-1.3l0-0.7l0.1-0.8l0-0.5l0-1.4l-0.2-0.4l0.2-1v-0.2
				c0-0.2-0.1-0.5-0.2-0.8c-0.2-0.2-0.6-0.3-1.3-0.3h-0.1C551,80.4,550.8,80.5,550.8,80.7z"/>
			<path class="st8" d="M560.7,78.6c0.4,0,0.6,0.3,0.7,0.9v0.2c-0.1,0.3-0.1,0.5-0.1,0.7h0l0,0l-0.5,1.9c0,0.4-0.1,0.9-0.3,1.6
				c0,0.2-0.1,0.5-0.2,0.9v0l0,0.2c-0.1,0.5-0.2,1.1-0.4,1.6c-0.1,0.7-0.2,1.1-0.3,1.1c-0.1,0.8-0.2,1.3-0.4,1.6v0l0,0.9
				c0,0.2,0.1,0.5,0.2,1l0,0.4c0,0.1-0.1,0.2-0.3,0.5c0,0.1-0.1,0.2-0.1,0.3c0.1,0.5,0.2,1.2,0.2,1.9l0,0.1l0,0.2l0,0.5l0,0.1v0.3
				l0.1,0.7l-0.1,0.5l0.1,0.5c0,0.3,0,0.8-0.1,1.2l0,0.7c-0.1,0.6-0.2,0.9-0.3,1c-0.1,0.2-0.1,0.3-0.3,0.3h0c0,0-0.1,0-0.3-0.1
				c-0.2,0-0.5-0.2-0.8-0.7c-0.1-0.1-0.1-0.4-0.1-0.8c0.1-0.7,0.2-1.2,0.2-1.7l0-0.7l0-0.5c-0.1-0.6-0.1-1.1-0.1-1.6v-0.6l0-0.4l0,0
				v0l-0.2-1.9l0-0.4c0-1.1-0.1-2-0.3-2.7l-0.1-0.4h0l-0.2-1.1l0,0h0l-0.3-1.4l-0.1-0.1h0l-0.4-1.4l0,0v0c-0.2-0.6-0.3-1.2-0.4-1.7
				c-0.1-0.4-0.2-0.8-0.2-1.3c-0.1-0.1-0.1-0.4-0.2-0.7v-0.1l0.1-0.3l-0.1-0.2c0-0.1,0.2-0.2,0.5-0.3l0.1-0.1h0.2
				c0.2,0.1,0.5,0.4,0.7,0.7c0.2,0.2,0.3,0.6,0.3,1c0,0,0.1,0.2,0.1,0.6c0.1,0.2,0.1,0.4,0.1,0.8l0.7,3l0.2,0.2h0.1
				c0.2-0.2,0.3-0.5,0.3-1.1c0-0.2,0.1-0.6,0.4-1.2c0.1-1,0.2-1.6,0.3-1.8c0.1-0.1,0.1-0.4,0.2-0.9c0.2-0.2,0.3-0.5,0.4-1
				C560.3,78.8,560.5,78.6,560.7,78.6z"/>
			<path class="st8" d="M570.5,78.9c0.3,0,0.5,0.2,0.6,0.6c0.1,0.1,0.1,0.3,0.1,0.8h0c0,0.2,0.1,0.3,0.1,0.5V81l-0.1,0.5v0.4
				c-0.1,0.3-0.1,0.6-0.1,1c0.1,0.3,0.1,0.6,0.1,1l0,0.1h0l0,0.2l0,0.2v0.1l-0.1,1.2c0,0.3,0,0.6,0,0.8l0,0c0,0.2,0.1,0.4,0.2,0.7h0
				c0.1,0.1,0.1,0.4,0.1,0.8l0,0.3l0.1,0.5l-0.1,2.1l0,1.2l0,0.2c0,0.1,0,0.3,0,0.5v0.3c0,0.1,0,0.3,0.1,0.4l0,0l0,1.2v0.2l0,0v0h0
				c0.1,0.2,0.2,0.6,0.2,1.3c0,0.6,0,1-0.1,1.2l0.1,1.1l0,0.2V99l0,0.4c0,0.3-0.1,0.5-0.4,0.8h-0.1c-0.4-0.1-0.6-0.1-0.6-0.3l0-0.1
				c-0.3-0.3-0.4-0.5-0.5-0.6v-0.6l0-0.7l0-0.4l0-1.2V96c0-0.3-0.1-1.2-0.3-2.5l-0.1-0.9v-0.1l0,0l0,0v-0.7l0-0.8l0-0.6l0-0.3l0,0
				v-0.6l0.1-0.7c-0.1-1-0.2-1.7-0.3-2.1l0-0.1h0c-0.1-0.2-0.1-0.7-0.1-1.3h0l0,0v-0.4l0,0l0,0c0.1-0.7,0.1-1.3,0.1-1.8l0,0
				c0.1-0.7,0.2-1.2,0.2-1.3v-0.1l0-0.2l0-0.7l0.1-1.2c0-0.1,0.2-0.4,0.4-0.6l0,0h0l0.1,0L570.5,78.9z M569.9,96.9L569.9,96.9
				L569.9,96.9l0.2,0L569.9,96.9L569.9,96.9z M571,100.4L571,100.4c0.1-0.2,0.2-0.2,0.3-0.2c0.1,0,0.2,0.1,0.2,0.2
				c0,0.1-0.1,0.2-0.3,0.2C571.1,100.5,571,100.5,571,100.4z M571.3,101.5L571.3,101.5c0-0.1,0-0.1,0.1-0.2h0c0.1,0,0.2,0.1,0.2,0.2
				v0l-0.1,0.1h-0.1C571.4,101.6,571.4,101.6,571.3,101.5z M571.5,95.6L571.5,95.6l0.1,0l0,0l0,0.1L571.5,95.6L571.5,95.6z
				 M571.9,100.2L571.9,100.2c0-0.1,0.1-0.1,0.1-0.1c0.1,0,0.2,0.1,0.2,0.2l-0.1,0.1H572C571.9,100.3,571.9,100.3,571.9,100.2z
				 M572,98.9l0.2-0.1h0c0.2,0,0.2,0.1,0.3,0.2c0,0.1-0.1,0.1-0.2,0.2h-0.1C572.1,99.3,572,99.2,572,98.9z M572.2,97L572.2,97
				L572.2,97l0.1-0.1l0.1,0.1v0l-0.1,0.1L572.2,97L572.2,97z M572.3,101.3L572.3,101.3c0-0.2,0.1-0.2,0.2-0.2s0.2,0.1,0.2,0.2
				c0,0.1-0.1,0.1-0.2,0.1h-0.2L572.3,101.3z M572.7,95.4L572.7,95.4l0.1-0.1h0c0.1,0,0.2,0,0.2,0.1l-0.1,0.1L572.7,95.4L572.7,95.4
				z M574,95.7L574,95.7L574,95.7L574,95.7L574,95.7L574,95.7L574,95.7z"/>
			<path class="st8" d="M573.6,78.9c0.1,0,0.4,0.1,0.8,0.3c0.2,0,0.5,0.3,0.9,0.9l0.3,1.3h0l0.3,1.2c0.2,0.5,0.4,1,0.5,1.7
				c0.2,0.8,0.3,1.3,0.4,1.6c0.2,0.8,0.4,1.3,0.5,1.3c0.1,0,0.2-0.3,0.3-0.9l0.1-0.2l0-0.4v-0.3l0-0.6l0-0.2l-0.1-1.8l0.1-1.2
				l-0.1-1.5l0-0.3l0-0.1c0.1-0.4,0.3-0.6,0.4-0.6l0.2,0l0.3,0c0.2,0,0.5,0.3,0.8,0.9l0,0.1l0,0c0,0.3,0.1,0.8,0.1,1.3
				c0,0.8,0,1.3-0.1,1.6l0,1.1v0.2l0.1,1.7l-0.1,0.6l0.1,0.4l-0.1,0.6h0l-0.2,1.9h0l-0.1,0.3v0.1l0.1,0.4v0.1l-0.1,0.5l0.2,1.3
				c0,0.4,0.1,0.8,0.2,1.3v0.1c0,0.3-0.1,0.7-0.2,1.2l0,0.4v0.3l-0.4,1.1c0,0.2,0,0.3,0.1,0.5l0,0l0.1,1.2l0,0.6l0,0.4
				c-0.1,0.6-0.2,0.8-0.3,0.8c0,0.1-0.1,0.1-0.3,0.1c-0.2,0-0.4-0.1-0.6-0.4c-0.2-0.1-0.3-0.3-0.3-0.5c-0.1-0.1-0.1-0.1-0.1-0.3
				l0.1-0.4c0-0.1,0-0.3-0.1-0.4l0-0.2v-0.2l0-0.4h0l-0.2-1.2v-0.1l0-0.5l-0.2-1.1l-0.1-0.1h0l-0.2-0.7h0l-0.2-0.8l0,0
				c0-0.4-0.1-0.7-0.2-1.1h0l-0.2-0.7h0c-0.2-0.6-0.3-1.1-0.3-1.8l-0.4-1.9c-0.3-1.2-0.5-1.9-0.7-1.9h-0.1c-0.1,0.1-0.2,0.3-0.2,0.4
				v0.2l-0.1,1.5v0.2l0,0.4l0,0.2l0,0.5l-0.1,0.5l0.2,1.4v0.9c0,1,0.1,1.6,0.2,2l0,0.2v0.4l0,0.2l-0.1,1c0.1,0.4,0.1,0.7,0.1,0.9
				c0,0.2-0.1,0.6-0.2,1.1v0.4l0,0.2l-0.2,0.9l0,0v0.5l0.1,0.6c0,0.2-0.1,0.3-0.4,0.5l-0.1,0l-0.5-0.2c-0.5-0.4-0.8-0.9-0.8-1.4
				c0.1-0.3,0.1-0.9,0.2-1.7c0,0,0.1-0.3,0.1-1v-0.5l0,0l0,0l-0.1-0.4v-0.2l0.1-0.6h0l0,0v-0.2l-0.3-2.8l0.1-0.5
				c0-0.2-0.1-0.7-0.2-1.4l0-0.3l0-0.2v0l0,0l0.1-0.6v-0.4l0-1.4l0.1-1.5v-0.3l0.1-0.6l-0.1-0.4l0.1-0.4l-0.2-1.2V82l-0.1-1.6l0-0.2
				l0-0.7C572.8,79.2,573,79,573.6,78.9z"/>
			<path class="st8" d="M595.2,78.7c0.2,0,0.4,0.2,0.7,0.6c0.2,0.1,0.2,0.3,0.2,0.4v0.3l0,0l0,0v0.6l0.2,2.4h0l0,0.1
				c0.1,1.1,0.2,1.7,0.2,1.7l0,0l0,0.3v0.1l0,0.4l0,0.5v0.3l0,0.6l0,0.2c0,0.3-0.1,0.7-0.2,1.3c0,0.6,0.1,1.1,0.2,1.5v0.9l-0.1,0.8
				v0.2l0,0l0,0v0c0.1,0.4,0.1,0.9,0.1,1.4v0.4l-0.1,0.8v0.2l0.1,1v0.3c-0.1,1-0.2,1.9-0.2,2.6l0,0l0,0.4v0.4c0,0.4-0.1,0.7-0.4,0.9
				c0,0-0.1,0.1-0.2,0.1c-0.3,0-0.5-0.2-0.7-0.4c-0.3-0.3-0.4-0.6-0.4-1v-0.2l0.1-0.5l-0.1-0.5c0.1-0.6,0.1-1,0.2-1.2l0,0v-1.1
				l0-1.2l0.1-0.9h0l0,0v-0.1l-0.1-1.6l0-0.5l0-0.3v-0.1l0-0.6v-0.1c0-0.2-0.1-0.5-0.2-0.9h0l-0.1-0.6l0-0.2v-0.1
				c0-0.1-0.1-0.2-0.1-0.2h-0.1c-0.1,0.1-0.2,0.4-0.4,1.1l-0.2,1.3l-0.1,1.2c-0.2,0.4-0.3,0.8-0.3,1.1v0.2l0,0.2l-0.2,1.2
				c-0.1,0.1-0.2,0.6-0.3,1.5l-0.2,2h0l0,0v0.3l0,0v0h0c0.2,0.6,0.3,1.1,0.3,1.5v0c0,0.4-0.1,0.6-0.4,0.7h-0.2l0,0l0,0h0
				c-0.2,0-0.5-0.2-0.8-0.6c-0.2-0.2-0.3-0.5-0.3-0.7h0c-0.1-0.4-0.2-1.1-0.4-2h0c-0.2-1.3-0.4-2.3-0.6-2.9l0,0c0-0.9-0.1-1.6-0.2-2
				l0-0.7l0-0.3c0-0.6-0.1-1.3-0.3-2l-0.2-2.6l0-0.3c-0.1-0.2-0.2-0.2-0.2-0.2h-0.1c-0.1,0-0.2,0.3-0.3,1h0l0,0l-0.1,0.4l0.1,1.1
				c-0.1,0.3-0.1,0.7-0.1,1.2V90l0,0.1l0,0.2v0.2l0,0.3c0,0.6,0.2,1.3,0.3,2h0l0,0v0l0,0l0,0v0.4l0.2,1.8l-0.1,0.5
				c0.1,0.2,0.1,0.3,0.1,0.5l-0.1,0.6h0l0,0v0.3l0,0l0,0v0l0.1,0.9v0.4l0.1,1.2l-0.1,0.5h0c-0.1,0.2-0.2,0.3-0.4,0.3l-0.2,0
				c-0.3,0-0.6-0.3-0.9-0.8c-0.1,0-0.2-0.5-0.2-1.4l0-0.3v-0.6l0-0.1h0l-0.1-0.4l0.1-0.5l0-0.6l0-0.5c-0.1-1-0.1-1.5-0.2-1.8h0
				c-0.1-0.1-0.1-0.6-0.2-1.3h0l-0.2-1h0l0-0.3l0-0.2l-0.1-0.7v-0.3l0.1-0.5h0l0,0v-0.1l0.1-1l-0.1-0.7c0.1-0.3,0.1-0.7,0.2-1h0
				c0.1-0.1,0.1-0.5,0.1-1.1l0-0.1l0-0.2h0l0,0l0-0.3v-0.7l0-0.2l0-0.1l0-0.8l0-1.2l0-0.1h0l-0.1-0.2l0.1-0.3l0,0
				c0-0.4,0.1-0.8,0.2-1.1l0,0v-0.6l0,0l0,0v-0.1c0.1-0.5,0.2-0.8,0.5-0.8l0.2,0.1l0.3-0.1l0.7,0.1h0.1l0.3-0.1h0l0.4,0.3
				c0.4,0.3,0.6,0.7,0.6,1.1l0.1,1.9l0,0.4l0,0.4l0,0.2c0.1,0.3,0.2,1,0.3,2.2c0.1,0.2,0.2,0.8,0.3,1.8V87l0,0.2l0.1,1.5l0.2,0.9
				c0.1,0.1,0.1,0.2,0.2,0.3h0.1c0.1,0,0.3-0.4,0.4-1.3c0.1-0.2,0.2-0.4,0.2-0.5v-0.3c0-0.3,0.1-1,0.2-2.2c0-0.4,0.1-0.8,0.2-1
				l0-0.6c0.1-1.1,0.2-1.8,0.3-2.1v-0.3l0.1-0.6l0-0.2l0-0.3V80c0-0.5,0.1-0.8,0.4-1c0-0.1,0.2-0.1,0.5-0.2v0l0,0h0.1l0,0l0.3,0
				L595.2,78.7z"/>
			<path class="st8" d="M599,78.8h0.7c0.6,0,1.1,0,1.7,0.1v0c0.5,0.1,0.8,0.1,1,0.2c0.4,0.1,0.5,0.2,0.5,0.4
				c0.1,0.2,0.2,0.3,0.3,0.4v0.3c-0.1,0.2-0.4,0.3-0.7,0.3c-0.8-0.1-1.5-0.2-1.9-0.2h-0.3c-0.4,0-0.7,0.1-0.7,0.4
				c0,1.5,0.1,2.5,0.2,3l0.1,1l-0.1,1l0,0.2c-0.1,0.7-0.2,1.2-0.2,1.4c0,0.5,0.2,0.7,0.5,0.7c0,0,0.2,0.1,0.7,0.1
				c0.4,0,0.9,0.1,1.4,0.3c0.4,0.3,0.6,0.6,0.6,0.9c0,0.2-0.2,0.4-0.5,0.4c-0.6-0.1-1.4-0.2-2.3-0.3c-0.2,0-0.3,0.2-0.3,0.6
				l-0.1,0.8l0,0.1l0,0.3l0.1,0.7v0.4l-0.1,0.9h0l-0.2,0.9h0l-0.1,0.4l0.1,0.3l0,0c0,0.2,0.1,0.3,0.1,0.4v0.6l0,0.7l-0.1,0.5
				c0,1.1,0.1,1.7,0.3,1.7c0,0.1,0.8,0.2,2.3,0.2c0.4,0.1,0.7,0.3,0.8,0.5c0.1,0.2,0.2,0.4,0.2,0.4c0,0.4-0.3,0.6-0.8,0.6H602
				c-0.3,0-0.5,0-0.8-0.1l0,0h0c-1,0-1.7-0.2-2.1-0.3c-0.3-0.2-0.6-0.4-0.8-0.7c-0.3-0.4-0.4-0.8-0.4-1.2l0-1.3l0.1-1.2
				c-0.1-0.3-0.1-0.8-0.2-1.5c0.1-0.4,0.2-0.6,0.2-0.8l0.1-0.9v-0.4l-0.1-0.7v-0.9L598,90v-1l-0.2-0.9l0-0.4l0-0.5
				c0-0.6,0.1-1.2,0.2-1.7v0l-0.1-1.6h0c-0.1-0.4-0.1-1.2-0.2-2.2h0l0,0v-0.7l0,0l0,0v0l0.1-0.3l0-0.5c0-0.6,0.1-0.9,0.3-0.9
				C598.3,78.9,598.6,78.8,599,78.8z"/>
			<path class="st8" d="M608.4,78.8L608.4,78.8c0.3,0,0.5,0.4,0.7,1.2l-0.5,2.2c0,0.2-0.1,0.4-0.2,0.7l-0.1,0.9
				c0,0.1-0.1,0.2-0.1,0.5c-0.1,0.3-0.2,0.7-0.3,1.1c-0.2,0.2-0.3,0.7-0.5,1.5c-0.2,0.8-0.3,1.3-0.3,1.4c0,1,0.2,1.9,0.6,2.7
				l1.2,3.9l0.4,1.9c0,0.3,0,0.5,0.1,0.7h0c0,0.2,0.1,0.7,0.4,1.5h0c0.1,0.2,0.2,0.5,0.2,0.8c0,0.2-0.2,0.4-0.6,0.4h-0.1
				c-0.2,0-0.5-0.2-0.8-0.7c-0.2-0.3-0.4-0.8-0.5-1.3l-0.1-0.3h0c0-0.1-0.1-0.5-0.2-0.9c-0.1-0.1-0.1-0.5-0.2-0.9l0,0v0l-0.2-0.8h0
				c-0.3-1.3-0.5-1.9-0.7-1.9h-0.1c-0.2,0.2-0.3,0.5-0.3,0.9l0,0c0,0.1,0,0.2,0,0.2l0,0v0c-0.1,0.7-0.2,1.3-0.3,1.5l-0.2,0.8v0
				l0,0.6l0,0.7c0,0.2,0,0.5,0.1,0.9l-0.1,0.5l0,0.3v0.5c0,0.2-0.2,0.5-0.5,0.8l-0.1,0c-0.5,0-0.8-0.3-1.1-0.9l-0.1-0.4v0l0.1-0.6
				l0-0.3v-0.5l-0.1-0.6c0-0.6,0-1.1,0.1-1.4v-0.3c0.1-0.4,0.2-0.7,0.2-1c0.1-0.2,0.2-0.6,0.2-1.1l0.1-0.2h0c0-0.1,0.1-0.4,0.3-1
				c0-0.2,0.1-0.6,0.3-1.2c0-0.3,0.1-0.7,0.2-1.1l0.1-0.6v-0.2c-0.2-0.9-0.3-1.7-0.3-2.4c0,0-0.1-0.4-0.2-1.3h0l-0.1-0.4l0-0.4
				l-0.2-0.6h0l-0.2-1.1l0,0c-0.2-0.8-0.3-1.5-0.3-2.2c0-0.2-0.1-0.4-0.1-0.6v-0.1l0,0l0,0v0c-0.1-0.2-0.1-0.5-0.1-0.9
				c0-0.1,0.1-0.3,0.4-0.5c0-0.1,0.1-0.1,0.4-0.1c0.2,0,0.5,0.3,0.9,1l0.1,0.2v0.4c0.1,0.5,0.2,1.3,0.2,2.4l0.3,0.8
				c0,0.1,0,0.2,0.1,0.2c0.1,0,0.1-0.1,0.1-0.2l0-0.1c0.1-0.1,0.2-0.5,0.4-1c0.1,0,0.1-0.3,0.1-0.9c0.1-0.3,0.2-0.9,0.4-1.6l0.1-0.4
				h0c0.1-0.3,0.2-0.5,0.5-0.8L608.4,78.8z"/>
			<path class="st8" d="M611.7,78.9c0.3,0,0.5,0.2,0.6,0.6c0.1,0.1,0.1,0.3,0.1,0.8h0c0,0.2,0.1,0.3,0.1,0.5V81l-0.1,0.5v0.4
				c-0.1,0.3-0.1,0.6-0.1,1c0.1,0.3,0.1,0.6,0.1,1l0,0.1h0l0,0.2l0,0.2v0.1l-0.1,1.2c0,0.3,0,0.6,0,0.8l0,0c0,0.2,0.1,0.4,0.2,0.7h0
				c0.1,0.1,0.1,0.4,0.1,0.8l0,0.3l0.1,0.5l-0.1,2.1l0,1.2l0,0.2c0,0.1,0,0.3,0,0.5v0.3c0,0.1,0,0.3,0.1,0.4l0,0l0,1.2v0.2l0,0v0h0
				c0.1,0.2,0.2,0.6,0.2,1.3c0,0.6,0,1-0.1,1.2l0.1,1.1l0,0.2V99l0,0.4c0,0.3-0.1,0.5-0.4,0.8h-0.1c-0.4-0.1-0.6-0.1-0.6-0.3l0-0.1
				c-0.3-0.3-0.4-0.5-0.5-0.6v-0.6l0-0.7l0-0.4l0-1.2V96c0-0.3-0.1-1.2-0.3-2.5l-0.1-0.9v-0.1l0,0l0,0v-0.7l0-0.8l0-0.6l0-0.3l0,0
				v-0.6l0.1-0.7c-0.1-1-0.2-1.7-0.3-2.1l0-0.1h0c-0.1-0.2-0.1-0.7-0.1-1.3h0l0,0v-0.4l0,0l0,0c0.1-0.7,0.1-1.3,0.1-1.8l0,0
				c0.1-0.7,0.2-1.2,0.2-1.3v-0.1l0-0.2l0-0.7l0.1-1.2c0-0.1,0.1-0.4,0.4-0.6l0,0h0l0.1,0L611.7,78.9z M611.2,96.9L611.2,96.9
				L611.2,96.9l0.2,0L611.2,96.9L611.2,96.9z M612.2,100.4L612.2,100.4c0.1-0.2,0.2-0.2,0.3-0.2c0.1,0,0.2,0.1,0.2,0.2
				c0,0.1-0.1,0.2-0.3,0.2C612.3,100.5,612.2,100.5,612.2,100.4z M612.6,101.5L612.6,101.5c0-0.1,0-0.1,0.1-0.2h0
				c0.1,0,0.2,0.1,0.2,0.2v0l-0.1,0.1h-0.1C612.7,101.6,612.6,101.6,612.6,101.5z M612.8,95.6L612.8,95.6l0.1,0l0,0l0,0.1
				L612.8,95.6L612.8,95.6z M613.1,100.2L613.1,100.2c0-0.1,0.1-0.1,0.1-0.1c0.1,0,0.2,0.1,0.2,0.2l-0.1,0.1h-0.1
				C613.2,100.3,613.1,100.3,613.1,100.2z M613.2,98.9l0.2-0.1h0c0.2,0,0.2,0.1,0.3,0.2c0,0.1-0.1,0.1-0.2,0.2h-0.1
				C613.3,99.3,613.2,99.2,613.2,98.9z M613.5,97L613.5,97L613.5,97l0.1-0.1l0.1,0.1v0l-0.1,0.1L613.5,97L613.5,97z M613.6,101.3
				L613.6,101.3c0-0.2,0.1-0.2,0.2-0.2c0.1,0,0.2,0.1,0.2,0.2c0,0.1-0.1,0.1-0.2,0.1h-0.2L613.6,101.3z M614,95.4L614,95.4l0.1-0.1
				h0c0.1,0,0.2,0,0.2,0.1l-0.1,0.1L614,95.4L614,95.4z M615.3,95.7L615.3,95.7L615.3,95.7L615.3,95.7L615.3,95.7L615.3,95.7
				L615.3,95.7z"/>
			<path class="st8" d="M615,100.4c-0.3-0.3-0.4-0.5-0.4-0.7c-0.1-0.2-0.2-0.5-0.2-0.8c-0.1-0.7-0.2-1.5-0.2-2.3l0-0.5l-0.1-1.1
				l0-0.3l0-0.3l0-1.3v-0.6l-0.1-1.6l0.1-0.5l-0.1-0.5l0.1-0.6v-0.9l0-0.4l0-0.4l0.1-1.8l-0.1-0.5l0.1-2.2l0-0.2l0-0.3l0-0.8v-0.3
				l0-0.4c0.6-1.4,1.4-2.1,2.6-2.1c0.2,0,0.3,0.1,0.4,0.2c0.4,0.1,0.6,0.2,0.6,0.2c0.5,0.1,0.8,0.4,1,0.7c0.4,0.3,0.6,0.6,0.6,0.7
				c0.3,0.4,0.4,1,0.4,1.8l0,0.2l0,0.3V83c-0.2,1.5-0.3,2.6-0.3,3.1v0.6l0,0.1c-0.3,0.7-0.6,1-0.8,1h0c-0.5-0.1-0.8-0.3-0.8-0.6v-1
				c0.1-1.5,0.2-2.4,0.3-2.6l0-0.1l0,0v-0.3l0,0l0,0v-0.2l0,0c0,0,0-0.1,0.1-0.4c0-0.3,0-0.6-0.1-0.9c0-0.4-0.3-0.7-0.8-1v0
				l-0.7-0.3l-0.2,0.1c-0.2,0-0.3,0.3-0.4,1c0.1,0.3,0.1,0.5,0.1,0.6s0,0.3-0.1,0.6l0.1,0.9c0,0.1-0.1,0.2-0.1,0.4v0.1l0,1.1
				l0.1,0.4c0,0.3,0,0.6-0.1,0.9l0,1.1c0,0.5,0,0.9-0.1,1.2l0.1,0.4l-0.1,0.8l0.1,1.6v0.4l0,0.7l0.1,0.9v0.8l0,0.9l0.1,0.4l-0.1,0.5
				l0.2,2.3c0,0.5,0.2,0.7,0.5,0.7c0.2,0,0.3,0,0.3-0.1c0.2,0,0.3-0.5,0.5-1.4c0-0.5,0.1-0.9,0.1-1.1l0.2-1.6c0-0.9,0.1-1.4,0.3-1.5
				c0.4-0.5,0.7-0.7,1-0.7h0l0,0c0.3,0.1,0.5,0.6,0.5,1.4c-0.1,1.7-0.2,2.8-0.3,3.1c0,0.5-0.1,0.9-0.2,1.2c0,0.3-0.3,0.7-1,1.4
				c-0.8,0.6-1.3,0.9-1.8,0.9h-0.3C615.6,100.8,615.4,100.7,615,100.4z"/>
			<path class="st8" d="M623.3,78.5L623.3,78.5c1,0,1.8,0.4,2.5,1.3c0.3,0.3,0.4,0.8,0.4,1.4l0,0.4h0c0,0.2,0.1,1,0.2,2.4l0,0.4v0.2
				l0.1,0.5h0l0,0v0.1l0.1,0.7l-0.1,0.7l0.1,1.3v0.1c0,0.2-0.1,0.5-0.2,1.1l0,0.2l0.1,1.5h0l0.1,0.4c0,0.2-0.1,0.9-0.1,2.1l0,0.4
				l-0.1,1.1l0.1,1.1v0l0,0l0,0.1l0.1,0.6l-0.1,0.6v0l0,0l0,0l-0.3,1.2c-0.1,0.3-0.3,0.6-0.6,0.9c-0.1,0.2-0.4,0.4-0.7,0.5l-0.4,0.4
				c-0.1,0-0.3,0.1-0.4,0.1h-0.3c-0.8,0-1.5-0.6-2.3-1.7c-0.1-0.1-0.2-0.4-0.3-0.7h0l-0.3-1c0-0.2,0-0.5-0.1-0.9l0-0.1l0-0.8h0l0,0
				v-0.1l-0.1-1l0-1l-0.1-1.2v-0.4l0.1-1.2l-0.2-1.2c0-0.7,0-1.1,0.1-1.3l-0.1-2.1l0-0.4l0-0.9l0-0.5l0-0.8v-0.2
				c0-0.9,0.1-1.5,0.2-1.8l0.2-0.6h0c0.2-0.3,0.3-0.7,0.5-1.2c0.4-0.6,0.8-0.9,1.1-0.9C622.9,78.6,623.1,78.5,623.3,78.5z
				 M622.4,82.3l0,0.1l-0.1,1.1v0.8l0.1,0.4v0.1l-0.1,0.4l0,0.5l-0.1,0.6c0,0.6,0,1,0.1,1.1l0,1.1v0.3l0,0.3l0.2,1.6v0.1l-0.1,1.3
				l0,0.5l0,0.2c0,0.1,0.1,0.4,0.1,0.9l0,0.4l0.1,1.1v0.8c0,0.7,0.1,1.3,0.2,1.8c0.1,0,0.1,0.3,0.2,1c0,0.1,0.1,0.2,0.4,0.4h0.4
				c0.3,0,0.6-0.4,0.9-0.9c0.1-0.3,0.2-0.5,0.2-0.7v-0.6c0-0.9,0-1.4-0.1-1.6l0,0l0-0.3v-0.1c0-0.4,0-0.8,0.1-1.1v0l-0.1-0.9v-0.2
				c0-0.6,0.1-1,0.1-1l0,0v-0.1l0-0.1l0,0h0c0-0.1-0.1-0.7-0.2-1.9c0-0.8,0.1-1.3,0.2-1.5l0,0l0-0.2l0-0.6l0-0.3l0,0l0,0h0l0,0
				l0-0.4l0-0.2h0l0.1-0.3l-0.1-0.2h0l-0.2-1.7l0-0.5l0-1h0l0,0v0l-0.1-1.1l0-0.3c0-0.7-0.2-1.1-0.6-1.1c-0.7,0.1-1,0.2-1,0.4
				c-0.3,0.5-0.5,1-0.5,1.6L622.4,82.3z"/>
		</g>
	</g>
	<rect x="31.9" y="48.9" class="st7" width="90.5" height="22.3"/>
	<g>
		<path class="st0" d="M50.2,63.1c-0.4,0.2-1.2,0.4-2.1,0.4c-2.3,0-4-1.4-4-4.1c0-2.5,1.7-4.2,4.2-4.2c1,0,1.6,0.2,1.9,0.4L50,56.3
			c-0.4-0.2-1-0.3-1.6-0.3c-1.9,0-3.2,1.2-3.2,3.3c0,2,1.1,3.3,3.1,3.3c0.6,0,1.3-0.1,1.7-0.3L50.2,63.1z"/>
		<path class="st0" d="M58.2,59.2c0,2.8-1.7,4.3-3.8,4.3c-2.1,0-3.6-1.7-3.6-4.1c0-2.6,1.6-4.2,3.8-4.2
			C56.7,55.1,58.2,56.8,58.2,59.2z M51.9,59.4c0,1.7,0.9,3.3,2.6,3.3c1.7,0,2.6-1.5,2.6-3.4c0-1.6-0.8-3.3-2.6-3.3
			C52.8,56,51.9,57.6,51.9,59.4z"/>
		<path class="st0" d="M66.3,59.8c-0.1-1.1-0.1-2.5-0.1-3.5h0c-0.3,0.9-0.6,2-1,3.1l-1.4,3.9h-0.8l-1.3-3.9
			c-0.4-1.1-0.7-2.2-0.9-3.1h0c0,1-0.1,2.4-0.2,3.6l-0.2,3.5h-1l0.6-8.1h1.3l1.4,3.9c0.3,1,0.6,1.9,0.8,2.7h0
			c0.2-0.8,0.5-1.7,0.9-2.7l1.4-3.9h1.3l0.5,8.1h-1L66.3,59.8z"/>
		<path class="st0" d="M69.2,55.4c0.5-0.1,1.2-0.2,2-0.2c1,0,1.8,0.2,2.3,0.7c0.4,0.4,0.7,1,0.7,1.7c0,0.7-0.2,1.3-0.6,1.7
			c-0.6,0.6-1.5,0.9-2.5,0.9c-0.3,0-0.6,0-0.8-0.1v3.2h-1V55.4z M70.2,59.3c0.2,0.1,0.5,0.1,0.9,0.1c1.3,0,2-0.6,2-1.7
			c0-1.1-0.8-1.6-1.9-1.6c-0.5,0-0.8,0-1,0.1V59.3z"/>
		<path class="st0" d="M75.9,60.8L75,63.3h-1.1l2.7-8.1h1.3l2.8,8.1h-1.1l-0.9-2.5H75.9z M78.5,60l-0.8-2.3c-0.2-0.5-0.3-1-0.4-1.5
			h0c-0.1,0.5-0.3,1-0.4,1.5L76.1,60H78.5z"/>
		<path class="st0" d="M81.9,63.3v-8.1H83l2.6,4.1c0.6,0.9,1.1,1.8,1.5,2.6l0,0C87,60.9,87,59.9,87,58.6v-3.4h1v8.1h-1.1l-2.6-4.1
			c-0.6-0.9-1.1-1.8-1.5-2.7l0,0c0.1,1,0.1,2,0.1,3.3v3.5H81.9z"/>
		<path class="st0" d="M91.5,63.3v-3.4l-2.6-4.7h1.2l1.1,2.2c0.3,0.6,0.6,1.1,0.8,1.7h0c0.2-0.5,0.5-1.1,0.8-1.7l1.2-2.2h1.2
			l-2.7,4.6v3.4H91.5z"/>
		<path class="st0" d="M100.7,56.5L100.7,56.5l-1.4,0.7l-0.2-0.8l1.7-0.9h0.9v7.8h-1V56.5z"/>
	</g>
	<rect x="31.9" y="77.7" class="st7" width="90.5" height="22.3"/>
	<g>
		<path class="st0" d="M50.2,91.9c-0.4,0.2-1.2,0.4-2.1,0.4c-2.3,0-4-1.4-4-4.1c0-2.5,1.7-4.2,4.2-4.2c1,0,1.6,0.2,1.9,0.4L50,85.2
			c-0.4-0.2-1-0.3-1.6-0.3c-1.9,0-3.2,1.2-3.2,3.3c0,2,1.1,3.3,3.1,3.3c0.6,0,1.3-0.1,1.7-0.3L50.2,91.9z"/>
		<path class="st0" d="M58.2,88.1c0,2.8-1.7,4.3-3.8,4.3c-2.1,0-3.6-1.7-3.6-4.1c0-2.6,1.6-4.2,3.8-4.2C56.7,84,58.2,85.7,58.2,88.1
			z M51.9,88.2c0,1.7,0.9,3.3,2.6,3.3c1.7,0,2.6-1.5,2.6-3.4c0-1.6-0.8-3.3-2.6-3.3C52.8,84.8,51.9,86.4,51.9,88.2z"/>
		<path class="st0" d="M66.3,88.7c-0.1-1.1-0.1-2.5-0.1-3.5h0c-0.3,0.9-0.6,2-1,3.1l-1.4,3.9h-0.8l-1.3-3.8
			c-0.4-1.1-0.7-2.2-0.9-3.1h0c0,1-0.1,2.4-0.2,3.6l-0.2,3.5h-1l0.6-8.1h1.3l1.4,3.9c0.3,1,0.6,1.9,0.8,2.7h0
			c0.2-0.8,0.5-1.7,0.9-2.7l1.4-3.9h1.3l0.5,8.1h-1L66.3,88.7z"/>
		<path class="st0" d="M69.2,84.2c0.5-0.1,1.2-0.2,2-0.2c1,0,1.8,0.2,2.3,0.7c0.4,0.4,0.7,1,0.7,1.7c0,0.7-0.2,1.3-0.6,1.7
			C73,88.7,72.1,89,71,89c-0.3,0-0.6,0-0.8-0.1v3.2h-1V84.2z M70.2,88.1c0.2,0.1,0.5,0.1,0.9,0.1c1.3,0,2-0.6,2-1.7
			c0-1.1-0.8-1.6-1.9-1.6c-0.5,0-0.8,0-1,0.1V88.1z"/>
		<path class="st0" d="M75.9,89.7L75,92.2h-1.1l2.7-8.1h1.3l2.8,8.1h-1.1l-0.9-2.5H75.9z M78.5,88.9l-0.8-2.3
			c-0.2-0.5-0.3-1-0.4-1.5h0c-0.1,0.5-0.3,1-0.4,1.5l-0.8,2.3H78.5z"/>
		<path class="st0" d="M81.9,92.2v-8.1H83l2.6,4.1c0.6,0.9,1.1,1.8,1.5,2.6l0,0C87,89.8,87,88.8,87,87.5v-3.4h1v8.1h-1.1l-2.6-4.1
			c-0.6-0.9-1.1-1.8-1.5-2.7l0,0c0.1,1,0.1,2,0.1,3.3v3.5H81.9z"/>
		<path class="st0" d="M91.5,92.2v-3.4l-2.6-4.7h1.2l1.1,2.2c0.3,0.6,0.6,1.1,0.8,1.7h0c0.2-0.5,0.5-1.1,0.8-1.7l1.2-2.2h1.2
			l-2.7,4.6v3.4H91.5z"/>
		<path class="st0" d="M98.4,92.2v-0.6l0.8-0.8c2-1.9,2.9-2.9,2.9-4.1c0-0.8-0.4-1.5-1.5-1.5c-0.7,0-1.3,0.4-1.7,0.7l-0.3-0.7
			c0.5-0.5,1.3-0.8,2.2-0.8c1.7,0,2.4,1.2,2.4,2.3c0,1.4-1,2.6-2.7,4.2l-0.6,0.6v0h3.5v0.9H98.4z"/>
	</g>
</g>
<g>
</g>
<g>
</g>
<g>
</g>
<g>
</g>
<g>
</g>
</svg>
