<?xml version="1.0" encoding="utf-8"?>
<!-- Generator: Adobe Illustrator 21.0.0, SVG Export Plug-In . SVG Version: 6.00 Build 0)  -->
<svg version="1.1" id="Capa_1" xmlns="http://www.w3.org/2000/svg" xmlns:xlink="http://www.w3.org/1999/xlink" x="0px" y="0px"
	 viewBox="0 0 115.6 108.9" style="enable-background:new 0 0 115.6 108.9;" xml:space="preserve">
<style type="text/css">
	.st0{fill:#FFCB00;}
</style>
<g>
	<g>
		<g>
			<g>
				<path class="st0" d="M114,66c-0.5-1.1-1.1-2.2-2.2-2.8c-0.9-0.5-2-0.7-3.1-0.7c-5-0.3-10-0.3-15,0.1c0,0-2.6,0.8-3.4,1.8
					c-0.8,1-1.2,2.4-1.4,3.7C88,72.4,88,73.9,88,78.3c0,0.8,0,1.6,0.3,2.3c0.3,0.7,0.9,1.4,1.7,1.5c1,0.1,1.9-0.5,2.3-1.4
					c0.4-0.9,0.5-1.8,0.5-2.8c0.1-2.4,0-1.8,0.1-4.2c0.1-1.6,0.2-3.2,1.1-4.5c0.7,0.4,0.8,1.4,0.8,2.2c0.1,8.3,0.1,16.5,0.2,24.8
					c0,3.5,0.1,4.1,0.8,7.5c0.2,1,0.5,1.9,1.2,2.6c0.7,0.7,1.9,1,2.7,0.4c0.5-0.4,0.8-1,0.9-1.7c1.7-6.1,0.9-9.6,1-16
					c0-0.6,0-1.3,0.3-1.8c0.2-0.6,0.6-1,1.4-1.1c0.4,0,0.4,3.8,0.4,5.8c0,3.9-0.1,4.9-0.1,8.8c0,1,0,2,0.3,2.9
					c0.3,0.9,0.9,1.8,1.8,2.2c0.3,0.1,0.6,0.2,0.9,0.1c0.8-0.2,1.2-1,1.4-1.8c1.5-5,1.4-7.3,0.9-12.5c-0.5-5.9-1.4-11.7-1.2-17.6
					c0.1-1.4,0.2-2.7,0.3-4.1c0-0.6,0.2-1.3,0.8-1.4c0.7-0.1,1.1,0.8,1.2,1.5c0.4,3.8-0.1,6,0,9.8c0,0.9,0.1,2,0.7,2.6
					c1,0.9,2.8,0.5,3.6-0.6s0.9-2.5,1-3.8C115.6,73.6,116,70.3,114,66z"/>
			</g>
			<g>
				<path class="st0" d="M93.9,56.4c0.3,0.5,0.7,1,1.1,1.3c1,0.9,2,1.6,3.2,2.1c2.2,1,4.8,1,7.1,0.1c2.2-0.9,4.1-2.8,4.8-5.1
					c0.4-1.4,0.5-2.9,0.3-4.4c-0.1-0.7-0.2-1.5-0.6-2.2c-0.4-0.6-0.9-1.1-1.5-1.5c-2.3-1.8-5.1-3.4-8.1-3l0.3,0
					c-2.5,0.1-4.7,1.7-5.9,3.9s-1.4,4.6-1.2,7.1C93.6,55.3,93.7,55.9,93.9,56.4z"/>
			</g>
		</g>
		<g>
			<g>
				<g>
					<path class="st0" d="M60.8,62.6c0.2,0.5,0.6,0.9,1,1.2c0.9,0.8,1.8,1.4,2.9,1.9c2,0.9,4.4,0.9,6.4,0.1c2-0.8,3.6-2.5,4.3-4.6
						c0.4-1.3,0.4-2.6,0.3-3.9c-0.1-0.7-0.2-1.4-0.5-1.9c-0.3-0.5-0.8-1-1.3-1.4c-2.1-1.6-4.6-3.1-7.2-2.7l0.3,0
						c-2.2,0.1-4.2,1.6-5.3,3.5c-1.1,1.9-1.3,4.2-1.1,6.3C60.5,61.6,60.5,62.1,60.8,62.6z"/>
				</g>
				<g>
					<path class="st0" d="M80.9,80.3c-0.5-1.6-1.7-4.8-2.3-6.1c-0.6-1.3-1.3-2.5-2-3.8c-0.4-0.7-0.8-1.4-1.5-1.9
						c-0.7-0.5-1.7-0.7-2.5-0.8c-3-0.4-6.1-0.5-9.2-0.3c0,0-3.4,1.2-4.6,2.6c-1.2,1.4-1.9,3-2.6,4.7c-1.2,3-1.2,4.1-2,7.2
						c-0.3,1.1-0.5,2.4,0.4,3.2c0.8,0.7,2.1,0.4,2.9-0.4c0.8-0.7,1.1-1.8,1.4-2.8c1.2-3.4,1.6-4.7,3.3-8c0.5,2.3-0.2,4.6-0.9,6.8
						c-1,3.4-1.6,6.8-2.3,10.2c-0.1,0.7-0.3,1.4-0.1,2.1c0.1,0.7,0.6,1.4,1.3,1.6c0.8,0.2,1.9-0.2,2.3,0.5c0.1,0.2,0.1,0.5,0.1,0.7
						c0.1,2.6,0.1,2.3,0,4.9c-0.1,1-0.2,2.1,0,3.1c0.2,1,0.7,2.1,1.6,2.6c0.9,0.6,2.2,0.6,2.9-0.2c0.4-0.5,0.6-1.1,0.7-1.8
						c0.7-3.6,1-4.3,0.7-8c0-0.4-0.1-0.8,0.1-1.2s0.7-0.6,1-0.4c0.1,4,0.2,5,0.4,9c0,0.6,0.1,1.3,0.5,1.8c0.6,0.7,1.6,0.7,2.6,0.7
						c0.6,0,1.2,0,1.6-0.4c0.6-0.5,0.8-1.3,0.9-2.1c0.3-3.5,0.2-4.1-0.4-7.6c-0.1-0.5-0.2-1.1,0.2-1.4c0.2-0.2,0.4-0.2,0.7-0.3
						c0.8-0.2,1.5-0.6,2.1-1.1c0.2-0.1,0.3-0.3,0.4-0.5c0.2-0.4,0-0.8-0.2-1.1c-2.6-5.7-4.1-11.8-4.4-18c0.4-0.2,0.8,0.3,0.9,0.7
						c0.9,3.6,1.2,4.4,2.1,7.9c0.3,1.1,0.7,2.3,1.7,2.6c1.1,0.3,2.3-0.6,2.6-1.7C81.6,82.6,81.3,81.4,80.9,80.3z"/>
				</g>
			</g>
		</g>
	</g>
	<g>
		<g>
			<g>
				<path class="st0" d="M16,19c0.4,0.8,1,1.4,1.7,2c1.4,1.3,3,2.4,4.8,3.2c3.3,1.4,7.2,1.5,10.5,0.2c3.3-1.4,6-4.2,7.1-7.7
					c0.7-2.1,0.7-4.4,0.5-6.6c-0.1-1.1-0.3-2.3-0.9-3.3C39,6,38.2,5.3,37.4,4.6C34,1.9,29.8-0.5,25.5,0.1l0.5,0
					C22.3,0.2,19,2.8,17.3,6s-2.1,7-1.8,10.6C15.5,17.4,15.6,18.3,16,19z"/>
			</g>
			<g>
				<path class="st0" d="M53.1,57.3c-0.9-3-1.8-6-2.7-9.1c-0.8-2.6-1.6-5.3-2.6-7.9c-1-2.5-2.4-4.9-3.7-7.2
					c-0.7-1.3-1.5-2.7-2.8-3.6c-1.4-1-3.1-1.3-4.8-1.5c-5.7-0.7-11.5-0.9-17.2-0.6c0,0-6.3,2.3-8.5,4.9c-2.2,2.6-3.6,5.8-4.8,9
					c-2.2,5.8-4.1,11.7-5.6,17.7c-0.5,2.1-0.9,4.7,0.8,6.1c1.5,1.3,4,0.7,5.4-0.7c1.4-1.4,2.1-3.4,2.7-5.3c2.2-6.6,4.8-13,7.9-19.1
					c1,4.3-0.5,8.8-1.7,13.1c-1.8,6.4-3.1,12.9-4.3,19.5c-0.3,1.3-0.5,2.7-0.3,4c0.2,1.3,1.1,2.6,2.4,3c1.5,0.4,3.5-0.3,4.3,1
					c0.2,0.4,0.3,0.9,0.3,1.3c0.2,5,0.4,10,0.1,15c-0.1,2-0.3,4,0,6c0.3,2,1.3,3.9,2.9,5c1.7,1.1,4.1,1.1,5.5-0.4
					c0.8-0.9,1.1-2.2,1.4-3.4c1.3-6.9,1.7-14,1.2-21c-0.1-0.8-0.1-1.6,0.2-2.3c0.3-0.7,1.2-1.2,1.9-0.8c0.3,7.6,0.5,15.2,0.8,22.8
					c0,1.2,0.1,2.5,0.9,3.5c1.1,1.4,3.1,1.4,4.8,1.4c1.1,0,2.2-0.1,3.1-0.7c1.2-0.9,1.5-2.5,1.6-4c0.6-6.7,0.3-13.5-0.9-20.2
					c-0.2-0.9-0.3-2.1,0.4-2.7c0.3-0.3,0.8-0.4,1.3-0.6c1.4-0.4,2.7-1.1,3.9-2c0.3-0.2,0.6-0.5,0.8-0.9c0.3-0.7,0-1.4-0.3-2.1
					c-4.8-10.8-7.6-22.6-8.2-34.4c0.7-0.5,1.4,0.6,1.6,1.4c1.6,6.8,3.3,13.6,4.9,20.5c0.5,2,1.3,4.4,3.3,5c2.1,0.7,4.3-1.2,4.9-3.3
					C54.4,61.7,53.8,59.4,53.1,57.3z"/>
			</g>
		</g>
	</g>
</g>
</svg>
