<?xml version="1.0" encoding="utf-8"?>
<!-- Generator: Adobe Illustrator 21.0.0, SVG Export Plug-In . SVG Version: 6.00 Build 0)  -->
<svg version="1.1" id="Capa_1" xmlns="http://www.w3.org/2000/svg" xmlns:xlink="http://www.w3.org/1999/xlink" x="0px" y="0px"
	 viewBox="0 0 86.5 89.1" style="enable-background:new 0 0 86.5 89.1;" xml:space="preserve">
<style type="text/css">
	.st0{fill:#FFCB00;}
</style>
<g>
	<g>
		<g>
			<path class="st0" d="M84.3,31.3c-0.7-1.5-1.6-3.1-3.1-3.9c-1.3-0.8-2.9-0.9-4.4-1c-7-0.5-14.1-0.4-21.1,0.1c0,0-3.6,1.1-4.8,2.5
				c-1.2,1.5-1.6,3.3-2,5.1c-1.3,6.1-1.3,8.2-1.2,14.4c0,1.1,0,2.2,0.4,3.3c0.4,1,1.3,2,2.4,2.1c1.3,0.2,2.7-0.8,3.3-2
				c0.6-1.2,0.7-2.6,0.7-3.9c0.1-3.4-0.1-2.6,0.1-6c0.1-2.2,0.2-4.6,1.6-6.3c1,0.6,1.1,1.9,1.1,3c0.1,11.6,0.2,23.2,0.2,34.9
				c0,5,0.1,5.8,1.2,10.6c0.3,1.3,0.7,2.7,1.7,3.7c1,1,2.7,1.4,3.8,0.6c0.7-0.5,1.1-1.5,1.3-2.3c2.4-8.6,1.3-13.5,1.3-22.4
				c0-0.9,0-1.8,0.4-2.6c0.3-0.8,0.8-1.5,2-1.5c0.5,0,0.6,5.4,0.6,8.1c0,5.5-0.1,6.9-0.1,12.4c0,1.4,0,2.8,0.4,4.1
				c0.4,1.3,1.3,2.6,2.6,3.1c0.4,0.2,0.9,0.3,1.3,0.2c1.1-0.2,1.7-1.4,2-2.5c2.1-7,1.9-10.3,1.3-17.6c-0.7-8.2-1.9-16.5-1.6-24.7
				c0.1-1.9,0.2-3.8,0.4-5.7c0.1-0.8,0.3-1.8,1.1-2c1-0.2,1.6,1.1,1.7,2.2c0.6,5.3-0.1,8.5,0,13.8c0,1.3,0.1,2.8,1.1,3.7
				c1.4,1.3,3.9,0.7,5-0.8s1.3-3.5,1.4-5.4C86.5,41.9,87.1,37.3,84.3,31.3z"/>
		</g>
		<g>
			<path class="st0" d="M56,17.7c0.4,0.7,1,1.3,1.6,1.9c1.4,1.2,2.9,2.3,4.6,3c3.1,1.3,6.8,1.4,10,0.2c3.2-1.3,5.7-4,6.7-7.1
				c0.6-2,0.7-4.1,0.5-6.1c-0.1-1.1-0.3-2.1-0.8-3c-0.5-0.9-1.3-1.5-2.1-2.1c-3.2-2.6-7.2-4.8-11.3-4.2l0.5,0
				c-3.5,0.1-6.6,2.5-8.2,5.5s-2,6.5-1.8,9.9C55.6,16.3,55.7,17,56,17.7z"/>
		</g>
	</g>
	<g>
		<g>
			<g>
				<path class="st0" d="M9.4,26.5c0.3,0.7,0.9,1.2,1.4,1.7c1.2,1.1,2.6,2,4.1,2.7c2.8,1.2,6.1,1.3,9,0.1c2.8-1.2,5.1-3.5,6-6.4
					c0.6-1.8,0.6-3.7,0.4-5.5c-0.1-0.9-0.3-1.9-0.7-2.7c-0.5-0.8-1.2-1.4-1.9-1.9c-2.9-2.3-6.5-4.3-10.2-3.8l0.4,0
					c-3.1,0.1-5.9,2.2-7.4,4.9S8.8,21.4,9,24.4C9,25.1,9.1,25.8,9.4,26.5z"/>
			</g>
			<g>
				<path class="st0" d="M37.8,51.4c-0.7-2.2-2.4-6.7-3.2-8.6c-0.8-1.8-1.8-3.6-2.8-5.3c-0.6-1-1.2-2-2.1-2.6
					c-1-0.7-2.3-0.9-3.6-1.1c-4.3-0.5-8.6-0.7-12.9-0.5c0,0-4.8,1.7-6.4,3.6c-1.7,1.9-2.7,4.3-3.6,6.6c-1.7,4.2-1.8,5.7-2.9,10.1
					c-0.4,1.5-0.6,3.4,0.6,4.5c1.1,1,3,0.5,4.1-0.5c1.1-1,1.5-2.5,2-3.9c1.6-4.8,2.3-6.7,4.6-11.2c0.7,3.2-0.3,6.5-1.2,9.6
					C9,56.9,8.1,61.7,7.1,66.6c-0.2,1-0.4,2-0.2,3c0.2,1,0.8,1.9,1.8,2.2c1.1,0.3,2.7-0.2,3.2,0.8c0.2,0.3,0.2,0.6,0.2,1
					c0.1,3.7,0.2,3.2,0,6.9c-0.1,1.5-0.2,3,0,4.4c0.2,1.5,0.9,2.9,2.2,3.7c1.2,0.8,3.1,0.8,4.1-0.3c0.6-0.7,0.9-1.6,1-2.5
					c1-5.1,1.4-6.1,0.9-11.2c0-0.6-0.1-1.2,0.2-1.7c0.3-0.5,0.9-0.9,1.4-0.6c0.2,5.6,0.3,7,0.5,12.6c0,0.9,0.1,1.8,0.7,2.5
					c0.8,1,2.3,1,3.6,1c0.8,0,1.6-0.1,2.3-0.5c0.9-0.6,1.1-1.9,1.2-3c0.4-4.9,0.3-5.8-0.6-10.7c-0.1-0.7-0.2-1.5,0.3-2
					c0.3-0.2,0.6-0.3,0.9-0.4c1.1-0.3,2.1-0.8,2.9-1.5c0.2-0.2,0.5-0.4,0.6-0.6c0.2-0.5,0-1.1-0.2-1.6c-3.6-8-5.7-16.6-6.2-25.3
					c0.5-0.3,1.1,0.4,1.2,1c1.2,5,1.7,6.2,2.9,11.2c0.4,1.5,1,3.2,2.4,3.7c1.6,0.5,3.2-0.9,3.6-2.5C38.7,54.6,38.2,53,37.8,51.4z"/>
			</g>
		</g>
	</g>
</g>
</svg>
