<?xml version="1.0" encoding="utf-8"?>
<!-- Generator: Adobe Illustrator 21.0.0, SVG Export Plug-In . SVG Version: 6.00 Build 0)  -->
<svg version="1.1" id="Capa_1" xmlns="http://www.w3.org/2000/svg" xmlns:xlink="http://www.w3.org/1999/xlink" x="0px" y="0px"
	 viewBox="0 0 329.6 137.7" style="enable-background:new 0 0 329.6 137.7;" xml:space="preserve">
<style type="text/css">
	.st0{fill:#6E4012;}
	.st1{fill:#FFC900;}
	.st2{fill:#FFFFFF;}
	.st3{fill:#BBBABA;}
	.st4{fill:#FF0000;}
</style>
<g>
	<path class="st0" d="M316.6,45.9c5.2,0.1,9.6,4.2,10.1,9.4c1.7,17.5,3.1,32.3,2.8,51.2c0,1.8-0.1,3.8-0.8,5.3
		c-0.7,1.5-2,2.2-3.1,2.8c-7.5,3.5-15.4,4.4-23.2,4.9c-25,1.8-50.1,0.6-75.2,1.3c-24.3,0.7-48.6,3.2-72.9,2.2
		c-37.1-1.5-79.9-2.5-117,0.2c-0.4,0,7.6-52.7,8-56.7c0.4-4.7,0.1-14.9,2.3-18.6c2.5-4.1,9.7-1.9,13-1.9c21.4-0.2,42.9-0.4,64.3-0.8
		c43.2-0.7,86.3-1.6,129.5-2.9C275.5,41.8,295.7,45.6,316.6,45.9z"/>
	<g>
		<path class="st1" d="M84.9,60.1h0.2c0.1,0,0.4,0.1,0.9,0.2c1.1,0,1.8,0.1,2,0.4c0.4,0.4,0.5,0.7,0.5,0.8c0,0.2-0.3,0.3-0.8,0.4
			l-1.2-0.1c-0.1,0.1-0.2,0.1-0.3,0.2v0.8c0,0.4,0,0.8,0.1,1.1l0,1v0.1l0,0.5l0,0.4l0,0.4v0.4l0,0.8l0,0.6l-0.1,0.6
			c0.1,1.5,0.2,2.6,0.2,3.1c0.1,0.3,0.1,0.7,0.1,1.3c0,0,0.1,0.1,0.1,0.4l0,0.5l0.1,2l0,0.2l-0.1,1.9l0,0.1l0.1,0.4l0.1,2.9
			c0,0.2-0.2,0.4-0.5,0.6h-0.1c-0.3,0-0.6-0.3-1-0.6c0-0.1-0.1-0.2-0.2-0.4v-0.7l-0.1-1.1l0-0.5c-0.1-0.5-0.1-0.8-0.1-1.2
			c0.1-0.4,0.1-1.1,0.1-2.1l-0.1-1.3l0-0.5v-0.4c-0.1-1.2-0.2-2-0.3-2.3l0-2.2l0.1-1v-0.7l0-0.9c0-0.2,0.1-0.3,0.1-0.6l-0.1-0.9
			v-0.4c0-1.9-0.1-2.8-0.2-2.8c-0.1-0.1-0.2-0.2-0.2-0.2l-0.2,0c-0.4,0-0.9-0.2-1.3-0.6c-0.1-0.2-0.2-0.3-0.2-0.4v-0.1
			c0.1-0.4,0.4-0.5,0.8-0.5h0.2l0.5,0.1h0.4L84.9,60.1z"/>
		<path class="st1" d="M94.8,60.1h0.1c0.3,0,0.5,0.3,0.8,0.8l0.1,0.3l0,0.5l0.1,0.4l0,0.4l0,0.6l0,0.5l0,0.4l-0.1,0.4
			c0.1,0.2,0.1,0.7,0.2,1.5c0.1,0.6,0.2,1.5,0.3,2.8l0,0.5l0,0.3c0,0.8-0.1,1.4-0.2,1.7l0,0.3l0,0.5l0,0.9l0,0.4l0.1,0.4l0,0.5
			l0,0.6l-0.1,1.7l0,0.1c0,0.6,0.1,1.2,0.2,1.7c0.1,1,0.2,1.5,0.2,1.7v0.1l-0.1,1.3v0.8c0,0.3-0.1,0.5-0.4,0.6h0v0l0,0h-0.2l0,0h0v0
			c-0.3-0.1-0.6-0.3-0.9-0.7c-0.1-0.1-0.2-0.5-0.2-1l0-0.5v-0.3c0-0.4-0.1-1.3-0.3-2.7L94.2,77v-0.7l0.1-0.6c0-0.2,0-0.4,0-0.6v-1.6
			c0-0.6-0.2-0.9-0.5-0.9c-0.3,0-0.4,0-0.4,0l0,0h0c-0.6-0.1-1.1-0.1-1.5-0.1c-0.4,0-0.7,0.1-0.7,0.3v0.1l0.1,0.8l0,0.4l0,0.6
			c0,0.3,0,0.6-0.1,0.7l0,0v0l-0.1,0.4v0.1c0.2,1.3,0.2,2,0.2,2.3l-0.1,0.4l0.1,1.1v0.1l0,0.1l0,0l0,0.1v0.1l0,0.1h0l-0.1,0.2l0,0.4
			l-0.1,0.5l0,1.1v0c0,0.2-0.2,0.4-0.5,0.5h-0.2c-0.3-0.1-0.6-0.3-0.9-0.7c-0.1-0.2-0.2-0.5-0.2-1l0.1-1.5v-0.1l0-0.6v-1.1l0-0.5
			v-0.1L89.4,77h0c0-0.1-0.1-0.4-0.1-1v-0.1c0.1-0.4,0.1-1,0.1-1.8l0,0v0l0,0l0-0.3v-0.5l0,0l0,0c-0.1-0.5-0.2-1-0.2-1.4v0l0,0l0,0
			v0l-0.1-0.4l0.1-0.2h0l0.1-0.3v-0.3l0-0.2l0.1-0.9v-0.1l0,0l0,0c0.1-0.5,0.2-0.7,0.2-0.8l0,0l0-0.1l0-0.2h0l0,0v-0.1l0,0l0,0v-0.6
			c0-0.2,0-0.5,0.1-0.8l-0.1-0.6l0.1-0.8l-0.1-0.5l0.1-0.6v-1.5l0.1-0.8v-0.4c0.2-0.5,0.4-0.7,0.8-0.7c0.5,0,0.8,0.3,1,0.9v0.2
			c0,0.2,0,0.4-0.1,0.7h0l0,0.1l0,0.7l0,0.6l-0.1,1.4l0,0.2l0,0.7l0,0.2l0,0.1l0.1,0.7l-0.1,0.7l0.1,0.5l-0.1,0.4h0l-0.1,1.1
			c-0.1,0-0.1,0.2-0.1,0.5v0.2c0,0.3,0.3,0.4,0.8,0.4v0l0,0h0c0.3,0,1,0.1,2,0.2c0.2,0,0.3-0.1,0.4-0.3l0-0.3l0.1-1.4l-0.1-1.6
			c-0.2-0.9-0.3-1.8-0.3-2.5c0,0-0.1-0.1-0.1-0.3v-1l0-0.7l0-0.7v-0.3L94,61.3c0-0.6,0.1-0.9,0.3-0.9C94.4,60.2,94.6,60.1,94.8,60.1
			z"/>
		<path class="st1" d="M98.8,60.6h0.7c0.6,0,1.2,0,1.8,0.1v0c0.5,0.1,0.9,0.1,1.1,0.2c0.4,0.1,0.6,0.2,0.6,0.4
			c0.1,0.2,0.2,0.3,0.3,0.4V62c-0.1,0.2-0.4,0.3-0.8,0.3c-0.9-0.1-1.6-0.2-2.1-0.2h-0.4c-0.5,0-0.7,0.1-0.7,0.4
			c0,1.6,0.1,2.6,0.2,3.1l0.1,1l-0.1,1l0,0.2c-0.1,0.7-0.2,1.2-0.2,1.5c0,0.5,0.2,0.8,0.5,0.8c0,0,0.2,0.1,0.7,0.1
			c0.5,0,1,0.1,1.5,0.3c0.4,0.3,0.7,0.6,0.7,0.9c0,0.2-0.2,0.4-0.5,0.4c-0.7-0.1-1.5-0.2-2.5-0.3c-0.2,0-0.3,0.2-0.3,0.6l-0.1,0.9
			l0,0.1l0,0.3l0.1,0.7v0.4l-0.1,0.9h0l-0.2,0.9h0l-0.1,0.4l0.1,0.3l0,0c0.1,0.2,0.1,0.3,0.1,0.5V78l0,0.8l-0.1,0.5
			c0,1.1,0.1,1.7,0.3,1.7c0,0.1,0.8,0.2,2.5,0.2c0.4,0.1,0.7,0.3,0.9,0.5c0.2,0.2,0.2,0.4,0.2,0.5c0,0.4-0.3,0.6-0.9,0.6h-0.2
			c-0.3,0-0.6,0-0.8-0.1l0,0h0c-1.1,0-1.9-0.2-2.3-0.3c-0.4-0.2-0.7-0.4-0.9-0.7c-0.3-0.4-0.4-0.8-0.4-1.2l0-1.4l0.1-1.2
			c-0.1-0.3-0.1-0.8-0.2-1.6c0.1-0.4,0.2-0.6,0.2-0.8l0.1-0.9v-0.4l-0.1-0.7v-0.9l0.1-0.6V71l-0.2-0.9l0-0.4l0-0.5
			c0.1-0.6,0.1-1.2,0.2-1.8v0l-0.1-1.7h0c-0.1-0.5-0.2-1.2-0.2-2.3h0l0,0v-0.7l0,0l0,0v0l0.1-0.3l0-0.5c0-0.6,0.1-0.9,0.3-0.9
			C98.1,60.7,98.4,60.6,98.8,60.6z"/>
		<path class="st2" d="M113.7,60.1l0.2,0c0.6,0,1.4,0.3,2.4,0.7c0.5,0.2,0.9,0.6,1.4,1.1c0.2,0.3,0.4,0.5,0.5,0.8
			c0.1,0.1,0.1,0.6,0.2,1.3v0l-0.1,0.8l0,0.3c0,0.4-0.1,0.8-0.1,1.1l0,1.1l0,0.3c0.1,0.5,0.1,1.3,0.1,2.1l0,0.1l-0.1,0.9
			c0,0.1,0,0.5,0,1.4v0.1l-0.1,0.5l0.2,2.1l0,0.2l-0.2,0.9c0.1,0.4,0.1,1.2,0.1,2.2l-0.1,0.8l0,0.1l0,1.1c0,0.3-0.2,0.9-0.5,1.8
			c-0.2,0.2-0.4,0.4-0.7,0.7c-0.6,0.4-1,0.5-1.3,0.5c-0.1,0.1-0.6,0.1-1.7,0.1c0,0-0.1,0-0.2,0v0c-0.2,0-0.3,0.1-0.5,0.1
			c-0.3,0-0.5-0.2-0.8-0.6c-0.2-0.3-0.4-0.6-0.3-0.7c0.1-0.5,0.2-1,0.3-1.3c-0.1-0.2-0.1-0.3-0.1-0.4l0-0.8c0-0.4,0-0.6,0-0.6l0-0.1
			l0-0.8c0-1,0-1.7-0.1-2l0-0.3c0-0.7,0-1.2-0.1-1.8l0-0.2v-0.8l0.1-0.4c0-0.2-0.1-0.9-0.1-2.2l0.1-1.5l0.1-2.2l-0.1-1.1l0.1-0.5
			c-0.1-0.3-0.2-0.9-0.2-1.9c0,0,0-0.4,0-1.1c-0.3-0.5-0.5-0.8-0.6-1c0.2-0.5,0.5-0.7,0.8-0.7L113.7,60.1z M114,62.4
			c0,0.7,0,1.2,0.1,1.6l-0.1,0.4c0.1,0.2,0.1,0.9,0.1,1.9c0,0.4,0.1,0.9,0,1.4l0,0.4l0,0.3l-0.1,0.7l0,0.2L114,70l0.1,0.8l0,0.3
			l0,1.6l-0.1,0.6L114,74l-0.1,0.4l0.1,0.6l0,0.2v0.2l0.1,2.2l-0.1,1v0.1l0.1,2.2l0,0.3c0,0.3,0.1,0.4,0.3,0.4l0.2,0
			c0.5,0,0.9-0.1,1.3-0.5c0.2-0.1,0.3-0.7,0.4-1.6l0-0.1l-0.1-0.5l0.1-1.7l0-0.8l0-0.3l0-0.3l0.1-0.5v-0.1c0-0.4,0-0.9-0.1-1.5
			l0-0.3l0-0.7l0-0.9l0-0.6l0.1-0.4l-0.1-2.4l0-0.3l0-0.4l0-0.8l0-0.3l0-0.3l0.1-0.7v-0.1l0.1-0.5l0-0.4l0-0.5c0-0.4,0-0.8-0.2-1.2
			c-0.3-0.5-0.8-0.7-1.6-0.7c-0.5,0-0.7,0.1-0.7,0.4L114,62.4z"/>
		<path class="st2" d="M120.3,60.6l0.7,0h0.6c0.3,0,0.5,0,0.8,0.1v0c0.7,0.1,1.3,0.3,1.7,0.5c0.8,0.5,1.2,1,1.4,1.4l0,0.7v0.5l0,1.1
			c-0.1,0.1-0.1,0.3-0.1,0.5v0.2c0.1,0.2,0.1,0.5,0.1,1c0,0.3-0.1,0.7-0.2,1.1v0.3c0,0.2,0,0.4,0.1,0.6l0,0v0l0,0.4l0,0.6
			c0,0.4-0.1,0.8-0.2,1.2c0,0.4-0.1,0.7-0.1,0.8h0c-0.3,0.3-0.6,0.6-0.8,0.8c0,0.1,0,0.1-0.1,0.2l0,0v0L124,73
			c0,0.1,0.3,0.7,0.8,1.6c0.5,1.5,0.7,2.3,0.7,2.4v0.4l-0.1,0.6l0,0.4l-0.1,0.5v0.2l0.1,0.6v0l0,0.1l0.1,0.4l-0.1,0.5v0l0,1
			c0,0.2,0.1,0.6,0.2,1.2l0.1,0.4v0c-0.1,0.3-0.2,0.4-0.4,0.4h-0.1l0,0h0l-0.1,0c-0.4,0-0.8-0.4-1.3-1.2c-0.1-0.2-0.2-0.8-0.2-1.7v0
			l0-0.5v-0.6l-0.1-0.7l0.1-1.7c0-0.5-0.2-1.3-0.6-2.4c-0.2-0.7-0.4-1-0.7-1h-0.5c-0.3,0-0.4,0.2-0.5,0.5v0.1l0.1,0.9l0,0.6
			l-0.1,0.8v0.4l0,0l-0.1,0.4l0,0.3c0,0.7,0,1.3,0,1.7l0.1,0.6l0,0.6l0,0.7l0,0l0,0l0,0.3c-0.1,0.8-0.3,1.2-0.5,1.2h-0.2
			c-0.2,0-0.4-0.2-0.7-0.4c-0.3-0.3-0.4-0.5-0.4-0.7v-0.1l0-1.1l-0.1-0.5v-0.3l0-0.8l0-0.3l0-0.3l-0.1-0.6l0.2-1.9l-0.2-1
			c0-0.4,0-0.9,0.1-1.6l0-1.2l0.1-0.5l0-0.3l0-0.7l0-0.3v-0.1l0-0.2c0-0.5-0.1-1.2-0.2-2.2l0.1-0.6l0-0.7c-0.1-0.5-0.1-1-0.2-1.7
			l-0.1-1.5l0-0.6l0-0.4c0-1,0.1-1.4,0.2-1.4C119.8,60.8,120,60.6,120.3,60.6z M121.2,62.5l0.1,1.3v0.5l0.1,1.7l0,0.7
			c0.1,0.1,0.1,0.9,0.1,2.3c0.1,0.3,0.1,0.5,0.1,0.7l0,0.5l0.1,0.5v0.1l-0.1,0.6c0,0.3,0.1,0.5,0.3,0.5h0.1c0.4,0,0.8-0.3,1.3-0.8
			c0.2-0.5,0.2-0.9,0.2-1.3v0l0,0l0,0v0c0.1-0.1,0.1-0.6,0.1-1.4l0-0.7l0.1-0.8l0-0.5l0-1.5l-0.2-0.4l0.2-1v-0.2
			c0-0.3-0.1-0.5-0.2-0.8c-0.2-0.2-0.6-0.3-1.4-0.3H122C121.5,62.2,121.2,62.3,121.2,62.5z"/>
		<path class="st2" d="M128,60.6c0.3,0,0.5,0.2,0.7,0.6c0.1,0.1,0.2,0.3,0.2,0.8h0c0.1,0.2,0.1,0.3,0.1,0.5v0.3l-0.1,0.5v0.4
			c-0.1,0.3-0.1,0.6-0.1,1c0.1,0.3,0.1,0.6,0.1,1l0,0.1h0l0,0.2l0,0.2v0.1l-0.1,1.2c0,0.3,0,0.6,0,0.9l0,0c0,0.2,0.1,0.4,0.2,0.7h0
			c0.1,0.1,0.1,0.4,0.1,0.8l0,0.3l0.1,0.5l-0.1,2.2l0,1.3l0,0.2c0,0.1,0,0.3,0,0.5v0.3c0,0.2,0,0.3,0.1,0.4l0,0l0,1.2V77l0,0v0h0
			c0.1,0.2,0.2,0.6,0.2,1.4c0,0.6-0.1,1-0.1,1.2l0.1,1.2l0,0.2v0.3l0,0.4c0,0.3-0.2,0.6-0.5,0.8h-0.1c-0.5-0.1-0.7-0.2-0.7-0.3
			l0-0.1c-0.3-0.3-0.5-0.5-0.5-0.6v-0.6l0-0.7l0-0.4l0-1.3v-0.3c0-0.3-0.1-1.2-0.3-2.6l-0.1-0.9v-0.1l0,0l0,0v-0.7l0-0.8l0-0.7
			l0-0.3l0,0v-0.6l0.1-0.7c-0.1-1-0.2-1.7-0.3-2.1l0-0.1h0c-0.1-0.2-0.1-0.7-0.1-1.3h0l0,0v-0.4l0,0l0,0c0.1-0.7,0.1-1.4,0.1-1.9
			l0,0c0.1-0.8,0.2-1.2,0.2-1.3v-0.1l0-0.2l0-0.7l0.1-1.3c0-0.2,0.2-0.4,0.5-0.6l0,0h0l0.1,0L128,60.6z M127.3,79.1L127.3,79.1
			L127.3,79.1l0.2,0L127.3,79.1L127.3,79.1z M128.5,82.7L128.5,82.7c0.1-0.2,0.2-0.2,0.3-0.2c0.2,0,0.2,0.1,0.2,0.2
			c0,0.1-0.1,0.2-0.3,0.2C128.6,82.8,128.5,82.8,128.5,82.7z M128.9,83.8L128.9,83.8c0-0.1,0.1-0.1,0.2-0.2h0c0.2,0,0.2,0.1,0.2,0.2
			v0l-0.1,0.1h-0.1C129,84,128.9,83.9,128.9,83.8z M129.1,77.8L129.1,77.8l0.2,0l0,0l0,0.1L129.1,77.8L129.1,77.8z M129.5,82.5
			L129.5,82.5c0-0.1,0.1-0.1,0.2-0.1c0.2,0,0.2,0.1,0.2,0.2l-0.1,0.1h-0.2C129.5,82.6,129.5,82.6,129.5,82.5z M129.6,81.2l0.2-0.1h0
			c0.2,0,0.3,0.1,0.3,0.2c0,0.1-0.1,0.1-0.2,0.2h-0.2C129.7,81.5,129.6,81.4,129.6,81.2z M129.9,79.2L129.9,79.2l0.1-0.1h0l0.1,0.1
			v0l-0.1,0.1L129.9,79.2L129.9,79.2z M129.9,83.6L129.9,83.6c0-0.2,0.1-0.2,0.2-0.2s0.2,0.1,0.3,0.2c0,0.1-0.1,0.1-0.2,0.1h-0.2
			L129.9,83.6z M130.4,77.5L130.4,77.5l0.1-0.1h0c0.1,0,0.2,0,0.2,0.1l-0.1,0.1h-0.1L130.4,77.5z M131.8,77.9L131.8,77.9L131.8,77.9
			h0.1v0L131.8,77.9L131.8,77.9z"/>
		<path class="st2" d="M131.3,60.7c0.1,0,0.4,0.1,0.8,0.3c0.2,0,0.6,0.3,1,1l0.4,1.3h0l0.3,1.2c0.2,0.5,0.4,1.1,0.5,1.7
			c0.2,0.8,0.3,1.4,0.4,1.6c0.3,0.9,0.4,1.3,0.6,1.3c0.1,0,0.2-0.3,0.3-0.9l0.1-0.2l0-0.4v-0.3l0-0.6l0-0.2l-0.1-1.8l0.1-1.2
			l-0.1-1.6l0-0.3l0-0.1c0.2-0.4,0.3-0.6,0.5-0.6l0.2,0l0.3,0c0.2,0,0.5,0.4,0.9,0.9l0,0.1l0,0c0.1,0.3,0.1,0.8,0.1,1.3
			c0,0.8,0,1.4-0.1,1.7l0,1.1v0.2l0.1,1.7l-0.1,0.6l0.1,0.4l-0.1,0.6h0l-0.2,2h0l-0.1,0.3v0.1l0.1,0.4v0.1l-0.1,0.5l0.2,1.3
			c0,0.4,0.1,0.8,0.2,1.3v0.1c0,0.4-0.1,0.8-0.2,1.2l0,0.4v0.3l-0.4,1.1c0,0.2,0,0.3,0.1,0.5l0,0l0.1,1.2l0,0.7l0,0.4
			c-0.1,0.6-0.2,0.9-0.3,0.9c0,0.1-0.1,0.1-0.4,0.1c-0.2,0-0.5-0.1-0.7-0.4c-0.2-0.1-0.3-0.3-0.3-0.5c-0.1-0.1-0.1-0.2-0.1-0.3
			l0.1-0.4c0-0.1,0-0.3-0.1-0.4l0-0.2V80l0-0.4h0l-0.2-1.3v-0.1l0-0.5l-0.2-1.1l-0.1-0.1h0l-0.2-0.7h0l-0.2-0.8l0,0
			c0-0.4-0.1-0.8-0.2-1.1h0l-0.2-0.7h0c-0.2-0.6-0.3-1.2-0.4-1.8l-0.4-1.9c-0.3-1.3-0.5-1.9-0.7-1.9h-0.1c-0.1,0.1-0.2,0.3-0.2,0.4
			v0.2l-0.1,1.5v0.2l0,0.4l0,0.2l0,0.5l-0.1,0.5l0.2,1.5v1c0,1,0.1,1.7,0.2,2l0,0.2v0.4l0,0.2l-0.1,1c0.1,0.4,0.1,0.7,0.1,0.9
			c0,0.2-0.1,0.6-0.2,1.1v0.4l0,0.2l-0.2,1l0,0v0.5l0.1,0.6c0,0.2-0.1,0.3-0.4,0.5l-0.1,0l-0.5-0.2c-0.6-0.4-0.9-0.9-0.9-1.4
			c0.1-0.3,0.1-0.9,0.2-1.8c0,0,0.1-0.3,0.1-1v-0.6l0,0l0,0l-0.1-0.5v-0.2l0.1-0.6h0l0,0v-0.2l-0.3-2.9l0.1-0.5
			c0-0.2-0.1-0.7-0.2-1.4l0-0.3l0-0.2v0l0,0l0.1-0.6v-0.4l0-1.4l0.2-1.5v-0.3l0.1-0.6l-0.1-0.4l0.1-0.4l-0.2-1.2v-0.3l-0.1-1.7
			l0-0.2l0-0.7C130.4,60.9,130.7,60.8,131.3,60.7z"/>
		<path class="st2" d="M139.8,60.4c0.1,0,0.3,0.2,0.5,0.5c0,0,0.1,0.1,0.2,0.2l0.1,1l-0.1,1l0,0.2l-0.1,1.7c0.1,0.3,0.2,0.8,0.2,1.7
			v0c0,0.1,0.1,0.1,0.2,0.2h0c0.2,0,0.3-0.2,0.5-0.6c0.5-0.9,0.7-1.5,0.7-1.7c0.3-0.5,0.5-0.9,0.5-1.2l0.3-1l0.5-1.4
			c0.2-0.2,0.4-0.3,0.6-0.3h0.2c0.3,0,0.6,0.3,0.9,1v0.2c-0.2,0.6-0.4,1-0.6,1.4c-0.3,0.8-0.5,1.5-0.7,2c-0.1,0.5-0.3,0.9-0.4,1.2
			l-0.6,1.4c-0.1,0.1-0.3,0.5-0.4,1l-0.2,0.8h0l0,0v0.3l0,0v0h0c0.3,0.7,0.5,1.3,0.6,1.7l0.5,1.2c0.4,0.9,0.8,1.9,1.2,3
			c0.2,1.4,0.5,2.5,0.7,3.2l0.2,1.3c0.3,0.5,0.4,1,0.2,1.5c-0.1,0.4-0.3,0.5-0.5,0.5h0c-0.4-0.1-0.6-0.2-0.8-0.4
			c-0.2-0.5-0.4-1-0.5-1.4l-0.2-1h0c-0.1-0.6-0.3-1.3-0.7-2.1c-0.1-0.3-0.2-0.8-0.2-1.4c-0.3-1-0.6-2-1-2.9c-0.3-0.7-0.5-1-0.6-1h0
			c-0.2,0-0.3,0.3-0.3,1l0,0.6l0,0.3l0.1,1.9l0,4.9c0.1,0.6,0.1,1,0.1,1.3v0.2c-0.1,0.2-0.3,0.4-0.6,0.4l0,0h0
			c-0.3-0.1-0.6-0.2-0.8-0.4c-0.4-0.4-0.6-0.8-0.6-1.2l0.1-1.2l0-0.7v-0.5c0-0.3,0.1-0.7,0.1-1.3l-0.1-0.6l0.1-0.5l0-1V75l0-1.1
			v-0.2l0.1-1.5l0-0.3l0-0.5v-0.1l-0.1-0.7v-0.5l0-0.8l0.1-1.1l-0.1-0.4v-0.8l0-0.5l-0.1-0.6l0-0.4l0-0.6l0-0.6v-0.2l0-0.1l0-0.1
			v-1.2c0.1-1.2,0.2-1.8,0.2-1.8C139.1,60.5,139.4,60.4,139.8,60.4z M141.1,83.7L141.1,83.7v0.2V83.7L141.1,83.7L141.1,83.7z
			 M141.2,78.1L141.2,78.1l0,0.1l0,0.1l-0.1-0.1L141.2,78.1z M142.6,82.7l0.2,0.1l0.1,0.1l0,0.1l-0.2,0.3l-0.4-0.1l-0.1-0.1l0-0.2
			L142.6,82.7z M145.1,84.4l0.2,0.1c0,0.1,0,0.2,0,0.4c-0.1,0.1-0.2,0.1-0.5,0.1c-0.1-0.2-0.2-0.3-0.1-0.4L145.1,84.4z M145.7,80.5
			L145.7,80.5l0.2,0.2l-0.2,0.1l-0.1,0L145.7,80.5z M146.6,83.6h0.4v0.2h-0.4V83.6z"/>
		<path class="st2" d="M148.9,60.2c0.8,0,1.6,0.5,2.3,1.5c0.1,0.2,0.3,0.6,0.5,1.2l0,0l0.2,1.4c-0.1,1.2-0.1,1.8-0.2,1.8h0
			c-0.1,0.5-0.2,0.8-0.4,0.9c-0.1,0.2-0.2,0.3-0.2,0.3l-0.1,0l0,0h0l-0.2,0.1c-0.6-0.2-0.9-0.6-0.9-1.1l0-0.3h0
			c0.2-0.3,0.3-0.6,0.3-0.7v-0.6l0-0.5c0-0.4-0.1-1-0.3-1.8h0c-0.1-0.5-0.3-0.7-0.5-0.7h0c-0.4,0-0.6,0.1-0.7,0.4l-0.1,0.5h0
			c-0.1,0.3-0.2,0.7-0.2,1.3h0c-0.1,0.2-0.1,0.5-0.1,1l0.1,0.4l0,0.9c0,0.7,0,1.2,0.1,1.5l0,0l0,0.6l0,0.1c0,0.2,0.1,0.5,0.2,0.9h0
			c0.1,0.3,0.2,0.6,0.5,1c0,0,0.5,0.5,1.5,1.2l0.6,0.6c0.6,0.7,0.9,1.3,0.9,1.9l0.1,0.4h0l0,0l0,0.3v0.7l0.1,0.6l0,0.3l0.1,0.8
			l-0.2,1.4V79l-0.1,1.5l0,0.1h0c-0.1,0.5-0.3,0.8-0.6,1.1c-0.1,0.3-0.2,0.5-0.5,0.8c-0.6,0.5-1.1,0.8-1.4,0.8l-0.2,0.1v0l0,0h0
			c-1,0-1.9-0.6-2.6-1.9c-0.2-0.8-0.4-1.7-0.6-2.8l0,0l0-0.3l0-0.1h0c0.1-0.2,0.1-0.4,0.1-0.8l0-1c0-0.2,0.1-0.4,0.2-0.6l0-0.2
			c0-0.1,0.1-0.1,0.2-0.2l0.2,0c0.1-0.1,0.3-0.1,0.4-0.1c0.1,0,0.2,0.1,0.4,0.3l0.3,0.4c0.1,0.3,0.2,0.5,0.2,0.7l-0.1,0.6l0,0.2l0,1
			c0.1,0.5,0.1,0.7,0.1,0.8h0c0.1,0.3,0.2,0.5,0.2,0.8h0c0.1,0.5,0.2,0.8,0.2,1h0c0.1,0.3,0.2,0.5,0.5,0.5c0.2,0,0.5-0.2,0.8-0.6
			c0.3-0.6,0.5-0.9,0.5-1.1c0-0.3,0.1-0.7,0.2-1l0,0v-0.6l0,0l0,0c0-0.6,0.1-1.1,0.1-1.5l-0.1-0.6v-0.4l0,0c-0.1,0-0.1-0.4-0.1-1.2
			c0-0.4-0.2-1-0.5-1.8c-0.3-0.4-0.7-0.8-1.4-1.2c-0.8-0.7-1.3-1.2-1.4-1.6l-0.2-0.5v-0.2c-0.1-0.5-0.2-1-0.2-1.6
			c0,0-0.1-0.1-0.1-0.4V67l0-0.6l0-0.6v-0.2l0.1-0.8l0-0.3l0-0.6v-0.6c0-0.2,0-0.3,0.1-0.4l0,0c0.2-0.9,0.3-1.4,0.5-1.7
			c0.2-0.2,0.6-0.5,1.2-0.8C148.2,60.4,148.5,60.3,148.9,60.2z"/>
		<path class="st2" d="M157.6,59.8c0.3,0,0.5,0.3,0.7,0.8c0,0,0.1,0.1,0.1,0.2c-0.3,0.6-0.4,1.1-0.4,1.6c-0.2,0.7-0.3,1.2-0.3,1.4
			v0.7l-0.1,0.8l0,0v0l-0.2,0.6v0.5c-0.1,0.5,0,0.3,0.2-0.8c0,0.2-0.1,0.8-0.3,1.7l-0.2,1.2v0.9c0,0.3-0.1,0.7-0.2,1.2
			c0,0.3,0,0.6-0.1,0.8c-0.1,0.9-0.2,1.6-0.3,2.1c0,0,0,0.1-0.1,0.2h0c-0.1,0.4-0.1,0.7-0.2,1.1v0.4l0,0c-0.1,0.5-0.2,0.7-0.2,0.8
			v0.2l0,0v0h0l-0.2,0.5h0c-0.1,0.1-0.1,0.4-0.2,0.7c-0.2,0.4-0.3,0.7-0.3,0.9v0.2l0.1,0.4h0l0,0v0.3l0,0v0h0
			c-0.3,0.7-0.4,1.3-0.4,1.8h0l0,0c-0.1,0,0-0.2,0-0.5c-0.2,0.8-0.3,1.3-0.4,1.3c-0.1,0.1-0.2,0.5-0.2,1.1c-0.1,0.3-0.2,0.6-0.2,1.1
			c-0.1,0.6-0.3,0.9-0.4,0.9c-0.1,0.1-0.1,0.1-0.2,0.1h-0.1c-0.2,0-0.5-0.2-0.9-0.5c-0.2-0.2-0.3-0.4-0.3-0.5v-0.1l0.2-0.6
			c0.1-0.7,0.2-1.3,0.3-1.7c0.3-0.6,0.4-1,0.4-1.2c-0.1,0.3-0.1,0.2,0.1-0.3h0c0.1-0.2,0.1-0.4,0.1-0.6l0-0.4l0.5-1.7
			c0-0.1,0.1-0.5,0.3-1.1c0.1-0.3,0.1-0.8,0.2-1.6l0.1-0.5h0c0.1-0.3,0.2-0.6,0.2-1l0.3-1.4v-0.2l0-0.3l0.4-1.9l0.1-0.6v-0.2
			c0-0.7,0.1-1.1,0.2-1.4c0.1-0.4,0.2-1,0.3-1.5c0.1-0.2,0,0.2-0.2,1c0.1-0.1,0.1-0.3,0.1-0.4v-0.1l0-0.1c0.1-0.5,0.2-1.1,0.3-1.8
			c0.1-0.2,0.1-0.7,0.1-1.3l0.1-0.2h0c0.1-0.4,0.1-0.7,0.2-1h0l0.2-0.8l0.3-0.8c0.3-0.3,0.5-0.4,0.6-0.4L157.6,59.8z"/>
		<path class="st2" d="M162.1,60.2c0.8,0,1.6,0.5,2.3,1.5c0.1,0.2,0.3,0.6,0.5,1.2l0,0l0.2,1.4c-0.1,1.2-0.1,1.8-0.2,1.8h0
			c-0.1,0.5-0.2,0.8-0.4,0.9c-0.1,0.2-0.2,0.3-0.2,0.3l-0.1,0l0,0h0l-0.2,0.1c-0.6-0.2-0.9-0.6-0.9-1.1l0-0.3h0
			c0.2-0.3,0.3-0.6,0.3-0.7v-0.6l0-0.5c0-0.4-0.1-1-0.3-1.8h0c-0.1-0.5-0.3-0.7-0.5-0.7h0c-0.4,0-0.6,0.1-0.7,0.4l-0.1,0.5h0
			c-0.1,0.3-0.2,0.7-0.2,1.3h0c-0.1,0.2-0.1,0.5-0.1,1l0.1,0.4l0,0.9c0,0.7,0,1.2,0.1,1.5l0,0l0,0.6l0,0.1c0,0.2,0.1,0.5,0.2,0.9h0
			c0.1,0.3,0.2,0.6,0.5,1c0,0,0.5,0.5,1.5,1.2l0.6,0.6c0.6,0.7,0.9,1.3,0.9,1.9l0.1,0.4h0l0,0l0,0.3v0.7l0.1,0.6l0,0.3l0.1,0.8
			l-0.2,1.4V79l-0.1,1.5l0,0.1h0c-0.1,0.5-0.3,0.8-0.6,1.1c-0.1,0.3-0.2,0.5-0.5,0.8c-0.6,0.5-1.1,0.8-1.4,0.8l-0.2,0.1v0l0,0h0
			c-1,0-1.9-0.6-2.6-1.9c-0.2-0.8-0.4-1.7-0.6-2.8l0,0l0-0.3l0-0.1h0c0.1-0.2,0.1-0.4,0.1-0.8l0-1c0-0.2,0.1-0.4,0.2-0.6l0-0.2
			c0-0.1,0.1-0.1,0.2-0.2l0.2,0c0.1-0.1,0.3-0.1,0.4-0.1c0.1,0,0.2,0.1,0.4,0.3l0.3,0.4c0.1,0.3,0.2,0.5,0.2,0.7l-0.1,0.6l0,0.2l0,1
			c0.1,0.5,0.1,0.7,0.1,0.8h0c0.1,0.3,0.2,0.5,0.2,0.8h0c0.1,0.5,0.2,0.8,0.2,1h0c0.1,0.3,0.2,0.5,0.5,0.5c0.2,0,0.5-0.2,0.8-0.6
			c0.3-0.6,0.5-0.9,0.5-1.1c0-0.3,0.1-0.7,0.2-1l0,0v-0.6l0,0l0,0c0-0.6,0.1-1.1,0.1-1.5l-0.1-0.6v-0.4l0,0c-0.1,0-0.1-0.4-0.1-1.2
			c0-0.4-0.2-1-0.5-1.8c-0.3-0.4-0.7-0.8-1.4-1.2c-0.8-0.7-1.3-1.2-1.4-1.6l-0.2-0.5v-0.2c-0.1-0.5-0.2-1-0.2-1.6
			c0,0-0.1-0.1-0.1-0.4V67l0-0.6l0-0.6v-0.2l0.1-0.8l0-0.3l0-0.6v-0.6c0-0.2,0-0.3,0.1-0.4l0,0c0.2-0.9,0.3-1.4,0.5-1.7
			c0.2-0.2,0.6-0.5,1.2-0.8C161.4,60.4,161.7,60.3,162.1,60.2z"/>
		<path class="st2" d="M169.1,60.3L169.1,60.3c1.1,0,2,0.5,2.7,1.4c0.3,0.3,0.4,0.8,0.4,1.5l0,0.4h0c0,0.2,0.1,1,0.2,2.5l0,0.4v0.2
			l0.1,0.5h0l0,0v0.1l0.1,0.7l-0.1,0.7l0.1,1.4v0.1c0,0.2-0.1,0.6-0.2,1.1l0,0.2l0.1,1.6h0l0.1,0.4c-0.1,0.2-0.1,1-0.1,2.2l0,0.4
			l-0.1,1.1l0.1,1.2v0l0,0l0,0.1l0.1,0.6l-0.1,0.6v0l0,0l0,0l-0.3,1.3c-0.1,0.3-0.3,0.6-0.7,1c-0.1,0.2-0.4,0.4-0.8,0.5l-0.5,0.4
			c-0.2,0-0.3,0.1-0.4,0.1h-0.3c-0.8,0-1.7-0.6-2.5-1.8c-0.1-0.1-0.2-0.4-0.3-0.7h0l-0.3-1c0-0.3,0-0.6-0.1-0.9l0-0.1l0-0.8h0l0,0
			v-0.1l-0.1-1.1l0-1l-0.1-1.2v-0.4l0.1-1.2l-0.2-1.3c0-0.7,0-1.1,0.1-1.3l-0.1-2.1l0-0.4l0-0.9l0-0.5l0-0.9V65
			c0.1-0.9,0.1-1.6,0.2-1.9l0.2-0.6h0c0.2-0.3,0.3-0.8,0.5-1.3c0.4-0.6,0.8-0.9,1.2-0.9C168.7,60.3,168.9,60.3,169.1,60.3z
			 M168.2,64.2l0,0.1l-0.1,1.2v0.8l0.1,0.4v0.1l-0.1,0.4l0,0.5l-0.1,0.6c0,0.6,0.1,1,0.1,1.1l0,1.2v0.3l0,0.3l0.2,1.6v0.1l-0.1,1.3
			l0,0.5l0,0.2c0,0.1,0.1,0.5,0.1,0.9l0,0.4l0.1,1.1v0.8c0,0.7,0.1,1.3,0.2,1.8c0.1,0,0.1,0.3,0.2,1c0,0.1,0.1,0.2,0.4,0.4h0.4
			c0.3,0,0.6-0.4,0.9-0.9c0.2-0.3,0.2-0.5,0.2-0.7v-0.6c0-0.9,0-1.5-0.1-1.6l0,0l0-0.3V77c0-0.4,0-0.8,0.1-1.1v0l-0.1-0.9v-0.2
			c0-0.7,0.1-1,0.1-1l0,0v-0.1l0-0.1l0,0h0c-0.1-0.1-0.1-0.8-0.2-1.9c0-0.8,0.1-1.3,0.2-1.5l0,0l0-0.2l0-0.6l0-0.3l0,0l0,0h0l0,0
			l0-0.4l0-0.2h0l0.1-0.3l-0.1-0.2h0l-0.2-1.7l0-0.5l0-1h0l0,0v0l-0.2-1.2l0-0.3c0-0.7-0.2-1.1-0.7-1.1c-0.7,0.1-1.1,0.2-1.1,0.4
			c-0.4,0.5-0.5,1.1-0.5,1.6L168.2,64.2z"/>
		<path class="st2" d="M175.6,60.1l0.2,0c0.6,0,1.4,0.3,2.4,0.7c0.5,0.2,0.9,0.6,1.4,1.1c0.2,0.3,0.4,0.5,0.5,0.8
			c0.1,0.1,0.1,0.6,0.2,1.3v0l-0.1,0.8l0,0.3c0,0.4-0.1,0.8-0.1,1.1l0,1.1l0,0.3c0.1,0.5,0.1,1.3,0.1,2.1l0,0.1l-0.1,0.9
			c0,0.1,0,0.5,0,1.4v0.1l-0.1,0.5l0.2,2.1l0,0.2l-0.2,0.9c0.1,0.4,0.1,1.2,0.1,2.2l-0.1,0.8l0,0.1l0,1.1c0,0.3-0.2,0.9-0.5,1.8
			c-0.2,0.2-0.4,0.4-0.7,0.7c-0.6,0.4-1,0.5-1.3,0.5c-0.1,0.1-0.6,0.1-1.7,0.1c0,0-0.1,0-0.2,0v0c-0.2,0-0.3,0.1-0.5,0.1
			c-0.3,0-0.5-0.2-0.8-0.6c-0.2-0.3-0.4-0.6-0.3-0.7c0.1-0.5,0.2-1,0.3-1.3c-0.1-0.2-0.1-0.3-0.1-0.4l0-0.8c0-0.4,0-0.6,0-0.6l0-0.1
			l0-0.8c0-1,0-1.7-0.1-2l0-0.3c0-0.7,0-1.2-0.1-1.8l0-0.2v-0.8l0.1-0.4c0-0.2-0.1-0.9-0.1-2.2l0.1-1.5l0.1-2.2l-0.1-1.1l0.1-0.5
			c-0.1-0.3-0.2-0.9-0.2-1.9c0,0,0-0.4,0-1.1c-0.3-0.5-0.5-0.8-0.6-1c0.2-0.5,0.5-0.7,0.8-0.7L175.6,60.1z M175.8,62.4
			c0,0.7,0,1.2,0.1,1.6l-0.1,0.4c0.1,0.2,0.1,0.9,0.1,1.9c0,0.4,0.1,0.9,0,1.4l0,0.4l0,0.3l-0.1,0.7l0,0.2l-0.1,0.7l0.1,0.8l0,0.3
			l0,1.6l-0.1,0.6l0.1,0.7l-0.1,0.4l0.1,0.6l0,0.2v0.2l0.1,2.2l-0.1,1v0.1l0.1,2.2l0,0.3c0,0.3,0.1,0.4,0.3,0.4l0.2,0
			c0.5,0,0.9-0.1,1.3-0.5c0.2-0.1,0.3-0.7,0.4-1.6l0-0.1l-0.1-0.5l0.1-1.7l0-0.8l0-0.3l0-0.3l0.1-0.5v-0.1c0-0.4,0-0.9-0.1-1.5
			l0-0.3l0-0.7l0-0.9l0-0.6l0.1-0.4l-0.1-2.4l0-0.3l0-0.4l0-0.8l0-0.3l0-0.3l0.1-0.7v-0.1l0.1-0.5l0-0.4l0-0.5c0-0.4,0-0.8-0.2-1.2
			c-0.3-0.5-0.8-0.7-1.6-0.7c-0.5,0-0.7,0.1-0.7,0.4L175.8,62.4z"/>
		<path class="st2" d="M180.1,103.1L180.1,103.1l0.1,0.1l-0.2,0.1l-0.1-0.1v-0.1L180.1,103.1z M185.2,60.1L185.2,60.1
			c0.3,0,0.6,0.4,1.1,1.1l0.1,0.6l0,0.2v0.2c0.1,0.6,0.2,1.3,0.2,2.1c0.2,1.2,0.2,2,0.2,2.3l0,0.7l0.1,0.5l0,0.5v0.6l0.1,1.3l0.1,1
			l0,0.4l0,0.4v0.5l0.1,0.5l0,0.3c0.1,0.9,0.1,1.5,0.2,1.7h0c0.1,0.5,0.1,0.9,0.2,1.3c0.1,0,0.1,0.5,0.1,1.4l0,0.3
			c0.1,0.3,0.2,0.7,0.2,1c0.1,0.2,0.2,0.4,0.2,0.6v0.4c0,0.1,0,0.2,0.1,0.4h0l0,0v0.1l0.2,1.2v0.2c0,0.3-0.2,0.5-0.5,0.7h-0.1
			c-0.2,0-0.5-0.1-0.8-0.4c-0.3-0.3-0.5-0.7-0.5-1.3l-0.1-1.1c-0.1-0.3-0.2-0.7-0.2-1l0,0h0c-0.2-0.8-0.3-1.6-0.3-2.2
			c-0.1-0.2-0.3-0.3-0.3-0.3l0,0l-0.1,0h-0.4l-0.9-0.1c-0.2,0.1-0.3,0.2-0.3,0.5l-0.1,0.4l0.1,0.4c0,0.8-0.1,1.2-0.1,1.4l0,0v0.4
			l-0.2,1.1c0,0.3,0,0.7-0.1,1.2v0.2l0.2,0.8v0c0,0.2-0.1,0.3-0.3,0.5c0,0-0.1,0.1-0.2,0.1l-0.5-0.2c-0.6-0.4-0.9-0.8-0.9-1.3V81
			l0,0c0.2-0.7,0.2-1.2,0.2-1.5h0c0.1-0.2,0.1-0.7,0.2-1.5l0-0.8l0-0.3h0l0,0v-0.3c0.1-0.7,0.2-1.2,0.2-1.5v-0.1l0,0l0,0l0.1-0.3
			l0-0.4v-0.5l0.1-0.6l0-0.3l0-1.1l0-0.2l0.1-0.6l0-0.5c0-0.1,0-0.2,0.1-0.2l0,0l0.2-0.9l0,0l0.1-0.9l-0.1-0.4
			c0-0.4,0.1-1.1,0.3-2.2c0-0.7,0-1.5,0.1-2.1l0-0.4l0.1-0.7l0-0.4c0-0.5,0.1-1,0.3-1.4l0,0c0.1-0.1,0.2-0.2,0.3-0.2l0.4-0.1
			l0.5,0.1l0.4-0.2C184.8,60.2,185,60.1,185.2,60.1z M184.4,64.2l0,0.4c-0.1,0.2-0.1,0.5-0.1,0.9c0,0,0,0.1,0,0.2h0l-0.1,0.4v0.1
			l0,0.2c-0.1,0.5-0.2,1-0.2,1.6v1.1c0,0.2,0,0.4-0.1,0.7h0c-0.1,0.4-0.2,0.8-0.2,1.4V72l0,0.1l0,0l0,0.3l0,1.2l0,0v0
			c0,0.5,0.2,0.7,0.5,0.7l0.8,0h0.1c0.2-0.1,0.3-0.2,0.3-0.4h0l0,0v0l0,0l0-0.1v-0.1l0-0.1h0l0,0v0l0,0v0l0,0h0l0-0.1l-0.1-1.4
			l0-0.4c-0.1-1.2-0.2-2.3-0.2-3.3l0-0.4l-0.1-0.5l0,0v-0.2l0,0l0.1-0.4c0-0.7-0.1-1-0.1-1l0,0l-0.1-0.8c-0.1-0.2-0.2-0.3-0.2-0.4
			l0-0.3l-0.1-0.1h-0.1C184.5,64.1,184.5,64.2,184.4,64.2z M188,67.8L188,67.8c0,0.2,0,0.3-0.1,0.3c-0.1,0-0.1-0.1-0.2-0.2
			c0-0.1,0.1-0.1,0.1-0.2h0.1L188,67.8z M188.3,82.7L188.3,82.7c-0.1-0.1-0.2-0.2-0.2-0.4l0,0c0.2,0,0.3,0,0.4,0l0,0
			c0.1,0.1,0.1,0.2,0,0.2l0,0l0.1,0.1v0.1l0,0l-0.1,0l0-0.1C188.4,82.7,188.3,82.8,188.3,82.7z M189,69.1L189,69.1l-0.1,0.2h0
			c-0.1,0-0.1-0.1-0.1-0.2l0.1-0.1L189,69.1L189,69.1z M189,68.3L189,68.3l-0.1,0.1l-0.1-0.1v-0.1l0.1-0.1h0.1
			C189,68.1,189,68.2,189,68.3z M189.3,67.1L189.3,67.1v0.2h-0.1l0-0.1v-0.1L189.3,67.1L189.3,67.1z M189.3,83.5h0.1
			c0.1,0,0.1,0.1,0.1,0.2c0,0.1-0.1,0.2-0.2,0.2h0l-0.1-0.1C189.2,83.6,189.3,83.5,189.3,83.5z"/>
		<path class="st2" d="M193.7,59.8c0.3,0,0.5,0.3,0.7,0.8c0,0,0.1,0.1,0.1,0.2c-0.3,0.6-0.4,1.1-0.4,1.6c-0.2,0.7-0.3,1.2-0.3,1.4
			v0.7l-0.1,0.8l0,0v0l-0.2,0.6v0.5c-0.1,0.5,0,0.3,0.2-0.8c0,0.2-0.1,0.8-0.3,1.7l-0.2,1.2v0.9c0,0.3-0.1,0.7-0.2,1.2
			c0,0.3,0,0.6-0.1,0.8c-0.1,0.9-0.2,1.6-0.3,2.1c0,0,0,0.1-0.1,0.2h0c-0.1,0.4-0.1,0.7-0.2,1.1v0.4l0,0c-0.1,0.5-0.2,0.7-0.2,0.8
			v0.2l0,0v0h0l-0.2,0.5h0c-0.1,0.1-0.1,0.4-0.2,0.7c-0.2,0.4-0.3,0.7-0.3,0.9v0.2l0.1,0.4h0l0,0v0.3l0,0v0h0
			c-0.3,0.7-0.4,1.3-0.4,1.8h0l0,0c-0.1,0,0-0.2,0-0.5c-0.2,0.8-0.3,1.3-0.4,1.3c-0.1,0.1-0.2,0.5-0.2,1.1c-0.1,0.3-0.2,0.6-0.2,1.1
			c-0.1,0.6-0.3,0.9-0.4,0.9c-0.1,0.1-0.1,0.1-0.2,0.1h-0.1c-0.2,0-0.5-0.2-0.9-0.5c-0.2-0.2-0.3-0.4-0.3-0.5v-0.1l0.2-0.6
			c0.1-0.7,0.2-1.3,0.3-1.7c0.3-0.6,0.4-1,0.4-1.2c-0.1,0.3-0.1,0.2,0.1-0.3h0c0.1-0.2,0.1-0.4,0.1-0.6l0-0.4l0.5-1.7
			c0-0.1,0.1-0.5,0.3-1.1c0.1-0.3,0.1-0.8,0.2-1.6l0.1-0.5h0c0.1-0.3,0.2-0.6,0.2-1l0.3-1.4v-0.2l0-0.3l0.4-1.9l0.1-0.6v-0.2
			c0-0.7,0.1-1.1,0.2-1.4c0.1-0.4,0.2-1,0.3-1.5c0.1-0.2,0,0.2-0.2,1c0.1-0.1,0.1-0.3,0.1-0.4v-0.1l0-0.1c0.1-0.5,0.2-1.1,0.3-1.8
			c0.1-0.2,0.1-0.7,0.1-1.3l0.1-0.2h0c0.1-0.4,0.1-0.7,0.2-1h0l0.2-0.8l0.3-0.8c0.3-0.3,0.5-0.4,0.6-0.4L193.7,59.8z"/>
		<path class="st2" d="M198.3,60.2c0.8,0,1.6,0.5,2.3,1.5c0.1,0.2,0.3,0.6,0.5,1.2l0,0l0.2,1.4c-0.1,1.2-0.1,1.8-0.2,1.8h0
			c-0.1,0.5-0.2,0.8-0.4,0.9c-0.1,0.2-0.2,0.3-0.2,0.3l-0.1,0l0,0h0l-0.2,0.1c-0.6-0.2-0.9-0.6-0.9-1.1l0-0.3h0
			c0.2-0.3,0.3-0.6,0.3-0.7v-0.6l0-0.5c0-0.4-0.1-1-0.3-1.8h0c-0.1-0.5-0.3-0.7-0.5-0.7h0c-0.4,0-0.6,0.1-0.7,0.4l-0.1,0.5h0
			c-0.1,0.3-0.2,0.7-0.2,1.3h0c-0.1,0.2-0.1,0.5-0.1,1l0.1,0.4l0,0.9c0,0.7,0,1.2,0.1,1.5l0,0l0,0.6l0,0.1c0,0.2,0.1,0.5,0.2,0.9h0
			c0.1,0.3,0.2,0.6,0.5,1c0,0,0.5,0.5,1.5,1.2l0.6,0.6c0.6,0.7,0.9,1.3,0.9,1.9l0.1,0.4h0l0,0l0,0.3v0.7l0.1,0.6l0,0.3l0.1,0.8
			l-0.2,1.4V79l-0.1,1.5l0,0.1h0c-0.1,0.5-0.3,0.8-0.6,1.1c-0.1,0.3-0.2,0.5-0.5,0.8c-0.6,0.5-1.1,0.8-1.4,0.8l-0.2,0.1v0l0,0h0
			c-1,0-1.9-0.6-2.6-1.9c-0.2-0.8-0.4-1.7-0.6-2.8l0,0l0-0.3l0-0.1h0c0.1-0.2,0.1-0.4,0.1-0.8l0-1c0-0.2,0.1-0.4,0.2-0.6l0-0.2
			c0-0.1,0.1-0.1,0.2-0.2l0.2,0c0.1-0.1,0.3-0.1,0.4-0.1c0.1,0,0.2,0.1,0.4,0.3L197,76c0.1,0.3,0.2,0.5,0.2,0.7l-0.1,0.6l0,0.2l0,1
			c0.1,0.5,0.1,0.7,0.1,0.8h0c0.1,0.3,0.2,0.5,0.2,0.8h0c0.1,0.5,0.2,0.8,0.2,1h0c0.1,0.3,0.2,0.5,0.5,0.5c0.2,0,0.5-0.2,0.8-0.6
			c0.3-0.6,0.5-0.9,0.5-1.1c0-0.3,0.1-0.7,0.2-1l0,0v-0.6l0,0l0,0c0-0.6,0.1-1.1,0.1-1.5l-0.1-0.6v-0.4l0,0c-0.1,0-0.1-0.4-0.1-1.2
			c0-0.4-0.2-1-0.5-1.8c-0.3-0.4-0.7-0.8-1.4-1.2c-0.8-0.7-1.3-1.2-1.4-1.6l-0.2-0.5v-0.2c-0.1-0.5-0.2-1-0.2-1.6
			c0,0-0.1-0.1-0.1-0.4V67l0-0.6l0-0.6v-0.2l0.1-0.8l0-0.3l0-0.6v-0.6c0-0.2,0-0.3,0.1-0.4l0,0c0.2-0.9,0.3-1.4,0.5-1.7
			c0.2-0.2,0.6-0.5,1.2-0.8C197.6,60.4,197.8,60.3,198.3,60.2z"/>
		<path class="st2" d="M203.4,60.7c0.1,0,0.4,0.1,0.8,0.3c0.2,0,0.6,0.3,1,1l0.4,1.3h0l0.3,1.2c0.2,0.5,0.4,1.1,0.5,1.7
			c0.2,0.8,0.3,1.4,0.4,1.6c0.3,0.9,0.4,1.3,0.6,1.3c0.1,0,0.2-0.3,0.3-0.9l0.1-0.2l0-0.4v-0.3l0-0.6l0-0.2l-0.1-1.8l0.1-1.2
			l-0.1-1.6l0-0.3l0-0.1c0.2-0.4,0.3-0.6,0.5-0.6l0.2,0l0.3,0c0.2,0,0.5,0.4,0.9,0.9l0,0.1l0,0c0.1,0.3,0.1,0.8,0.1,1.3
			c0,0.8,0,1.4-0.1,1.7l0,1.1v0.2l0.1,1.7l-0.1,0.6l0.1,0.4l-0.1,0.6h0l-0.2,2h0l-0.1,0.3v0.1l0.1,0.4v0.1l-0.1,0.5l0.2,1.3
			c0,0.4,0.1,0.8,0.2,1.3v0.1c0,0.4-0.1,0.8-0.2,1.2l0,0.4v0.3l-0.4,1.1c0,0.2,0,0.3,0.1,0.5l0,0l0.1,1.2l0,0.7l0,0.4
			c-0.1,0.6-0.2,0.9-0.3,0.9c0,0.1-0.1,0.1-0.4,0.1c-0.2,0-0.5-0.1-0.7-0.4c-0.2-0.1-0.3-0.3-0.3-0.5c-0.1-0.1-0.1-0.2-0.1-0.3
			l0.1-0.4c0-0.1,0-0.3-0.1-0.4l0-0.2V80l0-0.4h0l-0.2-1.3v-0.1l0-0.5l-0.2-1.1l-0.1-0.1h0l-0.2-0.7h0l-0.2-0.8l0,0
			c0-0.4-0.1-0.8-0.2-1.1h0l-0.2-0.7h0c-0.2-0.6-0.3-1.2-0.4-1.8l-0.4-1.9c-0.3-1.3-0.5-1.9-0.7-1.9h-0.1c-0.1,0.1-0.2,0.3-0.2,0.4
			v0.2l-0.1,1.5v0.2l0,0.4l0,0.2l0,0.5l-0.1,0.5l0.2,1.5v1c0,1,0.1,1.7,0.2,2l0,0.2v0.4l0,0.2l-0.1,1c0.1,0.4,0.1,0.7,0.1,0.9
			c0,0.2-0.1,0.6-0.2,1.1v0.4l0,0.2l-0.2,1l0,0v0.5l0.1,0.6c0,0.2-0.1,0.3-0.4,0.5l-0.1,0l-0.5-0.2c-0.6-0.4-0.9-0.9-0.9-1.4
			c0.1-0.3,0.1-0.9,0.2-1.8c0,0,0.1-0.3,0.1-1v-0.6l0,0l0,0l-0.1-0.5v-0.2l0.1-0.6h0l0,0v-0.2l-0.3-2.9l0.1-0.5
			c0-0.2-0.1-0.7-0.2-1.4l0-0.3l0-0.2v0l0,0l0.1-0.6v-0.4l0-1.4l0.2-1.5v-0.3l0.1-0.6l-0.1-0.4l0.1-0.4l-0.2-1.2v-0.3l-0.1-1.7
			l0-0.2l0-0.7C202.6,60.9,202.8,60.8,203.4,60.7z"/>
		<path class="st2" d="M209.5,103.1L209.5,103.1l0.1,0.1l-0.2,0.1l-0.1-0.1v-0.1L209.5,103.1z M214.6,60.1L214.6,60.1
			c0.3,0,0.6,0.4,1.1,1.1l0.1,0.6l0,0.2v0.2c0.1,0.6,0.2,1.3,0.2,2.1c0.2,1.2,0.2,2,0.2,2.3l0,0.7l0.1,0.5l0,0.5v0.6l0.1,1.3l0.1,1
			l0,0.4l0,0.4v0.5l0.1,0.5l0,0.3c0.1,0.9,0.1,1.5,0.2,1.7h0c0.1,0.5,0.1,0.9,0.2,1.3c0.1,0,0.1,0.5,0.1,1.4l0,0.3
			c0.1,0.3,0.2,0.7,0.2,1c0.1,0.2,0.2,0.4,0.2,0.6v0.4c0,0.1,0,0.2,0.1,0.4h0l0,0v0.1l0.2,1.2v0.2c0,0.3-0.2,0.5-0.5,0.7h-0.1
			c-0.2,0-0.5-0.1-0.8-0.4c-0.3-0.3-0.5-0.7-0.5-1.3l-0.1-1.1c-0.1-0.3-0.2-0.7-0.2-1l0,0h0c-0.2-0.8-0.3-1.6-0.3-2.2
			c-0.1-0.2-0.3-0.3-0.3-0.3l0,0l-0.1,0h-0.4l-0.9-0.1c-0.2,0.1-0.3,0.2-0.3,0.5l-0.1,0.4l0.1,0.4c0,0.8-0.1,1.2-0.1,1.4l0,0v0.4
			l-0.2,1.1c0,0.3,0,0.7-0.1,1.2v0.2l0.2,0.8v0c0,0.2-0.1,0.3-0.3,0.5c0,0-0.1,0.1-0.2,0.1l-0.5-0.2c-0.6-0.4-0.9-0.8-0.9-1.3V81
			l0,0c0.2-0.7,0.2-1.2,0.2-1.5h0c0.1-0.2,0.1-0.7,0.2-1.5l0-0.8l0-0.3h0l0,0v-0.3c0.1-0.7,0.2-1.2,0.2-1.5v-0.1l0,0l0,0l0.1-0.3
			l0-0.4v-0.5l0.1-0.6l0-0.3l0-1.1l0-0.2l0.1-0.6l0-0.5c0-0.1,0-0.2,0.1-0.2l0,0l0.2-0.9l0,0l0.1-0.9l-0.1-0.4
			c0-0.4,0.1-1.1,0.3-2.2c0-0.7,0-1.5,0.1-2.1l0-0.4l0.1-0.7l0-0.4c0-0.5,0.1-1,0.3-1.4l0,0c0.1-0.1,0.2-0.2,0.3-0.2l0.4-0.1
			l0.5,0.1l0.4-0.2C214.2,60.2,214.4,60.1,214.6,60.1z M213.8,64.2l0,0.4c-0.1,0.2-0.1,0.5-0.1,0.9c0,0,0,0.1,0,0.2h0l-0.1,0.4v0.1
			l0,0.2c-0.1,0.5-0.2,1-0.2,1.6v1.1c0,0.2,0,0.4-0.1,0.7h0c-0.1,0.4-0.2,0.8-0.2,1.4V72l0,0.1l0,0l0,0.3l0,1.2l0,0v0
			c0,0.5,0.2,0.7,0.5,0.7l0.8,0h0.1c0.2-0.1,0.3-0.2,0.3-0.4h0l0,0v0l0,0l0-0.1v-0.1l0-0.1h0l0,0v0l0,0v0l0,0h0l0-0.1l-0.1-1.4
			l0-0.4c-0.1-1.2-0.2-2.3-0.2-3.3l0-0.4l-0.1-0.5l0,0v-0.2l0,0l0.1-0.4c0-0.7-0.1-1-0.1-1l0,0l-0.1-0.8c-0.1-0.2-0.2-0.3-0.2-0.4
			l0-0.3l-0.1-0.1h-0.1C213.9,64.1,213.9,64.2,213.8,64.2z M217.4,67.8L217.4,67.8c0,0.2,0,0.3-0.1,0.3c-0.1,0-0.1-0.1-0.2-0.2
			c0-0.1,0.1-0.1,0.1-0.2h0.1L217.4,67.8z M217.7,82.7L217.7,82.7c-0.1-0.1-0.2-0.2-0.2-0.4l0,0c0.2,0,0.3,0,0.4,0l0,0
			c0.1,0.1,0.1,0.2,0,0.2l0,0l0.1,0.1v0.1l0,0l-0.1,0l0-0.1C217.8,82.7,217.7,82.8,217.7,82.7z M218.4,69.1L218.4,69.1l-0.1,0.2h0
			c-0.1,0-0.1-0.1-0.1-0.2l0.1-0.1L218.4,69.1L218.4,69.1z M218.4,68.3L218.4,68.3l-0.1,0.1l-0.1-0.1v-0.1l0.1-0.1h0.1
			C218.4,68.1,218.4,68.2,218.4,68.3z M218.7,67.1L218.7,67.1v0.2h-0.1l0-0.1v-0.1L218.7,67.1L218.7,67.1z M218.7,83.5h0.1
			c0.1,0,0.1,0.1,0.1,0.2c0,0.1-0.1,0.2-0.2,0.2h0l-0.1-0.1C218.6,83.6,218.7,83.5,218.7,83.5z"/>
		<path class="st2" d="M219.9,82.8c-0.3-0.3-0.5-0.5-0.5-0.8c-0.2-0.2-0.2-0.5-0.2-0.8c-0.2-0.7-0.2-1.5-0.2-2.4l0-0.5l-0.1-1.1
			l0-0.3l0-0.3l0-1.3v-0.6l-0.1-1.6l0.1-0.5l-0.1-0.5l0.1-0.6v-0.9l0-0.4l0-0.4l0.1-1.9l-0.1-0.5l0.1-2.3l0-0.2l0-0.3l0-0.9v-0.3
			l0-0.4c0.6-1.4,1.6-2.2,2.8-2.2c0.2,0,0.3,0.1,0.4,0.2c0.4,0.1,0.7,0.2,0.7,0.2c0.5,0.1,0.9,0.4,1.1,0.7c0.4,0.3,0.6,0.6,0.6,0.7
			c0.3,0.5,0.4,1.1,0.4,1.9l0,0.2l0,0.3v0.2c-0.2,1.6-0.3,2.6-0.3,3.2v0.6l0,0.1c-0.3,0.7-0.6,1-0.9,1h0c-0.5-0.1-0.8-0.3-0.8-0.6
			v-1.1c0.1-1.5,0.2-2.4,0.3-2.7l0-0.1l0,0V65l0,0l0,0v-0.2l0,0c0,0,0-0.1,0.1-0.4c0-0.3,0-0.6-0.1-0.9c0-0.4-0.3-0.7-0.9-1v0
			l-0.8-0.3l-0.2,0.1c-0.2,0-0.3,0.4-0.4,1.1c0.1,0.3,0.1,0.5,0.1,0.6c0,0.1,0,0.3-0.1,0.6l0.1,0.9c0,0.1-0.1,0.2-0.1,0.5v0.1l0,1.1
			l0.1,0.4c0,0.3,0,0.6-0.1,1l0,1.1c0,0.5,0,0.9-0.1,1.3l0.1,0.4l-0.1,0.8l0.1,1.6v0.4l0,0.7l0.1,0.9v0.8l0,0.9l0.1,0.4l-0.1,0.5
			l0.2,2.3c0.1,0.5,0.2,0.7,0.5,0.7c0.2,0,0.3,0,0.3-0.1c0.2,0,0.4-0.5,0.6-1.4c0-0.5,0.1-0.9,0.1-1.2l0.2-1.7
			c0-0.9,0.1-1.4,0.3-1.5c0.4-0.5,0.8-0.7,1.1-0.7h0l0,0c0.4,0.2,0.5,0.6,0.5,1.5c-0.1,1.8-0.2,2.9-0.3,3.2c0,0.5-0.1,0.9-0.2,1.2
			c0,0.3-0.4,0.8-1.1,1.4c-0.8,0.6-1.5,0.9-1.9,0.9h-0.3C220.5,83.1,220.3,83,219.9,82.8z"/>
		<path class="st2" d="M227.1,60.4c0.1,0,0.3,0.2,0.5,0.5c0,0,0.1,0.1,0.2,0.2l0.1,1l-0.1,1l0,0.2l-0.1,1.7c0.1,0.3,0.2,0.8,0.2,1.7
			v0c0,0.1,0.1,0.1,0.2,0.2h0c0.2,0,0.3-0.2,0.5-0.6c0.5-0.9,0.7-1.5,0.7-1.7c0.3-0.5,0.5-0.9,0.5-1.2l0.3-1l0.5-1.4
			c0.2-0.2,0.4-0.3,0.6-0.3h0.2c0.3,0,0.6,0.3,0.9,1v0.2c-0.2,0.6-0.4,1-0.6,1.4c-0.3,0.8-0.5,1.5-0.7,2c-0.1,0.5-0.3,0.9-0.4,1.2
			l-0.6,1.4c-0.1,0.1-0.3,0.5-0.4,1l-0.2,0.8h0l0,0v0.3l0,0v0h0c0.3,0.7,0.5,1.3,0.6,1.7l0.5,1.2c0.4,0.9,0.8,1.9,1.2,3
			c0.2,1.4,0.5,2.5,0.7,3.2l0.2,1.3c0.3,0.5,0.4,1,0.2,1.5c-0.1,0.4-0.3,0.5-0.5,0.5h0c-0.4-0.1-0.6-0.2-0.8-0.4
			c-0.2-0.5-0.4-1-0.5-1.4l-0.2-1h0c-0.1-0.6-0.3-1.3-0.7-2.1c-0.1-0.3-0.2-0.8-0.2-1.4c-0.3-1-0.6-2-1-2.9c-0.3-0.7-0.5-1-0.6-1h0
			c-0.2,0-0.3,0.3-0.3,1l0,0.6l0,0.3l0.1,1.9l0,4.9c0.1,0.6,0.1,1,0.1,1.3v0.2c-0.1,0.2-0.3,0.4-0.6,0.4l0,0h0
			c-0.3-0.1-0.6-0.2-0.8-0.4c-0.4-0.4-0.6-0.8-0.6-1.2l0.1-1.2l0-0.7v-0.5c0-0.3,0.1-0.7,0.1-1.3L226,77l0.1-0.5l0-1V75l0-1.1v-0.2
			l0.1-1.5l0-0.3l0-0.5v-0.1l-0.1-0.7v-0.5l0-0.8l0.1-1.1l-0.1-0.4v-0.8l0-0.5l-0.1-0.6l0-0.4l0-0.6l0-0.6v-0.2l0-0.1l0-0.1v-1.2
			c0.1-1.2,0.2-1.8,0.2-1.8C226.5,60.5,226.8,60.4,227.1,60.4z M228.4,83.7L228.4,83.7v0.2V83.7L228.4,83.7L228.4,83.7z M228.5,78.1
			L228.5,78.1l0,0.1l0,0.1l-0.1-0.1L228.5,78.1z M230,82.7l0.2,0.1l0.1,0.1l0,0.1l-0.2,0.3l-0.4-0.1l-0.1-0.1l0-0.2L230,82.7z
			 M232.5,84.4l0.2,0.1c0,0.1,0,0.2,0,0.4c-0.1,0.1-0.2,0.1-0.5,0.1c-0.1-0.2-0.2-0.3-0.1-0.4L232.5,84.4z M233,80.5L233,80.5
			l0.2,0.2l-0.2,0.1l-0.1,0L233,80.5z M234,83.6h0.4v0.2H234V83.6z"/>
		<path class="st1" d="M242.3,60.6c0.3,0,0.5,0.2,0.7,0.6c0.1,0.1,0.2,0.3,0.2,0.8h0c0.1,0.2,0.1,0.3,0.1,0.5v0.3l-0.1,0.5v0.4
			c-0.1,0.3-0.1,0.6-0.1,1c0.1,0.3,0.1,0.6,0.1,1l0,0.1h0l0,0.2l0,0.2v0.1l-0.1,1.2c0,0.3,0,0.6,0,0.9l0,0c0,0.2,0.1,0.4,0.2,0.7h0
			c0.1,0.1,0.1,0.4,0.1,0.8l0,0.3l0.1,0.5l-0.1,2.2l0,1.3l0,0.2c0,0.1,0,0.3,0,0.5v0.3c0,0.2,0,0.3,0.1,0.4l0,0l0,1.2V77l0,0v0h0
			c0.1,0.2,0.2,0.6,0.2,1.4c0,0.6-0.1,1-0.1,1.2l0.1,1.2l0,0.2v0.3l0,0.4c0,0.3-0.2,0.6-0.5,0.8H243c-0.5-0.1-0.7-0.2-0.7-0.3l0-0.1
			c-0.3-0.3-0.5-0.5-0.5-0.6v-0.6l0-0.7l0-0.4l0-1.3v-0.3c0-0.3-0.1-1.2-0.3-2.6l-0.1-0.9v-0.1l0,0l0,0v-0.7l0-0.8l0-0.7l0-0.3l0,0
			v-0.6l0.1-0.7c-0.1-1-0.2-1.7-0.3-2.1l0-0.1h0c-0.1-0.2-0.1-0.7-0.1-1.3h0l0,0v-0.4l0,0l0,0c0.1-0.7,0.1-1.4,0.1-1.9l0,0
			c0.1-0.8,0.2-1.2,0.2-1.3v-0.1l0-0.2l0-0.7l0.1-1.3c0-0.2,0.2-0.4,0.5-0.6l0,0h0l0.1,0L242.3,60.6z M241.7,79.1L241.7,79.1
			L241.7,79.1l0.2,0L241.7,79.1L241.7,79.1z M242.8,82.7L242.8,82.7c0.1-0.2,0.2-0.2,0.3-0.2c0.2,0,0.2,0.1,0.2,0.2
			c0,0.1-0.1,0.2-0.3,0.2C242.9,82.8,242.8,82.8,242.8,82.7z M243.2,83.8L243.2,83.8c0-0.1,0.1-0.1,0.2-0.2h0c0.2,0,0.2,0.1,0.2,0.2
			v0l-0.1,0.1h-0.1C243.3,84,243.2,83.9,243.2,83.8z M243.4,77.8L243.4,77.8l0.2,0l0,0l0,0.1L243.4,77.8L243.4,77.8z M243.8,82.5
			L243.8,82.5c0-0.1,0.1-0.1,0.2-0.1c0.2,0,0.2,0.1,0.2,0.2l-0.1,0.1h-0.2C243.8,82.6,243.8,82.6,243.8,82.5z M243.9,81.2l0.2-0.1h0
			c0.2,0,0.3,0.1,0.3,0.2c0,0.1-0.1,0.1-0.2,0.2h-0.2C244,81.5,243.9,81.4,243.9,81.2z M244.2,79.2L244.2,79.2l0.1-0.1h0l0.1,0.1v0
			l-0.1,0.1L244.2,79.2L244.2,79.2z M244.3,83.6L244.3,83.6c0-0.2,0.1-0.2,0.2-0.2s0.2,0.1,0.3,0.2c0,0.1-0.1,0.1-0.2,0.1h-0.2
			L244.3,83.6z M244.7,77.5L244.7,77.5l0.1-0.1h0c0.1,0,0.2,0,0.2,0.1l-0.1,0.1h-0.1L244.7,77.5z M246.1,77.9L246.1,77.9L246.1,77.9
			h0.1v0L246.1,77.9L246.1,77.9z"/>
		<path class="st1" d="M245.6,60.7c0.1,0,0.4,0.1,0.8,0.3c0.2,0,0.6,0.3,1,1l0.4,1.3h0l0.3,1.2c0.2,0.5,0.4,1.1,0.5,1.7
			c0.2,0.8,0.3,1.4,0.4,1.6c0.3,0.9,0.4,1.3,0.6,1.3c0.1,0,0.2-0.3,0.3-0.9L250,68l0-0.4v-0.3l0-0.6l0-0.2l-0.1-1.8l0.1-1.2
			l-0.1-1.6l0-0.3l0-0.1c0.2-0.4,0.3-0.6,0.5-0.6l0.2,0l0.3,0c0.2,0,0.5,0.4,0.9,0.9l0,0.1l0,0c0.1,0.3,0.1,0.8,0.1,1.3
			c0,0.8,0,1.4-0.1,1.7l0,1.1v0.2l0.1,1.7l-0.1,0.6l0.1,0.4l-0.1,0.6h0l-0.2,2h0l-0.1,0.3v0.1l0.1,0.4v0.1l-0.1,0.5l0.2,1.3
			c0,0.4,0.1,0.8,0.2,1.3v0.1c0,0.4-0.1,0.8-0.2,1.2l0,0.4v0.3l-0.4,1.1c0,0.2,0,0.3,0.1,0.5l0,0l0.1,1.2l0,0.7l0,0.4
			c-0.1,0.6-0.2,0.9-0.3,0.9c0,0.1-0.1,0.1-0.4,0.1c-0.2,0-0.5-0.1-0.7-0.4c-0.2-0.1-0.3-0.3-0.3-0.5c-0.1-0.1-0.1-0.2-0.1-0.3
			l0.1-0.4c0-0.1,0-0.3-0.1-0.4l0-0.2V80l0-0.4h0l-0.2-1.3v-0.1l0-0.5l-0.2-1.1l-0.1-0.1h0l-0.2-0.7h0l-0.2-0.8l0,0
			c0-0.4-0.1-0.8-0.2-1.1h0l-0.2-0.7h0c-0.2-0.6-0.3-1.2-0.4-1.8l-0.4-1.9c-0.3-1.3-0.5-1.9-0.7-1.9h-0.1c-0.1,0.1-0.2,0.3-0.2,0.4
			v0.2l-0.1,1.5v0.2l0,0.4l0,0.2l0,0.5l-0.1,0.5l0.2,1.5v1c0,1,0.1,1.7,0.2,2l0,0.2v0.4l0,0.2l-0.1,1c0.1,0.4,0.1,0.7,0.1,0.9
			c0,0.2-0.1,0.6-0.2,1.1v0.4l0,0.2l-0.2,1l0,0v0.5l0.1,0.6c0,0.2-0.1,0.3-0.4,0.5l-0.1,0l-0.5-0.2c-0.6-0.4-0.9-0.9-0.9-1.4
			c0.1-0.3,0.1-0.9,0.2-1.8c0,0,0.1-0.3,0.1-1v-0.6l0,0l0,0l-0.1-0.5v-0.2l0.1-0.6h0l0,0v-0.2l-0.3-2.9l0.1-0.5
			c0-0.2-0.1-0.7-0.2-1.4l0-0.3l0-0.2v0l0,0l0.1-0.6v-0.4l0-1.4l0.2-1.5v-0.3l0.1-0.6l-0.1-0.4l0.1-0.4l-0.2-1.2v-0.3l-0.1-1.7
			l0-0.2l0-0.7C244.8,60.9,245.1,60.8,245.6,60.7z"/>
		<path class="st1" d="M254.7,60.1l0.2,0c0.6,0,1.4,0.3,2.4,0.7c0.5,0.2,0.9,0.6,1.4,1.1c0.2,0.3,0.4,0.5,0.5,0.8
			c0.1,0.1,0.1,0.6,0.2,1.3v0l-0.1,0.8l0,0.3c0,0.4-0.1,0.8-0.1,1.1l0,1.1l0,0.3c0.1,0.5,0.1,1.3,0.1,2.1l0,0.1l-0.1,0.9
			c0,0.1,0,0.5,0,1.4v0.1l-0.1,0.5l0.2,2.1l0,0.2l-0.2,0.9c0.1,0.4,0.1,1.2,0.1,2.2l-0.1,0.8l0,0.1l0,1.1c0,0.3-0.2,0.9-0.5,1.8
			c-0.2,0.2-0.4,0.4-0.7,0.7c-0.6,0.4-1,0.5-1.3,0.5c-0.1,0.1-0.6,0.1-1.7,0.1c0,0-0.1,0-0.2,0v0c-0.2,0-0.3,0.1-0.5,0.1
			c-0.3,0-0.5-0.2-0.8-0.6c-0.2-0.3-0.4-0.6-0.3-0.7c0.1-0.5,0.2-1,0.3-1.3c-0.1-0.2-0.1-0.3-0.1-0.4l0-0.8c0-0.4,0-0.6,0-0.6l0-0.1
			l0-0.8c0-1,0-1.7-0.1-2l0-0.3c0-0.7,0-1.2-0.1-1.8l0-0.2v-0.8l0.1-0.4c0-0.2-0.1-0.9-0.1-2.2l0.1-1.5l0.1-2.2l-0.1-1.1l0.1-0.5
			c-0.1-0.3-0.2-0.9-0.2-1.9c0,0,0-0.4,0-1.1c-0.3-0.5-0.5-0.8-0.6-1c0.2-0.5,0.5-0.7,0.8-0.7L254.7,60.1z M255,62.4
			c0,0.7,0,1.2,0.1,1.6l-0.1,0.4c0.1,0.2,0.1,0.9,0.1,1.9c0,0.4,0.1,0.9,0,1.4l0,0.4l0,0.3l-0.1,0.7l0,0.2L255,70l0.1,0.8l0,0.3
			l0,1.6l-0.1,0.6L255,74l-0.1,0.4l0.1,0.6l0,0.2v0.2l0.1,2.2l-0.1,1v0.1l0.1,2.2l0,0.3c0,0.3,0.1,0.4,0.3,0.4l0.2,0
			c0.5,0,0.9-0.1,1.3-0.5c0.2-0.1,0.3-0.7,0.4-1.6l0-0.1l-0.1-0.5l0.1-1.7l0-0.8l0-0.3l0-0.3l0.1-0.5v-0.1c0-0.4,0-0.9-0.1-1.5
			l0-0.3l0-0.7l0-0.9l0-0.6l0.1-0.4l-0.1-2.4l0-0.3l0-0.4l0-0.8l0-0.3l0-0.3l0.1-0.7v-0.1l0.1-0.5l0-0.4l0-0.5c0-0.4,0-0.8-0.2-1.2
			c-0.3-0.5-0.8-0.7-1.6-0.7c-0.5,0-0.7,0.1-0.7,0.4L255,62.4z"/>
		<path class="st1" d="M261.8,60.3c0.5,0,0.9,0.3,1.1,1l-0.1,0.8v1.2c0,0.3,0,0.5,0,0.6l0,1.4v0.4l0,1.3l0,0.2l0,0.3v0.4l-0.1,1.5
			l0,1.6l0,0.7l0,0.5l-0.1,1.2c0,0.6,0.1,1.4,0.3,2.2l0.1,0.3c0,0.5,0,1-0.1,1.3l0.1,0.4l0,0.6l0.1,1.1l0,0.4
			c0.1,1.2,0.2,1.9,0.4,1.9c0.1,0.1,0.2,0.1,0.4,0.1h0.2c0.4,0,0.8-0.3,1.2-0.9l0.2-1.3l0-0.1l-0.2-1.7l0-0.3l-0.1-1.3
			c0,0-0.1-0.1-0.1-0.4l0-0.3l-0.1-1.1l0-0.9c-0.1-0.4-0.1-1.1-0.1-2.1c0-0.5,0-1.5,0-2.8c0.1-1,0.2-1.8,0.3-2.3
			c0.1,0,0.1-0.7,0-2.1c0,0,0-0.2,0.1-0.7c0.1,0,0.1-0.8-0.1-2.4c0.1-0.3,0.2-0.4,0.2-0.4l0.1,0l0.2,0l0.3-0.1h0
			c0.2,0,0.4,0.2,0.6,0.5c0.2,0.2,0.3,0.4,0.3,0.7c0.2,1.2,0.2,1.8,0.1,1.9l0.1,2c-0.1,0.6-0.2,1.1-0.3,1.6c0,0.5,0,0.9,0,1.3v0.5
			c-0.1,0.2-0.1,1.1-0.1,2.7l0.1,1.8l0,0.4l0,0.9v0.2c0.1,1.4,0.2,2.3,0.2,2.8h0l0,0v0L267,79c0,1,0,1.6-0.1,1.9
			c-0.2,0.3-0.3,0.5-0.3,0.7c-0.1,0.2-0.3,0.4-0.5,0.6c-0.1,0.2-0.3,0.4-0.8,0.6c-0.3,0.2-0.6,0.3-1,0.3c-0.7,0-1-0.1-1-0.1v0
			c-0.7-0.2-1.1-0.5-1.5-0.9c-0.4-0.3-0.6-0.9-0.6-1.6c-0.1-0.1-0.1-0.6-0.1-1.4l0.1-0.4v0l0,0l0,0v-0.5l-0.1-0.9
			c0-0.2,0-0.4,0.1-0.7l0-0.3l0-0.5l-0.3-1.3l-0.1-1.6c0.1-0.6,0.1-1.1,0.1-1.6v-0.1l0-1.3l0.1-0.8v0l-0.1-0.8v-0.1l0.1-0.8v-1.1
			l0-0.7l0-0.6l0-1.2l0-0.4l0-1.3v0l0.1-0.6V61C261.1,60.5,261.3,60.3,261.8,60.3z"/>
		<path class="st1" d="M271.4,60.2c0.8,0,1.6,0.5,2.3,1.5c0.1,0.2,0.3,0.6,0.5,1.2l0,0l0.2,1.4c-0.1,1.2-0.1,1.8-0.2,1.8h0
			c-0.1,0.5-0.2,0.8-0.4,0.9c-0.1,0.2-0.2,0.3-0.2,0.3l-0.1,0l0,0h0l-0.2,0.1c-0.6-0.2-0.9-0.6-0.9-1.1l0-0.3h0
			c0.2-0.3,0.3-0.6,0.3-0.7v-0.6l0-0.5c0-0.4-0.1-1-0.3-1.8h0c-0.1-0.5-0.3-0.7-0.5-0.7h0c-0.4,0-0.6,0.1-0.7,0.4l-0.1,0.5h0
			c-0.1,0.3-0.2,0.7-0.2,1.3h0c-0.1,0.2-0.1,0.5-0.1,1l0.1,0.4l0,0.9c0,0.7,0,1.2,0.1,1.5l0,0l0,0.6l0,0.1c0,0.2,0.1,0.5,0.2,0.9h0
			c0.1,0.3,0.2,0.6,0.5,1c0,0,0.5,0.5,1.5,1.2l0.6,0.6c0.6,0.7,0.9,1.3,0.9,1.9l0.1,0.4h0l0,0l0,0.3v0.7l0.1,0.6l0,0.3l0.1,0.8
			l-0.2,1.4V79l-0.1,1.5l0,0.1h0c-0.1,0.5-0.3,0.8-0.6,1.1c-0.1,0.3-0.2,0.5-0.5,0.8c-0.6,0.5-1.1,0.8-1.4,0.8l-0.2,0.1v0l0,0h0
			c-1,0-1.9-0.6-2.6-1.9c-0.2-0.8-0.4-1.7-0.6-2.8l0,0l0-0.3l0-0.1h0c0.1-0.2,0.1-0.4,0.1-0.8l0-1c0-0.2,0.1-0.4,0.2-0.6l0-0.2
			c0-0.1,0.1-0.1,0.2-0.2l0.2,0c0.1-0.1,0.3-0.1,0.4-0.1c0.1,0,0.2,0.1,0.4,0.3l0.3,0.4c0.1,0.3,0.2,0.5,0.2,0.7l-0.1,0.6l0,0.2l0,1
			c0.1,0.5,0.1,0.7,0.1,0.8h0c0.1,0.3,0.2,0.5,0.2,0.8h0c0.1,0.5,0.2,0.8,0.2,1h0c0.1,0.3,0.2,0.5,0.5,0.5c0.2,0,0.5-0.2,0.8-0.6
			c0.3-0.6,0.5-0.9,0.5-1.1c0-0.3,0.1-0.7,0.2-1l0,0v-0.6l0,0l0,0c0-0.6,0.1-1.1,0.1-1.5l-0.1-0.6v-0.4l0,0c-0.1,0-0.1-0.4-0.1-1.2
			c0-0.4-0.2-1-0.5-1.8c-0.3-0.4-0.7-0.8-1.4-1.2c-0.8-0.7-1.3-1.2-1.4-1.6l-0.2-0.5v-0.2c-0.1-0.5-0.2-1-0.2-1.6
			c0,0-0.1-0.1-0.1-0.4V67l0-0.6l0-0.6v-0.2l0.1-0.8l0-0.3l0-0.6v-0.6c0-0.2,0-0.3,0.1-0.4l0,0c0.2-0.9,0.3-1.4,0.5-1.7
			c0.2-0.2,0.6-0.5,1.2-0.8C270.7,60.4,271,60.3,271.4,60.2z"/>
		<path class="st1" d="M277.7,60.1h0.2c0.1,0,0.4,0.1,0.9,0.2c1.1,0,1.8,0.1,2,0.4c0.4,0.4,0.5,0.7,0.5,0.8c0,0.2-0.3,0.3-0.8,0.4
			l-1.2-0.1c-0.1,0.1-0.2,0.1-0.3,0.2v0.8c0,0.4,0,0.8,0.1,1.1l0,1v0.1l0,0.5l0,0.4l0,0.4v0.4l0,0.8l0,0.6l-0.1,0.6
			c0.1,1.5,0.2,2.6,0.2,3.1c0.1,0.3,0.1,0.7,0.1,1.3c0,0,0.1,0.1,0.1,0.4l0,0.5l0.1,2l0,0.2l-0.1,1.9l0,0.1l0.1,0.4l0.1,2.9
			c0,0.2-0.2,0.4-0.5,0.6h-0.1c-0.3,0-0.6-0.3-1-0.6c0-0.1-0.1-0.2-0.2-0.4v-0.7l-0.1-1.1l0-0.5c-0.1-0.5-0.1-0.8-0.1-1.2
			c0.1-0.4,0.1-1.1,0.1-2.1l-0.1-1.3l0-0.5v-0.4c-0.1-1.2-0.2-2-0.3-2.3l0-2.2l0.1-1v-0.7l0-0.9c0-0.2,0.1-0.3,0.1-0.6l-0.1-0.9
			v-0.4c0-1.9-0.1-2.8-0.2-2.8c-0.1-0.1-0.2-0.2-0.2-0.2l-0.2,0c-0.4,0-0.9-0.2-1.3-0.6c-0.1-0.2-0.2-0.3-0.2-0.4v-0.1
			c0.1-0.4,0.4-0.5,0.8-0.5h0.2l0.5,0.1h0.4L277.7,60.1z"/>
		<path class="st1" d="M282.8,60.6l0.7,0h0.6c0.3,0,0.5,0,0.8,0.1v0c0.7,0.1,1.3,0.3,1.7,0.5c0.8,0.5,1.2,1,1.4,1.4l0,0.7v0.5l0,1.1
			c-0.1,0.1-0.1,0.3-0.1,0.5v0.2c0.1,0.2,0.1,0.5,0.1,1c0,0.3-0.1,0.7-0.2,1.1v0.3c0,0.2,0,0.4,0.1,0.6l0,0v0l0,0.4l0,0.6
			c0,0.4-0.1,0.8-0.2,1.2c0,0.4-0.1,0.7-0.1,0.8h0c-0.3,0.3-0.6,0.6-0.8,0.8c0,0.1,0,0.1-0.1,0.2l0,0v0l-0.1,0.3
			c0,0.1,0.3,0.7,0.8,1.6c0.5,1.5,0.7,2.3,0.7,2.4v0.4l-0.1,0.6l0,0.4l-0.1,0.5v0.2l0.1,0.6v0l0,0.1l0.1,0.4l-0.1,0.5v0l0,1
			c0,0.2,0.1,0.6,0.2,1.2l0.1,0.4v0c-0.1,0.3-0.2,0.4-0.4,0.4h-0.1l0,0h0l-0.1,0c-0.4,0-0.8-0.4-1.3-1.2c-0.1-0.2-0.2-0.8-0.2-1.7v0
			l0-0.5v-0.6l-0.1-0.7l0.1-1.7c0-0.5-0.2-1.3-0.6-2.4c-0.2-0.7-0.4-1-0.7-1h-0.5c-0.3,0-0.4,0.2-0.5,0.5v0.1l0.1,0.9l0,0.6
			l-0.1,0.8v0.4l0,0l-0.1,0.4l0,0.3c0,0.7,0,1.3,0,1.7l0.1,0.6l0,0.6l0,0.7l0,0l0,0l0,0.3c-0.1,0.8-0.3,1.2-0.5,1.2h-0.2
			c-0.2,0-0.4-0.2-0.7-0.4c-0.3-0.3-0.4-0.5-0.4-0.7v-0.1l0-1.1l-0.1-0.5v-0.3l0-0.8l0-0.3l0-0.3l-0.1-0.6l0.2-1.9l-0.2-1
			c0-0.4,0-0.9,0.1-1.6l0-1.2l0.1-0.5l0-0.3l0-0.7l0-0.3v-0.1l0-0.2c0-0.5-0.1-1.2-0.2-2.2l0.1-0.6l0-0.7c-0.1-0.5-0.1-1-0.2-1.7
			l-0.1-1.5l0-0.6l0-0.4c0-1,0.1-1.4,0.2-1.4C282.3,60.8,282.5,60.6,282.8,60.6z M283.7,62.5l0.1,1.3v0.5l0.1,1.7l0,0.7
			c0.1,0.1,0.1,0.9,0.1,2.3c0.1,0.3,0.1,0.5,0.1,0.7l0,0.5l0.1,0.5v0.1l-0.1,0.6c0,0.3,0.1,0.5,0.3,0.5h0.1c0.4,0,0.8-0.3,1.3-0.8
			c0.2-0.5,0.2-0.9,0.2-1.3v0l0,0l0,0v0c0.1-0.1,0.1-0.6,0.1-1.4l0-0.7l0.1-0.8l0-0.5l0-1.5l-0.2-0.4l0.2-1v-0.2
			c0-0.3-0.1-0.5-0.2-0.8c-0.2-0.2-0.6-0.3-1.4-0.3h-0.1C284,62.2,283.7,62.3,283.7,62.5z"/>
		<path class="st1" d="M294.4,60.4c0.4,0,0.6,0.3,0.7,0.9v0.2c-0.1,0.3-0.1,0.5-0.1,0.7h0l0,0l-0.5,1.9c0,0.4-0.1,0.9-0.3,1.6
			c0,0.2-0.1,0.5-0.2,0.9v0l0,0.2c-0.1,0.6-0.2,1.1-0.4,1.6c-0.1,0.7-0.2,1.1-0.3,1.1c-0.1,0.8-0.3,1.3-0.4,1.6v0l0,0.9
			c0,0.2,0.1,0.5,0.2,1l0,0.4c0,0.1-0.1,0.3-0.3,0.5c-0.1,0.1-0.1,0.3-0.1,0.3c0.1,0.5,0.2,1.2,0.2,1.9l0,0.1l0,0.2l0,0.5l0,0.1v0.3
			l0.1,0.7l-0.1,0.5l0.1,0.5c0,0.4,0,0.8-0.1,1.3l0,0.7c-0.1,0.6-0.2,0.9-0.3,1.1c-0.1,0.2-0.2,0.3-0.3,0.3h0c-0.1,0-0.1,0-0.3-0.1
			c-0.2,0-0.5-0.2-0.9-0.7c-0.1-0.2-0.1-0.4-0.1-0.8c0.1-0.7,0.2-1.3,0.2-1.8l0-0.8l0-0.6c-0.1-0.6-0.1-1.1-0.1-1.6v-0.6l0-0.4l0,0
			v0l-0.2-1.9l0-0.4c0-1.1-0.1-2.1-0.3-2.8l-0.1-0.4h0l-0.2-1.1l0,0h0L290,67l-0.1-0.1h0l-0.4-1.5l0,0v0c-0.2-0.6-0.3-1.2-0.4-1.7
			c-0.1-0.4-0.2-0.8-0.2-1.3c-0.1-0.1-0.1-0.4-0.2-0.7v-0.1l0.1-0.3l-0.1-0.2c0-0.1,0.2-0.2,0.5-0.3l0.2-0.1h0.2
			c0.2,0.1,0.5,0.4,0.7,0.7c0.2,0.2,0.3,0.6,0.3,1c0,0,0.1,0.2,0.1,0.6c0.1,0.2,0.1,0.5,0.1,0.8l0.8,3l0.2,0.2h0.1
			c0.2-0.2,0.3-0.5,0.3-1.1c0-0.2,0.1-0.6,0.4-1.2c0.1-1,0.2-1.6,0.3-1.9c0.1-0.1,0.1-0.4,0.2-0.9c0.2-0.2,0.3-0.6,0.5-1
			C293.9,60.5,294.2,60.4,294.4,60.4z"/>
		<path class="st1" d="M84,88.8c0.1,0,0.3,0.2,0.5,0.5c0,0,0.1,0.1,0.2,0.2l0.1,1l-0.1,1l0,0.2l-0.1,1.7c0.1,0.3,0.2,0.8,0.2,1.7v0
			c0,0.1,0.1,0.1,0.2,0.2h0c0.2,0,0.3-0.2,0.5-0.6c0.5-0.9,0.7-1.5,0.7-1.7c0.3-0.5,0.5-0.9,0.5-1.2l0.3-1l0.5-1.4
			c0.2-0.2,0.4-0.3,0.6-0.3h0.2c0.3,0,0.6,0.3,0.9,1v0.2c-0.2,0.6-0.4,1-0.6,1.4c-0.3,0.8-0.5,1.5-0.7,2c-0.1,0.5-0.3,0.9-0.4,1.2
			l-0.6,1.4c-0.1,0.1-0.3,0.5-0.4,1L86.1,98h0l0,0v0.3l0,0v0h0c0.3,0.7,0.5,1.3,0.6,1.7l0.5,1.2c0.4,0.9,0.8,1.9,1.2,3
			c0.2,1.4,0.5,2.5,0.7,3.2l0.2,1.3c0.3,0.5,0.4,1,0.2,1.5c-0.1,0.4-0.3,0.5-0.5,0.5h0c-0.4-0.1-0.6-0.2-0.8-0.4
			c-0.2-0.5-0.4-1-0.5-1.4l-0.2-1h0c-0.1-0.6-0.3-1.3-0.7-2.1c-0.1-0.3-0.2-0.8-0.2-1.4c-0.3-1-0.6-2-1-2.9c-0.3-0.7-0.5-1-0.6-1h0
			c-0.2,0-0.3,0.3-0.3,1l0,0.6l0,0.3l0.1,1.9l0,4.9c0.1,0.6,0.1,1,0.1,1.3v0.2c-0.1,0.2-0.3,0.4-0.6,0.4l0,0h0
			c-0.3-0.1-0.6-0.2-0.8-0.4c-0.4-0.4-0.6-0.8-0.6-1.2l0.1-1.2l0-0.7v-0.5c0-0.3,0.1-0.7,0.1-1.3l-0.1-0.6l0.1-0.5l0-1v-0.5l0-1.1
			V102l0.1-1.5l0-0.3l0-0.5v-0.1l-0.1-0.7v-0.5l0-0.8l0.1-1.1l-0.1-0.4v-0.8l0-0.5l-0.1-0.6l0-0.4l0-0.6l0-0.6v-0.2l0-0.1l0-0.1V91
			c0.1-1.2,0.2-1.8,0.2-1.8C83.3,88.9,83.6,88.8,84,88.8z M85.3,112L85.3,112v0.2V112L85.3,112L85.3,112z M85.4,106.4L85.4,106.4
			l0,0.1l0,0.1l-0.1-0.1L85.4,106.4z M86.8,111.1l0.2,0.1l0.1,0.1l0,0.1l-0.2,0.3l-0.4-0.1l-0.1-0.1l0-0.2L86.8,111.1z M89.3,112.8
			l0.2,0.1c0,0.1,0,0.2,0,0.4c-0.1,0.1-0.2,0.1-0.5,0.1c-0.1-0.2-0.2-0.3-0.1-0.4L89.3,112.8z M89.9,108.9L89.9,108.9l0.2,0.2
			l-0.2,0.1l-0.1,0L89.9,108.9z M90.8,112h0.4v0.2h-0.4V112z"/>
		<path class="st1" d="M91.4,89h0.7c0.6,0,1.2,0,1.8,0.1v0c0.5,0.1,0.9,0.1,1.1,0.2c0.4,0.1,0.6,0.2,0.6,0.4
			c0.1,0.2,0.2,0.3,0.3,0.4v0.3c-0.1,0.2-0.4,0.3-0.8,0.3c-0.9-0.1-1.6-0.2-2.1-0.2h-0.4c-0.5,0-0.7,0.1-0.7,0.4
			c0,1.6,0.1,2.6,0.2,3.1l0.1,1l-0.1,1l0,0.2c-0.1,0.7-0.2,1.2-0.2,1.5c0,0.5,0.2,0.8,0.5,0.8c0,0,0.2,0.1,0.7,0.1
			c0.5,0,1,0.1,1.5,0.3c0.4,0.3,0.7,0.6,0.7,0.9c0,0.2-0.2,0.4-0.5,0.4c-0.7-0.1-1.5-0.2-2.5-0.3c-0.2,0-0.3,0.2-0.3,0.6l-0.1,0.9
			l0,0.1l0,0.3l0.1,0.7v0.4l-0.1,0.9h0l-0.2,0.9h0l-0.1,0.4l0.1,0.3l0,0c0.1,0.2,0.1,0.3,0.1,0.5v0.6l0,0.8l-0.1,0.5
			c0,1.1,0.1,1.7,0.3,1.7c0,0.1,0.8,0.2,2.5,0.2c0.4,0.1,0.7,0.3,0.9,0.5c0.2,0.2,0.2,0.4,0.2,0.5c0,0.4-0.3,0.6-0.9,0.6h-0.2
			c-0.3,0-0.6,0-0.8-0.1l0,0h0c-1.1,0-1.9-0.2-2.3-0.3c-0.4-0.2-0.7-0.4-0.9-0.7c-0.3-0.4-0.4-0.8-0.4-1.2l0-1.4l0.1-1.2
			c-0.1-0.3-0.1-0.8-0.2-1.6c0.1-0.4,0.2-0.6,0.2-0.8l0.1-0.9v-0.4l-0.1-0.7V101l0.1-0.6v-1.1l-0.2-0.9l0-0.4l0-0.5
			c0.1-0.6,0.1-1.2,0.2-1.8v0L90.4,94h0c-0.1-0.5-0.2-1.2-0.2-2.3h0l0,0V91l0,0l0,0v0l0.1-0.3l0-0.5c0-0.6,0.1-0.9,0.3-0.9
			C90.7,89,91,89,91.4,89z"/>
		<path class="st1" d="M98.1,89h0.7c0.6,0,1.2,0,1.8,0.1v0c0.5,0.1,0.9,0.1,1.1,0.2c0.4,0.1,0.6,0.2,0.6,0.4
			c0.1,0.2,0.2,0.3,0.3,0.4v0.3c-0.1,0.2-0.4,0.3-0.8,0.3c-0.9-0.1-1.6-0.2-2.1-0.2h-0.4c-0.5,0-0.7,0.1-0.7,0.4
			c0,1.6,0.1,2.6,0.2,3.1l0.1,1l-0.1,1l0,0.2c-0.1,0.7-0.2,1.2-0.2,1.5c0,0.5,0.2,0.8,0.5,0.8c0,0,0.2,0.1,0.7,0.1
			c0.5,0,1,0.1,1.5,0.3c0.4,0.3,0.7,0.6,0.7,0.9c0,0.2-0.2,0.4-0.5,0.4c-0.7-0.1-1.5-0.2-2.5-0.3c-0.2,0-0.3,0.2-0.3,0.6l-0.1,0.9
			l0,0.1l0,0.3l0.1,0.7v0.4l-0.1,0.9h0l-0.2,0.9h0l-0.1,0.4l0.1,0.3l0,0c0.1,0.2,0.1,0.3,0.1,0.5v0.6l0,0.8l-0.1,0.5
			c0,1.1,0.1,1.7,0.3,1.7c0,0.1,0.8,0.2,2.5,0.2c0.4,0.1,0.7,0.3,0.9,0.5c0.2,0.2,0.2,0.4,0.2,0.5c0,0.4-0.3,0.6-0.9,0.6h-0.2
			c-0.3,0-0.6,0-0.8-0.1l0,0h0c-1.1,0-1.9-0.2-2.3-0.3c-0.4-0.2-0.7-0.4-0.9-0.7c-0.3-0.4-0.4-0.8-0.4-1.2l0-1.4l0.1-1.2
			c-0.1-0.3-0.1-0.8-0.2-1.6c0.1-0.4,0.2-0.6,0.2-0.8l0.1-0.9v-0.4L97,102V101l0.1-0.6v-1.1l-0.2-0.9l0-0.4l0-0.5
			c0.1-0.6,0.1-1.2,0.2-1.8v0L97.1,94h0c-0.1-0.5-0.2-1.2-0.2-2.3h0l0,0V91l0,0l0,0v0l0.1-0.3l0-0.5c0-0.6,0.1-0.9,0.3-0.9
			C97.4,89,97.7,89,98.1,89z"/>
		<path class="st1" d="M104.9,88.7c0.9,0,1.5,0.1,2.1,0.2c0.9,0.3,1.6,0.8,2.1,1.7c0.1,0.3,0.2,0.8,0.3,1.6c0,0,0.1,0.3,0.1,0.8
			c0,0.1,0.1,0.6,0.2,1.7c0.1,0,0.1,0.6,0.2,1.9l0.1,0.9l-0.1,0.9v0.3c-0.1,0.6-0.2,1.4-0.2,2.3c-0.1,0.3-0.1,0.7-0.2,1
			c-0.1,0.4-0.3,0.7-0.4,0.9c0,0.1-0.1,0.1-0.2,0.2c-0.1,0.2-0.4,0.4-0.9,0.6c0,0.1-0.4,0.1-1.2,0.2l-1.1-0.1
			c-0.2,0.1-0.3,0.3-0.3,0.5v0.5l-0.1,0.6v0.2c0.1,0.6,0.1,1.3,0.1,2.1l-0.1,0.8c0,0.3,0.1,0.9,0.2,1.9v0.3c0,0.5-0.1,0.8-0.4,1
			l-0.2,0h-0.1c-0.2,0-0.5-0.2-0.9-0.5c-0.2-0.2-0.3-0.6-0.3-1.3c-0.1-0.3-0.1-0.6-0.1-1l0-0.7l-0.1-1.5c0-0.3,0-0.4,0.1-0.4
			l-0.1-0.6c0-0.4,0-0.8,0.1-1.3l-0.1-0.8v-0.3l0-0.4l0-0.4l0-0.4l0.4-1.6v-0.1l0-1.3V99l0-0.8l0-0.3l0,0v0l-0.2-1.4l0-0.4l-0.1-2.1
			l0.1-0.5c-0.1-0.6-0.2-1.3-0.2-2.3l-0.1-1.1l-0.2-0.6c0-0.3,0.3-0.5,0.9-0.7H104.9z M105.3,91.2c0.3,2.8,0.4,4.7,0.4,5.4l0.1,1.5
			l0,0.4l0,0.8l0,0v0l0.1,0.5v0.5c0,0.3-0.1,0.7-0.2,1.5c0,0.2,0.1,0.3,0.4,0.3h0.5c0.7-0.1,1-0.2,1-0.4c0.1,0,0.2-0.5,0.3-1.6
			c0-0.3,0.1-0.6,0.1-0.7h0l0,0v-0.3l0-0.3c0.1-0.6,0.2-1,0.2-1.2c-0.1-0.5-0.1-1.1-0.1-1.8v-0.6c-0.2-0.5-0.2-0.9-0.2-1.3l0,0
			l0-0.1l0,0l-0.1-0.9c-0.1-0.7-0.2-1.5-0.4-2.2c-0.1-0.3-0.4-0.4-0.8-0.4l-0.7,0h-0.1C105.5,90.3,105.3,90.6,105.3,91.2z"/>
		<path class="st1" d="M114.1,88.6c0.8,0,1.6,0.5,2.3,1.5c0.1,0.2,0.3,0.6,0.5,1.2l0,0l0.2,1.4c-0.1,1.2-0.1,1.8-0.2,1.8h0
			c-0.1,0.5-0.2,0.8-0.4,0.9c-0.1,0.2-0.2,0.3-0.2,0.3l-0.1,0l0,0h0l-0.2,0.1c-0.6-0.2-0.9-0.6-0.9-1.1l0-0.3h0
			c0.2-0.3,0.3-0.6,0.3-0.7v-0.6l0-0.5c0-0.4-0.1-1-0.3-1.8h0c-0.1-0.5-0.3-0.7-0.5-0.7h0c-0.4,0-0.6,0.1-0.7,0.4l-0.1,0.5h0
			c-0.1,0.3-0.2,0.7-0.2,1.3h0c-0.1,0.2-0.1,0.5-0.1,1l0.1,0.4l0,0.9c0,0.7,0,1.2,0.1,1.5l0,0l0,0.6l0,0.1c0,0.2,0.1,0.5,0.2,0.9h0
			c0.1,0.3,0.2,0.6,0.5,1c0,0,0.5,0.5,1.5,1.2l0.6,0.6c0.6,0.7,0.9,1.3,0.9,1.9l0.1,0.4h0l0,0l0,0.3v0.7l0.1,0.6l0,0.3l0.1,0.8
			L117,107v0.3l-0.1,1.5l0,0.1h0c-0.1,0.5-0.3,0.8-0.6,1.1c-0.1,0.3-0.2,0.5-0.5,0.8c-0.6,0.5-1.1,0.8-1.4,0.8l-0.2,0.1v0l0,0h0
			c-1,0-1.9-0.6-2.6-1.9c-0.2-0.8-0.4-1.7-0.6-2.8l0,0l0-0.3l0-0.1h0c0.1-0.2,0.1-0.4,0.1-0.8l0-1c0-0.2,0.1-0.4,0.2-0.6l0-0.2
			c0-0.1,0.1-0.1,0.2-0.2l0.2,0c0.1-0.1,0.3-0.1,0.4-0.1c0.1,0,0.2,0.1,0.4,0.3l0.3,0.4c0.1,0.3,0.2,0.5,0.2,0.7l-0.1,0.6l0,0.2l0,1
			c0.1,0.5,0.1,0.7,0.1,0.8h0c0.1,0.3,0.2,0.5,0.2,0.8h0c0.1,0.5,0.2,0.8,0.2,1h0c0.1,0.3,0.2,0.5,0.5,0.5c0.2,0,0.5-0.2,0.8-0.6
			c0.3-0.6,0.5-0.9,0.5-1.1c0-0.3,0.1-0.7,0.2-1l0,0v-0.6l0,0l0,0c0-0.6,0.1-1.1,0.1-1.5l-0.1-0.6v-0.4l0,0c-0.1,0-0.1-0.4-0.1-1.2
			c0-0.4-0.2-1-0.5-1.8c-0.3-0.4-0.7-0.8-1.4-1.2c-0.8-0.7-1.3-1.2-1.4-1.6l-0.2-0.5v-0.2c-0.1-0.5-0.2-1-0.2-1.6
			c0,0-0.1-0.1-0.1-0.4v-0.1l0-0.6l0-0.6V94l0.1-0.8l0-0.3l0-0.6v-0.6c0-0.2,0-0.3,0.1-0.4l0,0c0.2-0.9,0.3-1.4,0.5-1.7
			c0.2-0.2,0.6-0.5,1.2-0.8C113.4,88.7,113.6,88.7,114.1,88.6z"/>
		<path class="st1" d="M127.3,89h0.7c0.6,0,1.2,0,1.8,0.1v0c0.5,0.1,0.9,0.1,1.1,0.2c0.4,0.1,0.6,0.2,0.6,0.4
			c0.1,0.2,0.2,0.3,0.3,0.4v0.3c-0.1,0.2-0.4,0.3-0.8,0.3c-0.9-0.1-1.6-0.2-2.1-0.2h-0.4c-0.5,0-0.7,0.1-0.7,0.4
			c0,1.6,0.1,2.6,0.2,3.1l0.1,1l-0.1,1l0,0.2c-0.1,0.7-0.2,1.2-0.2,1.5c0,0.5,0.2,0.8,0.5,0.8c0,0,0.2,0.1,0.7,0.1
			c0.5,0,1,0.1,1.5,0.3c0.4,0.3,0.7,0.6,0.7,0.9c0,0.2-0.2,0.4-0.5,0.4c-0.7-0.1-1.5-0.2-2.5-0.3c-0.2,0-0.3,0.2-0.3,0.6l-0.1,0.9
			l0,0.1l0,0.3l0.1,0.7v0.4l-0.1,0.9h0l-0.2,0.9h0l-0.1,0.4l0.1,0.3l0,0c0.1,0.2,0.1,0.3,0.1,0.5v0.6l0,0.8l-0.1,0.5
			c0,1.1,0.1,1.7,0.3,1.7c0,0.1,0.8,0.2,2.5,0.2c0.4,0.1,0.7,0.3,0.9,0.5c0.2,0.2,0.2,0.4,0.2,0.5c0,0.4-0.3,0.6-0.9,0.6h-0.2
			c-0.3,0-0.6,0-0.8-0.1l0,0h0c-1.1,0-1.9-0.2-2.3-0.3c-0.4-0.2-0.7-0.4-0.9-0.7c-0.3-0.4-0.4-0.8-0.4-1.2l0-1.4l0.1-1.2
			c-0.1-0.3-0.1-0.8-0.2-1.6c0.1-0.4,0.2-0.6,0.2-0.8l0.1-0.9v-0.4l-0.1-0.7V101l0.1-0.6v-1.1l-0.2-0.9l0-0.4l0-0.5
			c0.1-0.6,0.1-1.2,0.2-1.8v0l-0.1-1.7h0c-0.1-0.5-0.2-1.2-0.2-2.3h0l0,0V91l0,0l0,0v0l0.1-0.3l0-0.5c0-0.6,0.1-0.9,0.3-0.9
			C126.5,89,126.8,89,127.3,89z"/>
		<path class="st1" d="M137.5,88.9L137.5,88.9c0.3,0,0.6,0.4,0.7,1.2l-0.5,2.3c0,0.2-0.1,0.4-0.2,0.7l-0.1,0.9
			c-0.1,0.1-0.1,0.3-0.1,0.5c-0.1,0.3-0.3,0.7-0.4,1.1c-0.2,0.2-0.3,0.7-0.5,1.5c-0.2,0.8-0.3,1.3-0.3,1.4c0,1,0.2,2,0.6,2.8l1.3,4
			l0.4,2c0,0.3,0,0.5,0.1,0.7h0c0,0.2,0.1,0.7,0.4,1.5h0c0.1,0.3,0.2,0.5,0.2,0.8c0,0.2-0.2,0.4-0.7,0.4h-0.1
			c-0.2,0-0.5-0.2-0.9-0.7c-0.2-0.3-0.4-0.8-0.5-1.4l-0.1-0.3h0c-0.1-0.1-0.1-0.5-0.2-1c-0.1-0.2-0.1-0.5-0.2-0.9l0,0v0l-0.2-0.9h0
			c-0.3-1.3-0.6-2-0.7-2h-0.1c-0.2,0.2-0.3,0.5-0.3,1l0,0c0,0.1,0,0.2,0,0.2l0,0v0c-0.1,0.8-0.2,1.3-0.3,1.6l-0.2,0.9v0l0,0.6l0,0.7
			c0,0.2,0,0.5,0.1,0.9l-0.1,0.5l0,0.3v0.5c0,0.2-0.2,0.5-0.5,0.8l-0.1,0c-0.5,0-0.9-0.3-1.2-1l-0.1-0.4v0l0.1-0.6l0-0.3V109
			l-0.1-0.6c0-0.7,0-1.1,0.1-1.4v-0.3c0.2-0.4,0.2-0.7,0.2-1c0.1-0.2,0.2-0.6,0.2-1.2l0.1-0.2h0c0-0.1,0.1-0.4,0.3-1
			c0-0.2,0.1-0.6,0.3-1.2c0-0.3,0.1-0.7,0.2-1.1l0.1-0.6V100c-0.2-1-0.3-1.8-0.4-2.5c-0.1,0-0.1-0.4-0.2-1.3h0l-0.1-0.5l0-0.4
			l-0.2-0.6h0l-0.2-1.2l0,0c-0.2-0.8-0.3-1.6-0.3-2.3c-0.1-0.2-0.1-0.4-0.1-0.6v-0.1l0,0l0,0v0c-0.1-0.2-0.1-0.5-0.1-0.9
			c0-0.2,0.1-0.3,0.4-0.5c0-0.1,0.2-0.1,0.5-0.1c0.2,0,0.6,0.3,1,1l0.1,0.2v0.4c0.1,0.5,0.2,1.3,0.2,2.4l0.3,0.8
			c0,0.1,0,0.2,0.1,0.2c0.1,0,0.1-0.1,0.1-0.2l0-0.1c0.1-0.1,0.3-0.5,0.4-1.1c0.1,0,0.1-0.3,0.1-0.9c0.1-0.4,0.2-0.9,0.4-1.6
			l0.1-0.4h0c0.1-0.3,0.3-0.5,0.5-0.8L137.5,88.9z"/>
		<path class="st1" d="M141.3,88.7c0.9,0,1.5,0.1,2.1,0.2c0.9,0.3,1.6,0.8,2.1,1.7c0.1,0.3,0.2,0.8,0.3,1.6c0,0,0.1,0.3,0.1,0.8
			c0,0.1,0.1,0.6,0.2,1.7c0.1,0,0.1,0.6,0.2,1.9l0.1,0.9l-0.1,0.9v0.3c-0.1,0.6-0.2,1.4-0.2,2.3c-0.1,0.3-0.1,0.7-0.2,1
			c-0.1,0.4-0.3,0.7-0.4,0.9c0,0.1-0.1,0.1-0.2,0.2c-0.1,0.2-0.4,0.4-0.9,0.6c0,0.1-0.4,0.1-1.2,0.2l-1.1-0.1
			c-0.2,0.1-0.3,0.3-0.3,0.5v0.5l-0.1,0.6v0.2c0.1,0.6,0.1,1.3,0.1,2.1l-0.1,0.8c0,0.3,0.1,0.9,0.2,1.9v0.3c0,0.5-0.1,0.8-0.4,1
			l-0.2,0h-0.1c-0.2,0-0.5-0.2-0.9-0.5c-0.2-0.2-0.3-0.6-0.3-1.3c-0.1-0.3-0.1-0.6-0.1-1l0-0.7l-0.1-1.5c0-0.3,0-0.4,0.1-0.4
			l-0.1-0.6c0-0.4,0-0.8,0.1-1.3l-0.1-0.8v-0.3l0-0.4l0-0.4l0-0.4l0.4-1.6v-0.1l0-1.3V99l0-0.8l0-0.3l0,0v0l-0.2-1.4l0-0.4l-0.1-2.1
			l0.1-0.5c-0.1-0.6-0.2-1.3-0.2-2.3l-0.1-1.1l-0.2-0.6c0-0.3,0.3-0.5,0.9-0.7H141.3z M141.7,91.2c0.3,2.8,0.4,4.7,0.4,5.4l0.1,1.5
			l0,0.4l0,0.8l0,0v0l0.1,0.5v0.5c0,0.3-0.1,0.7-0.2,1.5c0,0.2,0.1,0.3,0.4,0.3h0.5c0.7-0.1,1-0.2,1-0.4c0.1,0,0.2-0.5,0.3-1.6
			c0-0.3,0.1-0.6,0.1-0.7h0l0,0v-0.3l0-0.3c0.1-0.6,0.2-1,0.2-1.2c-0.1-0.5-0.1-1.1-0.1-1.8v-0.6c-0.2-0.5-0.2-0.9-0.2-1.3l0,0
			l0-0.1l0,0l-0.1-0.9c-0.1-0.7-0.2-1.5-0.4-2.2c-0.1-0.3-0.4-0.4-0.8-0.4l-0.7,0h-0.1C141.9,90.3,141.7,90.6,141.7,91.2z"/>
		<path class="st1" d="M146.1,131.5L146.1,131.5l0.1,0.1l-0.2,0.1l-0.1-0.1v-0.1L146.1,131.5z M151.3,88.5L151.3,88.5
			c0.3,0,0.6,0.4,1.1,1.1l0.1,0.6l0,0.2v0.2c0.1,0.6,0.2,1.3,0.2,2.1c0.2,1.2,0.2,2,0.2,2.3l0,0.7l0.1,0.5l0,0.5v0.6l0.1,1.3l0.1,1
			l0,0.4l0,0.4v0.5l0.1,0.5l0,0.3c0.1,0.9,0.1,1.5,0.2,1.7h0c0.1,0.5,0.1,0.9,0.2,1.3c0.1,0,0.1,0.5,0.1,1.4l0,0.3
			c0.1,0.3,0.2,0.7,0.2,1c0.1,0.2,0.2,0.4,0.2,0.6v0.4c0,0.1,0,0.2,0.1,0.4h0l0,0v0.1l0.2,1.2v0.2c0,0.3-0.2,0.5-0.5,0.7h-0.1
			c-0.2,0-0.5-0.1-0.8-0.4c-0.3-0.3-0.5-0.7-0.5-1.3l-0.1-1.1c-0.1-0.3-0.2-0.7-0.2-1l0,0h0c-0.2-0.8-0.3-1.6-0.3-2.2
			c-0.1-0.2-0.3-0.3-0.3-0.3l0,0l-0.1,0h-0.4l-0.9-0.1c-0.2,0.1-0.3,0.2-0.3,0.5l-0.1,0.4l0.1,0.4c0,0.8-0.1,1.2-0.1,1.4l0,0v0.4
			l-0.2,1.1c0,0.3,0,0.7-0.1,1.2v0.2l0.2,0.8v0c0,0.2-0.1,0.3-0.3,0.5c0,0-0.1,0.1-0.2,0.1l-0.5-0.2c-0.6-0.4-0.9-0.8-0.9-1.3v-0.5
			l0,0c0.2-0.7,0.2-1.2,0.2-1.5h0c0.1-0.2,0.1-0.7,0.2-1.5l0-0.8l0-0.3h0l0,0v-0.3c0.1-0.7,0.2-1.2,0.2-1.5v-0.1l0,0l0,0l0.1-0.3
			l0-0.4V102l0.1-0.6l0-0.3l0-1.1l0-0.2l0.1-0.6l0-0.5c0-0.1,0-0.2,0.1-0.2l0,0l0.2-0.9l0,0l0.1-0.9l-0.1-0.4c0-0.4,0.1-1.1,0.3-2.2
			c0-0.7,0-1.5,0.1-2.1l0-0.4l0.1-0.7l0-0.4c0-0.5,0.1-1,0.3-1.4l0,0c0.1-0.1,0.2-0.2,0.3-0.2l0.4-0.1l0.5,0.1l0.4-0.2
			C150.9,88.5,151.1,88.5,151.3,88.5z M150.5,92.6l0,0.4c-0.1,0.2-0.1,0.5-0.1,0.9c0,0,0,0.1,0,0.2h0l-0.1,0.4v0.1l0,0.2
			c-0.1,0.5-0.2,1-0.2,1.6v1.1c0,0.2,0,0.4-0.1,0.7h0c-0.1,0.4-0.2,0.8-0.2,1.4v0.9l0,0.1l0,0l0,0.3l0,1.2l0,0v0
			c0,0.5,0.2,0.7,0.5,0.7l0.8,0h0.1c0.2-0.1,0.3-0.2,0.3-0.4h0l0,0v0l0,0l0-0.1v-0.1l0-0.1h0l0,0v0l0,0v0l0,0h0l0-0.1l-0.1-1.4
			l0-0.4c-0.1-1.2-0.2-2.3-0.2-3.3l0-0.4l-0.1-0.5l0,0v-0.2l0,0l0.1-0.4c0-0.7-0.1-1-0.1-1l0,0l-0.1-0.8c-0.1-0.2-0.2-0.3-0.2-0.4
			l0-0.3l-0.1-0.1h-0.1C150.6,92.5,150.5,92.5,150.5,92.6z M154.1,96.2L154.1,96.2c0,0.2,0,0.3-0.1,0.3c-0.1,0-0.1-0.1-0.2-0.2
			c0-0.1,0.1-0.1,0.1-0.2h0.1L154.1,96.2z M154.3,111.1L154.3,111.1c-0.1-0.1-0.2-0.2-0.2-0.4l0,0c0.2,0,0.3,0,0.4,0l0,0
			c0.1,0.1,0.1,0.2,0,0.2l0,0l0.1,0.1v0.1l0,0l-0.1,0l0-0.1C154.5,111.1,154.4,111.1,154.3,111.1z M155.1,97.5L155.1,97.5l-0.1,0.2
			h0c-0.1,0-0.1-0.1-0.1-0.2l0.1-0.1L155.1,97.5L155.1,97.5z M155.1,96.7L155.1,96.7l-0.1,0.1l-0.1-0.1v-0.1l0.1-0.1h0.1
			C155.1,96.5,155.1,96.6,155.1,96.7z M155.4,95.4L155.4,95.4v0.2h-0.1l0-0.1v-0.1L155.4,95.4L155.4,95.4z M155.4,111.9h0.1
			c0.1,0,0.1,0.1,0.1,0.2c0,0.1-0.1,0.2-0.2,0.2h0l-0.1-0.1C155.3,112,155.4,111.9,155.4,111.9z"/>
		<path class="st1" d="M156.4,89.1c0.1,0,0.4,0.1,0.8,0.3c0.2,0,0.6,0.3,1,1l0.4,1.3h0l0.3,1.2c0.2,0.5,0.4,1.1,0.5,1.7
			c0.2,0.8,0.3,1.4,0.4,1.6c0.3,0.9,0.4,1.3,0.6,1.3c0.1,0,0.2-0.3,0.3-0.9l0.1-0.2l0-0.4v-0.3l0-0.6l0-0.2l-0.1-1.8l0.1-1.2
			l-0.1-1.6l0-0.3l0-0.1c0.2-0.4,0.3-0.6,0.5-0.6l0.2,0l0.3,0c0.2,0,0.5,0.4,0.9,0.9l0,0.1l0,0c0.1,0.3,0.1,0.8,0.1,1.3
			c0,0.8,0,1.4-0.1,1.7l0,1.1v0.2l0.1,1.7l-0.1,0.6l0.1,0.4l-0.1,0.6h0l-0.2,2h0l-0.1,0.3v0.1l0.1,0.4v0.1l-0.1,0.5l0.2,1.3
			c0,0.4,0.1,0.8,0.2,1.3v0.1c0,0.4-0.1,0.8-0.2,1.2l0,0.4v0.3l-0.4,1.1c0,0.2,0,0.3,0.1,0.5l0,0l0.1,1.2l0,0.7l0,0.4
			c-0.1,0.6-0.2,0.9-0.3,0.9c0,0.1-0.1,0.1-0.4,0.1c-0.2,0-0.5-0.1-0.7-0.4c-0.2-0.1-0.3-0.3-0.3-0.5c-0.1-0.1-0.1-0.2-0.1-0.3
			l0.1-0.4c0-0.1,0-0.3-0.1-0.4l0-0.2v-0.2l0-0.4h0l-0.2-1.3v-0.1l0-0.5L160,105l-0.1-0.1h0l-0.2-0.7h0l-0.2-0.8l0,0
			c0-0.4-0.1-0.8-0.2-1.1h0l-0.2-0.7h0c-0.2-0.6-0.3-1.2-0.4-1.8l-0.4-1.9c-0.3-1.3-0.5-1.9-0.7-1.9h-0.1c-0.1,0.1-0.2,0.3-0.2,0.4
			v0.2l-0.1,1.5v0.2l0,0.4l0,0.2l0,0.5l-0.1,0.5l0.2,1.5v1c0,1,0.1,1.7,0.2,2l0,0.2v0.4l0,0.2l-0.1,1c0.1,0.4,0.1,0.7,0.1,0.9
			c0,0.2-0.1,0.6-0.2,1.1v0.4l0,0.2l-0.2,1l0,0v0.5l0.1,0.6c0,0.2-0.1,0.3-0.4,0.5l-0.1,0l-0.5-0.2c-0.6-0.4-0.9-0.9-0.9-1.4
			c0.1-0.3,0.1-0.9,0.2-1.8c0,0,0.1-0.3,0.1-1v-0.6l0,0l0,0l-0.1-0.5v-0.2l0.1-0.6h0l0,0v-0.2l-0.3-2.9l0.1-0.5
			c0-0.2-0.1-0.7-0.2-1.4l0-0.3l0-0.2v0l0,0l0.1-0.6v-0.4l0-1.4l0.2-1.5v-0.3l0.1-0.6l-0.1-0.4l0.1-0.4l-0.2-1.2v-0.3l-0.1-1.7
			l0-0.2l0-0.7C155.5,89.3,155.8,89.1,156.4,89.1z"/>
		<path class="st1" d="M165.5,88.4l0.2,0c0.6,0,1.4,0.3,2.4,0.7c0.5,0.2,0.9,0.6,1.4,1.1c0.2,0.3,0.4,0.5,0.5,0.8
			c0.1,0.1,0.1,0.6,0.2,1.3v0l-0.1,0.8l0,0.3c0,0.4-0.1,0.8-0.1,1.1l0,1.1l0,0.3c0.1,0.5,0.1,1.3,0.1,2.1l0,0.1l-0.1,0.9
			c0,0.1,0,0.5,0,1.4v0.1l-0.1,0.5l0.2,2.1l0,0.2l-0.2,0.9c0.1,0.4,0.1,1.2,0.1,2.2l-0.1,0.8l0,0.1l0,1.1c0,0.3-0.2,0.9-0.5,1.8
			c-0.2,0.2-0.4,0.4-0.7,0.7c-0.6,0.4-1,0.5-1.3,0.5c-0.1,0.1-0.6,0.1-1.7,0.1c0,0-0.1,0-0.2,0v0c-0.2,0-0.3,0.1-0.5,0.1
			c-0.3,0-0.5-0.2-0.8-0.6c-0.2-0.3-0.4-0.6-0.3-0.7c0.1-0.5,0.2-1,0.3-1.3c-0.1-0.2-0.1-0.3-0.1-0.4l0-0.8c0-0.4,0-0.6,0-0.6l0-0.1
			l0-0.8c0-1,0-1.7-0.1-2l0-0.3c0-0.7,0-1.2-0.1-1.8l0-0.2v-0.8l0.1-0.4c0-0.2-0.1-0.9-0.1-2.2l0.1-1.5l0.1-2.2l-0.1-1.1l0.1-0.5
			c-0.1-0.3-0.2-0.9-0.2-1.9c0,0,0-0.4,0-1.1c-0.3-0.5-0.5-0.8-0.6-1c0.2-0.5,0.5-0.7,0.8-0.7L165.5,88.4z M165.7,90.7
			c0,0.7,0,1.2,0.1,1.6l-0.1,0.4c0.1,0.2,0.1,0.9,0.1,1.9c0,0.4,0.1,0.9,0,1.4l0,0.4l0,0.3l-0.1,0.7l0,0.2l-0.1,0.7l0.1,0.8l0,0.3
			l0,1.6l-0.1,0.6l0.1,0.7l-0.1,0.4l0.1,0.6l0,0.2v0.2l0.1,2.2l-0.1,1v0.1l0.1,2.2l0,0.3c0,0.3,0.1,0.4,0.3,0.4l0.2,0
			c0.5,0,0.9-0.1,1.3-0.5c0.2-0.1,0.3-0.7,0.4-1.6l0-0.1l-0.1-0.5l0.1-1.7l0-0.8l0-0.3l0-0.3l0.1-0.5v-0.1c0-0.4,0-0.9-0.1-1.5
			l0-0.3l0-0.7l0-0.9l0-0.6l0.1-0.4l-0.1-2.4l0-0.3l0-0.4l0-0.8l0-0.3l0-0.3l0.1-0.7v-0.1l0.1-0.5l0-0.4l0-0.5c0-0.4,0-0.8-0.2-1.2
			c-0.3-0.5-0.8-0.7-1.6-0.7c-0.5,0-0.7,0.1-0.7,0.4L165.7,90.7z"/>
		<path class="st1" d="M172.5,89c0.3,0,0.5,0.2,0.7,0.6c0.1,0.1,0.2,0.3,0.2,0.8h0c0.1,0.2,0.1,0.3,0.1,0.5v0.3l-0.1,0.5v0.4
			c-0.1,0.3-0.1,0.6-0.1,1c0.1,0.3,0.1,0.6,0.1,1l0,0.1h0l0,0.2l0,0.2v0.1l-0.1,1.2c0,0.3,0,0.6,0,0.9l0,0c0,0.2,0.1,0.4,0.2,0.7h0
			c0.1,0.1,0.1,0.4,0.1,0.8l0,0.3l0.1,0.5l-0.1,2.2l0,1.3l0,0.2c0,0.1,0,0.3,0,0.5v0.3c0,0.2,0,0.3,0.1,0.4l0,0l0,1.2v0.2l0,0v0h0
			c0.1,0.2,0.2,0.6,0.2,1.4c0,0.6-0.1,1-0.1,1.2l0.1,1.2l0,0.2v0.3l0,0.4c0,0.3-0.2,0.6-0.5,0.8h-0.1c-0.5-0.1-0.7-0.2-0.7-0.3
			l0-0.1c-0.3-0.3-0.5-0.5-0.5-0.6v-0.6l0-0.7l0-0.4l0-1.3v-0.3c0-0.3-0.1-1.2-0.3-2.6l-0.1-0.9V103l0,0l0,0v-0.7l0-0.8l0-0.7l0-0.3
			l0,0v-0.6l0.1-0.7c-0.1-1-0.2-1.7-0.3-2.1l0-0.1h0c-0.1-0.2-0.1-0.7-0.1-1.3h0l0,0v-0.4l0,0l0,0c0.1-0.7,0.1-1.4,0.1-1.9l0,0
			c0.1-0.8,0.2-1.2,0.2-1.3v-0.1l0-0.2l0-0.7l0.1-1.3c0-0.2,0.2-0.4,0.5-0.6l0,0h0l0.1,0L172.5,89z M171.9,107.5L171.9,107.5
			L171.9,107.5l0.2,0L171.9,107.5L171.9,107.5z M173,111L173,111c0.1-0.2,0.2-0.2,0.3-0.2c0.2,0,0.2,0.1,0.2,0.2
			c0,0.1-0.1,0.2-0.3,0.2C173.1,111.2,173,111.1,173,111z M173.4,112.2L173.4,112.2c0-0.1,0.1-0.1,0.2-0.2h0c0.2,0,0.2,0.1,0.2,0.2
			v0l-0.1,0.1h-0.1C173.5,112.3,173.4,112.3,173.4,112.2z M173.6,106.1L173.6,106.1l0.2,0l0,0l0,0.1L173.6,106.1L173.6,106.1z
			 M174,110.9L174,110.9c0-0.1,0.1-0.1,0.2-0.1c0.2,0,0.2,0.1,0.2,0.2l-0.1,0.1h-0.2C174,111,174,111,174,110.9z M174.1,109.6
			l0.2-0.1h0c0.2,0,0.3,0.1,0.3,0.2c0,0.1-0.1,0.1-0.2,0.2h-0.2C174.2,109.9,174.1,109.8,174.1,109.6z M174.4,107.6L174.4,107.6
			l0.1-0.1h0l0.1,0.1v0l-0.1,0.1L174.4,107.6L174.4,107.6z M174.5,112L174.5,112c0-0.2,0.1-0.2,0.2-0.2s0.2,0.1,0.3,0.2
			c0,0.1-0.1,0.1-0.2,0.1h-0.2L174.5,112z M174.9,105.9L174.9,105.9l0.1-0.1h0c0.1,0,0.2,0,0.2,0.1l-0.1,0.1H175L174.9,105.9z
			 M176.3,106.3L176.3,106.3L176.3,106.3h0.1v0L176.3,106.3L176.3,106.3z"/>
		<path class="st1" d="M175.8,89.1c0.1,0,0.4,0.1,0.8,0.3c0.2,0,0.6,0.3,1,1l0.4,1.3h0l0.3,1.2c0.2,0.5,0.4,1.1,0.5,1.7
			c0.2,0.8,0.3,1.4,0.4,1.6c0.3,0.9,0.4,1.3,0.6,1.3c0.1,0,0.2-0.3,0.3-0.9l0.1-0.2l0-0.4v-0.3l0-0.6l0-0.2l-0.1-1.8l0.1-1.2
			l-0.1-1.6l0-0.3l0-0.1c0.2-0.4,0.3-0.6,0.5-0.6l0.2,0l0.3,0c0.2,0,0.5,0.4,0.9,0.9l0,0.1l0,0c0.1,0.3,0.1,0.8,0.1,1.3
			c0,0.8,0,1.4-0.1,1.7l0,1.1v0.2l0.1,1.7l-0.1,0.6l0.1,0.4l-0.1,0.6h0l-0.2,2h0l-0.1,0.3v0.1l0.1,0.4v0.1l-0.1,0.5l0.2,1.3
			c0,0.4,0.1,0.8,0.2,1.3v0.1c0,0.4-0.1,0.8-0.2,1.2l0,0.4v0.3l-0.4,1.1c0,0.2,0,0.3,0.1,0.5l0,0l0.1,1.2l0,0.7l0,0.4
			c-0.1,0.6-0.2,0.9-0.3,0.9c0,0.1-0.1,0.1-0.4,0.1c-0.2,0-0.5-0.1-0.7-0.4c-0.2-0.1-0.3-0.3-0.3-0.5c-0.1-0.1-0.1-0.2-0.1-0.3
			l0.1-0.4c0-0.1,0-0.3-0.1-0.4l0-0.2v-0.2l0-0.4h0l-0.2-1.3v-0.1l0-0.5l-0.2-1.1l-0.1-0.1h0l-0.2-0.7h0l-0.2-0.8l0,0
			c0-0.4-0.1-0.8-0.2-1.1h0l-0.2-0.7h0c-0.2-0.6-0.3-1.2-0.4-1.8l-0.4-1.9c-0.3-1.3-0.5-1.9-0.7-1.9h-0.1c-0.1,0.1-0.2,0.3-0.2,0.4
			v0.2l-0.1,1.5v0.2l0,0.4l0,0.2l0,0.5l-0.1,0.5l0.2,1.5v1c0,1,0.1,1.7,0.2,2l0,0.2v0.4l0,0.2l-0.1,1c0.1,0.4,0.1,0.7,0.1,0.9
			c0,0.2-0.1,0.6-0.2,1.1v0.4l0,0.2l-0.2,1l0,0v0.5l0.1,0.6c0,0.2-0.1,0.3-0.4,0.5l-0.1,0l-0.5-0.2c-0.6-0.4-0.9-0.9-0.9-1.4
			c0.1-0.3,0.1-0.9,0.2-1.8c0,0,0.1-0.3,0.1-1v-0.6l0,0l0,0l-0.1-0.5v-0.2l0.1-0.6h0l0,0v-0.2l-0.3-2.9l0.1-0.5
			c0-0.2-0.1-0.7-0.2-1.4l0-0.3l0-0.2v0l0,0l0.1-0.6v-0.4l0-1.4l0.2-1.5v-0.3l0.1-0.6l-0.1-0.4l0.1-0.4l-0.2-1.2v-0.3l-0.1-1.7
			l0-0.2l0-0.7C175,89.3,175.3,89.1,175.8,89.1z"/>
		<path class="st1" d="M186.3,88c0.7,0,1.4,0.5,2.2,1.5c0.5,0.7,0.7,1.2,0.7,1.6c0.1,0.1,0.1,0.4,0.1,1v0.7l-0.1,1.5V95
			c0,0.2-0.2,0.4-0.5,0.6h-0.2c-0.2,0-0.5-0.2-0.9-0.6c-0.2-0.2-0.2-0.4-0.2-0.6c0.1-0.3,0.1-0.6,0.1-1.1c0,0,0.1-0.1,0.1-0.4l0-0.6
			l0.1-0.5v0c-0.2-1.3-0.5-2-0.8-2c0,0,0,0-0.1,0h-0.1c-0.3,0-0.5,0.1-0.7,0.3c-0.1,0.3-0.3,0.6-0.4,1.2c-0.1,0.2-0.2,0.5-0.2,0.9
			v0.1l0,0c-0.1,0.5-0.1,1.1-0.2,1.6c-0.1,0.2-0.1,0.4-0.1,0.6c0,0.7,0,1.1,0.1,1.1l0,0l0,0.1v0.2l0.1,1.1l-0.1,0.9l0,0.4l0,0.9
			l0.1,1.3l-0.1,0.6l0.1,0.9l0,0.4c0.2,1.5,0.3,2.5,0.4,2.9v0.5l0.1,0.6v0.6c0,0.2,0.1,0.8,0.4,1.8l0.1,0.9l-0.1,0.4
			c0.1,0.2,0.2,0.3,0.3,0.3h0c0.2,0,0.5-0.4,0.8-1.1c0.1-0.2,0.2-0.5,0.2-1c0,0,0.1-0.1,0.1-0.3l0-0.6l0-0.8l0-0.3l0-0.6l-0.1-0.5
			l0-0.4l-0.3-1.9v-0.7l0,0c-0.1-0.2-0.1-0.7-0.1-1.4c-0.1-0.4-0.3-0.6-0.4-0.6c-0.5-0.3-0.7-0.6-0.7-0.7c-0.1-0.1-0.1-0.1-0.1-0.2
			c0-0.3,0.3-0.4,0.9-0.5l0.4,0h0.4l0.2,0v0c0.3,0.1,0.8,0.2,1.4,0.2c0.2,0,0.5,0.2,0.7,0.4c0.1,0.3,0.2,0.5,0.2,0.6
			c0,0.2-0.2,0.3-0.5,0.5c-0.3,0.1-0.5,0.2-0.5,0.5c0,0.1-0.1,0.2-0.1,0.3l0.2,0.6l-0.1,0.4c0.1,0.2,0.1,0.6,0.1,1.3
			c0.1,0.7,0.2,1.1,0.2,1.3l0,0.6l0.1,0.8l0,0.4l0.1,0.4v1.3c-0.1,0.7-0.2,1.1-0.3,1.3c0,0.2-0.1,0.5-0.3,0.9
			c-0.1,0.4-0.3,0.7-0.7,1.1c-0.1,0.2-0.5,0.5-1.2,0.7h-0.2c-0.5,0-1-0.2-1.6-0.7c-0.5-0.5-0.7-0.9-0.7-1.3c0-0.6-0.2-1.5-0.5-2.6
			v-0.4l-0.1-0.4l0-0.2c0-0.8-0.1-1.8-0.3-2.9l-0.1-1v-1l-0.1-2.1l0-0.3l-0.1-0.5c0-0.2,0-0.5,0.1-0.8l0-0.2l0-0.9v-0.8l-0.1-0.9
			l0-0.5l0-0.5c0.1-0.3,0.1-0.9,0.2-1.8v-0.8c0-0.2,0.1-0.4,0.3-0.7c0,0,0.1-0.2,0.1-0.6c0.2-0.7,0.5-1.2,0.9-1.6
			c0.4-0.5,0.9-0.7,1.6-0.7H186.3z"/>
	</g>
	<g>
		<g>
			<g>
				<g>
					<path class="st3" d="M18.8,7.4l3.1,24.8h5.7L24.5,6.7C24,3,20.6,0,16.8,0H0v5.7h16.8C17.7,5.7,18.7,6.5,18.8,7.4z"/>
				</g>
			</g>
			<g>
				<path class="st4" d="M21.6,81.1c3.1,0.7,5.9,2.3,8.8,3.8c8.5,4.4,17.7,7.4,27.1,9.5c3,0.7,6.1,1.2,9.1,1.5l6.6-63.6H4L10,81.3
					c1.5-0.2,2.9-0.4,4.4-0.5C16.8,80.6,19.2,80.6,21.6,81.1z"/>
				<path class="st2" d="M57.5,94.4c-9.4-2.1-18.6-5.1-27.1-9.5c-2.8-1.5-5.7-3.1-8.8-3.8c-2.4-0.5-4.9-0.5-7.3-0.3
					c-1.5,0.1-2.9,0.3-4.4,0.5l2.1,17c7.4-4.2,16.2-6.1,24.7-5.3c6.6,0.6,12.9,2.8,19.3,4.4c3.3,0.8,6.7,1.5,10.1,1.7l0.4-3.2
					C63.6,95.6,60.5,95,57.5,94.4z"/>
				<path class="st4" d="M36.8,93c-8.5-0.8-17.3,1.1-24.7,5.3l4.9,39.4h44.4l4.8-38.7c-3.4-0.2-6.8-0.9-10.1-1.7
					C49.7,95.8,43.4,93.6,36.8,93z"/>
			</g>
		</g>
	</g>
</g>
<g>
</g>
<g>
</g>
<g>
</g>
<g>
</g>
<g>
</g>
</svg>
