<?xml version="1.0" encoding="utf-8"?>
<!-- Generator: Adobe Illustrator 21.0.0, SVG Export Plug-In . SVG Version: 6.00 Build 0)  -->
<svg version="1.1" id="Capa_1" xmlns="http://www.w3.org/2000/svg" xmlns:xlink="http://www.w3.org/1999/xlink" x="0px" y="0px"
	 viewBox="0 0 45.8 61.1" style="enable-background:new 0 0 45.8 61.1;" xml:space="preserve">
<style type="text/css">
	.st0{fill:#6E4012;}
	.st1{fill:#FFC900;}
	.st2{fill:#FFFFFF;}
</style>
<g>
	<path class="st0" d="M9.2,24.7c-0.2-0.5-0.9-0.8-1.4-0.6c0,0.3,0,0.6,0.1,1c-0.5,0-0.9,0.2-1.3,0.6c0-0.4,0-0.8,0-1.2
		C5.8,25,5,25.6,4.3,26.3c-0.2,0.2-0.3,0.4-0.3,0.6c0,0.2,0.4,0.4,0.5,0.2c0,0.5-0.6,0.9-1.1,0.7c0.1,0.3,0.3,0.5,0.6,0.6
		c-0.9,1.8-2.1,3.4-3.5,4.8c0.1,0.3,0.4,0.4,0.7,0.5c0.3,0.5-0.2,1.1-0.7,1.4s-0.9,1.1-0.4,1.4c0.2,0.1,0.5,0.1,0.7,0.1
		c0.8-0.1,1.7,0.4,2.1,1.1c-1.2,0.9-0.8,3.2,0.7,3.6c0.5,0.1,1.1,0.1,1.4,0.4s0.2,1.2-0.3,1c1.4,0.4,2,2,2.4,3.3
		c0.4,1.3,0.8,2.6,1.3,3.9C8.8,50.7,9,51.4,9.4,52c0.5,0.7,1.2,1.1,1.8,1.6c1.8,1.2,3.6,2.5,5.8,2.9c2.2,0.4,4.4,0,6.6,0.3
		c3.2,0.5,6.6,4.1,9.9,4.3c0.3,0,0.1-1.3,0.4-1.4c0.4-0.2,0.5-0.7,0.7-1c0.7-1.3,2.3-1.8,3.8-1.7c1.5,0.1,2.8,0.8,4,1.6
		c1.4-2.2,1.7-5.1,0.9-7.6c0.1-0.7,0.4-1.4,0.9-1.9c-0.2-0.2-0.5-0.5-0.7-0.7c0.4,0.1,0.8-0.4,0.8-0.9c-0.1-0.5-0.4-0.8-0.6-1.2
		c-0.7-1.1-0.7-2.6,0-3.7c0.6-0.1,1.2-0.1,1.7,0.1c0.4-0.5,0.5-1.2,0.3-1.8c-0.8,0.3-1.8,0.1-2.3-0.5c-0.6-0.6-0.7-1.6-0.3-2.4
		c-0.3,0-0.5-0.1-0.8-0.1c-0.3-2.5,0.3-5.1,1.8-7.2c-0.4-1.2-1.6-1.9-2.6-2.8c-1-0.8-1.9-2.2-1.2-3.3c-1.9-0.7-3.9-1.5-5.8-2.2
		c-0.7-0.3-1.5-0.6-1.7-1.3c-0.3-1.1,0.8-2,1.2-3c1-2.7-3-5.2-2.4-8c-1-1-2.7-1.5-4.1-1.1c-0.2,0.1-0.4,0.4-0.2,0.4
		c-1.3-0.4-2.8-1.3-2.6-2.6c0.1-1.1,2.1-2.4,2.4-3.5c0.2-0.7-0.6-2.8-1.2-3.1s-1.6,0-2.1,0.5c-0.3,0.3-0.6,2.5-1.1,2.5
		c-0.3,0-0.4-0.3-0.7-0.3c-0.4,0-0.7,0.4-0.7,0.9c0,1.1,0.9,2.5,0,3.3c-0.8-0.2-1.5-0.4-2.3-0.6c-0.1,0.8,0.7,1.3,1.3,1.7
		c0.7,0.4,1.4,1.1,1,1.8c-1.2-0.4-2.3-0.7-3.5-1.1c-0.3-0.1-0.7-0.2-1.1,0c-0.3,0.2-0.4,0.5-0.6,0.8c-0.3,0.8-0.6,1.6-1,2.4
		C15.1,12.3,15,12.6,15,13c0.1,0.5,0.4,0.9,0.7,1.3c0.3,0.4,0.4,1,0,1.3c-0.6,0.2-0.8,1-0.5,1.5c-0.3-0.1-0.7,0.2-0.7,0.5
		c-0.1,0.3,0,0.7,0,1c-0.1,1.4-1.5,2.2-2.8,2.8c-1.2,0.6-2.6,1.8-2.3,3.1"/>
</g>
<g>
	<g>
		<path class="st1" d="M19.3,34.4c0.1-1.3,1.2-2.3,2.3-2.9c1.1-0.6,2.4-1.1,3.7-0.8c0.5,0.1,1.1,0.4,1.5,0.8
			c1.4,1.2,2.1,3.4,1.5,5.2c-0.6,1.8-2.2,3.5-4.1,3.5C18.2,40.4,19.2,35.5,19.3,34.4z"/>
	</g>
	<g>
		<path class="st2" d="M23.2,34.4c0.2-0.4,0.3-0.9,0.5-1.3c0.1-0.2,0.1-0.4,0.3-0.5c0.2,0.6,0.4,1.1,0.6,1.7c0,0,0,0.1,0,0.1
			c0,0,0,0,0.1,0c0.6,0.1,1.3,0.2,1.9,0.4c-0.5,0.4-1,0.8-1.4,1.2c0.2,0.6,0.4,1.3,0.5,1.9c-0.6-0.2-1.1-0.6-1.5-1
			c0,0-0.1-0.1-0.1-0.1c0,0-0.1,0-0.1,0c-0.5,0.3-1.1,0.6-1.6,0.9c0.1-0.5,0.3-1.1,0.4-1.6c0,0,0-0.1,0-0.1c0,0,0,0-0.1-0.1
			c-0.4-0.3-0.8-0.6-1.2-0.8c-0.1-0.1-0.3-0.2-0.4-0.4c0.7,0,1.4-0.1,2.1-0.1L23.2,34.4z"/>
	</g>
</g>
<g>
</g>
<g>
</g>
<g>
</g>
<g>
</g>
<g>
</g>
</svg>
