<?xml version="1.0" encoding="utf-8"?>
<!-- Generator: Adobe Illustrator 21.0.0, SVG Export Plug-In . SVG Version: 6.00 Build 0)  -->
<svg version="1.1" id="Capa_1" xmlns="http://www.w3.org/2000/svg" xmlns:xlink="http://www.w3.org/1999/xlink" x="0px" y="0px"
	 viewBox="0 0 51 38.1" style="enable-background:new 0 0 51 38.1;" xml:space="preserve">
<style type="text/css">
	.st0{fill:#E3294D;}
</style>
<path class="st0" d="M4.2,1.4c-1,0.1-2,0.2-2.7,1.7C0.8,4.4,0.7,6.6,0.6,8.6C0.1,16.8-0.1,25.2,0,33.5c0,0.7,0,1.5,0.2,2.1
	c0.3,1,0.9,1.2,1.5,1.3c15.4,1.9,30.8,1.7,46.1-0.5c1.1-0.2,2.3-0.5,2.8-2.6c0.2-0.9,0.3-2,0.3-3.1c0.2-8.4-0.1-16.9-0.8-25.2
	c-0.1-0.7-0.1-1.5-0.4-2c-0.4-0.9-1-1-1.5-1C42.5,2.2,36.7,1.6,31,0.6c-5.6-1-11.2-0.4-16.8,0C10.9,0.8,7.6,1.1,4.2,1.4z"/>
<g>
</g>
<g>
</g>
<g>
</g>
<g>
</g>
<g>
</g>
</svg>
