<?xml version="1.0" encoding="utf-8"?>
<!-- Generator: Adobe Illustrator 21.0.0, SVG Export Plug-In . SVG Version: 6.00 Build 0)  -->
<svg version="1.1" id="Capa_1" xmlns="http://www.w3.org/2000/svg" xmlns:xlink="http://www.w3.org/1999/xlink" x="0px" y="0px"
	 viewBox="0 0 391.2 316.8" style="enable-background:new 0 0 391.2 316.8;" xml:space="preserve">
<style type="text/css">
	.st0{fill:#6E4012;}
</style>
<g>
	<path class="st0" d="M0,3.9c2.2,42.7,1.4,102.3,1.9,160.9c0.5,51.5,2.6,102.5,1,140c-0.1,2.6-0.5,8.2,0.5,10.7
		c0.8,1.9,4.8,1.3,7.6,0.6c-1.7-25.2,0-55.9,0-89c0.1-74.8,0.7-161.1-2.6-218.2C8.3,6.2,8.1,3.4,6.3,1.3S-0.2-0.7,0,3.9z"/>
</g>
<g>
	<path class="st0" d="M388.4,305.8c-37.6,2.7-180,2.4-266.7,2.5c-47,0-88.2,1.7-108.6,0.5c-1.9-0.1-7-0.7-8.7,0.5s0,4.7,0.6,7.5
		c11.6-1.1,29.5,0.3,51.3,0c89.9-1.1,280.6,1.2,328.4-2.6c1.9-0.2,3.9-0.4,5.4-2.1C391.7,310.3,391.7,305.5,388.4,305.8z"/>
</g>
</svg>
