<?xml version="1.0" encoding="utf-8"?>
<!-- Generator: Adobe Illustrator 21.0.0, SVG Export Plug-In . SVG Version: 6.00 Build 0)  -->
<svg version="1.1" id="Capa_1" xmlns="http://www.w3.org/2000/svg" xmlns:xlink="http://www.w3.org/1999/xlink" x="0px" y="0px"
	 viewBox="0 0 61.8 234.2" style="enable-background:new 0 0 61.8 234.2;" xml:space="preserve">
<style type="text/css">
	.st0{fill:#6E4012;}
</style>
<g>
	<path class="st0" d="M40.3,4.9c-2.1-2-4.3-4.1-7.2-4.7S26.5,1,25.7,3.9l1.1-1.1C18.2,12.4,9.9,22.4,2,32.6c-0.9,1.2-1.9,2.6-2,4.1
		c-0.1,1.5,1.1,3.1,2.6,2.8c0.8-0.2,1.4-0.8,2-1.4c7.9-8.4,15.5-17.1,22.9-26c-0.7,15.1-1.1,30.1-1.3,45.2
		c-0.7,46.7-0.2,93.3,1.7,139.8c0.5,12.5,1.1,24.9,2.8,37.2c2.7-0.1,5-2.5,6-5c1-2.6,0.8-5.3,0.7-8c-2.4-48.1-6.8-96.3-3.3-144.7
		c0.4-5.8,0.9-11.6,0.3-17.4c-0.4-4.3-1.5-8.6-1.9-12.9c-0.5-5.1-0.1-10.3,0.3-15.5c0.5-6.6,1.1-13.2,1.6-19.8
		c6.4,6.6,12.7,13.3,19.1,19.9c1,1,2,2.1,3.4,2.6c1.3,0.5,3.1,0.4,4.2-0.7c1.8-1.9,0.5-4.8-1-6.8C54.2,18.1,47.3,11.5,40.3,4.9z"/>
</g>
</svg>
