<?xml version="1.0" encoding="utf-8"?>
<!-- Generator: Adobe Illustrator 21.0.0, SVG Export Plug-In . SVG Version: 6.00 Build 0)  -->
<svg version="1.1" id="Capa_1" xmlns="http://www.w3.org/2000/svg" xmlns:xlink="http://www.w3.org/1999/xlink" x="0px" y="0px"
	 viewBox="0 0 110.6 151.2" style="enable-background:new 0 0 110.6 151.2;" xml:space="preserve">
<style type="text/css">
	.st0{fill:#6E4012;}
</style>
<path class="st0" d="M108.7,108.4c-3.7-21.5-6.1-43.2-7.3-65c-0.5-9.4-0.8-19,1.8-28c0.3-1,0.6-2,1.3-2.7c0.5-0.5,1.2-0.8,1.7-1.4
	c0.5-0.7,0.5-1.6,0.5-2.4c0-2.9-0.1-5.9-0.1-8.8C89.3,0.8,72.2,1.3,55,1.6C37.9,1.3,20.7,1,3.6,0.2c0,2.9-0.1,5.9-0.1,8.8
	c0,0.8,0,1.7,0.5,2.4c0.4,0.6,1.1,0.9,1.7,1.4c0.7,0.7,1.1,1.7,1.3,2.7c2.6,9,2.4,18.6,1.9,28c-1.1,21.8-3.5,43.5-7,65.1
	c-1.1,6.6-2.3,13.2-1.7,19.8s3.3,13.4,8.6,17.1c2.9,2,6.3,3,9.7,3.7c10.5,2.2,21.3,2,32,1.9c1.6,0,3.3,0,4.9-0.1c1.6,0,3.3,0,4.9,0
	c10.7,0.1,21.5,0.2,32-2c3.4-0.7,6.8-1.7,9.7-3.7c5.2-3.7,7.9-10.5,8.5-17.1C111.1,121.6,109.8,115,108.7,108.4z"/>
<g>
</g>
<g>
</g>
<g>
</g>
<g>
</g>
<g>
</g>
</svg>
