<?xml version="1.0" encoding="utf-8"?>
<!-- Generator: Adobe Illustrator 21.0.0, SVG Export Plug-In . SVG Version: 6.00 Build 0)  -->
<svg version="1.1" id="Capa_1" xmlns="http://www.w3.org/2000/svg" xmlns:xlink="http://www.w3.org/1999/xlink" x="0px" y="0px"
	 viewBox="0 0 1024 720" style="enable-background:new 0 0 1024 720;" xml:space="preserve">
<style type="text/css">
	.st0{fill:#FFCA00;}
</style>
<path class="st0" d="M984.6,369.3c2.1-2.7,4.2-5.5,6.7-7.9c4.2-4,7.8-8.7,12.6-12.1c0.1-0.1,0.1-0.2,0.2-0.4c-0.4-0.5-0.7-1-1.1-1.6
	c-3.9-5.1-7.9-10.2-11.9-15.2c-1.7-2.1-3.6-4.1-5.4-6.2c-0.8-1-1.7-1.9-2.5-2.9c-0.6-0.8-0.9-1.6-0.4-2.6c0.6-1.1,1-2.4,1.8-3.3
	c3.3-3.9,6.4-8.1,10.3-11.5c1.9-1.7,3.4-3.6,5.2-5.5c-0.4-0.6-0.5-1-0.8-1.4c-2.2-2.8-4.3-5.6-6.5-8.4c-2.3-3-4.5-6.1-7.3-8.6
	c-0.8-0.7-1.4-1.5-2-2.3c-0.9-1-1-2-0.3-3.2c0.7-1.2,1.3-2.5,2.1-3.5c3.5-4,6.6-8.3,10.7-11.7c0.9-0.7,1.6-1.7,2.3-2.5
	c0.8-0.9,1.6-1.9,2.4-2.8c-0.5-0.7-0.9-1.3-1.3-1.8c-4.8-5.9-9-12.2-14.3-17.6c-3-3.1-2.9-3.8-0.4-7.4c0.1-0.2,0.2-0.4,0.4-0.6
	c3.4-3.8,6.5-8,10.4-11.5c1.8-1.6,3.3-3.5,4.9-5.3c-0.6-0.8-1-1.5-1.5-2.1c-4.8-6-9.2-12.3-14.6-17.8c-2.2-2.2-1.5-3-0.5-5.2
	c0.3-0.6,0.7-1.2,1.1-1.7c3.4-3.9,6.4-8.1,10.3-11.5c1.2-1.1,2.2-2.3,3.3-3.5c1.1-1.1,2.2-2.3,3.3-3.4c-0.6-0.8-1-1.5-1.5-2.1
	c-5.2-6.4-9.8-13.3-15.6-19.2c-2.3-2.3-2.4-2.9-0.5-6.3c0.3-0.5,0.6-1,1-1.4c3.5-3.9,6.7-8.2,10.7-11.7c1.7-1.5,3.2-3.2,4.4-5.3
	c-2.5-3.2-4.8-6.2-7.2-9.3c-2.3-3-4.5-6.1-7.3-8.6c-0.8-0.8-1.5-1.7-2.3-2.6c-0.6-0.8-0.9-1.6-0.4-2.6c0.6-1.2,1.2-2.5,2-3.6
	c3.4-3.9,6.4-8.1,10.4-11.5c2-1.7,3.6-3.8,5.3-5.9c-0.6-0.8-1.1-1.6-1.7-2.3c-2.6-3.4-5.2-6.7-7.8-10c-1.7-2-3.5-4-5.2-6
	c-0.8-0.9-1.7-1.9-2.5-2.9c-0.7-0.9-1-1.8-0.4-2.9c0.9-1.5,1.7-3,2.8-4.3c3.3-3.9,6.5-8,10.4-11.4c1.5-1.3,2.6-2.9,3.9-4.3
	c-0.2-0.5-0.2-0.8-0.4-1.1c-3.9-5-7.8-10-11.7-14.9c-0.3-0.4-0.8-0.7-1.3-1c-0.7,0.5-1.3,0.9-1.8,1.3c-4.4,3.4-8.9,6.8-13,10.7
	c-2.5,2.4-9.3,2.3-12.3,0.4c-0.4-0.2-0.8-0.5-1.1-0.8c-3.7-3.4-7.9-6.3-11.2-10.1c-1.1-1.3-2.4-2.4-3.8-3.5
	c-1.3-1.1-2.7-1.1-4.1-0.1c-0.6,0.4-1.1,0.8-1.6,1.3c-5.5,4.3-11.2,8.4-16.2,13.4c-1.5,1.5-3,1.5-4.6,0.6c-0.6-0.3-1.2-0.6-1.8-1.1
	c-3.1-2.7-6.3-5.3-9.4-8.1c-2-1.8-3.8-3.7-5.6-5.5c-0.9-0.9-1.9-1.2-3.1-1.2c-1.4,0-2.4,0.5-3.4,1.4c-5.6,4.5-11.5,8.7-16.7,13.8
	c-2,1.9-2.8,1.9-5.2,0.6c-0.5-0.3-1-0.6-1.4-0.9c-3.1-2.7-6.3-5.3-9.4-8.1c-2-1.8-3.7-3.7-5.7-5.5c-1.7-1.6-3.1-1.7-4.9-0.2
	c-5.3,4.3-11,7.9-15.7,12.8c-0.7,0.7-1.6,1.3-2.3,2c-1,0.9-2.1,1-3.2,0.4c-1.4-0.8-2.8-1.6-4-2.6c-3.9-3.3-8-6.5-11.4-10.5
	c-0.7-0.9-1.7-1.5-2.6-2.3c-0.7-0.7-1.5-1-2.5-0.9c-0.8,0-1.6,0.1-2.4,0c-1.2-0.1-2.2,0.3-3.2,1.1c-5.2,4.3-11,8-15.7,12.9
	c-0.6,0.6-1.2,1-1.8,1.6c-1.2,1.3-2.6,1.3-4.1,0.5c-1.3-0.8-2.6-1.5-3.7-2.5c-3.9-3.3-8-6.5-11.4-10.5c-0.7-0.9-1.7-1.6-2.6-2.3
	c-1.3-1-2.6-1-4.1-0.1c-0.7,0.5-1.3,1-1.9,1.5c-5.4,4.3-11,8.3-15.9,13.2c-1.6,1.6-3.5,1.7-5.3,0.7c-1.5-0.8-2.9-1.8-4.2-2.9
	c-3.9-3.2-7.8-6.4-11.1-10.3c-0.6-0.7-1.4-1.2-2.1-1.8c-1.8-1.4-2.8-1.5-4.6-0.1c-5.2,4.3-11,7.9-15.7,12.8c-0.7,0.7-1.6,1.3-2.3,2
	c-1,0.9-2.1,1-3.2,0.5c-1.1-0.5-2.3-1.1-3.3-1.9c-3.9-3.4-8.1-6.4-11.5-10.3c-1-1.2-2.3-2.3-3.5-3.3c-1.4-1.1-2.5-1.1-4-0.1
	c-0.5,0.3-0.9,0.7-1.4,1.1c-5.6,4.4-11.4,8.5-16.4,13.6c-1.5,1.5-3.3,1.7-5,0.8c-1.5-0.8-3-1.7-4.3-2.8c-3.9-3.2-7.8-6.4-11.1-10.2
	c-0.7-0.9-1.7-1.6-2.6-2.3c-1.3-1.1-2.7-1.1-4.1-0.1c-0.7,0.4-1.3,1-1.9,1.5c-5.2,4.1-10.6,8-15.4,12.7c-2.5,2.4-3.2,2.3-6,0.6
	c-0.5-0.3-1-0.6-1.4-1c-3.6-3.3-7.7-6.1-11-9.9c-1.4-1.6-3.1-3-4.7-4.6c-1.6,0-3.1-0.1-4.5,0c-0.8,0.1-1.6,0.3-2.2,0.8
	c-5.2,4.2-10.8,7.8-15.5,12.6c-0.9,0.9-1.9,1.7-2.8,2.5c-0.9,0.8-1.9,1-2.9,0.4c-1.5-0.8-3-1.7-4.3-2.8c-3.9-3.3-8-6.5-11.4-10.5
	c-0.8-1-1.8-1.7-2.8-2.5c-1.1-0.9-2.3-0.8-3.5-0.2c-0.7,0.4-1.3,1-1.9,1.4c-5.4,4.3-11,8.2-15.9,13.1c-2.1,2.1-3,1.9-5.5,0.6
	c-0.6-0.3-1.2-0.7-1.7-1.1c-3.8-3.4-7.9-6.3-11.2-10.1c-1.4-1.7-3.1-3.1-4.8-4.3c-1.6-0.1-3-0.3-4.4,0.8c-5.2,4.3-10.9,8-15.7,12.9
	c-0.7,0.7-1.6,1.3-2.3,2c-1.1,1-2.3,1.1-3.5,0.4c-1.4-0.8-2.8-1.6-4-2.6c-4-3.3-8-6.5-11.4-10.5c-0.7-0.8-1.5-1.4-2.3-2
	c-1.7-1.3-3-1.5-4.6-0.1c-5.2,4.3-11,7.9-15.7,12.8c-0.7,0.7-1.6,1.3-2.3,2c-1.1,1-2.3,1.1-3.5,0.4c-1.4-0.8-2.8-1.6-4-2.6
	c-4-3.3-8-6.5-11.4-10.5c-0.6-0.7-1.4-1.2-2-1.8c-0.9-0.9-1.9-1.2-3.1-1.2c-2.2,0.1-4.4,0.1-6.5,0c-1.9-0.1-3.3,0.5-4.7,1.7
	c-5.3,4.4-11,8.3-15.9,13.1c-2.5,2.4-3.3,2.4-6.3,0.5c-0.4-0.2-0.8-0.5-1.1-0.8c-3.9-3.4-8.1-6.4-11.5-10.4c-1-1.2-2.3-2.3-3.5-3.3
	c-1.3-1.1-2.7-1.1-4.1-0.2c-0.7,0.4-1.3,1-1.9,1.5c-5.2,4.1-10.6,8-15.4,12.7c-2.5,2.4-3.3,2.3-6.3,0.5c-0.3-0.2-0.6-0.4-0.9-0.6
	c-3.2-2.8-6.4-5.5-9.6-8.4c-2.2-2-4.3-4.2-6.3-6.2c-2-0.1-3.5-0.3-4.8,0.8c-5.2,4.4-10.9,8-15.7,12.9c-0.7,0.7-1.6,1.3-2.3,2
	c-1,0.9-2.1,1.1-3.2,0.5c-1.5-0.8-3-1.7-4.3-2.8c-4-3.3-8-6.5-11.4-10.5c-0.7-0.8-1.5-1.4-2.3-2c-1.6-1.3-3-1.4-4.6-0.1
	c-5.2,4.3-11,7.9-15.7,12.8c-0.7,0.7-1.6,1.3-2.3,2c-1,0.9-2.1,1.1-3.2,0.5c-1.4-0.8-2.8-1.5-4-2.6c-3.9-3.4-8-6.5-11.4-10.5
	c-0.7-0.9-1.7-1.6-2.6-2.3c-0.3-0.3-0.7-0.7-1.1-0.7c-2.5-0.1-4.9-0.8-7.2,1.1c-5.5,4.5-11.3,8.6-16.5,13.5
	c-2.5,2.4-3.3,2.3-6.3,0.4c-0.4-0.2-0.8-0.5-1.1-0.8c-3.8-3.4-8.1-6.4-11.5-10.4c-1-1.2-2.3-2.2-3.5-3.3c-1.3-1.1-2.7-1.1-4.1-0.1
	c-0.6,0.4-1.1,0.8-1.6,1.3c-5.5,4.3-11.2,8.4-16.2,13.4c-1.5,1.5-2.9,1.6-4.6,0.6c-0.7-0.4-1.4-0.8-2-1.3c-3.3-2.8-6.6-5.7-9.8-8.6
	c-1.7-1.5-3.2-3.3-4.9-4.8c-1.8-1.6-4.1-1.8-5.9-0.3c-5.2,4.3-11,7.9-15.7,12.8c-0.7,0.7-1.6,1.3-2.3,2c-1,0.9-2.1,1.1-3.2,0.5
	c-1.6-0.9-3.2-1.9-4.6-3c-3.9-3.2-7.8-6.4-11.1-10.2c-0.6-0.7-1.3-1.2-2.1-1.8c-1.8-1.5-3.1-1.7-4.9-0.2c-5.2,4.3-11,7.9-15.7,12.8
	c-0.7,0.7-1.6,1.3-2.3,2c-1,0.9-2.1,1-3.2,0.5c-1.1-0.6-2.3-1.1-3.2-1.9c-4-3.4-8.3-6.6-11.7-10.6c-1-1.2-2.3-2.2-3.6-3.2
	c-1-0.8-2.5-0.7-3.4,0.3c-1.5,1.6-3.1,3.1-4.4,4.8c-3.2,4-6.4,8.1-9.5,12.2c-0.4,0.5-0.8,1.1-1.2,1.8c1.8,1.9,3.4,3.9,5.2,5.5
	c3.9,3.5,6.9,7.7,10.3,11.5c0.5,0.6,0.9,1.3,1.3,2c1,1.7,0.9,3.1-0.6,4.6c-2.1,2.1-4.1,4.4-5.9,6.7c-3.2,3.9-6.2,7.9-9.3,11.9
	c-0.5,0.6-0.9,1.3-1.4,2c2,2.1,3.8,4.3,5.8,6.1c3.8,3.4,6.7,7.5,10.1,11.3c0.6,0.7,1,1.5,1.5,2.3c0.9,1.6,0.8,3-0.6,4.4
	c-2,2-3.9,4.2-5.8,6.4c-3.1,3.8-6.1,7.8-9.1,11.7c-0.5,0.6-0.9,1.3-1.5,2.1c1.7,1.9,3.2,3.8,5,5.4c3.9,3.5,7,7.6,10.4,11.5
	c0.6,0.7,1,1.5,1.5,2.3c1,1.7,0.9,3.2-0.6,4.6c-1.9,1.9-3.7,3.8-5.3,5.8c-3.7,4.7-7.4,9.4-11,14.1c-0.5,0.6-0.9,1.3-1.3,1.9
	c2.2,2.3,4.2,4.7,6.5,6.8c3.9,3.5,6.9,7.6,10.3,11.5c0.6,0.7,1,1.5,1.5,2.3c0.9,1.6,0.8,3-0.5,4.4c-1.9,2-3.8,4-5.5,6.1
	c-3.2,3.9-6.2,7.9-9.3,11.9c-0.5,0.6-0.9,1.3-1.4,2c0.9,1.1,1.8,2.2,2.7,3.2c0.8,0.9,1.5,1.7,2.4,2.5c3.8,3.3,6.8,7.5,10.1,11.2
	c0.6,0.7,1.1,1.5,1.5,2.3c0.9,1.7,1,3.2-0.5,4.6c-1.6,1.6-3.2,3.3-4.7,5c-3.7,4.7-7.4,9.4-11,14.1c-0.3,0.4-0.6,1-0.9,1.5
	c1.6,1.8,3,3.6,4.7,5.1c3.9,3.4,7,7.5,10.4,11.4c0.9,1,1.6,2.3,2.2,3.4c0.8,1.3,0.7,2.6-0.5,3.8c-0.7,0.7-1.4,1.6-2,2.3
	c-1.9,2.2-3.8,4.3-5.6,6.5c-2.5,3-4.8,6.1-7.2,9.2c-0.6,0.7-1.1,1.5-1.7,2.4c1.8,2,3.5,4,5.5,5.8c3.8,3.4,6.7,7.5,10.1,11.3
	c0.5,0.6,0.9,1.3,1.3,2c1,1.7,0.9,3.1-0.5,4.6c-2.1,2.1-4.1,4.3-6,6.7c-4.2,5.2-8.2,10.5-12.3,15.7c-0.7,0.9-1.3,1.8-2.1,2.9
	c0.8,0.6,1.5,1.2,2.2,1.8c1,0.9,2.1,1.8,3.1,2.7c2,2,4.1,4.1,6,6.2c2.8,3.1,5.6,6.4,8.4,9.6c0.5,0.6,0.9,1.3,1.3,2
	c1,1.7,0.9,3.2-0.6,4.6c-1.8,1.8-3.5,3.6-5.1,5.6c-3.3,4.1-6.5,8.3-9.7,12.5c-0.5,0.6-1.2,1.1-1.1,2.3c1.5,1.6,3,3.5,4.8,5.1
	c3.8,3.4,6.8,7.5,10.1,11.2c0.6,0.7,1.1,1.5,1.5,2.3c1.2,2.3,1.2,2.8-0.6,4.9c-1.8,2.1-3.8,4-5.5,6.2c-3,3.7-6,7.6-8.9,11.4
	c-0.7,0.9-1.3,1.8-2.1,2.9c1.9,2,3.5,4.1,5.4,5.8c3.9,3.5,6.9,7.6,10.3,11.5c0.6,0.7,1,1.5,1.5,2.3c1,1.7,0.9,3.2-0.6,4.6
	c-1.8,1.8-3.5,3.6-5.1,5.6c-3.3,4.1-6.5,8.3-9.7,12.5c-0.5,0.6-0.8,1.3-1.3,2c1.5,1.7,2.7,3.4,4.3,4.7c4,3.4,7,7.6,10.4,11.4
	c0.8,0.9,1.5,2,2.1,3.1c0.9,1.6,0.8,3-0.5,4.3c-1.8,1.8-3.5,3.6-5.1,5.6c-3.9,4.9-7.8,9.9-11.7,14.9c-0.4,0.5-0.7,1.1-1,1.7
	c3,3.1,6,6,8.8,9c2.8,3,5.4,6.2,8.1,9.3c0.5,0.6,0.9,1.3,1.3,2c1,1.7,0.9,3.2-0.6,4.6c-1.9,1.9-3.8,4-5.5,6.1
	c-3.1,3.8-6.1,7.8-9.1,11.7c-0.5,0.7-1,1.5-1.6,2.3c1.9,2,3.6,4,5.6,5.8c3.7,3.3,6.6,7.4,9.8,11c0.6,0.7,1,1.5,1.5,2.3
	c0.9,1.6,0.9,3-0.5,4.3c-0.8,0.7-1.3,1.6-2.1,2.3c-5.4,5.5-9.7,11.9-14.4,18c-0.1,0.1,0,0.2-0.1,0.7c1.8,1.8,3.4,4,5.4,5.9
	c2.4,2.1,4.6,4.4,6.6,7l5.2,6.7l-19,19l15,17l-12,11c0,0,13.2,17.3,14.9,19.4c1-0.7,1.9-1.4,2.8-2.1c3.6-2.8,7.2-5.6,10.9-8.5
	c2.5-2,5.1-3.9,7.3-6.3c0.8-0.8,1.7-1.5,2.6-2.3c0.9-0.8,1.9-1,2.9-0.4c1.3,0.7,2.7,1.4,3.8,2.3c3.9,3.4,8,6.5,11.4,10.4
	c1.5,1.7,3.2,3.2,5.2,4.5c1.6-1.2,3-2.3,4.5-3.5c4.7-3.8,9.8-7.2,14.1-11.6c0.6-0.7,1.4-1.2,2.1-1.8c0.8-0.7,1.7-0.8,2.6-0.4
	c1.1,0.5,2.3,1,3.3,1.8c3.9,3.4,8.1,6.4,11.5,10.3c0.9,1,2,1.9,3,2.8c1,0.9,2,1.8,3.1,2.7c0.8-0.6,1.4-1,2.1-1.5
	c6.1-4.9,12.6-9.3,18.1-14.8c2.3-2.3,3.3-1.7,5.5-0.6c0.7,0.4,1.4,0.8,2,1.4c3.9,3.5,8.2,6.6,11.7,10.7c1.5,1.7,3.2,3.3,5.3,4.4
	c1-0.7,1.9-1.4,2.8-2.1c5.3-4.3,10.9-8,15.7-12.9c0.6-0.7,1.4-1.2,2.1-1.8c0.8-0.7,1.7-0.8,2.6-0.4c1.2,0.6,2.5,1.2,3.6,2.1
	c3.8,3.3,7.9,6.3,11.3,10.1c2.1,2.3,4.6,4.4,7,6.7c1.9-1.5,3.8-2.9,5.6-4.3c5.1-4.1,10.6-7.7,15.1-12.5c0.6-0.6,1.2-1,1.8-1.6
	c0.9-0.8,1.9-1,2.9-0.4c1.3,0.7,2.7,1.3,3.8,2.3c3.9,3.4,8,6.5,11.4,10.4c1.5,1.7,3.2,3.2,5.3,4.4c1.3-1,2.5-1.9,3.6-2.8
	c5-4,10.4-7.6,14.9-12.2c0.6-0.7,1.4-1.2,2.1-1.8c0.8-0.7,1.7-0.8,2.6-0.4c1.2,0.6,2.5,1.2,3.6,2.1c3.9,3.4,8.1,6.4,11.5,10.4
	c1.7,2,3.8,3.6,5.9,5.3c1-0.8,1.9-1.4,2.8-2.1c5.7-4.6,11.7-8.8,17-13.9c2.6-2.5,3.3-2.4,6.3-0.5c0.5,0.3,1,0.6,1.4,1
	c3.8,3.4,8,6.5,11.5,10.4c1.5,1.7,3.3,3.1,4.9,4.5c0.5-0.1,0.7-0.1,0.9-0.2c5.8-4.5,11.9-8.6,17.2-13.8c0.9-0.9,1.9-1.7,2.8-2.5
	c1-0.9,2-1,3.2-0.4c1.2,0.7,2.5,1.3,3.5,2.1c4,3.5,8.3,6.6,11.7,10.7c0.3,0.4,0.6,0.7,1,1c2.6,2,4.7,4.4,6.6,7
	c0.1,0.1,0.4,0.1,0.8,0.3c0.7-0.5,1.4-1,2.1-1.5c7.5-6.1,15.5-11.4,22.4-18.2c2.1-2.1,2.9-2.1,5.7-0.5c0.6,0.3,1.2,0.7,1.7,1.2
	c3.9,3.5,8.2,6.6,11.7,10.6c1.5,1.7,3.2,3.2,5.3,4.5c1.5-1.2,3-2.3,4.4-3.4c4.8-3.9,10-7.4,14.3-11.8c0.6-0.6,1.2-1.1,1.8-1.6
	c0.8-0.7,1.7-0.8,2.6-0.4c1.2,0.6,2.5,1.2,3.6,2c3.8,3.3,7.9,6.3,11.3,10.1c1.8,2,4,3.8,6.1,5.7c1.5-1.2,2.9-2.2,4.3-3.3
	c5.1-4.1,10.6-7.7,15.1-12.5c0.6-0.6,1.2-1,1.8-1.6c0.9-0.8,1.8-1,2.9-0.5c1.3,0.7,2.7,1.3,3.8,2.3c3.9,3.4,8.1,6.4,11.4,10.4
	c0.7,0.9,1.7,1.6,2.5,2.3c0.8,0.7,1.7,1.4,2.7,2.2c2.7-2.1,5.2-4,7.7-6c3.6-2.9,7.4-5.4,10.5-8.8c0.7-0.8,1.5-1.4,2.3-2
	c0.8-0.7,1.7-0.8,2.6-0.4c1.1,0.5,2.3,1,3.3,1.8c3.9,3.3,8,6.5,11.6,10.3c2.2,2.3,4.6,4.4,7,6.7c3-2.3,5.9-4.6,8.8-6.8
	c4-3.1,8.1-6,11.6-9.7c0.6-0.7,1.4-1.2,2.1-1.8c0.9-0.8,1.9-1,2.9-0.4c1.4,0.8,2.9,1.5,4.1,2.5c3.9,3.3,8.1,6.5,11.4,10.4
	c0.7,0.8,1.5,1.4,2.3,2.1c0.9,0.7,1.5,1.7,2.8,2c0.9-0.7,1.9-1.4,2.8-2.1c5.8-4.6,11.8-8.8,17-14c1.5-1.5,3.2-1.7,5-0.8
	c1.1,0.5,2.3,1.1,3.2,1.9c3.9,3.4,8,6.5,11.5,10.4c1.5,1.7,3.3,3.1,5.1,4.6c0.6-0.3,1-0.5,1.3-0.8c2.3-1.8,4.6-3.5,6.8-5.3
	c3.5-2.8,7.2-5.3,10.3-8.6c0.7-0.8,1.6-1.4,2.3-2c0.9-0.8,1.9-0.9,2.9-0.4c1.3,0.7,2.7,1.3,3.8,2.3c3.9,3.4,8.1,6.5,11.5,10.4
	c1.5,1.7,3.2,3.2,5.2,4.4c0.8-0.6,1.4-1,2-1.5c5.8-4.6,11.9-9,17.3-14.1c2.3-2.2,3.8-2.2,6.5-0.8c0.7,0.4,1.4,0.8,2,1.3
	c3.9,3.4,8.1,6.4,11.5,10.4c1.6,1.8,3.4,3.3,5.3,4.7c0.3-0.1,0.4,0,0.5-0.1c5.8-4.4,11.9-8.6,17.2-13.7c1-0.9,2.1-1.8,3.1-2.8
	c0.9-0.8,1.9-1,2.9-0.4c1.4,0.8,2.8,1.5,4.1,2.5c5.8,4.5,10.8,9.9,16.2,14.9c0.5,0.4,1,0.8,1.5,1.3c3.1-2.4,6.1-4.8,9.1-7.1
	c3.8-3,7.8-5.7,11.1-9.3c0.7-0.8,1.6-1.3,2.3-2c0.8-0.7,1.7-0.8,2.6-0.4c1.2,0.6,2.5,1.2,3.6,2c3.9,3.4,8.1,6.4,11.5,10.4
	c1.6,1.8,3.4,3.3,5.5,4.8c1-0.7,1.9-1.4,2.8-2.1c5.7-4.5,11.6-8.6,16.7-13.8c2.3-2.3,3.2-1.7,5.5-0.6c0.6,0.3,1.2,0.7,1.7,1.1
	c3.7,3.3,7.7,6.2,11,9.8c1.9,2.1,4.1,4,6.1,5.8c0.5-0.1,0.7-0.1,0.9-0.3c6-4.8,12.4-9,17.9-14.5c0.8-0.8,1.7-1.5,2.6-2.3
	c1-0.9,2-1,3.2-0.5c1.1,0.6,2.3,1.1,3.2,1.9c3.9,3.4,8.1,6.4,11.5,10.4c1.6,1.8,3.5,3.3,5.2,4.7c0.4-0.1,0.5-0.1,0.6-0.1
	c5.9-4.5,18.1-8.8,23.4-14c0.9-0.9,1.9-1.7,2.8-2.5c0.9-0.8,1.9-1,2.9-0.4c1.6,0.9,3.2,1.8,4.6,3c3.4,2.9,7,5.6,10,8.9
	c0.1,0.2,0.4,0.2,0.8,0.4c3.6-4.2,8.2-7.5,11.4-12.2c-0.6-0.9-1.2-1.6-1.7-2.3c-4.7-5.8-8.9-11.9-14.1-17.3l16.5-19.3l-16-11l16-21
	L984.5,600c-2.7-2.8-2.6-3.5-0.4-6.8c0.2-0.3,0.4-0.6,0.6-0.8c3.5-3.8,6.5-8,10.4-11.5c1.8-1.6,3.3-3.5,5-5.3
	c-0.8-1.1-1.4-2-2.1-2.9c-4.5-5.6-8.6-11.6-13.8-16.7c-2.2-2.2-2.1-2.8-0.5-5.7c0.3-0.6,0.7-1.2,1.2-1.7c3.5-3.8,6.5-8,10.4-11.5
	c2.3-2,4.2-4.4,6.3-6.7c-0.9-1.1-1.6-2.2-2.4-3.1c-4.9-6.1-9.4-12.5-14.8-18.1c-2.5-2.6-2.4-3.2-0.4-6.3c0.2-0.4,0.5-0.8,0.8-1.1
	c3.4-3.8,6.5-8,10.4-11.5c1.8-1.6,3.3-3.5,5-5.3c-1.2-2-2.6-3.6-4-5.3c-3.7-4.6-6.9-9.4-11.2-13.5c-0.7-0.6-1.2-1.4-1.8-2.1
	c-0.6-0.8-0.9-1.6-0.4-2.6c0.6-1.2,1.2-2.5,2-3.6c3.4-3.9,6.4-8.1,10.4-11.5c1-0.8,1.7-1.8,2.6-2.8c0.9-1,1.8-2,2.7-3.1
	c-0.8-1.1-1.4-2-2.1-2.9c-4.6-5.7-8.8-11.8-14-17c-2.2-2.2-2.6-2.7-0.5-6.3c0.3-0.6,0.7-1.2,1.2-1.7c3.4-3.8,6.5-8,10.4-11.4
	c1.7-1.5,3.2-3.2,4.4-5.3c-2.4-3.1-4.7-6.1-7-9c-2.4-3.1-4.6-6.3-7.6-8.9c-0.8-0.8-1.5-1.7-2.2-2.6c-0.6-0.8-0.9-1.6-0.4-2.6
	C983.3,371.5,983.8,370.3,984.6,369.3z M990.8,342.4c2-0.1,3.3,1.3,3.5,3.4c0.1,2.2-1.5,4-3.7,4c-1.9,0-3.8-1.7-3.8-3.6
	C986.6,344.3,988.6,342.4,990.8,342.4z M987.4,294.2c1.9-0.1,3.3,1.4,3.3,3.5c0.1,2-1.1,3.3-3,3.4c-1.9,0.1-3.2-1.1-3.4-3.1
	C984.2,295.9,985.5,294.4,987.4,294.2z M988.4,248.9c1.8,0.1,3.7,2.1,3.5,4c-0.1,1.6-1.6,2.7-3.4,2.7c-2-0.1-3.3-1.6-3.2-3.6
	C985.4,250.2,986.8,248.9,988.4,248.9z M988.3,205.9c2.1-0.1,3.8,1.5,3.8,3.5c0,1.7-1.3,2.9-3.1,2.9c-2,0.1-3.5-1.4-3.6-3.3
	C985.3,207.3,986.6,206,988.3,205.9z M989.3,160.6c1.9-0.1,3.8,1.8,3.9,4c0.1,1.8-1.5,3.4-3.5,3.5c-2.2,0.1-3.7-1.5-3.8-4
	C985.8,162.3,987.2,160.7,989.3,160.6z M988.6,115.8c1.9,0,3.8,1.8,3.7,3.3c-0.1,1.7-2,3.5-3.6,3.6c-1.8,0.1-3-1.3-3-3.4
	C985.8,117.1,986.9,115.7,988.6,115.8z M989.1,69.9c1.8,0,3.3,1.6,3.3,3.6c0,1.9-1.5,3.4-3.5,3.4c-1.9,0-3.4-1.5-3.5-3.4
	C985.3,71.5,987.1,69.9,989.1,69.9z M37.3,80.5c-2.1,0-3.7-1.6-3.7-3.7c0-2.1,1.9-3.7,4.1-3.6c2.2,0.2,3.5,1.7,3.5,3.9
	C41.2,79.1,39.6,80.5,37.3,80.5z M35.7,122.7c-1.9,0-3.3-1.3-3.3-3.1c0-2.1,2-3.8,4.4-3.8c1.6,0,2.9,1.3,2.9,3.1
	C39.7,121.1,38,122.8,35.7,122.7z M33.9,168.9c-1.6,0-2.7-0.9-3.1-2.2c-0.4-1.4,0-2.6,1.4-3.5c0.7-0.5,1.6-1,2.4-1.2
	c1.6-0.4,3,0.7,3.2,2.3C38,166.7,36.2,169,33.9,168.9z M37,214.4c-2.1-0.1-3.5-1.6-3.3-3.9c0.1-2.2,2-3.8,4.1-3.7
	c2,0.1,3.4,1.9,3.4,4C41.1,213.2,39.5,214.5,37,214.4z M36.6,258.4c-1.7,0-3.6-1.9-3.5-3.6c0-1.6,1.7-3.2,3.4-3.2
	c1.8-0.1,3.4,1.5,3.4,3.6C39.9,257,38.4,258.4,36.6,258.4z M39,302.8c-1.5,0.7-3.4,0.4-4.5-0.6c-1.1-1.1-1.4-2.3-0.9-3.8
	c0.5-1.4,2.9-2.6,4.6-2.3c1.5,0.3,2.5,1.6,2.5,3.6C40.8,301.1,40.3,302.2,39,302.8z M38.8,346.6c-0.2,1.3-0.7,2.6-1.4,3.8
	c-0.6,1.2-2.4,1.7-3.6,1.3c-1.6-0.5-2.5-1.7-2.5-3.7c0-1.8,1.8-4.4,3.6-4.9C37.1,342.5,39.2,344.2,38.8,346.6z M35.1,398.3
	c-1.2-0.4-1.7-1.4-1.9-2.6c-0.2-1.6,1.1-4.1,2.6-4.9c1.3-0.7,3.1-0.2,3.8,1.1c0.4,0.8,0.6,1.7,0.7,2.1
	C40.4,397,37.5,399.1,35.1,398.3z M36.9,443.2c-2-0.1-3.3-1.5-3.3-3.6c0.1-1.8,1.4-2.9,3.5-2.9c1.9,0,3.4,1.7,3.3,3.6
	C40.3,442,38.8,443.2,36.9,443.2z M37,486c-1.7,0.2-3.3-1.3-3.4-3.1c-0.1-1.7,0.9-2.8,2.6-2.9c1.9-0.1,3.1,1.2,3.2,3.2
	C39.4,484.7,38.4,485.8,37,486z M37.5,532.5c-1.8,0.8-4.4,0-5.4-1.8c-0.6-1-0.5-2,0.1-2.9c0.9-1.5,3.1-2.1,4.9-1.5
	c1.4,0.5,2.2,1.8,2.2,3.7C39.3,531,38.7,531.9,37.5,532.5z M40.2,33.3c-2.4,0-4.1-1.8-4-4.1c0.1-2.2,1.8-3.6,4.2-3.5
	c2.3,0.1,3.8,1.7,3.8,3.9C44.2,31.7,42.5,33.3,40.2,33.3z M38.3,576.3c-1.9-0.1-3.3-1.6-3.3-3.6c0-2,1.1-3.3,3.9-3.1
	c2.3,0,3.4,1.1,3.3,3.3C42.1,574.9,40.4,576.4,38.3,576.3z M39.2,664.3c-1.9-0.1-3.3-1.7-3.2-3.7c0.1-2.1,1.6-3.3,4-3.3
	c2.1,0.1,3.5,1.4,3.5,3.4C43.4,662.7,41.4,664.4,39.2,664.3z M43.2,693.3c-1.9-0.1-3.3-1.7-3.2-3.7c0.1-2.1,1.6-3.3,4-3.3
	c2.1,0.1,3.5,1.4,3.5,3.4C47.4,691.7,45.4,693.4,43.2,693.3z M42.8,622.9c-2.8,0-4.9-1.8-5-4.5c-0.1-2.8,1.9-5,4.5-5
	c3.1,0,5.4,1.9,5.5,4.5C47.8,620,46,622.9,42.8,622.9z M80.4,24.5c-0.1-2.3,1.4-3.8,3.8-3.8c2.1,0,3.7,1.6,3.7,3.6
	c0,1.9-1.7,3.4-3.9,3.5C82,27.8,80.6,26.5,80.4,24.5z M86.2,693.3c-1.9-0.1-3.3-1.7-3.2-3.7c0.1-2.1,1.6-3.3,4-3.3
	c2.1,0.1,3.5,1.4,3.5,3.4C90.4,691.7,88.4,693.4,86.2,693.3z M124.6,24.3c0-1.6,1.3-3,3-3.2c1.7-0.2,3.5,1,4,2.6
	c0.4,1.1-0.1,2.5-1.1,3c-0.8,0.4-1.7,0.6-2.2,0.8C126,27.4,124.6,26.1,124.6,24.3z M133,694c-1,1.1-2.2,1.5-3.7,1.1
	c-0.1,0-0.2-0.1-0.3-0.1c-2-0.6-2.9-1.8-2.7-3.4c0.3-1.8,1.9-3.2,4.5-3.1c0.7,0,1.9,0.3,2.5,1.6C133.8,691.5,134,692.8,133,694z
	 M171.1,24.6c-0.2-1.6,0.7-2.8,2.4-3.1c0.4-0.1,0.9-0.1,1.1-0.2c1.9,0,3,1,3.2,2.6c0.2,1.6-0.7,2.8-2.4,3.2
	c-0.4,0.1-0.9,0.1-1.3,0.1C172.4,27.2,171.3,26.2,171.1,24.6z M176.2,694.7c-1.7,0.4-3.3-0.3-4.1-1.7c-1-1.8-0.3-3.8,1.6-4.5
	c0.6-0.2,1.3-0.4,2-0.5c2.3-0.4,3.8,0.8,3.7,3.2C179.3,692.8,178,694.3,176.2,694.7z M214.9,23.9c0.1-1.5,1.4-2.6,3-2.6
	c1.9,0,3.3,1.4,3.2,3.2c-0.1,1.6-1.3,2.6-3,2.6C216.3,27.1,214.7,25.6,214.9,23.9z M224.6,694.5c-0.6,1.4-1.9,1.9-3.3,1.9
	c-2.2,0-4.1-1.6-4.2-3.6c-0.1-1.5,0.7-2.7,2.1-3.2c1.8-0.5,3.4-0.3,4.7,1.1C224.8,691.8,225.2,693.1,224.6,694.5z M260.5,24.1
	c0.1-1.9,1.7-3.3,3.7-3.3c2,0,3.5,1.5,3.5,3.4c0,1.8-1.7,3.2-3.7,3.3C262.1,27.6,260.5,26,260.5,24.1z M265.9,695.3
	c-2.3,0-3.8-1.5-3.9-3.9c-0.1-2.4,1.6-4,4.1-4c2.2-0.1,3.6,1.6,3.6,4.1C269.7,693.7,268.1,695.3,265.9,695.3z M303.9,24.7
	c-0.1-2.2,1.8-3.8,4.4-3.8c2.1,0,3.6,1.4,3.7,3.7c0.1,2.2-1.6,3.8-4,3.9C305.8,28.5,304,26.9,303.9,24.7z M310.6,695.4
	c-1.8,0.1-3.2-1-3.3-2.7c-0.1-1.7,1.2-2.9,3-3c1.7-0.1,3.1,1.2,3.2,2.9C313.5,694.1,312.2,695.3,310.6,695.4z M349,25.4
	c0-1.8,1.5-3.3,3.2-3.2c1.5,0.1,2.6,1.4,2.6,3c-0.1,1.8-1.6,3.4-3.2,3.3C350.1,28.4,349,27,349,25.4z M354.4,694.7
	c-1.9,0-3.6-1.6-3.5-3.4c0.1-1.9,1.9-3.2,4.2-3.1c1.7,0.1,3,1.4,2.9,3.2C358.1,693.2,356.4,694.7,354.4,694.7z M397.3,24.2
	c0-1.8,1.4-3.1,3.3-3.1c2.1,0,3.6,1.6,3.6,3.7c0,1.7-1.3,2.9-3.1,2.9C399.1,27.7,397.3,26.2,397.3,24.2z M405.3,694.9
	c-2.5,1.2-4.7,0.4-5.7-1.9c-0.9-2.2,0.2-3.9,2.5-4c0.2,0,0.5,0,1,0c0.5,0.1,1.3,0.2,2,0.4c1.2,0.4,2.1,1.7,2,2.9
	C407.1,693.6,406.4,694.4,405.3,694.9z M444.6,25c-0.1-1.9,1.1-3.1,3.2-3.2c1.7-0.1,2.9,1.2,3,3.1c0,1.7-1.2,3-3,3
	C445.8,27.9,444.6,26.8,444.6,25z M451.8,698c-2.4,0.1-4.3-1.3-4.6-3.3c-0.3-2.1,0.9-3.9,3.1-4.2c0.9-0.1,1.8-0.2,2.7-0.1
	c2,0.2,3.3,1.8,3.2,3.8C456.2,696.4,454.4,697.9,451.8,698z M488.9,24.3c0.1-2.3,1.7-3.8,4.1-3.7c2.4,0.1,3.7,1.4,3.6,3.6
	c-0.1,2.1-1.9,3.6-4.2,3.5C490.3,27.7,488.8,26.2,488.9,24.3z M496.4,695.4c-2.1,0-4.3-2-4.3-4c0-1.9,1.5-3.3,3.5-3.4
	c2.5-0.1,4.4,1.5,4.5,3.7C500.2,693.6,498.4,695.4,496.4,695.4z M534.3,26.5c-1.2-1.4-1.4-3.5-0.3-4.7c1-1.2,2.8-1.4,4.4-0.5
	c0.4,0.2,0.8,0.5,1.1,0.8c1.1,1,1.5,2.5,1.1,3.7c-0.5,1.3-1.6,2-3.6,2C536.1,27.8,535.1,27.5,534.3,26.5z M539.2,695.5
	c-1.8,0.1-3.2-1.2-3.2-2.8c0-1.6,1.3-2.8,3.2-2.8c1.7,0,2.9,1,3,2.6C542.3,694.1,541,695.4,539.2,695.5z M579.3,22
	c0.2-1.9,2.6-3.9,4.6-3.8c1.8,0.1,3.3,1.8,3.2,3.8c-0.1,2.1-2.3,4.1-4.4,4C580.7,25.8,579.2,24.1,579.3,22z M586,696
	c-2.1,0-3.8-1.6-3.8-3.6c-0.1-2.2,1.8-4.1,4.1-4.2c2.2-0.1,3.9,1.6,4,3.8C590.3,694.2,588.3,696,586,696z M627.4,27.1
	c-2.2,0-3.6-1.6-3.6-3.8c0.1-2,1.5-3.3,3.6-3.2c2,0.1,3.7,1.7,3.7,3.8C631.1,25.7,629.5,27.1,627.4,27.1z M633.7,693.5
	c-0.2,1.2-1.4,2-2.7,2c-1.5,0-2.6-1-2.8-2.4c-0.2-1.4,0.7-2.5,2.1-2.5c0.5,0,1.1,0.1,1.6,0.3C633.1,691.3,633.8,692.5,633.7,693.5z
	 M669,24c-0.1-1.7,1.6-3.5,3.5-3.6c1.6-0.1,2.9,1.4,2.9,3.5c0.1,1.9-1.2,3.3-3.1,3.3C670.5,27.2,669.1,25.8,669,24z M674.1,695.4
	c-2,0-3.5-1.5-3.4-3.5c0.1-2,1.8-3.4,4-3.4c2.1,0,3.4,1.3,3.4,3.5C678,694.1,676.5,695.4,674.1,695.4z M712,24.9
	c0.1-1.7,1.5-3.2,3-3.2c2.1,0,3.8,1.7,3.8,3.7c-0.1,1.8-1.5,3.1-3.4,3.1C713.4,28.4,711.9,26.8,712,24.9z M719.8,697
	c-1,0.1-2.1,0-2.9-0.8c-1.7-1.5-1.3-4.1,0.8-5.1c0.6-0.3,1.3-0.3,1.6-0.4c2.5,0.1,3.9,1.2,4,2.9C723.4,695.4,722,696.8,719.8,697z
	 M757.4,25.4c0-2.2,1.6-3.8,3.5-3.8c1.8,0,3.5,2,3.3,4c-0.1,1.7-1.9,3.3-3.8,3.2C758.6,28.8,757.3,27.4,757.4,25.4z M763.6,693.4
	c-1.7,0.1-3.1-1.1-3-2.6c0-1.6,1.5-3,3.1-3.1c1.6-0.1,2.9,1.1,3,2.6C766.7,691.9,765.4,693.3,763.6,693.4z M803.1,22.4
	c0.3-0.6,0.9-1.1,1.4-1.4c1.2-0.6,2.8-0.3,3.8,0.7c1.1,1.1,1.7,2.4,1.1,4c-0.4,1.2-1.6,1.9-3,1.9C803.9,27.8,801.9,24.7,803.1,22.4z
	 M809,694.5c-1.8,0-3.2-1.6-3.1-3.4c0.1-1.9,1.5-3.2,3.7-3.2c2.1,0,3.3,1.2,3.3,3.1C813,693.3,810.9,694.5,809,694.5z M850.1,26.4
	c-0.9-1-1.2-2.2-0.7-3.5c0.5-1.2,1.6-1.9,3-1.9c0.1,0,0.2,0,0.3,0c2.1,0.2,3.4,1.2,3.5,2.7c0,1.5-1.5,3.4-3.1,3.8
	C852,27.8,850.9,27.3,850.1,26.4z M857.9,692.9c-0.8,0.6-1.8,0.9-2.2,1.1c-2.3,0.1-3.6-0.9-3.9-2.4c-0.3-1.3,0.5-2.7,1.8-3.4
	c1.1-0.5,2.2-0.6,3.3-0.3c1.1,0.3,1.7,1.1,2,2.2C859.1,691.3,858.8,692.3,857.9,692.9z M893.1,24.3c0-1.7,1.3-2.9,3-2.9
	c1.9,0,3.8,1.7,3.7,3.3c-0.1,1.9-1.5,3.2-3.3,3.1C894.5,27.8,893.1,26.3,893.1,24.3z M903.1,692.1c-1,1.7-3.6,2.6-5.4,1.8
	c-1.7-0.8-2.6-3.7-1.6-5.3c0.7-1.1,1.8-1.4,3.4-1.2c0.3,0,0.9,0.1,1.6,0.2C903.2,687.9,904.2,690.2,903.1,692.1z M937.1,25.7
	c0.1-1.7,1.3-2.9,3.1-2.9c2-0.1,3.3,1.1,3.3,3c0,1.8-1.4,3.2-3.2,3.2C938.4,28.9,937,27.5,937.1,25.7z M947.3,693.5
	c-1,1.3-2.3,1.8-3.9,1.6c-2.1-0.2-3.2-2.6-2.1-4.4c0.7-1.2,1.8-1.6,3.2-1.6c1.4,0,2.4,0.5,3,1.8c0.2,0.4,0.2,0.9,0.4,1.3
	C947.7,692.7,947.5,693.2,947.3,693.5z M987.1,681.6c2.1,0,3.4,1.1,3.5,3c0.1,1.8-1.5,3.3-3.6,3.3c-1.9,0-3.3-1.4-3.3-3.2
	C983.7,682.9,985.1,681.6,987.1,681.6z M989.1,524c2.4,0,4.2,1.7,4.2,4c0,2.1-2,3.7-4.5,3.8c-2.3,0-3.8-1.2-3.8-3.4
	C984.9,525.6,986.4,524.1,989.1,524z M986,646.3c2,0,3.4,1.4,3.4,3.5c0,1.9-1.5,3.3-3.6,3.3c-2.1,0-3.7-1.6-3.6-3.7
	C982.4,647.5,983.9,646.3,986,646.3z M986,613.3c2,0,3.4,1.4,3.4,3.5c0,1.9-1.5,3.3-3.6,3.3c-2.1,0-3.7-1.6-3.6-3.7
	C982.4,614.5,983.9,613.3,986,613.3z M986,570.3c2,0,3.4,1.4,3.4,3.5c0,1.9-1.5,3.3-3.6,3.3c-2.1,0-3.7-1.6-3.6-3.7
	C982.4,571.5,983.9,570.3,986,570.3z M980.7,32.3c-0.2-2,1.4-3.9,3.4-4c1.9-0.1,3.3,1.3,3.4,3.5c0.1,1.9-1.2,3.3-3.1,3.4
	C982.5,35.3,980.9,34.1,980.7,32.3z M988.1,479.7c2.2-0.1,3.9,1.5,3.8,3.4c0,1.8-2.2,3.7-4.3,3.6c-1.9,0-3.4-1.6-3.4-3.5
	C984.3,481.2,985.8,479.8,988.1,479.7z M987.6,434c2,0,3.6,1.5,3.5,3.4c-0.1,1.7-1.6,3.1-3.4,3.2c-2,0.1-3.5-1.5-3.4-3.5
	C984.3,435.3,985.7,434,987.6,434z M989.7,390.5c1.9,0,3.1,1.4,3.1,3.3c0,1.9-1.7,3.4-3.6,3.4c-1.8,0-3.2-1.6-3.1-3.4
	C986.1,391.9,987.7,390.5,989.7,390.5z"/>
</svg>
