<?xml version="1.0" encoding="utf-8"?>
<!-- Generator: Adobe Illustrator 21.0.0, SVG Export Plug-In . SVG Version: 6.00 Build 0)  -->
<svg version="1.1" id="Capa_1" xmlns="http://www.w3.org/2000/svg" xmlns:xlink="http://www.w3.org/1999/xlink" x="0px" y="0px"
	 viewBox="0 0 325.7 233.2" style="enable-background:new 0 0 325.7 233.2;" xml:space="preserve">
<style type="text/css">
	.st0{fill:#6E4012;}
</style>
<g>
	<g>
		<path class="st0" d="M264.1,107.7l-0.1,35.7l-63.9-0.2l-67.9-60.4l-41.1-0.1L0,159.8l9.5,9.5l13.4-10.8l-0.2,74.1l48.2,0.1
			l0.1-59.4c0-2.5,1.3-4.2,3.8-4.2l31.6,0.1c2.5,0,4.8,1.7,4.8,4.2l-0.1,59.4l191.5,0.5l0.2-74.1l13.2,10.8l9.7-9.5L264.1,107.7z
			 M172.1,205.5l-26.8-0.1l0.1-26.1l26.8,0.1L172.1,205.5z M222.4,205.6l-26.8-0.1l0.1-26.1l26.8,0.1L222.4,205.6z M271.9,205.7
			l-27.5-0.1l0.1-26.1l27.5,0.1L271.9,205.7z"/>
		<path class="st0" d="M142.3,62.8l0,12.8l62.3,56.3l48.1,0.1l0.2-69l10.1,8.9l7.4-7.8l-17.4-15.4L253,4.6c0-2.4-2.2-4.5-4.6-4.6
			l-16.5,0c-2.4,0-4.4,2.2-4.4,4.5l-0.1,22.2L197.3,0.1l-73.1,63.7l7.6,7.9L142.3,62.8z M186.5,56.1l26.8,0.1L213.3,83l-26.8-0.1
			L186.5,56.1z"/>
	</g>
</g>
</svg>
