<?xml version="1.0" encoding="utf-8"?>
<!-- Generator: Adobe Illustrator 21.0.0, SVG Export Plug-In . SVG Version: 6.00 Build 0)  -->
<svg version="1.1" id="Capa_1" xmlns="http://www.w3.org/2000/svg" xmlns:xlink="http://www.w3.org/1999/xlink" x="0px" y="0px"
	 viewBox="0 0 120.1 108.1" style="enable-background:new 0 0 120.1 108.1;" xml:space="preserve">
<style type="text/css">
	.st0{fill:#6E4012;}
</style>
<g>
	<path class="st0" d="M6.3,68.7c2.6,7,6.6,13.4,10.5,19.9c0.6,1,1.2,2.5,0.4,3.3c-1,1.1-2.8-0.1-3.8-1.2C4.1,79.7-0.7,65.1,0.1,50.8
		c0.1-1.2,0.2-2.6,1.2-3.4c0.9-0.8,2.8-0.3,2.8,0.9C4.1,48.3,3.7,61.6,6.3,68.7z"/>
</g>
<g>
	<path class="st0" d="M28.1,96.4c3.8,2.2,8.1,3.4,12.4,4.3c5.3,1.1,10.7,1.7,16.1,1.8c18,0.3,36.7-5.3,49.4-18.2
		c1.5-1.5,2.9-3.2,4.8-4.3c0.3-0.2,0.6-0.4,1-0.3c0.7,0.1,1,0.9,1.1,1.6c0.3,2.4-0.8,4.8-2.4,6.6s-3.6,3.1-5.7,4.4
		c-15.8,9.5-33.8,15.8-52.2,16c-8.4,0.1-17.4-1.4-23.8-6.9c-0.7-0.6-1.4-1.3-1.7-2.3s0-2.1,0.9-2.5L28.1,96.4z"/>
</g>
<g>
	<path class="st0" d="M87.4,5.1c1.9,0.4,3.6,1.3,5.2,2.3c6.6,4.3,11,11.2,14.9,18c1.6,2.9,3.2,5.8,4.4,8.9c2,5.5,2.7,11.5,2.3,17.3
		c-0.1,1.8-0.3,3.7,0.7,5.2c0.3,0.5,0.7,0.9,1.2,1c1.5,0.5,2.6-1.3,3.1-2.8c1.8-6.2,0.7-12.9-1-19.1c-2.3-8.6-5.7-16.9-10.2-24.6
		c-1.6-2.7-3.3-5.4-5.6-7.5c-2.3-2.1-5.2-3.7-8.3-3.9c-1.4-0.1-2.9,0.1-4.2,0.8L87.4,5.1z"/>
</g>
</svg>
