<?xml version="1.0" encoding="utf-8"?>
<!-- Generator: Adobe Illustrator 21.0.0, SVG Export Plug-In . SVG Version: 6.00 Build 0)  -->
<svg version="1.1" id="Capa_1" xmlns="http://www.w3.org/2000/svg" xmlns:xlink="http://www.w3.org/1999/xlink" x="0px" y="0px"
	 viewBox="0 0 70 50.4" style="enable-background:new 0 0 70 50.4;" xml:space="preserve">
<style type="text/css">
	.st0{fill:#009B3A;}
	.st1{fill:#FEDF00;}
	.st2{fill:#002776;}
</style>
<g>
	<path class="st0" d="M0.8,31.7c-0.4,5.5-1.1,11.1-0.7,16.6c0.1,1.1,1,2,2.2,2c16.9,0.1,33.6-0.3,50.5-1c3.2-0.1,6.8-0.5,10-0.3
		c1.8,0.1,3.3,0.2,5.1,0c0.6-0.1,1.4,0.1,1.8-0.2c0.2-0.2,0.1-0.7,0.2-1.2c0-2.7,0.3-5.5,0.1-8.2C69.1,27.2,69.1,15,69.5,2.7
		c0-0.8,0-1.8-0.6-2.3C68.4,0,67.7,0,67.1,0c-2.9,0-5.9,0.2-8.8,0.4C46.1,1,34,1,21.9,0.6c-6.1-0.2-12,0.1-18.1,0.1
		c-2.2,0-3.2,1.3-3.2,3.5c0,2.9-0.1,4,0.1,6.9C1.1,17.9,1.3,24.9,0.8,31.7z"/>
	<path class="st1" d="M11.8,20.8c7.5-5.2,15-10.3,23-14.5c0.2-0.1,0.5-0.2,0.7-0.2c0.3,0,0.6,0.3,0.9,0.5c3.4,2.2,6.4,4.7,9.7,6.9
		c5.8,3.7,11.7,7.4,17.5,11.1c0.3,0.2,0.6,0.4,0.5,0.7c0,0.2-0.2,0.3-0.3,0.4C55.1,32,45.4,37.1,36.7,43.2c-0.3,0.2-0.6,0.5-0.9,0.5
		c-0.3,0-0.5-0.1-0.8-0.2c-9.7-4.3-18.6-10.3-27.3-16.4c-1.7-1.2-2.1-1.9-0.4-3.2C8.8,22.9,10.3,21.9,11.8,20.8z"/>
	<path class="st2" d="M28.5,14.7c-0.9,0.5-1.7,1.1-2.4,1.8c-1.1,1.2-1.6,2.9-2,4.5c-0.5,1.8-0.9,3.7-0.6,5.6c0.2,1,0.5,2,0.9,2.9
		c0.7,1.8,1.4,3.5,2.7,4.9c2.1,2.4,5.6,3.3,8.8,3.1c4.4-0.3,8.7-3,10.4-7.2c0.9-2.2,1-4.8,0.6-7.2c-0.4-2.4-1.3-4.9-2.9-6.7
		c-1.5-1.6-3.6-2.6-5.6-3.3c-0.8-0.3-1.8-0.8-2.7-0.8c-1.1,0-2.4,0.3-3.4,0.7C30.9,13.4,29.7,14,28.5,14.7z"/>
</g>
<g>
</g>
<g>
</g>
<g>
</g>
<g>
</g>
<g>
</g>
</svg>
