<?xml version="1.0" encoding="utf-8"?>
<!-- Generator: Adobe Illustrator 21.0.0, SVG Export Plug-In . SVG Version: 6.00 Build 0)  -->
<svg version="1.1" id="Capa_1" xmlns="http://www.w3.org/2000/svg" xmlns:xlink="http://www.w3.org/1999/xlink" x="0px" y="0px"
	 viewBox="0 0 193.1 245.5" style="enable-background:new 0 0 193.1 245.5;" xml:space="preserve">
<style type="text/css">
	.st0{fill:#6E4012;}
	.st1{fill:#E4294D;}
	.st2{fill:#FFC900;}
</style>
<g>
	<g>
		<g>
			<g>
				<path class="st0" d="M97.4,176.2c-0.9-1.3-2.8-2-4.1-1.1c0.2,28.5,0.1,37,0.9,65.4c0,1.2,0.1,2.5,0.7,3.5c0.6,1.1,2,1.8,3.1,1.2
					c1.2-0.6,1.4-2.2,1.4-3.5c0.3-26.9-1.2-33.8-1.1-60.7C98.3,179.4,98.3,177.6,97.4,176.2z"/>
			</g>
		</g>
		<g>
			<g>
				<path class="st0" d="M97,1.5c-0.9-1.3-2.8-2-4.1-1.1c0.2,28.5-0.6,17,0.2,45.5c0,1.2,0.1,2.5,0.7,3.5c0.6,1.1,2,1.8,3.1,1.2
					c1.2-0.6,1.4-2.2,1.4-3.5c0.3-26.9-0.6-13.8-0.4-40.7C97.9,4.7,97.9,2.9,97,1.5z"/>
			</g>
		</g>
		<g>
			<path class="st1" d="M86.7,48.4c-9.7-0.9-18.9,3.6-27.9,7c-15.2,5.6-31.4,8.3-47.6,8C8,63.2,4.5,63.1,2,65s-2.8,6.8,0.2,7.8
				c1,0.3,2.1,0.2,3.1,0c13.8-2,27.9-1.7,41.5,0.9c1.4,0.3,2.8,0.6,3.7,1.7c0.9,1.2,0.7,2.8,0.6,4.3c-1.6,14.1-0.1,28.6,4.2,42.2
				c3.1,9.7,7.7,19,10,29s1.9,21.2-4.3,29.4c-2.2,2.9-4.9,5.3-7,8.2s-3.4,6.8-2.1,10.2c1,2.7,3.6,4.6,6,6.3
				c13.5,9.4,22.7,14.9,37.1,22.9c3.8-0.7,3.6-3,1.7-6.4c-1.9-3.4-4.6-4.6-8.1-7.8c-4.6-4.1-5.2-5.7-10-9.5c-0.6-0.4-1.2-1-1.3-1.7
				c-0.3-1.6,1.9-2.6,3.5-2.3s3,1.5,4.7,1.6c2.9,0.1,4.9-3,5.2-5.8c0.3-2.9-0.6-5.7-0.4-8.6s1.9-6.1,4.8-6.3c3.9-0.3,5.9,4.7,6,8.6
				c0.1,3.9,0.2,8.7,3.7,10.6c3.5,1.8,9-0.3,10.9,3.1c1.3,2.3-0.5,5.1-2.3,7c-3.4,3.7-8.5,6.3-12.6,9.3c-2.6,1.9-5.5,5.3-3.4,7.7
				c1.8,2.1,5.2,0.6,7.5-1.1c8.6-6.3,18.5-11.7,27.2-18c2.4-1.7,5-3.8,5.4-6.7c0.3-1.9-0.4-3.8-1.1-5.6c-2.6-6.9-5.1-13.7-7.7-20.6
				c-2.4-6.4-4.8-13-4.9-19.9c0-5.7,1.6-11.4,3.8-16.7c4-9.7,9.8-18.6,14.1-28.2c4.3-9.6,7.2-20.3,4.9-30.5
				c-0.3-1.2-0.6-2.5,0.1-3.5c0.6-0.8,1.7-1.1,2.7-1.3c11.3-2,22.7-3.1,34.2-3.1c3.7,0,8.4-0.6,9.6-4.1c0.9-2.6-1-5.5-3.5-6.8
				s-5.3-1.3-8.1-1.2c-21,0.2-42.9,0.7-61.9-8.4c-3.7-1.8-7.2-3.9-10-6.8c-3.4-3.5-6.2-8.4-11-9.1c-3.4-0.5-6.8,1.5-8.9,4.2
				c-2.1,2.7-3.2,6-4.2,9.3L86.7,48.4z"/>
		</g>
	</g>
	<g>
		<path class="st2" d="M100.5,59.3c-0.9-1.3-3.1-1-4.1,0.2c-1,1.2-1.3,2.9-1.4,4.5c-0.9,9.1-1.2,18.2-1.5,27.3
			c-0.4,10.9-0.8,21.7-0.1,32.6c0.1,1.1,0.2,2.3,0.9,3.2c0.7,0.9,2.2,1.2,2.9,0.3c0.2-0.3,0.4-0.7,0.5-1c1.3-4.6,1.2-9.5,1.1-14.2
			c-0.1-14.4,0.8-28.8,2.8-43.1c0.5-3.5,0.9-7.4-1.4-10.1L100.5,59.3z"/>
	</g>
	<g>
		<path class="st2" d="M73.7,63.1c-0.5,0.1-1.1,0.2-1.5,0.5s-0.6,1-0.2,1.4c0.3,0.3,0.7,0.3,1.1,0.3c5-0.1,9.9-0.6,14.8-1.5
			c0.4-0.1,0.8-0.1,1.1-0.4c0.6-0.4,1-1.9,0.2-2C88.1,61.4,78.3,62.4,73.7,63.1z"/>
	</g>
	<g>
		<path class="st2" d="M88,69.9c0,0.6-0.4,1.1-0.9,1.4c-0.5,0.3-1.1,0.4-1.7,0.4c-1.4,0.2-2.8,0.4-4.3,0.6
			c-4.9,0.7-9.8,1.4-14.7,2.1c-0.2,0-0.3,0-0.5,0c-0.5-0.1-0.8-0.7-0.7-1.2c0.1-0.5,0.5-0.9,1-1.1c0.5-0.2,1-0.3,1.5-0.3
			c6-0.6,12.1-0.9,17.9-2.5C87,68.9,87.9,69.3,88,69.9z"/>
	</g>
	<g>
		<path class="st2" d="M85.5,78.6c-7,1.4-14.1,2.4-21.2,3.1c-0.7,0.1-1.4,0.1-2,0.5c-0.2,0.1-0.4,0.4-0.5,0.6c0,0.3,0.2,0.5,0.5,0.6
			c0.3,0.1,0.6,0.1,0.9,0.1c7.3-0.4,14.5-1.4,21.6-2.8c0.4-0.1,0.7-0.1,1-0.3c0.4-0.2,0.7-0.7,0.6-1.1
			C86.4,78.8,85.9,78.4,85.5,78.6"/>
	</g>
	<g>
		<path class="st2" d="M85.3,88.5c0,0.2,0,0.5-0.2,0.6c-0.1,0.2-0.4,0.2-0.6,0.3c-2.6,0.7-5.2,1.2-7.9,1.7c-5,0.9-10,1.8-15,2.7
			c-0.3,0.1-0.8,0-0.8-0.3c0-0.1,0-0.2,0.1-0.3c0.5-1.1,1.9-1.5,3.2-1.7c6.5-1,13.2-2,19.4-4.1C85.1,87,85.3,88.1,85.3,88.5z"/>
	</g>
	<g>
		<path class="st2" d="M68.7,101.4c-0.8,0.4-1.7,0.7-2.4,1.3c-0.7,0.6-1.2,1.5-1.2,2.4c0.5,0.3,1.1,0.3,1.6,0.1
			c0.5-0.2,1-0.6,1.4-0.9c4.5-3.3,10-4.9,15.3-6.7c0.4-0.1,0.7-0.3,0.9-0.6c0-0.1,0-0.2,0-0.3C83.6,95.9,73.6,99.3,68.7,101.4z"/>
	</g>
	<g>
		<path class="st2" d="M84.3,104.9c-2.1,1-4.3,1.6-6.5,2.5c-2,0.8-3.9,1.7-5.6,3c-0.9,0.7-1.8,1.7-1.9,2.8c0,0.3,0.1,0.7,0.3,0.8
			c0.2,0.1,0.4,0,0.5-0.1c1.3-0.6,2.4-1.6,3.6-2.4c3.2-2.3,7-3.7,10.4-5.7c0.2-0.1,0.5-0.3,0.6-0.6
			C85.8,104.8,85.1,104.5,84.3,104.9z"/>
	</g>
	<g>
		<path class="st2" d="M85.9,112.1c-2.4,1.3-4.9,2.4-7,4.1c-0.8,0.6-1.6,1.3-1.9,2.3c-0.1,0.3,0,0.7,0.2,0.9c0.3,0.2,0.7,0,1.1-0.2
			c1.8-1.2,3.2-2.8,5-3.9c1-0.5,2-0.9,2.9-1.5c0.4-0.3,0.8-0.6,0.9-1.1S86.8,111.7,85.9,112.1z"/>
	</g>
	<g>
		<path class="st2" d="M123.6,66.4c0.5,0.2,1,0.3,1.4,0.7s0.4,1.1,0,1.4c-0.3,0.2-0.8,0.2-1.1,0.1c-4.9-0.8-9.7-2-14.4-3.5
			c-0.4-0.1-0.7-0.2-1-0.5c-0.5-0.5-0.7-2,0.1-2C109.6,62.8,119.1,65.1,123.6,66.4z"/>
	</g>
	<g>
		<path class="st2" d="M108.6,71.2c-0.1,0.6,0.2,1.1,0.7,1.5c0.5,0.3,1,0.5,1.6,0.7c1.4,0.4,2.8,0.8,4.1,1.2c4.8,1.3,9.5,2.7,14.3,4
			c0.2,0,0.3,0.1,0.5,0.1c0.5,0,0.9-0.6,0.9-1.1c0-0.5-0.4-0.9-0.8-1.2c-0.4-0.3-0.9-0.4-1.4-0.5c-5.9-1.4-11.9-2.5-17.4-4.9
			C109.7,70.4,108.7,70.6,108.6,71.2z"/>
	</g>
	<g>
		<path class="st2" d="M109.9,80.2c6.8,2.3,13.6,4.2,20.6,5.9c0.7,0.2,1.4,0.3,1.9,0.8c0.2,0.2,0.4,0.4,0.4,0.7
			c0,0.3-0.3,0.5-0.6,0.6c-0.3,0.1-0.6,0-0.9,0c-7.1-1.4-14.2-3.3-21-5.7c-0.3-0.1-0.7-0.2-1-0.5c-0.4-0.3-0.6-0.7-0.5-1.2
			S109.5,80,109.9,80.2"/>
	</g>
	<g>
		<path class="st2" d="M108.7,90c0,0.2,0,0.5,0.1,0.7c0.1,0.2,0.3,0.3,0.5,0.4c2.5,1.1,5,1.9,7.6,2.7c4.8,1.6,9.7,3.1,14.5,4.7
			c0.3,0.1,0.8,0.1,0.8-0.2c0-0.1,0-0.2,0-0.3c-0.3-1.2-1.7-1.7-2.9-2.1c-6.3-1.9-12.8-3.7-18.7-6.6C109.1,88.6,108.8,89.6,108.7,90
			z"/>
	</g>
	<g>
		<path class="st2" d="M123.4,105.1c0.8,0.5,1.6,1,2.2,1.7s1,1.6,0.9,2.5c-0.5,0.2-1.1,0.1-1.6-0.1c-0.5-0.3-0.9-0.7-1.3-1.1
			c-4.1-3.8-9.3-6.2-14.3-8.6c-0.3-0.2-0.7-0.4-0.8-0.7c0-0.1,0-0.2,0.1-0.3C109.4,97.6,118.8,102.3,123.4,105.1z"/>
	</g>
	<g>
		<path class="st2" d="M107.5,106.4c1.9,1.3,4.1,2.2,6.1,3.4c1.8,1.1,3.7,2.2,5.2,3.7c0.8,0.8,1.6,1.9,1.5,3c0,0.3-0.1,0.7-0.4,0.7
			c-0.2,0-0.3-0.1-0.5-0.2c-1.2-0.8-2.2-1.9-3.2-2.9c-2.9-2.7-6.5-4.6-9.6-7.1c-0.2-0.2-0.5-0.4-0.5-0.7S106.8,105.9,107.5,106.4z"
			/>
	</g>
	<g>
		<path class="st2" d="M104.9,113.4c2.2,1.6,4.5,3.1,6.4,5c0.7,0.7,1.4,1.6,1.5,2.6c0,0.3-0.1,0.7-0.4,0.9c-0.3,0.2-0.7-0.1-1-0.3
			c-1.6-1.4-2.8-3.2-4.5-4.5c-0.9-0.7-1.9-1.2-2.7-1.9c-0.4-0.3-0.7-0.7-0.7-1.2C103.7,113.4,104.1,112.8,104.9,113.4z"/>
	</g>
</g>
<g>
</g>
<g>
</g>
<g>
</g>
<g>
</g>
<g>
</g>
</svg>
