<?xml version="1.0" encoding="utf-8"?>
<!-- Generator: Adobe Illustrator 21.0.0, SVG Export Plug-In . SVG Version: 6.00 Build 0)  -->
<svg version="1.1" id="Capa_1" xmlns="http://www.w3.org/2000/svg" xmlns:xlink="http://www.w3.org/1999/xlink" x="0px" y="0px"
	 viewBox="0 0 1024 768" style="enable-background:new 0 0 1024 768;" xml:space="preserve">
<style type="text/css">
	.st0{fill:#E6294D;}
</style>
<g>
	<path class="st0" d="M532.6,307.2c-0.3,7.3,0.3,15.7-0.2,22.9c0,0.4-0.1,0.8-0.4,1c-0.3,0.2-0.7,0.2-1.1,0.2
		c-8.4-1.1-16.8-2.3-25.2-3.4c-0.4,4.3-0.5,8.6-0.4,12.9c8.7,0.2,17.4,0.8,26,1.9c-0.4,18.2-0.2,36.4,0.3,54.6
		c5.2,0.3,10.4,0.6,15.6,0.9c-1.4-18.3-2.8-36.6-2.3-54.9c8.6-0.2,17.3-0.2,25.9-0.1c0-5,0-9.9,0.1-14.9c0-0.2,0-0.4-0.2-0.6
		c-0.2-0.1-0.4-0.1-0.6-0.1c-8.7,1.1-17.4,2.2-26.1,3.3c-0.3-7.9-0.1-15.9,0.6-23.8C540.4,306.8,532.6,307.2,532.6,307.2z"/>
</g>
<g>
	<path class="st0" d="M598.3,429.6c-0.2,6,0.3,12.9-0.1,18.8c0,0.3-0.1,0.7-0.3,0.9c-0.2,0.2-0.6,0.2-0.9,0.1
		c-6.9-0.9-13.8-1.9-20.7-2.8c-0.3,3.5-0.4,7.1-0.4,10.6c7.1,0.1,14.3,0.7,21.3,1.6c-0.3,14.9-0.2,29.9,0.3,44.8
		c4.3,0.3,8.6,0.5,12.8,0.8c-1.2-15-2.3-30.1-1.9-45.1c7.1-0.1,14.2-0.2,21.3-0.1c0-4.1,0-8.1,0-12.2c0-0.2,0-0.4-0.1-0.5
		c-0.1-0.1-0.3-0.1-0.5-0.1c-7.1,0.9-14.3,1.8-21.4,2.7c-0.2-6.5-0.1-13,0.5-19.5C604.7,429.3,598.3,429.6,598.3,429.6z"/>
</g>
<g>
	<path class="st0" d="M673,394.6c-0.3,8.1,0.4,17.4-0.2,25.5c0,0.4-0.1,0.9-0.4,1.2c-0.3,0.3-0.8,0.2-1.2,0.2
		c-9.3-1.3-18.7-2.5-28-3.8c-0.4,4.8-0.6,9.6-0.5,14.4c9.6,0.2,19.3,0.9,28.9,2.1c-0.4,20.2-0.3,40.4,0.4,60.6
		c5.8,0.3,11.6,0.7,17.3,1c-1.6-20.3-3.1-40.6-2.6-61c9.6-0.2,19.2-0.2,28.7-0.1c0-5.5,0-11,0.1-16.5c0-0.2,0-0.5-0.2-0.6
		c-0.2-0.2-0.4-0.1-0.7-0.1c-9.7,1.2-19.3,2.5-29,3.7c-0.3-8.8-0.1-17.6,0.7-26.4C681.6,394.2,673,394.6,673,394.6z"/>
</g>
<g>
	<path class="st0" d="M633.2,337.8c-0.2,4.5,0.2,9.7-0.1,14.3c0,0.2,0,0.5-0.2,0.6c-0.2,0.2-0.5,0.1-0.7,0.1
		c-5.2-0.7-10.5-1.4-15.7-2.1c-0.2,2.7-0.3,5.4-0.3,8c5.4,0.1,10.8,0.5,16.2,1.2c-0.2,11.3-0.2,22.6,0.2,33.9
		c3.2,0.2,6.5,0.4,9.7,0.6c-0.9-11.4-1.8-22.8-1.4-34.2c5.4-0.1,10.7-0.1,16.1,0c0-3.1,0-6.2,0-9.2c0-0.1,0-0.3-0.1-0.4
		c-0.1-0.1-0.2-0.1-0.4-0.1c-5.4,0.7-10.8,1.4-16.2,2.1c-0.2-4.9-0.1-9.9,0.4-14.8C638,337.6,633.2,337.8,633.2,337.8z"/>
</g>
<g>
	<path class="st0" d="M703.6,524.9c-0.2,4.5,0.2,9.7-0.1,14.3c0,0.2,0,0.5-0.2,0.6c-0.2,0.2-0.5,0.1-0.7,0.1
		c-5.2-0.7-10.5-1.4-15.7-2.1c-0.2,2.7-0.3,5.4-0.3,8c5.4,0.1,10.8,0.5,16.2,1.2c-0.2,11.3-0.2,22.6,0.2,33.9
		c3.2,0.2,6.5,0.4,9.7,0.6c-0.9-11.4-1.8-22.8-1.4-34.2c5.4-0.1,10.7-0.1,16.1,0c0-3.1,0-6.2,0-9.2c0-0.1,0-0.3-0.1-0.4
		c-0.1-0.1-0.2-0.1-0.4-0.1c-5.4,0.7-10.8,1.4-16.2,2.1c-0.2-4.9-0.1-9.9,0.4-14.8C708.4,524.7,703.6,524.9,703.6,524.9z"/>
</g>
<g>
	<path class="st0" d="M588.6,369c-0.1,2.7,0.1,5.8-0.1,8.5c0,0.1,0,0.3-0.1,0.4c-0.1,0.1-0.3,0.1-0.4,0.1c-3.1-0.4-6.2-0.8-9.3-1.3
		c-0.1,1.6-0.2,3.2-0.2,4.8c3.2,0.1,6.4,0.3,9.6,0.7c-0.1,6.7-0.1,13.5,0.1,20.2c1.9,0.1,3.9,0.2,5.8,0.3c-0.5-6.8-1-13.6-0.9-20.3
		c3.2-0.1,6.4-0.1,9.6,0c0-1.8,0-3.7,0-5.5c0-0.1,0-0.2-0.1-0.2c-0.1-0.1-0.1,0-0.2,0c-3.2,0.4-6.4,0.8-9.7,1.2
		c-0.1-2.9,0-5.9,0.2-8.8C591.5,368.8,588.6,369,588.6,369z"/>
</g>
<g>
	<path class="st0" d="M469.3,293.3c-0.1,2.7,0.1,5.8-0.1,8.5c0,0.1,0,0.3-0.1,0.4c-0.1,0.1-0.3,0.1-0.4,0.1
		c-3.1-0.4-6.2-0.8-9.3-1.3c-0.1,1.6-0.2,3.2-0.2,4.8c3.2,0.1,6.4,0.3,9.6,0.7c-0.1,6.7-0.1,13.5,0.1,20.2c1.9,0.1,3.9,0.2,5.8,0.3
		c-0.5-6.8-1-13.6-0.9-20.3c3.2-0.1,6.4-0.1,9.6,0c0-1.8,0-3.7,0-5.5c0-0.1,0-0.2-0.1-0.2c-0.1-0.1-0.1,0-0.2,0
		c-3.2,0.4-6.4,0.8-9.7,1.2c-0.1-2.9,0-5.9,0.2-8.8C472.2,293.2,469.3,293.3,469.3,293.3z"/>
</g>
<g>
	<path class="st0" d="M642.8,511.6c-0.1,2.7,0.1,5.8-0.1,8.5c0,0.1,0,0.3-0.1,0.4c-0.1,0.1-0.3,0.1-0.4,0.1
		c-3.1-0.4-6.2-0.8-9.3-1.3c-0.1,1.6-0.2,3.2-0.2,4.8c3.2,0.1,6.4,0.3,9.6,0.7c-0.1,6.7-0.1,13.5,0.1,20.2c1.9,0.1,3.9,0.2,5.8,0.3
		c-0.5-6.8-1-13.6-0.9-20.3c3.2-0.1,6.4-0.1,9.6,0c0-1.8,0-3.7,0-5.5c0-0.1,0-0.2-0.1-0.2c-0.1-0.1-0.1,0-0.2,0
		c-3.2,0.4-6.4,0.8-9.7,1.2c-0.1-2.9,0-5.9,0.2-8.8C645.7,511.5,642.8,511.6,642.8,511.6z"/>
</g>
<g>
	<path class="st0" d="M759.7,572.3c-0.1,2.7,0.1,5.8-0.1,8.5c0,0.1,0,0.3-0.1,0.4c-0.1,0.1-0.3,0.1-0.4,0.1
		c-3.1-0.4-6.2-0.8-9.3-1.3c-0.1,1.6-0.2,3.2-0.2,4.8c3.2,0.1,6.4,0.3,9.6,0.7c-0.1,6.7-0.1,13.5,0.1,20.2c1.9,0.1,3.9,0.2,5.8,0.3
		c-0.5-6.8-1-13.6-0.9-20.3c3.2-0.1,6.4-0.1,9.6,0c0-1.8,0-3.7,0-5.5c0-0.1,0-0.2-0.1-0.2c-0.1-0.1-0.1,0-0.2,0
		c-3.2,0.4-6.4,0.8-9.7,1.2c-0.1-2.9,0-5.9,0.2-8.8C762.6,572.2,759.7,572.3,759.7,572.3z"/>
</g>
</svg>
