<?xml version="1.0" encoding="utf-8"?>
<!-- Generator: Adobe Illustrator 21.0.0, SVG Export Plug-In . SVG Version: 6.00 Build 0)  -->
<svg version="1.1" id="Capa_1" xmlns="http://www.w3.org/2000/svg" xmlns:xlink="http://www.w3.org/1999/xlink" x="0px" y="0px"
	 viewBox="0 0 7 16.7" style="enable-background:new 0 0 7 16.7;" xml:space="preserve">
<style type="text/css">
	.st0{fill:#E3294D;}
</style>
<g>
	<g>
		<path class="st0" d="M6.7,3.3C6.6,2.4,6.5,1.5,5.9,0.9C5.5,0.6,5.1,0.4,4.6,0.3C3.7,0,2.6-0.2,2,0.5l0.4-0.3
			C1.6,0.5,1.1,1.5,0.8,2.4c-1,3.1-0.9,6.5-0.7,9.8c0.1,1.4,0.3,3,1.4,3.9c0.7,0.6,1.7,0.7,2.6,0.7c0.6,0,1.1,0,1.6-0.3
			c0.8-0.5,1.1-1.6,1.2-2.6C7.2,10.3,7,6.8,6.7,3.3z M5,12.1c0,0.7-0.1,1.5-0.5,1.8c-0.2,0.2-0.5,0.2-0.7,0.2
			c-0.4,0-0.8-0.1-1.1-0.5C2.2,13.1,2.1,12,2,11C2,8.7,1.9,6.4,2.4,4.2c0.1-0.6,0.3-1.3,0.7-1.5L2.9,2.9C3.1,2.4,3.6,2.5,4,2.7
			c0.2,0.1,0.4,0.2,0.6,0.4c0.3,0.4,0.3,1.1,0.3,1.7C5,7.3,5.1,9.7,5,12.1z"/>
	</g>
</g>
</svg>
