<?xml version="1.0" encoding="utf-8"?>
<!-- Generator: Adobe Illustrator 21.0.0, SVG Export Plug-In . SVG Version: 6.00 Build 0)  -->
<svg version="1.1" id="Capa_1" xmlns="http://www.w3.org/2000/svg" xmlns:xlink="http://www.w3.org/1999/xlink" x="0px" y="0px"
	 viewBox="0 0 84.1 248.5" style="enable-background:new 0 0 84.1 248.5;" xml:space="preserve">
<style type="text/css">
	.st0{fill:#BE1818;}
	.st1{fill:#FFC900;}
</style>
<g>
	<path class="st0" d="M12.9,171.2h58.3c7.1,0,12.9-5.8,12.9-12.9V12.9C84.1,5.8,78.3,0,71.2,0H12.9C5.8,0,0,5.8,0,12.9v145.3
		C0,165.4,5.8,171.2,12.9,171.2z"/>
	<path class="st0" d="M10,191.4c0,3,2.5,5.5,5.5,5.5h53.1c3,0,5.5-2.5,5.5-5.5v-14.5H10V191.4z"/>
	<path class="st0" d="M53.9,202.6H30.1c-0.9,0-1.5,0.7-1.3,1.6l8.2,42.7c0.2,0.9,1.1,1.6,2,1.6h6.6c0.9,0,1.8-0.7,2-1.6l7.7-42.7
		C55.4,203.3,54.8,202.6,53.9,202.6z"/>
</g>
<g>
	<path class="st1" d="M28.2,118.6c0-1,0.9-2.1,2.6-3.4c0.4-0.2,0.9-0.4,1.7-0.6c0,0,0.3-0.1,0.9-0.1l0.3,0l0.4,0l0.6,0.1l1,0h0.7
		l0.2,0c0.5,0.1,1,0.1,1.5,0.3l0.5,0l1.2,0.2c0.7,0,1.2,0.2,1.4,0.6c0.1,0,0.1,0.1,0.2,0.2l-0.3,0.7c-0.5,0.6-0.9,0.9-1.2,0.9
		c-0.6-0.1-1.3-0.2-2-0.3l-0.4,0c-0.4,0-1.2-0.1-2.1-0.2l-0.8,0.1l-0.4,0c-2.2,0.1-3.3,0.4-3.3,0.9c0,0.2,0.2,0.6,0.6,1
		c0.6,0.3,1.1,0.4,1.4,0.4c0.2,0.2,0.6,0.3,1,0.3h0.4l0.7,0l2.4,0.2l1.5-0.1H39l0.6,0.1l0.6-0.1l0.6,0.1l0.6,0l0.6,0.2h0.3l0.6-0.1
		l0.5,0.1h0.3c0.7-0.1,1.7-0.2,2.9-0.3l0.1,0l1.7,0.1c0.9,0,1.9-0.1,3.1-0.2h1.5l1.1-0.1l0.6,0.1c0.9,0,1.7-0.1,2.6-0.2
		c1.1-0.4,1.6-0.6,1.7-0.7c0.1-0.1,0.2-0.1,0.2-0.3c-0.2-0.5-0.5-0.7-0.8-0.7c-0.9-0.4-1.5-0.6-1.7-0.6l-2.3-0.3h-1.1l-0.7-0.1h-0.6
		c-0.6,0.1-1.3,0.2-2,0.2c-0.7,0-1.1-0.1-1.1-0.3c-0.3,0-0.5-0.2-0.5-0.6l-0.1-0.4V115c0.1-0.3,0.4-0.5,0.8-0.7
		c0.2-0.2,0.4-0.3,0.5-0.4l0.4,0c1.1-0.1,1.9-0.2,2.5-0.2h0.2l1,0.1l0.6,0c2.5,0.2,3.8,0.4,3.8,0.6c0.1,0,0.4,0.2,1,0.5
		c0.4,0.1,0.8,0.3,1.4,0.8c0.2,0,0.5,0.2,0.7,0.6c0.2,0.4,0.5,0.9,0.7,1.6c0,0.9-0.7,1.8-2,2.6c-1.8,0.7-2.8,1-3.3,1
		c-0.2,0.1-0.4,0.1-0.6,0.1h-0.1l-0.7-0.1l-0.7,0.1l-0.9,0c-0.5,0.2-0.9,0.2-1.4,0.2h-1l-1.9,0.2l-1.1,0l-1.2-0.2h-0.5l-2.8,0.3
		c-1.3,0-2.3,0-3-0.1l-0.9,0l-0.9,0c-0.8,0.1-1.3,0.1-1.8,0.1h-0.1l-1-0.1h-1.6l-1.1-0.1h-0.2c0-0.1-0.3-0.2-1-0.2l-1.3-0.5l-0.6,0
		c-0.3,0-0.6-0.1-0.7-0.2c-0.4-0.1-0.8-0.7-1.2-1.7C28.3,119,28.2,118.8,28.2,118.6z M37.3,116.4v0.1l-0.1,0l0,0v-0.1L37.3,116.4
		L37.3,116.4z M37.4,118.7L37.4,118.7L37.4,118.7L37.4,118.7L37.4,118.7L37.4,118.7L37.4,118.7z M37.9,114h-0.2l-0.2-0.1v-0.1
		c0-0.2,0.1-0.3,0.3-0.3l0.2,0.1v0.2L37.9,114z M38.1,114.1L38.1,114.1L38.1,114.1l0-0.1L38.1,114.1L38.1,114.1L38.1,114.1z
		 M39.1,113.5v0.2c0,0.1,0,0.1-0.1,0.1c-0.1,0-0.2-0.1-0.2-0.2c0-0.1,0-0.2,0.1-0.2h0L39.1,113.5z M39.5,113.8L39.5,113.8l-0.1,0v0
		L39.5,113.8L39.5,113.8z M39.6,113.1L39.6,113.1l-0.2-0.5C39.6,112.8,39.6,112.9,39.6,113.1z M41.9,113.8L41.9,113.8l-0.1,0.2h0
		c-0.1,0-0.1-0.1-0.1-0.2v0c0-0.1,0.1-0.1,0.1-0.1h0C41.9,113.6,41.9,113.7,41.9,113.8z M43,113.9v0.1l-0.1,0.1
		c-0.1,0-0.1-0.1-0.1-0.2c0-0.1,0.1-0.1,0.1-0.1h0C43,113.9,43,113.9,43,113.9z M43.3,112.4c0,0.2-0.1,0.3-0.2,0.3
		c-0.1,0-0.1-0.1-0.2-0.2c0-0.1,0-0.2,0.1-0.3h0.1C43.2,112.3,43.3,112.3,43.3,112.4z"/>
	<path class="st1" d="M28.9,110.8c0.1-0.2,0.4-0.5,0.8-0.7c0.1-0.2,0.5-0.4,1.2-0.4l2-0.1v0l0,0h1.6l0,0c0.1,0.1,0.3,0.1,0.5,0.1
		c0.2,0,0.4,0,0.4-0.1l0,0l0.4-0.1l0.8,0.1H37l0,0l0.5,0.1l0.5-0.1l0,0l0.4,0l1.7,0l1.6,0.2l0.8,0l0.1,0c0.3-0.1,0.5-0.2,0.5-0.5
		c0.1-0.5,0.3-1.6,0.5-3.3c0-0.1-0.1-0.2-0.3-0.4l-2.4,0.1l-1.4-0.1h-0.2c-2.1,0.2-3.4,0.3-4.2,0.5l-0.6,0c-0.8,0.1-1.5,0.2-2.1,0.2
		l-1-0.1l-0.6,0h-0.2c-0.2,0-0.5-0.2-0.9-0.5l-0.1-0.6c0.1-0.5,0.3-0.8,0.5-0.8c0.5-0.4,1.1-0.6,1.8-0.6l1.2,0
		c1.4-0.1,2.8-0.3,4.2-0.5l2.6-0.2l2.2,0.1l1.2-0.1h0.5c0.6,0.1,1.9,0.1,3.8,0.2l1.1,0h0.5c0.8-0.1,1.5-0.2,2.1-0.2h0.6l0.7,0.1h0.2
		l0.5,0l2.8,0.2c0,0,0.2,0.1,0.5,0.1c0.5-0.1,1.1-0.2,1.9-0.3h0.1l0.7,0.1l0.3,0c0.2,0,0.6,0.1,1,0.4c0.3,0,0.5,0.2,0.5,0.7
		c0,0.1-0.1,0.4-0.4,0.7c-0.2,0.4-0.5,0.5-0.8,0.5l0,0h0l-0.4,0.1h-0.6l-1.6,0.1l-0.9-0.1h-0.2l-0.9,0.1h-0.5l-0.9-0.1l-0.7,0
		l-1.7-0.1c-1.5,0.1-2.4,0.2-2.8,0.2l-0.9,0l-0.7,0.1l-0.4,0c-0.5,0-0.8,0.1-0.8,0.2c-0.1,0-0.2,0.8-0.4,2.4c0,0.8,0.1,1.1,0.3,1.1
		l0.2,0.1c1.4,0,2.4-0.1,3.2-0.2l1,0l0.2,0l1.5,0.1c1,0,1.5-0.1,1.5-0.1l0,0c1.5-0.2,2.8-0.3,3.8-0.3l0.7,0l0.3,0l0.5,0h1.1
		c0.7,0.1,1.1,0.2,1.1,0.3c0.1,0.1,0.2,0.3,0.2,0.6c0,0.4-0.4,0.9-1.2,1.5l-0.7,0.1h-0.7l-1-0.1H57l-3.3,0.2l-1.4,0.2l-0.8-0.1
		l-1.2,0l-0.2,0l-0.2,0h-0.3l-1.5,0.1l-0.7,0l-0.2,0v0l-0.4,0.1l-0.4,0l-0.7,0l-0.6,0l-1,0.1c-0.6,0-1-0.1-1-0.1l0,0h0l-0.8-0.2
		h-0.4l-0.6,0.1h-0.4L40,112l-0.9,0c-0.5,0-0.8-0.1-0.9-0.1l0,0H38l-2.7,0.1l-0.7,0h0l-2.7,0.1h-0.6l-0.8,0.1
		c-1.1,0-1.6-0.2-1.6-0.7L28.9,110.8z"/>
	<path class="st1" d="M29.6,98.5c0.2-0.5,0.3-0.8,0.3-0.9c0-0.1,0-0.4-0.1-0.7c0.2-0.4,0.5-0.7,0.9-0.9c0.3-0.3,0.9-0.5,1.9-0.5
		c0.4-0.1,1.3-0.2,2.9-0.4l0.7,0.1c0.8-0.3,1.5-0.4,2.1-0.4c0-0.1,0.6-0.1,1.8-0.2c0.1,0,0.7-0.1,1.8-0.3h0.2l2.2-0.1h0l0.6,0.1
		c0.8-0.2,1.4-0.2,1.9-0.2h0.3l0.5,0c0.8-0.1,1.6-0.2,2.5-0.2l0.1,0l0.8-0.1l0.8,0.1c0.8-0.1,1.7-0.2,2.8-0.2l0,0h0l0.7-0.1
		c0.1,0.1,0.3,0.1,0.6,0.1c0.2-0.1,1.2-0.1,3-0.1l0.2-0.1v0c0.3-0.1,0.7-0.2,0.9-0.2c0.4,0,0.7,0.2,0.9,0.5c0.1,0,0.1,0.1,0.1,0.2
		l0,0.2l0,0.1c0,0.3-0.3,0.7-1,1.2c-0.4,0.3-1,0.4-1.6,0.4c0,0-0.4,0.1-1.3,0.1l-0.5-0.1c-0.9,0-1.4,0.1-1.4,0.1l0,0l-0.3,0l-1.1,0
		c-0.7,0-1,0.2-1,0.5v1.5c0,0.4,0.3,0.6,0.8,0.7h0l0.8,0l0.5,0l0.9-0.1c0.4,0,0.7,0,0.9,0.1v0c0.5,0.1,0.9,0.2,1.4,0.3L59,99
		c1.4,0.1,2.1,0.2,2.1,0.3c0.1,0.1,0.2,0.3,0.2,0.4c0,0.5-0.4,1.1-1.1,1.6l-0.6,0.2h-0.1l-0.7-0.1h-0.2l0,0l0,0l-0.6,0
		c-1.6-0.2-2.5-0.2-2.8-0.2h-0.2l-0.2,0l-0.1,0l-0.9,0l-0.9-0.1l-0.4,0l-0.8-0.1h-0.1c-0.2,0-0.3,0-0.5,0.1v0
		c-0.2,0.1-0.4,0.1-0.6,0.1h-0.6c-0.5-0.1-1-0.2-1.4-0.2l-0.8,0l-2-0.1l-0.7,0.1h-0.5c-1-0.3-1.6-0.4-2-0.4v0l-1.6-0.3v0
		c-0.5-0.2-0.8-0.3-0.9-0.3h-0.6l0,0l0,0l-0.4,0h-0.5l-0.6-0.1h-0.5L35,99.9l-0.4,0h0c-0.4,0-1.2-0.1-2.4-0.2l-1.6,0
		C30.1,99.8,29.7,99.4,29.6,98.5L29.6,98.5z M38.9,97.5c0.2,0.2,0.6,0.3,1,0.4v0l1.3,0.2l1.4,0.3h0.6l0.6,0.1v0
		c0.4,0.1,0.8,0.2,1.2,0.2l1.1,0c0.9,0.1,1.8,0.1,2.7,0.1H49c0.3,0,0.5-0.2,0.5-0.7c0.1-0.3,0.1-0.7,0.2-1.1
		c-0.1-0.2-0.2-0.4-0.4-0.4h-0.2c-0.4,0-0.6,0-0.6,0.1l0,0c-0.9,0.1-1.9,0.2-3.1,0.2c-0.4,0.1-0.7,0.1-1,0.1l-0.7,0l-0.8,0.1l-0.7,0
		c-0.2,0.1-1.1,0.1-2.6,0.2C39.1,97.2,38.9,97.3,38.9,97.5z"/>
	<path class="st1" d="M25.4,81.1v0.1l-0.1,0l0,0v-0.1L25.4,81.1L25.4,81.1z M25.5,83.5L25.5,83.5L25.5,83.5L25.5,83.5L25.5,83.5
		L25.5,83.5L25.5,83.5z M26,78.8h-0.2l-0.2-0.1v-0.1c0-0.2,0.1-0.3,0.3-0.3l0.2,0.1v0.2L26,78.8z M26.2,78.9L26.2,78.9L26.2,78.9
		l0-0.1L26.2,78.9L26.2,78.9L26.2,78.9z M27.2,78.3v0.2c0,0.1,0,0.1-0.1,0.1c-0.1,0-0.2-0.1-0.2-0.2c0-0.1,0-0.2,0.1-0.2h0
		L27.2,78.3z M27.6,78.5L27.6,78.5l-0.1,0v0L27.6,78.5L27.6,78.5z M27.8,77.8L27.8,77.8l-0.2-0.5C27.7,77.6,27.8,77.7,27.8,77.8z
		 M28.7,90L28.7,90c0-0.3,0.2-0.8,0.5-1.5c0.5-0.6,1.1-0.9,1.6-0.9c1.4,0,2.2-0.1,2.4-0.1l0.3,0c0.9,0,2.5-0.2,4.7-0.6
		c0.7-0.2,2.7-0.3,5.8-0.5c0.3-0.1,1.7-0.3,4.2-0.4c0.5,0,0.9-0.1,1.1-0.4v-0.1c-0.1-0.1-0.2-0.2-0.5-0.2l-2.3,0L45,85l-0.7,0
		l-1.8-0.4h-0.6c-0.6,0-1.4-0.2-2.4-0.5c-0.4-0.1-1.1-0.2-2.1-0.3l-0.5-0.2l-0.7,0c-0.2,0-0.6-0.1-1.3-0.2h-0.2l0,0l0,0l-0.1,0
		c-0.8-0.1-2.3-0.3-4.6-0.4L29.3,83h-0.1l0,0c-0.2-0.1-0.2-0.2-0.2-0.4l-0.2-0.6V82l0.2-0.8l-0.1-0.4v-0.2c0-0.3,0.4-0.7,1.2-1.1
		l0.3-0.1h0.8c0.8,0.1,1.4,0.1,1.8,0.3c0.4-0.1,1.4-0.3,3-0.4l0.6,0l1-0.1l1.7,0.2v0c0.2,0.1,0.5,0.1,0.7,0.1h0.8l1.6-0.2
		c0,0,0.2-0.1,0.6-0.1l0,0l0.1,0l0,0l1.4-0.2l1.2,0l0.6,0l2.7-0.4h0.6l1-0.2h0.4l0.7,0.1l0.8-0.1h0l1.8,0.1l1.5,0h0.5l2.8,0.2
		l0.9-0.1c0.4,0.1,0.6,0.4,0.6,0.7v0.3c0,0.3-0.4,0.8-1.2,1.3c-0.3,0.1-0.5,0.2-0.6,0.2h-0.8c-0.9-0.1-1.5-0.1-1.8-0.2h-0.2L54,81
		h-0.2l-1-0.1l-0.6,0l-0.9-0.1c-0.6,0-1.3,0.1-2.1,0.2l-1.5,0.2l-0.9,0.2l-0.5,0l-1.7,0l-0.6,0.1h-0.3C42.5,81.6,42,81.8,42,82
		c0,0.1,0.2,0.2,0.5,0.3h0.7l2,0.2l1.5,0.1l0,0l0.2,0h0.9l1.8,0.2c0.5,0.1,1.5,0.2,3.1,0.4c0.5,0.2,0.8,0.2,1,0.2h0.1l0.2,0l1.3,0.2
		h0.9c0.6,0.1,1,0.1,1.2,0.2v0c0.8,0.2,1.4,0.3,1.7,0.3h0.4l0,0l0,0h0.2c0.8,0,1.3,0.2,1.4,0.7v0.5c0,0.5-0.5,1-1.5,1.5
		c-0.4,0.1-0.8,0.1-1.2,0.2L58.4,87v0L57,87.3v0l-1.2,0.3v0c-0.1,0.1-0.7,0.1-1.8,0.2l0,0v0c-0.2,0.1-0.8,0.2-1.7,0.3v0l0,0
		l-2.6,0.3l-0.1,0c-2.5,0.2-4.4,0.3-5.7,0.5c-0.3,0.1-0.4,0.2-0.5,0.3v0.1c0.2,0.2,0.9,0.4,2.3,0.4h0.3c0.3,0,0.9-0.1,1.6-0.2l0.6,0
		c0.2,0,0.5-0.1,0.7-0.2l0,0l0.3,0l0.8,0v0l0.7,0.1l3.3-0.2l0.1,0l0.4,0c0.6,0,1.4-0.1,2.4-0.2h0.2l0.8,0v0l1,0.2l0.6,0h0.1
		c0.3,0,0.6,0.2,0.9,0.6v0.1l0,0.5c0,0.2-0.4,0.6-1.1,1.1c-0.2,0.1-0.4,0.2-0.6,0.2h0l-1.8-0.2l-3.5,0.2l-0.5-0.1h-0.2l-1.2,0.1
		L51,91.6l-0.6,0.1l-1.1,0l-0.4,0l-0.3,0C47.1,91.9,46,92,45.3,92h-0.4l0,0l0,0h0c-1.5-0.1-2.6-0.2-3.4-0.3h-0.1l0,0l0,0h-0.8
		L39,91.6l-0.2,0l-0.3,0H38l-0.7-0.1l-3,0.2l-1.1,0h-0.4l-0.8-0.1l-0.8,0l-1-0.1h-0.1l-0.3,0c-0.3,0-0.5-0.2-0.8-0.5
		C28.8,90.6,28.7,90.3,28.7,90z M30,78.6L30,78.6L30,78.7h0c-0.1,0-0.1-0.1-0.1-0.2v0c0-0.1,0.1-0.1,0.1-0.1h0
		C30,78.4,30,78.5,30,78.6z M31.2,78.7v0.1L31.1,79c-0.1,0-0.1-0.1-0.1-0.2c0-0.1,0.1-0.1,0.1-0.1h0C31.1,78.6,31.2,78.7,31.2,78.7z
		 M31.4,77.2c0,0.2-0.1,0.3-0.2,0.3c-0.1,0-0.1-0.1-0.2-0.2c0-0.1,0-0.2,0.1-0.3h0.1C31.4,77,31.4,77.1,31.4,77.2z"/>
	<path class="st1" d="M62.3,72c0,1.3-0.8,2.4-2.3,3.3c-1.3,0.4-2.2,0.6-2.8,0.6c0,0.1-0.9,0.2-2.8,0.4l-1.6,0.1l-0.6-0.1l-0.8,0.1
		h-1.5l-0.6-0.1l-0.8,0l-0.7-0.1l-0.8,0l-1.2-0.1l-2,0c-1.2,0-2-0.1-2.2-0.2l-2.6,0.3v0c-0.5,0.1-1.1,0.1-1.9,0.2
		c0,0.1-0.7,0.1-2.1,0.2c-0.2,0-0.3,0-0.3-0.1l0,0l-1.4-0.3l-0.1,0c-0.4,0-1.4-0.4-3-1.2c-0.2-0.1-0.5-0.3-0.8-0.7
		c-0.6-0.4-0.9-0.8-1.1-1.2l-0.2-0.6c0-0.6,0.3-1.3,1-2.1c0.9-0.7,1.6-1.1,2-1.1l0.2-0.1v0c1.1-0.3,1.8-0.5,2-0.5h1.2
		c0.3,0,0.6,0,0.8-0.1l0,0l0.4,0l0.7,0l1.7-0.2l0.6,0l0.7-0.1l0.8,0.1c1.3,0,1.9-0.1,1.9-0.1l0,0h0c0.5-0.1,1-0.1,1.4-0.1h0.5l1.2,0
		c2.1-0.1,3.3-0.2,3.6-0.3h1.8c1.1,0.1,2,0.2,2.7,0.3h0.7l1.6,0.3c0.2,0,0.6,0.1,1.2,0.3l0.6,0.1v0c0.5,0.1,0.9,0.2,1.5,0.4
		c0.1,0,0.8,0.3,1.9,0.8c0.8,0.2,1.2,0.5,1.2,0.7C62.2,71.4,62.3,71.7,62.3,72z M59.3,72.6c-0.3-0.3-0.7-0.6-1.3-0.8l0,0l-1.4-0.2
		l-0.2-0.1v0l-1.8-0.4l-1.2-0.2l0,0c-0.3-0.1-1-0.1-2-0.2h-0.5l-0.9-0.1h-0.7c-1.7,0.2-2.8,0.3-3.3,0.3v0l0,0h-0.3l-0.7,0l-0.8,0
		h-0.8l-3,0.2l-0.8-0.1l-3.8,0.2l-0.2,0l-0.9,0.2l-1,0l-0.6,0v0l-1.4,0.3v0c-0.4,0.1-0.6,0.2-0.6,0.4l-0.1,0.1
		c0,0.4,0.3,0.6,0.9,0.8c0.6,0.4,1.4,0.7,2.4,0.9v0c0.3,0.1,1,0.1,2,0.2c0.6-0.1,1.2-0.1,1.7-0.1v0l0,0h0l3-0.3l0.2,0v0l0,0h0.4l0,0
		h0v0l0.4-0.1c1.1,0,1.7,0.1,1.7,0.1v0c0.1,0,0.3,0.1,0.5,0.1c0.3,0,0.5,0,0.5-0.1l0,0l0.8-0.1c1,0,2,0.1,3.1,0.3h0.4l0.7,0l0.8,0
		h0.7l0.8,0.1l1.7-0.3l0,0l3.9-0.3c0.3,0,0.8-0.2,1.7-0.7L59.3,72.6z"/>
	<path class="st1" d="M28.3,66L28.3,66c0-0.4,0.5-0.8,1.4-1.4l2.2-0.3l0.8-0.2l0.1,0l2.2-0.5l0.6-0.1v0c1.3-0.4,2.3-0.6,2.8-0.6
		c0.3-0.1,0.4-0.3,0.5-0.3c0-0.2-0.2-0.4-0.5-0.5h-0.4c-0.6,0-1.9-0.2-4-0.6l-2.4-0.3c-0.5,0-1.2-0.1-2.3-0.4c0-0.1-0.2-0.2-0.6-0.4
		c-0.1-0.1-0.2-0.4-0.3-0.9v0c0-0.3,0.3-0.5,0.8-0.8c0.2-0.2,0.4-0.4,0.6-0.4c1.6,0.3,2.5,0.5,2.7,0.5c0.6,0,1,0.1,1.2,0.1v0
		c0.9,0.1,1.4,0.2,1.5,0.3v0c0.5,0.2,1.1,0.2,1.7,0.2l0.2,0.1v0c0.1,0.1,0.5,0.2,1.2,0.3v0l0,0c1.2,0.1,1.9,0.2,2,0.3v0
		c0.9,0.3,1.5,0.5,1.8,0.7c1.1,0.4,1.9,0.6,2.5,0.8c1,0.2,1.7,0.4,2,0.7l0.3,0.1h0.1l0.8-0.1l0.7,0c0.9-0.2,1.7-0.3,2.3-0.3
		c0.7,0,1.8,0.1,3.5,0.2h0.1l0.6,0l0.8,0.1l0.3,0l0.8,0h1l0.8,0l0.6-0.1l0.9,0.2h0l0.6-0.1c0.2,0,0.5,0.2,0.9,0.6
		c0,0.6-0.3,1.2-1,1.6c-0.2,0.2-1,0.4-2.1,0.4H58l-0.4,0l-0.8,0h0c-0.2,0-0.5-0.1-0.9-0.2L55,64.6c-2.2-0.1-3.5-0.2-3.8-0.3h0
		l-1.7,0.2l-1,0c-0.5,0.2-1.1,0.3-2,0.3c-0.5-0.2-1-0.3-1.5-0.4c-0.3,0-1.1,0.1-2.5,0.3h-0.5c-1,0.2-1.8,0.4-2.6,0.5
		c-2.8,0.8-4.5,1.2-5.1,1.2l-1,0.2v0c-0.7,0.1-1.2,0.2-1.6,0.3v0c-0.2,0.1-0.6,0.2-1.3,0.3l0,0l-1.1,0.2c-0.3,0-0.6-0.2-0.9-0.6
		L28.3,66z"/>
</g>
<g>
</g>
<g>
</g>
<g>
</g>
<g>
</g>
<g>
</g>
</svg>
