<?xml version="1.0" encoding="utf-8"?>
<!-- Generator: Adobe Illustrator 21.0.0, SVG Export Plug-In . SVG Version: 6.00 Build 0)  -->
<svg version="1.1" id="Capa_1" xmlns="http://www.w3.org/2000/svg" xmlns:xlink="http://www.w3.org/1999/xlink" x="0px" y="0px"
	 viewBox="0 0 98.7 120.2" style="enable-background:new 0 0 98.7 120.2;" xml:space="preserve">
<style type="text/css">
	.st0{fill:#EA1C24;}
	.st1{fill:#008F45;}
	.st2{fill:#39B24A;}
</style>
<g>
	<path class="st0" d="M10,114.9c26.6-10.6,47.1-35.2,52.8-63.3c0.3-1.7,0.6-3.3,1.3-4.9c1.7-3.9,5.6-6.5,9.7-7.6
		c3.7-1,7.7-0.9,11.2,0.5s6.4,4.5,7.5,8.1c1.6,5.6-1.3,11.5-4.3,16.5c-8.4,14.1-18.5,27.4-30.5,38.7c-0.9,0.8-1.8,1.7-2.9,2.3
		c-1.2,0.6-2.5,0.9-3.7,1.4c-2.4,1-4.3,2.8-6.4,4.3c-9.8,7.1-22.5,8.3-34.6,9.2c-3,0.2-8,0.7-10-2C1.6,116.1,7.5,115.9,10,114.9z"/>
	<path class="st1" d="M75.4,38.2C74,39,72.8,40,72.1,41.3c-0.9,1.4,0.5,3.1,2.1,2.6c1.7-0.5,3.6-0.8,5.4-0.7c0.5,0,0.8,0.5,0.6,1
		c-0.1,0.3-0.3,0.6-0.4,0.9c-0.5,1.1,1,2,1.7,1.1c0.3-0.4,0.7-0.8,1-1.2c0.7-0.7,2-0.1,1.9,0.9l-0.1,1.7c-0.1,1,1.3,1.5,1.9,0.7
		c0.4-0.6,0.8-1.2,1.1-1.8c0.3-0.6,1.1-0.6,1.4,0c0.6,1.3,0.8,2.7,0.7,4.1c-0.1,0.7-0.2,1.4-0.1,2.1c0.2,0.9,0.9,1.7,1.9,1.3
		c0.4-0.2,0.7-0.6,0.9-1c1.5-3.3-0.8-6.9-1-10.4c-0.1-2.4,0.7-4.8,1.6-7c3.6-9.7,7.3-19.8,6-30c-0.2-1.7-0.7-3.5-2.1-4.6
		c-0.9-0.7-2.2-1-3.2-0.4c-1.6,0.9-1.6,3-1.5,4.8c0.7,8.6,0.8,17.6-2.5,25.6C86.3,37.5,80.8,35.3,75.4,38.2z"/>
</g>
<g>
	<path class="st2" d="M5.5,90.3c14.7-5.8,26-19.4,29.1-34.9c0.2-0.9,0.3-1.8,0.7-2.7c0.9-2.2,3.1-3.6,5.4-4.2c2-0.5,4.2-0.5,6.2,0.3
		c1.9,0.8,3.5,2.5,4.1,4.5c0.9,3.1-0.7,6.3-2.4,9.1C44,70.2,38.4,77.5,31.8,83.7c-0.5,0.5-1,0.9-1.6,1.3c-0.6,0.3-1.4,0.5-2,0.8
		c-1.3,0.5-2.4,1.5-3.5,2.4c-5.4,3.9-12.4,4.6-19.1,5.1c-1.7,0.1-4.4,0.4-5.5-1.1C0.9,91,4.1,90.9,5.5,90.3z"/>
	<path class="st1" d="M41.5,48.1c-0.7,0.4-1.4,1-1.8,1.7c-0.5,0.8,0.3,1.7,1.1,1.4c1-0.3,2-0.4,3-0.4c0.3,0,0.5,0.3,0.3,0.5
		c-0.1,0.2-0.1,0.3-0.2,0.5c-0.3,0.6,0.5,1.1,1,0.6c0.2-0.2,0.4-0.5,0.6-0.7c0.4-0.4,1.1-0.1,1,0.5l-0.1,0.9c-0.1,0.6,0.7,0.8,1,0.4
		c0.2-0.3,0.4-0.7,0.6-1c0.1-0.3,0.6-0.3,0.7,0c0.3,0.7,0.5,1.5,0.4,2.3c0,0.4-0.1,0.8-0.1,1.1c0.1,0.5,0.5,1,1.1,0.7
		c0.2-0.1,0.4-0.3,0.5-0.5c0.8-1.8-0.4-3.8-0.5-5.8c-0.1-1.3,0.4-2.6,0.9-3.9c2-5.3,4-10.9,3.3-16.5c-0.1-0.9-0.4-1.9-1.1-2.6
		c-0.5-0.4-1.2-0.5-1.8-0.2c-0.9,0.5-0.9,1.7-0.8,2.6c0.4,4.8,0.5,9.7-1.4,14.1C47.6,47.7,44.5,46.4,41.5,48.1z"/>
</g>
<g>
</g>
<g>
</g>
<g>
</g>
<g>
</g>
<g>
</g>
</svg>
