<?xml version="1.0" encoding="utf-8"?>
<!-- Generator: Adobe Illustrator 21.0.0, SVG Export Plug-In . SVG Version: 6.00 Build 0)  -->
<svg version="1.1" id="Capa_1" xmlns="http://www.w3.org/2000/svg" xmlns:xlink="http://www.w3.org/1999/xlink" x="0px" y="0px"
	 viewBox="0 0 191 263.1" style="enable-background:new 0 0 191 263.1;" xml:space="preserve">
<style type="text/css">
	.st0{fill-rule:evenodd;clip-rule:evenodd;fill:#F4901E;}
	.st1{fill-rule:evenodd;clip-rule:evenodd;fill:#D76F1C;}
	.st2{fill-rule:evenodd;clip-rule:evenodd;fill:#A55F1F;}
	.st3{fill-rule:evenodd;clip-rule:evenodd;fill:#EAEBEB;}
	.st4{fill-rule:evenodd;clip-rule:evenodd;fill:#DEB204;}
	.st5{fill-rule:evenodd;clip-rule:evenodd;fill:#FBC800;}
</style>
<g>
	<path class="st0" d="M0.6,18.5c63.1,0,126.1,0,189.2,0c3.2,18.9-0.9,37.7-5.5,56.5c7.8,38.2,6.7,75.8,0,113.1c5.8,18,7,37,5.5,56.5
		c-63.1,0-126.1,0-189.2,0c-1.7-19.3,0-38.2,5.5-56.5c-7-37.7-7.4-75.4,0-113.1C2.5,56.8-0.5,38.2,0.6,18.5L0.6,18.5z"/>
	<rect x="0.6" class="st1" width="189.8" height="18.5"/>
	<rect x="0.6" y="244.6" class="st1" width="189.8" height="18.5"/>
	<path class="st2" d="M95.5,73.2c32.1,0,58.3,26.2,58.3,58.4c0,32.1-26.2,58.3-58.3,58.3c-32.2,0-58.4-26.2-58.4-58.3
		C37.1,99.3,63.3,73.2,95.5,73.2L95.5,73.2z"/>
	<path class="st3" d="M95.5,81.1c27.8,0,50.4,22.6,50.4,50.5c0,27.8-22.6,50.4-50.4,50.4C67.6,182,45,159.4,45,131.6
		C45,103.7,67.6,81.1,95.5,81.1L95.5,81.1z"/>
	<path class="st4" d="M61.5,119.3c-4.3-1.1-7.3-0.7-6.1,4.6c4.3,11.6,20.3,25.3,40.9,19.3c-0.8-4-6.2-9.6-7-13.6
		c-4.8-1.9-9.5-3.9-14.4-5.9C70.5,122.2,65.9,120.7,61.5,119.3L61.5,119.3z"/>
	<path class="st5" d="M61.5,119.3c36.7,7.6,35.6-7.1,53.8-8.5c10.4-0.5,17,4.4,19.9,14.9c4.3,17.9-11.2,31.3-29,25.3
		C92.1,146.1,81.7,128.5,61.5,119.3L61.5,119.3z"/>
</g>
<g>
</g>
<g>
</g>
<g>
</g>
<g>
</g>
<g>
</g>
</svg>
