<?xml version="1.0" encoding="utf-8"?>
<!-- Generator: Adobe Illustrator 21.0.0, SVG Export Plug-In . SVG Version: 6.00 Build 0)  -->
<svg version="1.1" id="Capa_1" xmlns="http://www.w3.org/2000/svg" xmlns:xlink="http://www.w3.org/1999/xlink" x="0px" y="0px"
	 viewBox="0 0 120.6 148.2" style="enable-background:new 0 0 120.6 148.2;" xml:space="preserve">
<style type="text/css">
	.st0{fill:#A27C52;}
	.st1{fill:#39B14A;}
</style>
<g>
	<path class="st0" d="M53.1,143.5C67.5,104.6,68,60.7,54.5,21.4c4.7,1,7.7,5.6,9.9,9.8c16.5,32,21.5,69,20.4,105
		c-0.1,3.3-0.4,7-2.9,9.2c-2,1.8-5,2.2-7.7,2.4c-7.3,0.6-15.9,0.8-20.6-4.8"/>
</g>
<g>
	<path class="st1" d="M59.6,36.5c4.7,0,8.7,4.3,11.6,8.3c3.4,4.8,6.6,9.8,9.4,15c2.7,5,5.2,10.4,4.7,16c3.8-2.9,5.1-8,5.3-12.8
		c0.3-8.2-2.1-16.5-6.7-23.3c-2.9-4.3-7.2-8.2-12.4-8.7c21.3,0,34.1,1.9,44.5,26.9c5.9-7.4,6.6-23.4-1.7-30.3
		c-3.8-3.1-8.6-4.6-13.5-5.4c-9.1-1.5-18.5-0.5-27.5,1.2C82,16,93,11.3,104.4,10.4c-2.1-2.1-5.1-2.7-8-3C82.9,6,71.8,11,62.4,20.7
		C60.2,12.2,50.9,5,42.8,1.6S23.1,0.8,17.4,3.4c6.9,0.7,13.8,1.8,20,5s11.4,8.6,12.8,15.4c-6.5-4.4-14.7-6-22.4-4.8
		C20,20.1,12.8,24.1,7.4,29.7c-4.5,4.6-8,10.9-7.3,17.3c0.4-1.4,1.7-2.3,2.9-3.1c6.8-4.7,13.9-9,21.6-11.7s16.3-3.7,24.3-1.7
		c-4.4-0.4-8.7,1.7-11.7,4.8c-3,3.1-4.9,7.2-6.2,11.4c-3.2,10.7-2.2,22.6,2.5,32.7c-0.4-13.2,4.7-26.5,13.8-36
		C50.8,39.8,55.7,36.5,59.6,36.5z"/>
</g>
<g>
</g>
<g>
</g>
<g>
</g>
<g>
</g>
<g>
</g>
</svg>
