<?xml version="1.0" encoding="utf-8"?>
<!-- Generator: Adobe Illustrator 21.0.0, SVG Export Plug-In . SVG Version: 6.00 Build 0)  -->
<svg version="1.1" id="Capa_1" xmlns="http://www.w3.org/2000/svg" xmlns:xlink="http://www.w3.org/1999/xlink" x="0px" y="0px"
	 viewBox="0 0 40.4 40.7" style="enable-background:new 0 0 40.4 40.7;" xml:space="preserve">
<style type="text/css">
	.st0{fill:#6E4012;}
	.st1{fill:#FFC900;}
</style>
<g>
	<path class="st0" d="M8.3,5.6C5.8,7.4,3.2,9.3,1.8,12C0.3,14.8,0,18,0,21.2c0,3.4,0.1,6.9,1.6,9.9c1.4,2.8,3.8,5,6.5,6.5
		c4.6,2.7,10.2,3.7,15.4,2.8s10.1-4,13.1-8.4c4.4-6.3,4.7-14.8,2-22c-0.8-2.2-2-4.3-3.6-6C27.6-3.1,15.5,0.4,8.3,5.6z"/>
	<path class="st1" d="M28.5,22.5c-0.1-1.3-0.8-2.6-1.8-3.4c-0.8-0.7-1.9-1-2.9-1.3c-0.6-0.1-1.2-0.3-1.8-0.4
		c-0.1-0.9-0.1-1.8-0.2-2.7c0.8,0.1,1.6,0.1,2.4,0.2c0.4,0,0.7,0.1,1.1,0c1.7-0.4,0.4-2.5-0.7-2.8c-0.5-0.1-1.1,0-1.6-0.1
		c-0.5,0-0.9-0.1-1.4-0.1c0-0.4-0.1-0.9-0.1-1.3c0-0.7-0.1-1.5-0.5-2.1c-0.3-0.4-1-0.8-1.5-0.5c-0.5,0.3-0.3,1.1-0.3,1.5
		c0,0.8,0,1.6,0,2.4c-1.1,0-2.2,0.2-3.1,0.7c-1,0.6-1.8,1.5-2.1,2.6c-0.3,1.1,0,2.4,0.7,3.2c0.7,0.8,1.7,1.2,2.7,1.4
		c0.6,0.1,1.2,0.2,1.8,0.2c0,1.4,0,2.7,0,4.1c0,0.1,0,0.2,0,0.3c-1.2,0-2.5,0.1-3.7-0.2c-0.8-0.2-1.7-0.5-2.5-0.2
		c-0.4,0.2-0.7,0.6-0.9,0.9c-0.3,0.6-0.5,1.3-0.1,1.9c0.2,0.3,0.6,0.5,0.9,0.7c2,1,4.1,1.5,6.3,1.5c0,0.1,0,0.3,0,0.4
		c0,0.8,0,1.6,0.4,2.3c0.2,0.5,0.7,0.9,1.2,0.7c0.3-0.1,0.5-0.3,0.6-0.5c0.5-0.7,0.6-1.6,0.6-2.5c0-0.2,0-0.5,0-0.7
		c1-0.2,1.9-0.5,2.8-1c0.9-0.4,1.8-1,2.4-1.8C28.2,25.2,28.6,23.8,28.5,22.5z M17.8,16.9c-0.4-0.2-0.7-0.4-0.8-0.8
		c-0.1-0.6,0.3-1.1,0.8-1.3c0.4-0.2,0.9-0.2,1.4-0.1c0,0.9,0,1.7,0,2.6C18.7,17.2,18.3,17.1,17.8,16.9z M23.6,24.2
		c-0.4,0.2-0.9,0.3-1.3,0.3c0-1.4-0.1-2.8-0.1-4.1c0.2,0,0.4,0.1,0.7,0.1c0.9,0.2,1.9,0.6,2.2,1.5C25.2,22.8,24.5,23.8,23.6,24.2z"
		/>
</g>
<g>
</g>
<g>
</g>
<g>
</g>
<g>
</g>
<g>
</g>
</svg>
