<?xml version="1.0" encoding="utf-8"?>
<!-- Generator: Adobe Illustrator 21.0.0, SVG Export Plug-In . SVG Version: 6.00 Build 0)  -->
<svg version="1.1" id="Capa_1" xmlns="http://www.w3.org/2000/svg" xmlns:xlink="http://www.w3.org/1999/xlink" x="0px" y="0px"
	 viewBox="0 0 159.9 106.5" style="enable-background:new 0 0 159.9 106.5;" xml:space="preserve">
<style type="text/css">
	.st0{fill:#42210B;}
	.st1{fill:#6E4012;}
	.st2{fill:#E4294D;}
	.st3{fill:#FFFFFF;}
</style>
<g>
	<g>
		<g>
			<g>
				<path class="st0" d="M146.7,37.7c3.5-0.7,7-1.7,10.4-3c0.4-0.1,0.8-0.3,1.1-0.6c0.4-0.4,0.6-1,0.7-1.5c0.3-1.3,0.6-2.6,0.7-4
					c0-0.1,0-0.3-0.1-0.4c-0.1-0.1-0.3-0.1-0.4,0c-3.7,0.9-7.4,1.7-11.1,2.6c-0.8,0.2-1.6,0.4-2.1,1.1c-0.3,0.4-0.3,1-0.4,1.5
					c-0.1,1.1-0.1,2.3,0.5,3.2L146.7,37.7z"/>
			</g>
			<g>
				<path class="st0" d="M146.5,21c0.4-0.1,0.8-0.2,1.2-0.1c0.4,0.1,0.6,0.4,0.9,0.7c1,1.1,1.7,2.4,2.3,3.7c0.2,0.5,0.3,0.9,0.6,1.3
					s0.7,0.7,1.2,0.7c0.8,0,1.3-1,1.3-1.9c0-1-0.4-1.9-0.7-2.8c-0.7-1.7-1.6-3.3-2.5-4.9c-0.2-0.4-0.5-0.8-0.9-1.1
					c-0.6-0.4-1.5-0.3-2.2-0.1c-2.4,0.5-4.9,1.2-7,2.5c-0.6,0.4-1.3,0.9-1.5,1.6c-0.4,1.5,0.6,2.6,2,2.1
					C142.9,22.2,144.7,21.5,146.5,21z"/>
			</g>
			<g>
				<path class="st1" d="M28.7,82.6c7.2,11.7,20,19.4,33.5,22.3s27.7,1.5,41-2.1c8.6-2.3,17.2-5.7,23.7-11.8
					c7.5-6.9,11.6-16.7,15.3-26.2c3.5-9,6.9-18.5,5.4-28c-1.3-8.5-6.6-16-13.3-21.4s-14.9-8.8-23.2-11.1c-22-6.3-46-5.7-67.7,1.8
					C33,9.7,21.4,19.7,18,30.2C12.8,46.6,24.9,76.4,28.7,82.6z"/>
			</g>
			<g>
				<path class="st0" d="M0.6,44.5c-0.8,0.8-0.8,6.4,0.1,9.7c0.8,2.9,1.6,6.3,3.6,8.5c3.2,3.4,7.8,2.7,8.7,2.4
					c4.5-1.2,8.1-2.6,12.1-4.2c0.7-0.3,2.5-0.9,3-1.5c0.8-1,1.1-4.7,1.1-4.7c-0.8-0.6-4.5,0-5.5,0.2c-2.3,0.4-4.5,1.5-6.6,2.4
					c-1.1,0.4-2.2,0.9-3.3,0.9c-0.9,0-1.8-0.2-2.7-0.5c-0.9-0.3-1.8-0.6-2.6-1.2c-0.9-0.8-1.5-1.9-2-3c-0.8-1.6-1.6-3.2-2.2-4.9
					c-0.3-0.9-0.7-1.9-1.3-2.7C2.3,45.2,1.3,43.8,0.6,44.5z"/>
			</g>
			<g>
				<path class="st0" d="M7.1,49.4l12.6-4.1c0.4-0.1,0.7-0.4,0.9-0.8c0.5-0.9,1.5-2.6,1-3.1c-2.9-3.1-16.4,4.3-16.4,4.3L7.1,49.4z"
					/>
			</g>
			<g>
				<path class="st1" d="M18.9,38.6c1.4,0.1,2.1,1.2,2.6,2.1c0.2,0.4,0.3,0.8,0.1,1.2c-0.2,0.3-0.6,0.4-1.1,0.6
					c-3.9,1.4-9.1,2.5-13.3,3.7c0.6,2.9,2,5.8,3.7,8.5c0.2,0.3,0.4,0.5,0.7,0.7c0.4,0.1,0.8,0.1,1.3,0.1c3.6-0.4,7.5-2.6,10.8-3.7
					c0.7-0.2,1.6-0.4,2.3-0.2c0.5,0.1,0.8,0.4,1.1,0.7c0.7,0.6,1.3,1.2,1.8,1.9c0.2,0.3,0.4,0.5,0.3,0.8c-0.1,0.4-0.6,0.6-1.1,0.8
					C22.9,58,17.2,60,11.3,61.4c-0.6,0.1-1.2,0.3-1.8,0.2c-0.8-0.1-1.3-0.5-1.8-0.9c-4.8-4.2-6.7-9.7-7.3-15c-0.1-0.5-0.1-1,0.2-1.4
					c0.4-0.6,1.3-0.9,2.2-1.2C8.7,41.2,18.9,38.6,18.9,38.6z"/>
			</g>
			<g>
				<g>
					<path class="st0" d="M59.9,20.4c7-2,14.3-2.2,21.5-1.9c7.9,0.3,15.8,1.1,23.6,2.5c7.9,1.4,15.8,3.5,22.3,8.1
						c5.5,3.9,9.6,9.7,11.7,16.1c0.9-2.2,1.4-4.6,1.4-7c-0.2-7.3-5.2-13.4-10.4-18.3c-2.8-2.7-5.8-5.3-9.2-7.3
						c-6.2-3.7-13.2-5.2-20.2-6.3c-6.5-1-13-1.7-19.5-2.1C65,3.2,28.6,12.9,24.9,37.2c-0.4,2.3,0.3,4.7,1,6.9
						c0.4,1.2,0.9,2.3,1.5,3.4C34.6,35,45.9,24.3,59.9,20.4z"/>
				</g>
				<g>
					<path class="st2" d="M127.3,29c-6.5-4.6-14.5-6.7-22.3-8.1c-7.8-1.4-15.7-2.2-23.6-2.5c-7.2-0.2-14.6,0-21.5,1.9
						c-14,3.9-25.2,14.6-32.5,27.1c1.1,2,2.5,3.8,4.1,5.5C37.3,59.2,45,63.3,53,65.8c8,2.5,16.3,3.3,24.7,3.9
						c12.1,0.8,24.7,0.8,36-3.9c3.8-1.6,7.3-3.6,10.8-5.8c3.9-2.5,7.8-5.1,10.9-8.8c1.5-1.8,2.8-3.9,3.8-6.2
						C137,38.7,132.8,33,127.3,29z"/>
				</g>
			</g>
			<g>
				<path class="st1" d="M146.5,14.6c0.9-0.3,1.9-0.6,2.9-0.5c2.7,0.2,4.3,2.8,5.9,4.9c1.7,2.3,2.9,4.4,4.3,6.9
					c0.8,1.4,0.2,3.7-0.6,4c-5,2.1-7.5,2.9-12.6,4.5c-0.6,0.2-1.1,0.3-1.7,0.3c-1.5-0.2-2.3-1.9-2.6-3.4c2.5-1,5-2,7.6-2.9
					c1.2-0.5,3.4-1.1,3.6-2.4c0.1-1-0.3-2.2-0.9-3c-1.1-1.4-1.8-2.6-2.9-4.1c-0.2-0.3-0.5-0.6-0.8-0.7c-0.4-0.1-0.8,0-1.2,0.1
					c-1.5,0.5-4.5,1.2-5.8,1.9c-1,0.6-2,1.2-3.2,1.6c-1.1,0.4-2.4,0.4-3.4-0.2c-3.3-2.1,0.7-3.4,2.4-4
					C140.4,16.5,143.4,15.6,146.5,14.6z"/>
			</g>
		</g>
		<g>
			<g>
				<path class="st3" d="M39.5,44.1c1.2-1.1,2.6-2,4.2-2.5c1.6-0.5,3.4-0.5,4.7,0.4c1.4,0.9,2.2,2.7,1.7,4.2c-1.1,0.3-2-0.8-2.9-1.4
					c-1.8-1.1-4.2-0.4-6,0.7c-0.7,0.5-5.3,4.6-6,3.8C34.3,48.3,38.9,44.7,39.5,44.1z"/>
			</g>
			<g>
				<path class="st3" d="M58,30.2c1.3-0.6,2.7-1.1,4.1-1.1c2.8-0.1,5.5,1.9,6.3,4.6c-0.8,0.1-1.5-0.4-2.2-0.8
					c-2.1-1.1-4.7-1.1-7-0.5c-2.3,0.6-4.5,1.7-6.7,2.6c-0.3,0.1-0.7,0.2-1,0.1c-1.4-0.4,2-2.4,2.4-2.7C55.1,31.6,56.5,30.8,58,30.2z
					"/>
			</g>
			<g>
				<path class="st3" d="M59.4,49.7c0.9-0.4,1.9-0.8,2.8-0.6c0.7,0.2,1.3,0.6,1.9,1.1c1.2,1.1,2.3,2.2,3.2,3.5
					c0.3,0.4,0.7,0.8,1.2,0.6c0.5-0.2,0.4-0.9,0.2-1.4c-0.8-1.6-2.2-2.8-3.6-4c-0.7-0.5-1.3-1.1-2.1-1.4c-1-0.3-2.1-0.2-3.1,0
					c-1.3,0.3-2.5,0.8-3.7,1.5c-0.7,0.4-1.3,0.9-1.5,1.6C53.7,53.7,58.7,50.1,59.4,49.7z"/>
			</g>
			<g>
				<path class="st3" d="M77.6,59.1c1.5-0.7,3.1-1,4.8-1c0.8,0,1.6,0.1,2.3,0.4c1.5,0.7,2.5,2.5,2.1,4.2c-0.4,0.3-1,0.1-1.3-0.3
					s-0.5-0.8-0.9-1.2c-0.8-0.9-2.2-1.1-3.4-0.9c-3.6,0.4-6.8,2.8-10.5,3.3c-0.9,0.1-2.1,0.2-2.4-0.8c1.5-0.5,3.2-0.3,4.9-1.2
					C74.7,60.8,76.1,59.8,77.6,59.1z"/>
			</g>
			<g>
				<path class="st3" d="M83.4,49.1c2.1-1.5,4.9-2,7.5-1.4c0.6,0.1,1.4,0.3,1.7-0.3c0.2-0.4-0.1-1-0.5-1.2c-0.4-0.2-0.9-0.2-1.4-0.2
					c-1,0.1-2,0.1-3,0.2c-1.9,0.1-3.9,0.3-5.2,1.6c-0.3,0.3-2.1,1.9-2,2.2C80.8,51.5,83,49.4,83.4,49.1z"/>
			</g>
			<g>
				<path class="st3" d="M100.4,55.5c1.9-0.8,4-1,6-0.6c0.9,0.2,1.7,0.6,2.3,1.3s0.8,1.7,0.3,2.4c-0.1,0.1-0.1,0.2-0.2,0.2
					c-0.3,0.2-0.6-0.2-0.9-0.4c-1-1.1-2.5-1.7-4-1.7s-3,0.5-4.3,1.2c-0.6,0.3-3.7,2.2-3.2,0.2C96.6,57.1,99.5,55.9,100.4,55.5z"/>
			</g>
			<g>
				<path class="st3" d="M84.1,36.5c0.5,0.1,1.1,0.1,1.6,0c0.5-0.1,1-0.5,1.1-1.1c0.1-0.6-0.4-1.1-1-1.3c-0.6-0.1-1.2,0-1.7,0.3
					c-0.5,0.2-1.1,0.5-1.7,0.7c-0.7,0.2-1.5,0.1-2.2,0.2c-0.8,0.1-1.5,0.5-2,1.1c-0.4,0.4-0.6,0.9-0.4,1.5
					C80,37.7,81.6,36.3,84.1,36.5z"/>
			</g>
			<g>
				<path class="st3" d="M90.4,28.4c1.2,1.2,2.2,3,3.9,3.3c0.2,0,0.4,0,0.5-0.1c0-0.1,0.1-0.1,0.1-0.2c0.1-0.8-0.8-1.4-1.5-1.9
					c-1.4-1-2.2-2.7-3.7-3.5c-0.9-0.4-1.9-0.5-2.8-0.6c-0.9-0.1-1.9-0.1-2.7,0.4c0.7,0.7,1.9,0.5,2.8,0.7
					C88.3,26.8,89.5,27.4,90.4,28.4z"/>
			</g>
			<g>
				<path class="st3" d="M107.5,37.7c0.3,0,0.7,0.1,1,0.2c0.6,0.3,1.1,1,1.8,0.9c0.7-0.1,0.8-1.2,0.3-1.8c-0.5-0.5-1.3-0.6-2.1-0.6
					c-1.1,0-2.1-0.1-3.2,0c-1.4,0-3,0.3-3.7,1.5c-0.5,0.9-0.5,1.8-1.2,2.5c-0.6,0.6-1.6,0.8-2.2,1.2c1.3,1.4,2.8-0.4,3.7-1.3
					C103.3,38.7,105.1,37.6,107.5,37.7z"/>
			</g>
			<g>
				<path class="st3" d="M122.5,45.7c0.8,0.3,1.5,0.8,2.4,0.8c0.8,0,1.8-0.7,1.5-1.5c-0.2-0.7-1.1-0.9-1.9-0.9
					c-2.4-0.1-4.8-0.3-7.1,0.4c-1.6,0.4-3.9,2.7-1,2.2C118.6,46.3,120.1,44.8,122.5,45.7z"/>
			</g>
			<g>
				<path class="st3" d="M120.3,36.1c0.7,0.3,1.4,0.9,2.1,0.6c0.3-0.6,0-1.4-0.6-1.8c-0.6-0.4-1.3-0.4-2-0.4c-1.3,0-2.6-0.1-3.8,0.5
					c-0.6,0.3-1.1,0.7-1.3,1.4C116.2,37.1,118.4,35.1,120.3,36.1z"/>
			</g>
		</g>
	</g>
</g>
<g>
</g>
<g>
</g>
<g>
</g>
<g>
</g>
<g>
</g>
</svg>
