<?xml version="1.0" encoding="utf-8"?>
<!-- Generator: Adobe Illustrator 21.0.0, SVG Export Plug-In . SVG Version: 6.00 Build 0)  -->
<svg version="1.1" id="Capa_1" xmlns="http://www.w3.org/2000/svg" xmlns:xlink="http://www.w3.org/1999/xlink" x="0px" y="0px"
	 viewBox="0 0 201.2 357.8" style="enable-background:new 0 0 201.2 357.8;" xml:space="preserve">
<style type="text/css">
	.st0{fill:#412401;}
	.st1{fill:#FFFFFF;}
	.st2{fill:#6E4012;}
</style>
<g>
	<g>
		<g>
			<path class="st0" d="M93.1,172.6c16.3-0.3,33-1.9,48.8,2c0.2-0.1,0.5-0.2,0.7-0.3c1.6-0.6,3.4-1.6,3.4-3.3
				c0-2.9-6.6-9.4-59.3-12.1c-24.3-1.3-44.9,1.3-53.2,3.9c-2,0.6-4.1,1.3-5.7,2.7c-1.6,1.4-2.6,3.7-1.9,5.7c1,2.9,3.8,4.7,6.7,5.6
				c1.1,0.3,2.2,0.6,3.2,0.8c7.9-2.6,16.2-3.8,24.4-4.4C71.2,172.3,82.2,172.8,93.1,172.6z"/>
		</g>
		<g>
			<path class="st1" d="M102.7,180.3c16.7,0.8,23.9,0,39.2-5.8c-15.8-3.9-32.5-2.3-48.8-2c-11,0.2-21.9-0.2-32.9,0.5
				c-8.3,0.6-16.6,1.8-24.4,4.4c4.8,0.9,8.9,0.7,14,1C66.7,179.5,85.8,179.5,102.7,180.3z"/>
		</g>
		<g>
			<g>
				<path class="st2" d="M201.1,210.3c-0.2-3.9-0.9-7.8-2.7-11.3c-1.8-3.3-4.6-6-7.4-8.5c-7.2-6.5-15.5-12.8-24.8-14.7
					c1.4-2.4,1.9-5,0.6-7.4c-1.8-3.5-7.6-5.9-11.4-7.1c-46.7-15.2-110.4-6.9-110.4-6.9c-7.1,0-14.3,1.2-21,3.5
					c-5.6,1.9-11.7,6-11.2,11.8c0.6,6.6,8.8,9.2,13.2,14.2c4.1,4.8,4.5,11.7,4.6,18c0,3.9-0.1,7.9-1.8,11.4
					c-1.7,3.2-4.6,5.6-7.1,8.2c-6,6.3-9.9,14.3-13,22.5c-9.5,24.4-13,53.3,0.4,75.8c11.5,19.3,33.3,30.1,55.2,35
					c30.5,6.8,65.2,2.9,88.4-18.1c14-12.7,22.8-31,23.7-49.8c0.4-9-1-18-4-26.4c0.8-0.3,1.5-0.7,2.2-1.1
					C191.7,250.1,202.2,229.9,201.1,210.3z M102.7,180.3c-16.9-0.8-36-0.8-52.9-1.9c-5.1-0.3-9.2-0.1-14-1c-1-0.2-2.1-0.4-3.2-0.8
					c-2.9-0.9-5.7-2.7-6.7-5.6c-0.7-2,0.3-4.3,1.9-5.7c1.6-1.4,3.7-2.1,5.7-2.7c8.4-2.5,28.9-5.1,53.2-3.9
					c52.7,2.7,59.3,9.3,59.3,12.1c0,1.7-1.8,2.7-3.4,3.3c-0.2,0.1-0.5,0.2-0.7,0.3C126.6,180.3,119.3,181.1,102.7,180.3z
					 M167.8,241.6c-1.3,0.8-2.7,1.6-4.1,2.4c-2.1-3.1-4.5-6-7.1-8.7c-7.1-7.3-16.4-14.1-17.4-24.2c-0.6-6.1,2.2-12.1,6.2-16.7
					c2.8-3.3,6.3-6.1,9.8-8.7c6.3,0,12.6,0.9,17.9,4.2c8.9,5.4,13.4,16.6,11.9,26.9C183.6,227.2,176.7,236.2,167.8,241.6z"/>
			</g>
		</g>
	</g>
	<g>
		<g>
			<path class="st1" d="M91.3,67.4c-2.6-6.6-6.5-12.8-7.8-19.8c-1-5.2-0.4-10.6,0.4-15.9c1.4-9.2,3.7-18.3,6.7-27.1
				C85.2,18.4,75.5,31.3,76.9,46c1.3,13.5,11.9,25.1,11.8,38.7c-0.1,16.4-15.3,28.3-22,43.2c-5.7,12.7-4.8,28,2,40
				c-0.2-0.8-0.3-1.6-0.4-2.4c-1.3-11.4,3.4-22.7,9-32.7c5.6-10.1,12.3-19.7,15.5-30.7C96.1,90.7,95.6,78.3,91.3,67.4z"/>
		</g>
		<g>
			<path class="st1" d="M90.7,4.5c0.6-1.5,1.2-3,1.6-4.5C91.8,1.5,91.2,3,90.7,4.5z"/>
		</g>
		<g>
			<path class="st1" d="M125.7,60.2c-1.9-6.5-6.1-12.1-9.2-18.2c-3.1-6.1-5.2-13.3-2.5-19.6c-5.9,4.7-9.6,12.1-9.7,19.7
				c-0.2,12.7,9,24.3,8.7,37c-0.3,9.7-6,18.2-10.7,26.7c-3.9,7-7.3,15-6.5,22.7c2.3-4.9,7.1-9.1,10.9-13.3c4.6-5.2,8-11.3,11.1-17.5
				C123.7,86.1,129.3,72.8,125.7,60.2z"/>
		</g>
	</g>
</g>
<g>
</g>
<g>
</g>
<g>
</g>
<g>
</g>
<g>
</g>
</svg>
