<?xml version="1.0" encoding="utf-8"?>
<!-- Generator: Adobe Illustrator 21.0.0, SVG Export Plug-In . SVG Version: 6.00 Build 0)  -->
<svg version="1.1" id="Capa_1" xmlns="http://www.w3.org/2000/svg" xmlns:xlink="http://www.w3.org/1999/xlink" x="0px" y="0px"
	 viewBox="0 0 1024 411.7" style="enable-background:new 0 0 1024 411.7;" xml:space="preserve">
<style type="text/css">
	.st0{fill:#6E4012;}
</style>
<g>
	<path class="st0" d="M961.9,16.5c-10.4,1.4-21,0.7-31.5-0.1c-24.9-1.7-50.2-6.3-75.1-6.8c-31.1-0.6-61.9,2.9-93.1,0.8
		c-18.5-1.3-37.5-7.9-55.3-2.8c-17.5,5-25.7-0.3-43.3,0.8c-14.3,0.9-34.1-7.5-48.4-8.3C594.8-1,576.8,6,556.6,8
		c-25.6,2.5-43.5-11.1-68.9-7.2c-14,2.2-27.8,7.5-42.1,7.2C429.2,7.7,414.9-3,399,0.8c-9.2,2.3-15.9,5.2-25.1,7.4
		c-10.3,2.4-33.8,2-43.9-1.2c-12.5-4-25.9-3.6-39-3.1c-36.3,1.2-61,6.6-97.2,7.8C153.9,13,116,4.6,76.2,6c-6,0.2-12,0.4-17.6,2.4
		c-6.2,2.2-12,4.3-18.5,5.5c-9.8,1.8-19-1.7-28.4-5.1C8.1,7.5,4,6.7,0,6.6v396.9c1.1,0.2,2.2,0.3,3.4,0.1c46.5-5.9,75.5,7,113.1,2.6
		c28-3.3,55.9-9.4,84-7.9c24.8,1.4,49.8,8.8,74.2,3.8c14.8-3,32.2-6.7,47.3-7.4c30.5-1.4,52.9,4.7,83.3,7.2
		c37.2,3,70.1-11.6,106.6-4.3c16.9,3.4,36.1,3.8,53.2,6.3c26.6,3.9,48.6-6.2,75.4-4.2c23.4,1.7,61,12.3,84.4,11.9
		c38-0.7,58.3-14.8,85.9-14c12.2,0.4,25,7,44.5,7.6c7.3,0.2,30.3-5.6,37-2.9c27.2,10.9,36.3-3.1,65.5-0.3
		c12.3,1.2,40.5-2.6,52.3,1.7c8,2.6,7.1-2.2,13.9-0.3V6.6C1004.3,8,974.3,14.9,961.9,16.5z"/>
</g>
</svg>
