<?xml version="1.0" encoding="utf-8"?>
<!-- Generator: Adobe Illustrator 21.0.0, SVG Export Plug-In . SVG Version: 6.00 Build 0)  -->
<svg version="1.1" id="Capa_1" xmlns="http://www.w3.org/2000/svg" xmlns:xlink="http://www.w3.org/1999/xlink" x="0px" y="0px"
	 viewBox="0 0 1019.5 21.6" style="enable-background:new 0 0 1019.5 21.6;" xml:space="preserve">
<style type="text/css">
	.st0{fill:#6E4012;}
</style>
<g>
	<g>
		<path class="st0" d="M42.5,5.8c-9.7,0-19.5,0-29.2,0.1C9.2,5.9,4.8,6,1.2,8C0.5,8.4-0.2,9.1,0.1,9.8c0.1,0.4,0.5,0.6,0.9,0.8
			c11.2,6.5,25.4,1.6,38.2,3c2.8,0.3,5.5,0.9,8.3,1.3c5.1,0.7,10.2,0.8,15.4,0.8c1.7,0,3.5,0,5-0.6c1.6-0.6,3-2.1,3-3.8
			c0-1.8-1.3-3.3-3-4s-3.4-0.7-5.2-0.7c-8.5,0-16.9,0-25.4,0L42.5,5.8z"/>
	</g>
	<g>
		<path class="st0" d="M119.1,12.9c1.2,0.2,0,2-1.2,2.2c-9.5,1.8-19.6,0.5-28.3-3.6c1.9-3.1,5.6-4.6,9.2-5s7.2,0.3,10.8,0.8
			c17.1,2.3,34.5,0.2,51.7-1.5c1.7-0.2,3.4-0.3,5,0.4s2.7,2.5,2.1,4c-0.5,1.2-1.9,1.9-3.1,2.3c-7.1,2.4-14.8,2.2-22.3,2
			c-10.1-0.3-20.2-0.5-30.3-0.8L119.1,12.9z"/>
	</g>
	<g>
		<path class="st0" d="M236.1,6c-15.2-0.6-30.8-1.3-45.4,3c3.1,4.4,8.5,6.6,13.8,7.2s10.7-0.2,16-0.9c13.4-1.6,26.9-2,40.4-1.1
			c2,0.1,4.7-0.4,4.8-2.3c0-1-0.8-1.8-1.6-2.4c-3.1-2.3-7.2-2.6-11.1-2.8c-9.1-0.5-18.2-1-27.2-1.5L236.1,6z"/>
	</g>
	<g>
		<path class="st0" d="M312.7,13.1c-8.3,1.4-17,1.2-25.2-0.8c-1.7-0.4-3.6-1.1-4.1-2.8c0.7-1.5,2.7-1.7,4.4-1.6
			c19.5,0.3,39,0.6,58.5,0.9c-2.1-3.2-5-5.8-8-8.2c5.5-1.9,11.3,1.2,16.2,4.1c1.5,0.9,3.1,1.9,4.2,3.3c1,1.5,1.3,3.6,0.2,5
			c-0.5,0.6-1.2,1.1-1.9,1.4c-5.5,3-11.3,5.4-17.4,7.1c0.7-3.5,2.7-6.8,5.6-8.9c-13.5,1.4-27.1,1.8-40.7,1.2L312.7,13.1z"/>
	</g>
	<g>
		<path class="st0" d="M415.6,5.8c-9.7,0-19.5,0-29.2,0.1c-4.1,0-8.5,0.1-12.1,2.1c-0.7,0.4-1.4,1.1-1.1,1.8
			c0.1,0.4,0.5,0.6,0.9,0.8c11.2,6.5,25.4,1.6,38.2,3c2.8,0.3,5.5,0.9,8.3,1.3c5.1,0.7,10.2,0.8,15.4,0.8c1.7,0,3.5,0,5-0.6
			s3-2.1,3-3.8c0-1.8-1.3-3.3-3-4c-1.6-0.7-3.4-0.7-5.2-0.7c-8.5,0-16.9,0-25.4,0L415.6,5.8z"/>
	</g>
	<g>
		<path class="st0" d="M492.2,12.9c1.2,0.2,0,2-1.2,2.2c-9.5,1.8-19.6,0.5-28.3-3.6c1.9-3.1,5.6-4.6,9.2-5c3.6-0.3,7.2,0.3,10.8,0.8
			c17.1,2.3,34.5,0.2,51.7-1.5c1.7-0.2,3.4-0.3,5,0.4s2.7,2.5,2.1,4c-0.5,1.2-1.9,1.9-3.1,2.3c-7.1,2.4-14.8,2.2-22.3,2
			c-10.1-0.3-20.2-0.5-30.3-0.8L492.2,12.9z"/>
	</g>
	<g>
		<path class="st0" d="M609.2,6c-15.2-0.6-30.8-1.3-45.4,3c3.1,4.4,8.5,6.6,13.8,7.2s10.7-0.2,16-0.9c13.4-1.6,26.9-2,40.4-1.1
			c2,0.1,4.7-0.4,4.8-2.3c0-1-0.8-1.8-1.6-2.4c-3.1-2.3-7.2-2.6-11.1-2.8c-9.1-0.5-18.2-1-27.2-1.5L609.2,6z"/>
	</g>
	<g>
		<path class="st0" d="M685.8,13.1c-8.3,1.4-17,1.2-25.2-0.8c-1.7-0.4-3.6-1.1-4.1-2.8c0.7-1.5,2.7-1.7,4.4-1.6
			c19.5,0.3,39,0.6,58.5,0.9c-2.1-3.2-5-5.8-8-8.2c5.5-1.9,11.3,1.2,16.2,4.1c1.5,0.9,3.1,1.9,4.2,3.3s1.3,3.6,0.2,5
			c-0.5,0.6-1.2,1.1-1.9,1.4c-5.5,3-11.3,5.4-17.4,7.1c0.7-3.5,2.7-6.8,5.6-8.9c-13.5,1.4-27.1,1.8-40.7,1.2L685.8,13.1z"/>
	</g>
	<g>
		<path class="st0" d="M778.9,12.9c1.2,0.2,0,2-1.2,2.2c-9.5,1.8-19.6,0.5-28.3-3.6c1.9-3.1,5.6-4.6,9.2-5c3.6-0.3,7.2,0.3,10.8,0.8
			c17.1,2.3,34.5,0.2,51.7-1.5c1.7-0.2,3.4-0.3,5,0.4c1.5,0.7,2.7,2.5,2.1,4c-0.5,1.2-1.9,1.9-3.1,2.3c-7.1,2.4-14.8,2.2-22.3,2
			c-10.1-0.3-20.2-0.5-30.3-0.8L778.9,12.9z"/>
	</g>
	<g>
		<path class="st0" d="M896,6c-15.2-0.6-30.8-1.3-45.4,3c3.1,4.4,8.5,6.6,13.8,7.2s10.7-0.2,16-0.9c13.4-1.6,26.9-2,40.4-1.1
			c2,0.1,4.7-0.4,4.8-2.3c0-1-0.8-1.8-1.6-2.4c-3.1-2.3-7.2-2.6-11.1-2.8c-9.1-0.5-18.2-1-27.2-1.5L896,6z"/>
	</g>
	<g>
		<path class="st0" d="M972.5,13.1c-8.3,1.4-17,1.2-25.2-0.8c-1.7-0.4-3.6-1.1-4.1-2.8c0.7-1.5,2.7-1.7,4.4-1.6
			c19.5,0.3,39,0.6,58.5,0.9c-2.1-3.2-5-5.8-8-8.2c5.5-1.9,11.3,1.2,16.2,4.1c1.5,0.9,3.1,1.9,4.2,3.3s1.3,3.6,0.2,5
			c-0.5,0.6-1.2,1.1-1.9,1.4c-5.5,3-11.3,5.4-17.4,7.1c0.7-3.5,2.7-6.8,5.6-8.9c-13.5,1.4-27.1,1.8-40.7,1.2L972.5,13.1z"/>
	</g>
</g>
</svg>
