<?xml version="1.0" encoding="utf-8"?>
<!-- Generator: Adobe Illustrator 21.0.0, SVG Export Plug-In . SVG Version: 6.00 Build 0)  -->
<svg version="1.1" id="Capa_1" xmlns="http://www.w3.org/2000/svg" xmlns:xlink="http://www.w3.org/1999/xlink" x="0px" y="0px"
	 viewBox="0 0 67.7 55.9" style="enable-background:new 0 0 67.7 55.9;" xml:space="preserve">
<style type="text/css">
	.st0{fill:#4D4D4D;}
	.st1{fill:#39B14A;}
</style>
<g>
	<g>
		<g>
			<path class="st0" d="M21.1,36.6c-0.3,0-0.5,0-0.8,0.1c-0.2,0.1-0.3,0.3-0.4,0.5c-2.1,4.2-4.2,8.3-6.4,12.5
				c-0.2,0.4-0.4,0.9-0.4,1.4c0.1,0.5,0.5,1,1,0.8c1.1-1.4,1.6-3.1,2.2-4.8c1.2-3,2.9-5.9,4.5-8.7c0.2-0.3,0.3-0.5,0.6-0.7
				c0.3-0.2,0.8-0.2,1.2-0.1c1.4,0.1,2.8,0.2,4.2,0.4c0.4,0,0.8,0.1,1.2-0.1c0.1-0.1,0.6-0.7-0.1-0.9C26.6,36.6,23,36.6,21.1,36.6z"
				/>
		</g>
		<g>
			<path class="st0" d="M34.6,11.3c3.9-2.9,7.8-5.7,11.7-8.6c0.3-0.2,0.7-0.5,1-0.6c0.3-0.1,0.7-0.2,1-0.2C54.6,1.3,60.9,0.6,67.2,0
				c0.1,1.3,0.3,2.7,0.4,4c0,0.2,0,0.4-0.1,0.5c-0.1,0.1-0.3,0.1-0.4,0.2c-4.8,0.6-9.7,1.1-14.5,0.7c-1-0.1-2.1-0.3-3.1-0.1
				c-1.8,0.2-3.8,1.9-5.3,2.9c-3.5,2.2-6,4.4-9.1,7.2L34.6,11.3z"/>
		</g>
		<g>
			<path class="st1" d="M0.2,51.4C0.1,51.7-0.1,52,0,52.2c0.1,0.2,0.3,0.3,0.5,0.4C2.7,53.9,5,55,7.3,55.9c0.6-1.5,1.3-3,1.9-4.4
				c2.7,1.7,5.8,2.9,9,3.5c0.9,0.2,1.9,0.3,2.7-0.1c1-0.5,1.5-1.5,2-2.5c2.7-5.7,5.3-11.4,7.7-17.2c0.2-0.5,0.4-1,0.3-1.6
				c-0.1-0.5-0.5-1-1.1-1c-2.2,5.9-4.9,11.7-8,17.1c-0.3,0.5-0.6,1-1,1.3c-1.2,1-3,0.7-4.5,0.2c-1.9-0.6-3.8-1.3-5.6-2.1
				c2.4-5,4.9-10,7.3-15c0.1-0.3,0.3-0.6,0.6-0.7c0.3-0.2,0.6-0.1,1-0.1c3.7,0.5,7.4,0.8,11.1,0.8c0.4,0,0.9,0,1.3-0.2
				c0.5-0.3,0.8-0.9,1-1.4c0.6-1.5,1.2-2.9,1.9-4.4c0.5-1.1,0.9-2.2,1-3.4c0.1-2.2-1-4.5,0.1-6.4c0.7-1.3,2.5-2.2,2.3-3.7
				c-0.1-0.6-0.4-1.1-0.8-1.6c-0.9-1.3-1.9-2.6-2.8-3.9c-0.2-0.3-0.5-0.7-0.9-0.7c-0.3,0-0.5,0.1-0.8,0.2c-1,0.5-2,1-3.1,1.6
				c-0.3,0.2-0.7,0.3-1.1,0.4c-0.5,0-0.9-0.1-1.3-0.3c-1.2-0.5-2.5-1-3.7-1.5c-0.3-0.1-0.7-0.3-1.1-0.2c-0.3,0.1-0.6,0.3-0.8,0.5
				c-2.7,2.5-5.4,4.9-8.1,7.4c-1.6,1.4-3.2,2.9-4.2,4.8c-0.9,1.5-1.3,3.4-0.5,4.9c0.6,1,2.1,1.9,1.8,2.5C11,28.7,4.4,43.8,0.2,51.4z
				"/>
		</g>
	</g>
</g>
<g>
</g>
<g>
</g>
<g>
</g>
<g>
</g>
<g>
</g>
</svg>
