<?xml version="1.0" encoding="utf-8"?>
<!-- Generator: Adobe Illustrator 21.0.0, SVG Export Plug-In . SVG Version: 6.00 Build 0)  -->
<svg version="1.1" id="Capa_1" xmlns="http://www.w3.org/2000/svg" xmlns:xlink="http://www.w3.org/1999/xlink" x="0px" y="0px"
	 viewBox="0 0 50.4 47.7" style="enable-background:new 0 0 50.4 47.7;" xml:space="preserve">
<style type="text/css">
	.st0{fill:#6E4012;}
</style>
<g>
	<g>
		<g>
			<path class="st0" d="M20.8,14.1c-0.4-0.8-0.9-1.7-1.7-2.1c-0.7-0.4-1.6-0.5-2.5-0.6c-3.9-0.3-7.9-0.2-11.9,0.1c0,0-2,0.6-2.7,1.4
				c-0.7,0.8-0.9,1.8-1.1,2.8C0.2,19,0,22.4,0,25.8c0,0.6,0,1.2,0.2,1.8c0.2,0.6,0.7,1.1,1.4,1.2c0.8,0.1,1.5-0.4,1.8-1.1
				c0.3-0.6,0.4-1.4,0.4-2.1C3.9,23.7,4,21.9,4.1,20c0.1-1.2,0.1-2.5,0.9-3.4c0.6,0.3,0.6,1,0.6,1.7c0,6.3,0.1,12.6,0.1,18.9
				c0,2.7,0,5.4,0.7,8c0.2,0.7,0.4,1.5,1,2c0.6,0.5,1.5,0.8,2.2,0.3c0.4-0.3,0.6-0.8,0.7-1.3c1.4-4.7,0.7-9.6,0.8-14.4
				c0-0.5,0-1,0.2-1.4c0.2-0.4,0.6-0.8,1.1-0.8c0.4,1.4,0.3,2.9,0.3,4.4c0,3,0,6-0.1,9c0,0.7,0,1.5,0.2,2.2c0.2,0.7,0.7,1.4,1.4,1.7
				c0.2,0.1,0.5,0.1,0.8,0.1c0.6-0.1,0.9-0.8,1.1-1.4c1.2-3.8,1.1-7.8,0.7-11.8c-0.4-4.5-1.1-8.9-0.9-13.4c0-1,0.1-2.1,0.2-3.1
				c0-0.4,0.2-1,0.6-1.1c0.6-0.1,0.9,0.6,0.9,1.2c0.3,2.9,0.5,5.7,0.6,8.6c0,0.7,0.1,1.5,0.6,2c0.8,0.7,2.2,0.4,2.8-0.5
				c0.7-0.8,0.7-1.9,0.8-2.9C22.6,21,22.3,17.4,20.8,14.1z"/>
		</g>
		<g>
			<path class="st0" d="M6,8c0.2,0.3,0.4,0.6,0.7,0.8c0.6,0.5,1.3,1,2.1,1.3c1.5,0.6,3.2,0.6,4.6,0.1c1.5-0.6,2.7-1.8,3.1-3.2
				c0.3-0.9,0.3-1.8,0.2-2.8c-0.1-0.5-0.1-1-0.4-1.4c-0.2-0.4-0.6-0.7-1-1C14,0.8,12.1-0.2,10.2,0l0.2,0c-1.6,0-3.1,1.1-3.8,2.4
				S5.6,5.4,5.8,6.9C5.8,7.3,5.8,7.6,6,8z"/>
		</g>
	</g>
	<g>
		<g>
			<path class="st0" d="M33.5,9c0.2,0.3,0.4,0.6,0.7,0.8c0.6,0.5,1.3,1,2.1,1.3c1.5,0.6,3.2,0.6,4.6,0.1c1.5-0.6,2.7-1.8,3.1-3.2
				c0.3-0.9,0.3-1.8,0.2-2.8c-0.1-0.5-0.1-1-0.4-1.4c-0.2-0.4-0.6-0.7-1-1c-1.5-1.2-3.4-2.2-5.3-1.9l0.2,0c-1.6,0-3.1,1.1-3.8,2.4
				c-0.8,1.3-0.9,2.9-0.8,4.5C33.3,8.4,33.3,8.7,33.5,9z"/>
		</g>
		<g>
			<path class="st0" d="M49.9,25.1c-0.4-1.3-0.8-2.5-1.2-3.8c-0.3-1.1-0.7-2.2-1.2-3.3c-0.5-1-1-2-1.6-3c-0.3-0.6-0.7-1.1-1.2-1.5
				c-0.6-0.4-1.4-0.5-2.1-0.6c-2.5-0.3-5.1-0.4-7.6-0.3c0,0-2.8,1-3.8,2c-1,1.1-1.6,2.4-2.1,3.8c-1,2.4-1.8,4.9-2.5,7.4
				c-0.2,0.9-0.4,2,0.3,2.5c0.7,0.5,1.8,0.3,2.4-0.3c0.6-0.6,0.9-1.4,1.2-2.2c1-2.7,2.1-5.4,3.5-8c0.4,1.8-0.2,3.7-0.7,5.5
				c-0.8,2.7-1.4,5.4-1.9,8.2c-0.1,0.6-0.2,1.1-0.1,1.7c0.1,0.6,0.5,1.1,1.1,1.3c0.7,0.2,1.6-0.1,1.9,0.4c0.1,0.2,0.1,0.4,0.1,0.6
				c0.1,2.1,0.2,4.2,0,6.3c0,0.8-0.1,1.7,0,2.5c0.1,0.8,0.6,1.6,1.3,2.1c0.7,0.5,1.8,0.5,2.4-0.2c0.4-0.4,0.5-0.9,0.6-1.4
				c0.6-2.9,0.8-5.8,0.5-8.8c0-0.3-0.1-0.7,0.1-1c0.1-0.3,0.5-0.5,0.8-0.3c0.1,3.2,0.2,6.4,0.3,9.6c0,0.5,0.1,1.1,0.4,1.4
				c0.5,0.6,1.4,0.6,2.1,0.6c0.5,0,1,0,1.4-0.3c0.5-0.4,0.7-1.1,0.7-1.7c0.3-2.8,0.1-5.7-0.4-8.4c-0.1-0.4-0.1-0.9,0.2-1.1
				c0.2-0.1,0.4-0.2,0.6-0.2c0.6-0.2,1.2-0.5,1.7-0.9c0.1-0.1,0.3-0.2,0.3-0.4c0.1-0.3,0-0.6-0.1-0.9c-2.1-4.5-3.4-9.4-3.6-14.4
				c0.3-0.2,0.6,0.2,0.7,0.6c0.7,2.9,1.5,5.7,2.2,8.6c0.2,0.9,0.6,1.8,1.4,2.1c0.9,0.3,1.9-0.5,2.2-1.4C50.5,26.9,50.2,26,49.9,25.1
				z"/>
		</g>
	</g>
</g>
</svg>
