<?xml version="1.0" encoding="utf-8"?>
<!-- Generator: Adobe Illustrator 21.0.0, SVG Export Plug-In . SVG Version: 6.00 Build 0)  -->
<svg version="1.1" id="Capa_1" xmlns="http://www.w3.org/2000/svg" xmlns:xlink="http://www.w3.org/1999/xlink" x="0px" y="0px"
	 viewBox="0 0 95.9 51.5" style="enable-background:new 0 0 95.9 51.5;" xml:space="preserve">
<style type="text/css">
	.st0{fill:#9B7847;}
	.st1{fill:#B59455;}
	.st2{fill:none;stroke:#FFFFFF;stroke-width:0.5;stroke-miterlimit:10;}
</style>
<g>
	<g>
		<path class="st0" d="M1.6,35.1C0,34.3-0.2,32,0.8,30.5c1-1.5,2.7-2.2,4.3-2.8c13.1-4.8,27.4-5,41.4-4.6
			c14.1,0.4,28.2,1.3,41.9,4.3c2.2,0.5,4.6,1.1,6.2,2.7c0.7,0.7,1.3,1.7,1.2,2.7c-0.1,1.3-1.3,2.2-2.4,2.9c-7,4.6-15.4,6.5-23.6,7.9
			c-15.5,2.6-31.7,3.7-46.8-0.8c-3.6-1.1-7.2-2.5-11-2.8c-2.8-0.2-6.2,0-7.9-2.3"/>
	</g>
	<g>
		<path class="st1" d="M52.1,38.6c14.8,0,30-0.1,43.7-5.6c0.2,2.1-0.9,4-2.2,5.6c-3.3,4.2-7.9,7.4-12.9,9.1c-3.1,1-6.3,1.5-9.5,1.9
			c-7.2,0.8-14.3,1.2-21.5,1.6c-5.4,0.3-10.8,0.6-16.2,0c-5.1-0.5-10.1-1.9-15-3.2c-3-0.8-6-1.7-8.8-3.2c-3.4-1.9-6.3-4.7-8.3-8.1
			c-0.7-1.2-2.8-4.4-0.1-4c2.2,0.4,4.5,1.5,6.8,2.1c9.1,2.4,18.6,3.2,28,3.5C41.4,38.6,46.8,38.6,52.1,38.6z"/>
	</g>
	<g>
		<path class="st1" d="M34.4,15.8c0.5-3.4,0.6-6.9,2.2-9.9c1.5-2.8,4.2-4.7,7.1-5.5c2.9-0.8,6-0.5,8.8,0.3c2.2,0.6,4.5,1.7,5.9,3.7
			c0.8,1.2,1.3,2.8,1.7,4.2c0.8,2.8,1.6,5.6,2.4,8.3c0.2,0.8,0.5,1.6,0.6,2.5c0.2,1.2,0.1,2.5,0.2,3.7c0.2,2.5,1.3,4.9,1.4,7.4
			c0.1,1.9-0.3,3.9,0.2,5.8c0.2,0.6,0.4,1.2,0.5,1.8c0.1,0.6-0.1,1.3-0.6,1.7c-0.2,0.2-0.5,0.2-0.8,0.3c-1.4,0.3-2.7,0.6-4.1,0.7
			c-2,0.2-4,0-6-0.1c-6.8-0.5-13.7-0.4-20.6,0.2c-4.7,0.4-2.5-7.2-2-10.2C32.3,25.7,33.7,20.8,34.4,15.8z"/>
	</g>
	<g>
		<g>
			<path class="st2" d="M8.6,37.7c0.7,1.7,1.5,3.5,2.3,5.1c0.3-1.3,0.7-2.6,1.2-3.8c1.1,1.7,2.3,3.4,3.4,5.1
				c0.1-1.7,0.6-3.4,1.6-4.8c1.4,2.5,2.8,5.1,4.3,7.6c-0.1-1.8,0.2-3.6,0.9-5.2c0.8,2.3,2.3,4.4,4.4,5.8c0.1-2.3,0.5-4.5,1.3-6.7
				c0.4,2.5,1.4,4.8,2.9,6.8c0.6-1.9,1.2-3.7,1.8-5.6c0,0,0-0.1,0-0.1"/>
			<path class="st2" d="M34.1,42.2c0.9,1.8,1.8,3.6,2.7,5.3c0.3-1.8,0.7-3.6,1.3-5.4c0.5,1.5,0.9,2.9,1.4,4.4
				c0.1,0.4,0.3,0.8,0.6,1.1c0,0,0.1,0.1,0.1,0.1"/>
			<path class="st2" d="M41.9,47.4c0.2-0.1,0.3-0.3,0.4-0.5c0.4-0.8,0.4-1.7,0.6-2.6c0.2-0.9,0.6-1.8,1.5-2c0.4,2.1,1.2,4.2,2.3,6
				c1.6-1.9,0.8-5.4,2.9-6.5c1.4,1.5,0.4,4.5,2.1,5.6c1.1-1.7,2.1-3.5,3.2-5.2c0.5,1.9,1,3.9,1.4,5.8c1.4-1.9,2.6-4,3.4-6.3
				c0.4,1.4,0.8,2.8,1.2,4.2c0.1,0.5,0.4,1.2,1,1.2"/>
			<path class="st2" d="M62.9,46.5c1.3-1.5,1.9-3.9,3.8-4.4c0.2,1.7,0.3,3.4,0.5,5.1c2.6-0.4,3.3-4,5.5-5.4c0.1,1.6,0.2,3.3,0.2,4.9
				c2.1-1.3,3.8-3.1,5.1-5.2c0,1.4,0,2.9,0,4.3c1.8-1.4,3.4-3,4.8-4.9c0.1,1.3,0.1,2.6,0.2,3.8c1.5-1.2,2.9-2.7,4-4.2
				c-0.2,0.6,0.6,1.2,1.2,1c0.6-0.1,1-0.7,1.3-1.3c0.2-0.6,0.4-1.2,0.7-1.8"/>
		</g>
	</g>
</g>
</svg>
