<?xml version="1.0" encoding="utf-8"?>
<!-- Generator: Adobe Illustrator 21.0.0, SVG Export Plug-In . SVG Version: 6.00 Build 0)  -->
<svg version="1.1" id="Capa_1" xmlns="http://www.w3.org/2000/svg" xmlns:xlink="http://www.w3.org/1999/xlink" x="0px" y="0px"
	 viewBox="0 0 152.4 146.2" style="enable-background:new 0 0 152.4 146.2;" xml:space="preserve">
<style type="text/css">
	.st0{fill:#0071B8;}
	.st1{fill:#FFFFFF;}
</style>
<g>
	<g>
		<path class="st0" d="M0,126.3c0,5,0.2,10.5,3.6,14.1c3,3.1,7.7,3.9,12.1,4.3c15.2,1.5,30.6,1.5,45.9,1.5
			c27.2-0.1,54.5-0.2,81.1-5.6c2.4-0.5,4.8-1.1,6.6-2.7c2.9-2.7,3.1-7.2,3-11.1c-0.4-29.9-0.9-59.9-4.1-89.6
			c-1.1-10.2-2.5-20.4-6-30c-0.6-1.6-1.3-3.2-2.6-4.3c-1.6-1.3-3.9-1.5-6-1.7c-22-1.4-44.1-1.6-66.1,0C55.9,1.9,27.9,1.4,16.2,2.7
			C6,3.9,0.7,5.4,0.9,22C1.3,46.5,0.1,97.5,0,126.3z"/>
	</g>
	<g>
		<g>
			<g>
				<path class="st1" d="M127.3,121.6c12.5-12.6,15.9-31.7,14.5-49.4C140.1,50.3,131,27.6,112.4,16c-10.8-6.8-23.9-9.2-36.7-8.5
					c-19.1,1.1-37.7,9.1-51.5,22.4c-6.1,5.9-11.4,12.8-14.1,20.8C7.5,58.6,7.3,67.2,8,75.5c1.2,16.3,5.6,32.9,16,45.6
					C46.4,148.6,111.2,137.7,127.3,121.6z"/>
			</g>
		</g>
	</g>
	<g>
		<g>
			<path class="st0" d="M119.9,114.7c10.7-10.8,13.6-27.3,12.5-42.4c-1.4-18.8-9.3-38.3-25.2-48.3c-9.3-5.8-20.6-7.9-31.5-7.3
				c-16.4,0.9-32.4,7.9-44.2,19.2c-5.3,5-9.8,11-12.1,17.9c-2.3,6.8-2.4,14.2-1.9,21.3c1,14,4.8,28.3,13.7,39.2
				C50.4,137.9,106.1,128.5,119.9,114.7z"/>
		</g>
	</g>
	<g>
		<g>
			<g>
				<path class="st1" d="M112.3,107.6c8.9-9,11.4-22.7,10.4-35.3c-1.2-15.6-7.7-31.9-21-40.2c-7.7-4.8-17.1-6.6-26.2-6.1
					c-13.6,0.8-26.9,6.5-36.8,16c-4.4,4.2-8.1,9.2-10.1,14.9c-1.9,5.7-2,11.8-1.6,17.7c0.9,11.7,4,23.5,11.4,32.6
					C54.5,127,100.9,119.1,112.3,107.6z"/>
			</g>
		</g>
	</g>
	<g>
		<g>
			<path class="st0" d="M64,50c-0.6-1.7-1.7-2.9-2.8-3.8c-2.9-2.2-6.4-2.6-9.6-2.2c-3.3,0.5-6.5,1.7-9.7,2.6c0.3,2.3,0.6,4.6,0.8,7
				l-0.2,0.2c-0.5,8.2,0.7,16.4,1.1,24.6c0.4,7.7,0,15.4,0.5,23.1c0,0.4,0.1,0.9,0.3,1.2c0.2,0.2,0.5,0.3,0.7,0.2
				c1.2,0,2.4-0.2,3.5-0.6c0.3-0.1,0.6-0.2,0.8-0.5c0.2-0.4,0.2-0.9,0.2-1.3c0.2-9.2,0.1-18.3-0.3-27.5c3,0,6-1,8.7-2.8
				c1.9-1.2,3.6-2.9,4.7-5.4c1.1-2.4,1.4-5.4,1.7-8.3C64.5,54.3,64.6,52,64,50z M55.4,62c-0.8,1.1-2,1.4-3.1,1.3
				c-1.1-0.1-2.2-0.6-3.3-0.8c-0.2-3-0.2-6.1-0.1-9.1c-0.2,0,0-0.1,0,0c1.1-0.1,2.3-0.1,3.4,0.2c1.3,0.4,2.6,1.4,3.3,3
				C56.4,58.3,56.4,60.6,55.4,62z"/>
		</g>
	</g>
	<g>
		<path class="st0" d="M84.4,98.8c-0.8-12.1-1.5-24.3-2.9-36.3c-0.7-6-1.6-12-3.4-17.5c-0.1-0.4-0.3-0.7-0.5-1
			c-0.2-0.2-0.5-0.2-0.8-0.2c-3.1,0-6.1,0.1-9.2,0.4l-0.3,0.9c-0.9,13.2,0,26.6-0.9,39.8c-0.3,4.9-0.9,9.9,0.1,14.5
			c0.1,0.4,0.2,0.7,0.4,0.9c0.2,0.2,0.5,0.3,0.8,0.3c1.3,0,2.5,0,3.8,0c0.3-6.1,0.6-12.3,0.9-18.4c0-0.3,0-0.6,0.2-0.9
			c0.2-0.2,0.4-0.3,0.6-0.3c1.3-0.2,2.5-0.3,3.8-0.5c0.5,5.9,1,11.9,1.5,17.8c0,0.3,0.1,0.6,0.2,0.9c0.2,0.3,0.6,0.4,0.9,0.4
			c1.4,0,2.8,0,4.2,0c0.2,0,0.4,0,0.6-0.3C84.4,99.3,84.4,99.1,84.4,98.8z M76.1,73c-0.2,0.1-0.3,0.1-0.5,0c-1-0.2-2-0.4-3-0.6
			c-0.1,0-0.3-0.1-0.3-0.2c-0.1-0.1-0.1-0.3-0.1-0.5c0.2-5.2,0.4-10.3,0.6-15.5l0-2.1c0.7,0.7,1.1,1.8,1.4,3c1.3,4.6,2,9.6,2.2,14.5
			C76.4,72.2,76.4,72.8,76.1,73z"/>
	</g>
	<g>
		<path class="st0" d="M88,44.4c0.5,18.5,0.9,36.9,1.2,55.4c1.9,0.2,3.8,0.1,5.7-0.3c0.2,0,0.4-0.1,0.5-0.3c0.1-0.2,0.1-0.6,0.1-0.9
			c-0.2-9-0.3-18-0.5-27.1c1.7,10.2,4,20.2,6.7,29.9c0.1,0.4,0.3,0.9,0.6,1.1c0.2,0.2,0.5,0.1,0.7,0.1c1.6-0.2,3.2-0.4,4.8-0.6
			c0.2,0,0.5-0.1,0.7-0.3c0.3-0.3,0.3-0.8,0.3-1.3c0.4-16.1,0.8-32.2,1.2-48.3c0-0.6,0-1.2-0.2-1.6c-0.2-0.4-0.6-0.6-1-0.7
			c-2-0.8-4-1.3-6-1.6c-0.4,11-0.4,22,0.1,33c-2-5.8-2.6-12.4-3.8-18.6c-1-5.3-2.5-10.4-4-15.4c-0.2-0.5-0.3-1.1-0.6-1.4
			c-0.4-0.5-1-0.6-1.6-0.6c-1.4-0.1-2.8-0.1-4.2-0.2L88,44.4z"/>
	</g>
</g>
<g>
</g>
<g>
</g>
<g>
</g>
<g>
</g>
<g>
</g>
</svg>
