<?xml version="1.0" encoding="utf-8"?>
<!-- Generator: Adobe Illustrator 21.0.0, SVG Export Plug-In . SVG Version: 6.00 Build 0)  -->
<svg version="1.1" id="Capa_1" xmlns="http://www.w3.org/2000/svg" xmlns:xlink="http://www.w3.org/1999/xlink" x="0px" y="0px"
	 viewBox="0 0 156.8 146.1" style="enable-background:new 0 0 156.8 146.1;" xml:space="preserve">
<style type="text/css">
	.st0{fill:#E00428;}
	.st1{fill:#FFC800;}
</style>
<g>
	<g>
		<path class="st0" d="M0,127.3c0,4.7,0.2,9.9,3.6,13.3c3,2.9,7.7,3.6,12.1,4.1c15.2,1.5,30.5,1.4,45.8,1.4
			c27.2,0,54.5-0.1,81.5-5.1c2.4-0.5,4.9-1,6.8-2.5c3.2-2.5,3.6-6.7,3.9-10.5c1.8-28.8,3.7-58.5,2.7-88.8c-0.3-10.6-1-21.3-4-31.5
			c-0.5-1.7-1.1-3.4-2.4-4.6c-1.6-1.4-4-1.7-6.3-1.8c-23.6-1.5-47.3-1.7-71-0.1C60.1,2,30.2,1.4,17.6,2.8C6.6,4.1,0.9,5.7,1.1,23.2
			C1.4,48.7,0.1,99.7,0,127.3z"/>
	</g>
	<path class="st1" d="M72.3,53.7c-2.9-3.3-7.2-5-11.4-5.5c-4.3-0.6-8.7-0.1-13,0.4c-5.7,0.6-14.3-0.7-14,6.8
		c0.2,7.5,1.6,14.9,2.3,22.4c1.8,14.9,0.5,29.9,1.6,44.9c0.1,0.7,0.1,1.4,0.6,1.9c0.6,0.6,1.5,0.6,2.3,0.6c3.6-0.1,7.2-0.2,10.8-0.3
		c0.4,0,0.8,0,1-0.3c0.3-0.3,0.4-0.8,0.3-1.3c-0.2-9.1-0.7-18.1-1.5-27.1c7.6-1.5,15.9-3.3,20.7-9.4c3.7-4.7,4.6-11.1,4.6-17.1
		C76.7,63.9,75.9,57.9,72.3,53.7z M60.2,73.5c-0.1,0.9-0.2,1.7-0.7,2.5c-0.7,1.2-2.1,1.8-3.4,2.4c-0.7,0.3-1.3,0.5-2.1,0.5
		c-0.7,0-1.5-0.3-1.8-0.9c-0.2-0.3-0.2-0.7-0.3-1.1c-0.4-3.7-2.6-10.1-1.6-13.6c0.8-3.2,6-1.9,8.2,0.3C61,66.1,60.7,70,60.2,73.5z"
		/>
	<g>
		<path class="st1" d="M81.3,63.5c0.1,0.4,0.1,0.8,0.4,1.1c0.3,0.3,0.9,0.4,1.3,0.4c4.4,0.1,8.8,0.1,13.3,0.2
			c1.4,18.7,2.2,37.4,2.4,56.1c5.6-0.2,11.1-0.4,16.7-0.7c-1.2-19-3.2-37.9-5.9-56.8c5.3-0.9,10.7-1.5,16.1-1.8
			c-0.9-5.6-1.8-11.1-2.6-16.7c-0.1-0.4-0.2-0.9-0.5-1.2c-0.4-0.4-1.1-0.4-1.7-0.4c-10.3,0.8-20.7,1.8-31,2.9
			c-3.5,0.4-8.5-0.4-9.6,3.5C79.1,54.2,81.3,59.3,81.3,63.5z"/>
		<path class="st1" d="M66,45.3c4.1-2.9,8-6.2,11.6-9.7c0.1-0.1,0.3-0.3,0.4-0.3c0.3-0.1,0.6,0,0.8,0.2c4,1.9,8.8,2.2,12.3,4.9
			c-2-3.6-4.4-6.9-7.2-9.9c3.6-2.8,8.5-3.4,12.4-5.8c-5.1-0.5-10.3-1-15.4-1.3c-1-2.2-1.9-4.5-2.3-6.9c-0.2-1.3-0.2-2.7-0.9-3.9
			c-1.2,1.5-1.8,3.2-2.5,5c-1,2.6-1.9,5.2-2.9,7.8c-0.1-0.4-0.6-0.5-0.9-0.5c-3.3,0-6.5-0.1-9.8-0.1c2.4,1.8,4.8,3.7,7.2,5.5
			c0.5,0.4,1,0.8,1.6,1.1c0.8,0.4,1.1,0.3,0.7,1.2c-0.6,1.4-1.2,2.8-1.7,4.2C68.3,39.6,67.2,42.5,66,45.3z"/>
	</g>
</g>
<g>
</g>
<g>
</g>
<g>
</g>
<g>
</g>
<g>
</g>
</svg>
