<?xml version="1.0" encoding="utf-8"?>
<!-- Generator: Adobe Illustrator 21.0.0, SVG Export Plug-In . SVG Version: 6.00 Build 0)  -->
<svg version="1.1" id="Capa_1" xmlns="http://www.w3.org/2000/svg" xmlns:xlink="http://www.w3.org/1999/xlink" x="0px" y="0px"
	 viewBox="0 0 121.8 273.2" style="enable-background:new 0 0 121.8 273.2;" xml:space="preserve">
<style type="text/css">
	.st0{fill:#6E4012;}
</style>
<g>
	<g>
		<g>
			<path class="st0" d="M32.3,45.6c0.9,1.9,2.4,3.4,4,4.8c3.4,3.1,7.2,5.8,11.5,7.7c7.9,3.5,17.1,3.7,25.1,0.4
				c7.9-3.3,14.4-10.1,16.9-18.3c1.6-5.1,1.7-10.5,1.2-15.8c-0.3-2.7-0.7-5.4-2.1-7.8c-1.3-2.2-3.2-3.9-5.2-5.5
				C75.5,4.5,65.5-1.3,55.1,0.3l1.1,0c-8.7,0.3-16.6,6.3-20.7,14s-5,16.8-4.4,25.5C31.3,41.7,31.5,43.8,32.3,45.6z"/>
		</g>
		<g>
			<path class="st0" d="M112.4,81c-2.1-4.7-4.9-9.5-9.3-12.2c-4-2.4-8.8-2.8-13.4-3.2c-21.4-1.4-42.8-1.3-64.2,0.4
				c0,0-11,3.3-14.5,7.8c-3.5,4.5-5,10.3-6.2,16C1,108.8,0,128.2,0,147.5c0,3.4,0.1,7,1.3,10.2c1.2,3.2,3.9,6.1,7.3,6.6
				c4.1,0.6,8.1-2.4,9.9-6.1s2.1-8,2.2-12.2c0.4-10.5,0.9-20.9,1.3-31.4c0.3-6.9,0.7-14.1,4.8-19.7c3,1.8,3.4,5.9,3.4,9.5
				c0.1,17.2,0.2,34.5,0.4,51.7c0.1,18.8,0.3,37.6,0.4,56.5c0.1,10.7,0.2,21.5,1.4,32.2c0.5,4.6,1.2,9.2,2.3,13.8
				c0.9,4.2,2.2,8.5,5.3,11.5s8.2,4.3,11.6,1.7c2.2-1.7,3.2-4.6,4-7.3c1.8-6.7,3-13.4,3.7-20.2c2.2-20.5,0.3-41.6,0.4-62.4
				c0-2.7,0.1-5.5,1.1-8c1.1-2.5,3.3-4.7,6-4.8c1.9,8.2,1.9,16.7,1.8,25.1c-0.1,17.2-0.2,34.4-0.3,51.6c0,0.1,0,0.1,0,0.2
				c0,4.2,0,8.5,1.2,12.5c1.2,4.1,3.9,7.9,7.8,9.5c1.3,0.5,2.7,0.8,4.1,0.5c3.4-0.7,5.1-4.5,6.1-7.8c1.3-4.2,2.3-8.5,3-12.8
				c3.2-17.9,2.4-36.5,0.8-54.7c-1.1-12.4-2.5-24.8-3.6-37.3c-1.1-13.1-1.9-26.3-1.4-39.5c0.2-5.9,0.7-11.8,1.1-17.7
				c0.2-2.5,0.9-5.6,3.4-6.1c3.1-0.6,4.7,3.6,5.1,6.7c1.8,16.4,2.8,32.8,3.1,49.3c0.1,4.1,0.3,8.6,3.2,11.5
				c4.2,4.1,11.8,2.1,15.3-2.6c3.5-4.7,4-10.9,4.2-16.8C122.4,120.5,120.7,99.6,112.4,81z"/>
		</g>
	</g>
</g>
</svg>
