<?xml version="1.0" encoding="utf-8"?>
<!-- Generator: Adobe Illustrator 21.0.0, SVG Export Plug-In . SVG Version: 6.00 Build 0)  -->
<svg version="1.1" id="Capa_1" xmlns="http://www.w3.org/2000/svg" xmlns:xlink="http://www.w3.org/1999/xlink" x="0px" y="0px"
	 viewBox="0 0 91.1 223" style="enable-background:new 0 0 91.1 223;" xml:space="preserve">
<style type="text/css">
	.st0{fill:#E7294D;}
	.st1{fill:#FFC900;}
</style>
<g>
	<g>
		<g>
			<path class="st0" d="M84,79.3c-1.6-3.5-3.6-7.1-7-9.1c-3-1.8-6.6-2.1-10-2.4c-16-1.1-32-1-48,0.3c0,0-8.2,2.5-10.9,5.9
				C5.6,77.4,4.5,81.8,3.6,86C0.7,100.1,0,114.6,0,129c0,2.6,0.1,5.2,1,7.6c0.9,2.4,2.9,4.6,5.5,5c3.1,0.5,6-1.8,7.4-4.5
				c1.4-2.8,1.5-6,1.7-9.1c0.3-7.8,0.7-15.6,1-23.5c0.2-5.1,0.5-10.6,3.6-14.7c2.3,1.3,2.5,4.4,2.6,7.1c0.2,27,0.4,53.9,0.6,80.9
				c0.1,11.5,0.2,23.1,2.7,34.3c0.7,3.1,1.7,6.3,3.9,8.6c2.3,2.3,6.1,3.2,8.7,1.3c1.7-1.3,2.4-3.4,3-5.4c5.5-20,3-41.1,3.1-61.8
				c0-2,0.1-4.1,0.8-6c0.8-1.9,2.5-3.5,4.5-3.6c1.4,6.1,1.4,12.5,1.4,18.8c-0.1,12.9-0.2,25.7-0.3,38.6c0,3.2,0,6.4,0.9,9.4
				c0.9,3,2.9,5.9,5.8,7.1c1,0.4,2,0.6,3,0.4c2.5-0.5,3.8-3.4,4.5-5.8c4.9-16.2,4.3-33.6,2.9-50.5c-1.7-19.1-4.4-38.2-3.7-57.4
				c0.2-4.4,0.5-8.8,0.9-13.2c0.1-1.9,0.7-4.2,2.5-4.6c2.3-0.5,3.6,2.7,3.8,5c1.3,12.3,2.1,24.6,2.3,36.9c0.1,3.1,0.2,6.4,2.4,8.6
				c3.1,3.1,8.8,1.5,11.4-2c2.6-3.5,3-8.2,3.2-12.6C91.5,108.8,90.3,93.2,84,79.3z"/>
		</g>
		<g>
			<path class="st0" d="M24.2,52.8c0.7,1.4,1.8,2.6,3,3.6c2.6,2.3,5.4,4.3,8.6,5.7c5.9,2.6,12.8,2.8,18.8,0.3
				c5.9-2.5,10.8-7.6,12.7-13.7C68.3,45,68.4,40.9,68,37c-0.2-2-0.6-4.1-1.6-5.8c-0.9-1.6-2.4-2.9-3.9-4.1c-6.1-4.9-3.3-2-11.1-0.9
				L42,28.7c-6.5,0.2-12.3-5-15.4,0.8s-3.8,12.5-3.3,19C23.4,49.9,23.5,51.5,24.2,52.8z"/>
		</g>
	</g>
	<g id="ADO8hX_1_">
		<g>
			<path class="st1" d="M21.9,14.7c-0.3-0.1-0.5-0.2-0.7-0.2c-0.6,0-1.1,0.1-1.7,0.1c-0.5,0-0.8,0.1-1,0.7c-0.3,0.8-0.4,0.8-1.2,0.5
				c-2.1-0.8-4.2-1.5-6.3-2.3c-0.1,0-0.1,0-0.3-0.1c1-0.4,1.8-0.7,2.7-1.1c4.8-1.9,9.6-3.7,14.4-5.5C32.4,5,37,3.2,41.6,1.5
				c1.2-0.5,2.5-1,3.7-1.4c0.3-0.1,0.6-0.1,0.8,0c4.6,1.7,9.1,3.5,13.7,5.2c5.3,2.1,10.7,4.1,16,6.2c1.4,0.6,2.9,1.1,4.3,1.7
				c0.1,0.1,0.3,0.1,0.5,0.2c-1.3,0.5-2.5,0.9-3.7,1.3c-3.2,1.1-6.3,2.3-9.5,3.4c-2.5,0.9-5.1,1.6-7.6,2.4
				c-4.6,1.4-9.1,2.8-13.7,4.2c-0.3,0.1-0.7,0.1-1,0c-4.8-1.4-9.5-2.9-14.3-4.4c-2.4-0.7-4.7-1.5-7.1-2.2c-0.2-0.1-0.3-0.1-0.6-0.3
				c1.1-0.3,2-0.7,3-1c0.5-0.1,0.8-0.4,0.9-1c-0.3,0-0.6,0.1-0.9,0.1c-1.1,0.3-2.3,0.5-3.4,0.8c-0.4,0.1-0.5,0.2-0.5,0.6
				c-0.2,4.3-0.5,8.6-0.7,12.8c0,0.8-0.1,1.6-0.1,2.3c0,0.4-0.2,0.5-0.5,0.7c-2,0.9-3.9,0.8-5.8-0.1c-0.2-0.1-0.3-0.3-0.3-0.5
				c-0.2-1.7,0.1-3.3,0.5-4.9c0.9-3.9,2.4-7.5,3.9-11.1c0.4-1,0.9-1.4,1.9-1.5c0.3,0,0.5-0.1,0.8-0.2C21.8,14.9,21.8,14.8,21.9,14.7
				z"/>
			<path class="st1" d="M66.6,20.8c0,0.3,0,0.5,0,0.7c0,3.2,0,6.4,0,9.6c0,2.1-1.1,3.6-2.7,4.8c-2.6,2-5.6,2.9-8.7,3.6
				c-4.5,1-9,1.2-13.6,0.8c-3.6-0.3-7.1-1-10.5-2.4c-2-0.8-3.8-1.8-5.2-3.5c-0.7-0.9-1.1-1.9-1.1-3.1c0-3.4,0-6.8,0-10.2
				c0-0.1,0-0.1,0-0.3c0.8,0.3,1.7,0.5,2.5,0.7c6,1.8,12,3.7,18,5.5c0.2,0.1,0.6,0.1,0.8,0c4.7-1.4,9.4-2.9,14-4.3
				c2-0.6,3.9-1.2,5.9-1.8C66.2,20.9,66.4,20.8,66.6,20.8z"/>
		</g>
	</g>
</g>
</svg>
