<?xml version="1.0" encoding="utf-8"?>
<!-- Generator: Adobe Illustrator 21.0.0, SVG Export Plug-In . SVG Version: 6.00 Build 0)  -->
<svg version="1.1" id="Capa_1" xmlns="http://www.w3.org/2000/svg" xmlns:xlink="http://www.w3.org/1999/xlink" x="0px" y="0px"
	 viewBox="0 0 1024 768" style="enable-background:new 0 0 1024 768;" xml:space="preserve">
<style type="text/css">
	.st0{fill:#6E4012;}
	.st1{fill:#E3294D;}
	.st2{fill:#FFFFFF;}
</style>
<g>
	<path class="st0" d="M416,470.7c-3.4,2.8-8.8,0.6-11.3-3c-2.5-3.6-3.1-8.1-4.7-12.2c-1.6-4.2-4.3-8.1-5.5-12.4
		c-1.2-4.6-0.7-9.6,1.4-13.9c2-0.9,4.3-1,6.4-0.3c1.9-3.2-0.9-8-4.6-7.9c1.8-1.3,3.6-2.7,5.3-4c-3.4-0.5-6.8-1-10.1-1.5
		c-0.2-1.3-0.3-2.7,0.4-3.8s2.6-1.4,3.2-0.2c1.5-3.4-0.6-7.2-2.6-10.3c-4.5-7-10.5-14.8-18.8-14.3c-1.1-4.1-2.1-8.1-3.2-12.2
		c-2.6,4.5-9.3,3-14,0.9c0.7-2.9-1-6.1-3.8-7.2c-1.5-0.6-3.4-0.8-4.2-2.2c-0.9-1.7,0.5-3.5,1.3-5.3c2.6-5.9-2.9-13.3-0.1-19.1
		c-6.4,2.3-14.3-1.6-16.3-8.1c-0.6-1.9-1-4.2-2.8-4.9c-0.8-0.4-1.8-0.3-2.7-0.4c-7.8-0.8-10-14.2-17.9-13.8c-4.2,0.2-9.4,4.4-11.8,1
		c1.5-2.9,3.1-5.9,4.6-8.8c1.6-0.7,3.5-0.4,4.8,0.8c4.8-3.3,11.6-3.6,16.6-0.6c-0.3,1.6-0.6,3.2-0.8,4.9c8.1,1,16.5-5,18.1-13
		c-3.1-1.6-6.7-0.4-10,0.7c-3.3,1.1-7.2,1.8-9.9-0.4c-2.6-2.2-0.7-8,2.5-6.8c-0.5-1.8-1-3.6-1.6-5.4c7-2.2,14-4.4,20.9-6.6
		c1.6-0.5,3.4-1,4.9-0.2c1.6,0.9,2.1,2.8,2.9,4.4c0.8,1.6,2.8,3.1,4.3,2.1c1.7-4,0-9.1-3.8-11.2c1.9-6.4,8.8-11,15.5-10.1
		c-2.5-2-5.1-4.3-6.1-7.3s0.2-7.1,3.3-8.1c0.8,1,1.6,2,2.3,3c2-1.1,4-2.3,6.1-3.4c-2.3,0-1.5-4.1,0.7-4.9c2.2-0.9,5.1-0.8,6.3-2.8
		c0.9-1.5,0.4-3.5,1.5-4.8c0.9-1.1,2.5-1.2,3.8-1.3c7.2-0.3,14.4-0.6,21.6-0.9c-1.2,6-4.8,11.1-7.2,16.7c-2.4,5.6-3.4,12.6,0.3,17.4
		c1.7-2.9,5.6-3.5,9-3.3c3.3,0.2,6.9,0.8,9.9-0.7c3-1.5,4.4-6.3,1.6-8.1c2,1.1,4.2,2.3,6.5,2.3c2.3,0,4.8-1.7,4.9-4c0-1-0.4-2-0.4-3
		c0-1.4,0.7-2.6,1.4-3.7c6-9.6,13.9-20.3,25.2-20.2c0.7-1.1,0.9-2.5,0.5-3.8c5.3-1,9.2-6.1,10-11.5c0.8-5.4-1.1-10.8-3.8-15.5
		c-4.2-7.4,6.5-14,10.7-18.3c6.7-6.8,13-14.1,18.6-21.8c7.7-1.1,15.4-2.1,23.1-3.2c0.7-0.1,1.4-0.2,2.1,0c0.9,0.3,1.5,1,2.1,1.8
		c2.6,3.2,5.2,6.3,7.8,9.5c0.4,0.5,0.8,1,1,1.6c0.2,0.8,0,1.6-0.3,2.4c-0.5,1.8-1.1,3.6-1.6,5.3c3.3-0.3,6.6-0.9,9.8-1.8
		c0.2-3.8-0.3-7.6-1.5-11.1c2.5,0.1,5-0.2,7.3-0.8c-1.8,6.5-3.1,13.1-3.9,19.8c3.9,4.3,10.5,5.8,15.9,3.7c-0.5-3.5-2.5-6.9-5.3-9.1
		c-0.6-0.5-1.3-0.9-1.6-1.7c-0.3-0.7,0-1.5,0.2-2.2c3.3-10.7,6.5-21.4,9.8-32.1c4.7,5.3,10.1,10.1,16,14.1c0.9,0.6,1.9,1.3,2.4,2.3
		c0.4,0.8,0.4,1.8,0.4,2.7c0,6.2,0,12.3,0,18.5c-6.4-0.8-12.9,4.3-13.6,10.7c-1.8-0.3-3.7-0.6-5.5-0.9c-0.7,1.4-1.4,2.8-2.2,4.2
		c5.4,1.5,10.7,3.5,15.8,5.9c2.9,6.4,4.4,13.4,4.4,20.5c-2-3.3-6.9-2.2-10.5-0.8c-6.6,2.7-13.1,5.5-19.7,8.2
		c4.2,10.4,9.9,20.2,16.9,29c5.5-0.9,11-1.3,16.5-1c1.3-5.8,2.8-11.6,4.7-17.2c4.1-0.3,8.2-0.6,12.2-0.9c-0.5-3.3-0.4-6.7,0.2-10
		c-1.7-0.5-3.5-0.9-5.2-1.4c4.3-4.1,8.4-8.3,12.3-12.8c2.6,0.6,5,1.5,7.4,2.7c1.9-1.6,3.8-3.3,5.7-4.9c1.7,1.8,3.7,3.3,6,4.3
		c-1.3,2.2-2.4,4.6-3.1,7.1c8.1,1.5,15.9,4.9,22.6,9.7c0.6,0,0.8-8.9,2.3-9.9c2.3-1.5,9.2,0.7,11.8,1.1c8.7,1.5,17.3,3.7,25.6,6.5
		c1.2,0.4,2.4,0.8,3.7,0.8c3.1-0.1,5.7-3,8.8-2.7c-1.2,3.9-3.5,7.5-6.5,10.3c-0.9,0.9-1.9,1.8-2.1,3c-0.1,1,0.3,1.9,0.8,2.8
		c0.9,1.7,1.7,3.3,2.6,5l1.3,0l1-2.8c0.9-2.3,1.9-4.6,2.8-6.9c9,2.5,16.2,10.7,17.5,20c0.4,2.9,4.2,3.6,6.5,5.5
		c3.8,3,3.1,8.8,2.1,13.5c-0.4,1.9-1.6,4.3-3.5,3.8c-3-0.7-5.8,2.1-6.4,5.1c-0.7,3,0.1,6,0.3,9.1c0.7,8.2-2.7,16.7-8.8,22.2
		c-2.4-1.4-4.7-2.7-7.1-4.1c-1.5,6.6-2.9,13.6-0.5,20c1.1,2.8,2.4,6.9-0.3,8.2c-3.7-0.4-6.7,2.8-9,5.7c-2.4,3-4.9,6.2-5.5,10
		c-1.1,7,4.3,13.2,9.3,18.3c6.2,6.2,12.4,12.5,18.6,18.7c-3.3,0.7-6.5,1.3-9.8,2c4.2,4.4,7.8,9.3,10.8,14.6c-5.1,1.3-6.9,7.4-8,12.6
		c-0.5,2.5-1,5-1.5,7.4c-0.4,1.8-2,5.9-1.4,7.6c1,2.8,9.1,4.8,11.8,5.6c-0.1,1.5-0.2,3-0.3,4.6c-2,0.5-3.9,1-5.9,1.5
		c2.7,12.9,6.2,25.6,10.5,38c0.4,1.3,0.9,2.5,0.9,3.9c0.1,1.6-0.4,3.1-0.9,4.6c-1.4,4.2-2.7,8.4-4.1,12.6c-0.8,2.5-1.6,4.9-2,7.5
		c-0.4,3.2-0.1,6.5,0.2,9.7c0.6,6.7,1.2,13.5,1.9,20.2c3-0.5,5.9-1.3,8.8-2.4c0.4,15.9,0.9,31.7,1.3,47.6c-4.4,2-8.8,3.8-13.3,5.5
		c-2.8,1.1-6.9,1.5-9,3.8c-3.1,3.4-5.1,8.7-7.5,12.6c-2.6,4.5-5.3,9-7.9,13.5c-0.5,0.8-1,1.6-1.8,2c-0.6,0.3-1.3,0.3-2,0.3
		c-8.3,0.1-16.7,0.2-25,0.3c-1.5,0-3.1,0-4.6-0.2c-1.7-0.3-3.4-1-5.1-1.6c-8.7-2.9-19-2.7-25.9-8.9c0.5-9.6-5.5-18.4-6.7-27.9
		c-0.1-0.6-0.1-1.2-0.5-1.7c-0.3-0.5-0.9-0.8-1.4-1c-2.6-1.1-5.2-2-8-2.5c-0.4-4.2-0.9-8.5-1.3-12.7c-5.4,2.2-10.9,3.9-16.6,5.2
		c-0.5,0.1-1.1,0.2-1.6,0c-0.4-0.2-0.7-0.5-1-0.8c-2.4-2.5-4.8-5-7.2-7.5"/>
</g>
<g>
	<path class="st1" d="M449.1,439.5c-0.7-2-3.3-3.2-5.3-2.3c0.1,1.2,0.2,2.5,0.2,3.7c-1.8,0-3.7,0.9-4.9,2.3c0-1.5-0.1-3-0.1-4.5
		c-3.3,1.9-6.4,4.2-9,7c-0.6,0.6-1.3,1.4-1.1,2.3c0.1,0.9,1.5,1.4,1.9,0.6c0,1.9-2.3,3.5-4.1,2.6c0.4,1.1,1.3,2,2.5,2.2
		c-3.6,6.8-8.2,13-13.5,18.5c0.6,1,1.6,1.7,2.8,1.8c1.3,1.8-0.8,4.1-2.5,5.5c-1.8,1.4-3.3,4.4-1.4,5.5c0.8,0.5,1.9,0.3,2.8,0.2
		c3.2-0.2,6.5,1.4,8.2,4.1c-4.7,3.5-3.1,12.3,2.6,14c1.9,0.6,4.1,0.5,5.6,1.7c1.5,1.3,0.7,4.6-1.2,4c5.2,1.7,7.6,7.6,9.3,12.8
		c1.6,5.1,3.2,10.1,4.9,15.2c0.8,2.6,1.7,5.2,3.2,7.5c1.8,2.6,4.4,4.4,7,6.2c6.9,4.7,14,9.5,22.2,11.2c8.4,1.7,17.1-0.1,25.5,1.2
		c12.5,2,25.4,15.8,38.1,16.6c1.2,0.1,0.3-4.9,1.4-5.5c1.4-0.8,2-2.5,2.8-3.9c2.8-4.9,8.9-7.1,14.5-6.7c5.6,0.5,10.7,3.1,15.5,6.2
		c5.4-8.6,6.7-19.6,3.5-29.2c0.3-2.7,1.6-5.3,3.6-7.2c-0.9-1-1.8-1.9-2.7-2.9c1.7,0.5,3.2-1.6,2.9-3.4c-0.3-1.8-1.5-3.2-2.4-4.7
		c-2.6-4.3-2.5-10,0.2-14.3c2.2-0.5,4.5-0.3,6.6,0.5c1.6-1.8,2-4.6,1.1-6.8c-3,1.3-6.8,0.5-9-1.9c-2.2-2.4-2.6-6.3-1-9.1
		c-1-0.2-2.1-0.3-3.1-0.5c-1.2-9.6,1.2-19.6,6.8-27.6c-1.4-4.8-6.3-7.5-10.1-10.6c-3.9-3.1-7.2-8.7-4.5-12.8
		c-7.5-2.8-14.9-5.7-22.4-8.5c-2.7-1-5.7-2.4-6.5-5.1c-1.3-4.1,3.1-7.6,4.6-11.7c3.9-10.4-11.7-20-9.1-30.8c-4-4-10.3-5.7-15.8-4.2
		c-0.8,0.2-1.4,1.5-0.6,1.5c-4.8-1.7-10.7-4.8-10.1-9.9c0.5-4.4,8-9.4,9.1-13.7c0.7-2.7-2.2-10.7-4.6-12.1c-2.4-1.4-6.2,0.1-8.2,2.1
		c-1.3,1.3-2.5,9.8-4.3,9.4c-1-0.2-1.7-1-2.7-1.2c-1.6-0.2-2.7,1.7-2.7,3.3c-0.2,4.4,3.4,9.7,0,12.6c-2.9-0.7-5.8-1.5-8.7-2.2
		c-0.4,2.9,2.6,5,5.1,6.6c2.5,1.5,5.3,4.3,4,7c-4.4-1.4-8.9-2.8-13.3-4.1c-1.3-0.4-2.8-0.8-4.1-0.2c-1.1,0.6-1.7,1.9-2.2,3.1
		c-1.2,3-2.5,6-3.7,9.1c-0.5,1.3-1.1,2.7-0.9,4.1c0.2,1.9,1.7,3.3,2.7,4.9c1,1.6,1.5,3.9,0.1,5.1c-2.2,0.9-3.2,3.9-2,5.9
		c-1.2-0.5-2.5,0.7-2.9,2s-0.1,2.6-0.2,3.9c-0.3,5.3-5.9,8.4-10.6,10.8c-4.7,2.5-9.9,6.8-8.7,11.9"/>
</g>
<g>
	<path class="st2" d="M556.4,300.3c0.2,0,0.5,0.3,0.9,0.9c0.2,0.2,0.3,0.4,0.3,0.6v0.4l0,0l0,0v0.8l0.2,3.3h0l0,0.1
		c0.1,1.6,0.2,2.4,0.3,2.4l0,0l0,0.4v0.1l0,0.5l0,0.6v0.4l0,0.9l0,0.3c0,0.4-0.1,1-0.2,1.9c0,0.8,0.1,1.5,0.3,2.1v1.2l-0.1,1.1v0.2
		l0,0l0,0v0c0.1,0.6,0.2,1.3,0.2,1.9v0.6l-0.1,1.1v0.3l0.1,1.4v0.4c-0.1,1.4-0.2,2.6-0.3,3.6l0,0l0,0.5v0.6c0,0.6-0.2,1-0.5,1.2
		c0,0.1-0.1,0.1-0.2,0.2c-0.4-0.1-0.8-0.3-1-0.6c-0.4-0.4-0.6-0.9-0.6-1.4v-0.3l0.1-0.8l-0.1-0.7c0.1-0.8,0.2-1.4,0.3-1.7l0,0v-1.5
		l0-1.6l0.1-1.3h0l0,0v-0.1l-0.1-2.3l0.1-0.7l0-0.4v-0.1l0.1-0.8v-0.2c0-0.2-0.1-0.7-0.3-1.2h0l-0.1-0.9l0-0.2v-0.2
		c0-0.2-0.1-0.3-0.1-0.3h-0.1c-0.1,0.1-0.3,0.6-0.5,1.5l-0.3,1.8l-0.2,1.7c-0.2,0.6-0.3,1.1-0.3,1.5v0.3l0,0.2l-0.3,1.7
		c-0.1,0.2-0.3,0.9-0.4,2l-0.3,2.7h0l0,0v0.4l0,0v0h0c0.3,0.8,0.4,1.5,0.4,2.1v0c0,0.5-0.2,0.9-0.5,1h-0.2l0,0l0,0h0
		c-0.3,0-0.7-0.3-1.1-0.8c-0.2-0.3-0.3-0.6-0.3-0.9h0c-0.2-0.6-0.3-1.5-0.5-2.8h0c-0.3-1.8-0.5-3.2-0.8-4.1l0,0
		c-0.1-1.3-0.2-2.2-0.3-2.8l-0.1-1l0-0.4c0-0.9-0.1-1.8-0.3-2.7l-0.3-3.6l-0.1-0.4c-0.1-0.2-0.2-0.3-0.3-0.3h-0.1
		c-0.1,0-0.3,0.5-0.4,1.4h0l0,0l-0.1,0.5l0.1,1.5c-0.1,0.4-0.1,1-0.1,1.7v0.1l0,0.2l0,0.2v0.2l0,0.4c0.1,0.9,0.2,1.8,0.4,2.8h0l0,0
		v0l0,0l0,0v0.6l0.3,2.5l-0.1,0.7c0.1,0.2,0.1,0.5,0.1,0.7l-0.1,0.8h0l0,0v0.4l0,0l0,0v0l0.2,1.3v0.5l0.2,1.7l-0.1,0.7h0
		c-0.1,0.3-0.3,0.5-0.6,0.5l-0.3,0c-0.4,0-0.9-0.4-1.3-1.1c-0.1,0-0.2-0.7-0.3-2l0-0.4V326l0-0.2h0l-0.1-0.5l0.1-0.7l0-0.8l0-0.7
		c-0.1-1.3-0.2-2.1-0.3-2.4h0c-0.1-0.2-0.2-0.8-0.3-1.8h0l-0.3-1.3h0l-0.1-0.4l0-0.2l-0.1-0.9v-0.4l0.1-0.7h0l0,0V315l0.1-1.4
		l-0.1-1c0.1-0.5,0.2-0.9,0.3-1.4h0c0.1-0.1,0.1-0.6,0.2-1.5l0-0.2l0-0.2h0l0,0l0-0.4v-1l0-0.3l0-0.2l0-1.1l0-1.6l0-0.1h0l-0.1-0.3
		l0.1-0.4l0,0c0.1-0.6,0.2-1.1,0.3-1.5l0,0v-0.9l0,0l0,0v-0.1c0.1-0.7,0.3-1.1,0.6-1.1l0.3,0.1l0.3-0.1l0.9,0.1h0.1l0.4-0.1h0
		l0.6,0.4c0.5,0.5,0.8,1,0.8,1.5l0.2,2.6l0,0.6l0,0.5l0,0.3c0.1,0.4,0.2,1.4,0.4,3.1c0.1,0.3,0.2,1.1,0.4,2.5v0.1l0,0.2l0.1,2
		l0.3,1.2c0.1,0.2,0.2,0.3,0.3,0.4h0.1c0.2,0,0.4-0.6,0.5-1.8c0.2-0.3,0.3-0.5,0.3-0.6v-0.4c0.1-0.4,0.2-1.4,0.3-3.1
		c0.1-0.6,0.1-1,0.2-1.4l0-0.8c0.1-1.5,0.3-2.5,0.4-2.9v-0.3l0.1-0.9l0-0.2l0-0.4v-0.8c0-0.7,0.2-1.1,0.6-1.4c0-0.1,0.2-0.2,0.7-0.3
		v0l0,0h0.2l0,0l0.4,0.1L556.4,300.3z"/>
	<path class="st2" d="M561.6,300.5h1c0.8,0,1.5,0.1,2.3,0.2v0c0.6,0.1,1.1,0.2,1.4,0.3c0.5,0.1,0.7,0.3,0.7,0.6
		c0.1,0.2,0.3,0.4,0.4,0.5v0.4c-0.2,0.3-0.5,0.4-1,0.4c-1.2-0.1-2-0.2-2.6-0.2h-0.4c-0.6,0-0.9,0.2-0.9,0.6c0,2.1,0.1,3.5,0.3,4.1
		l0.1,1.3l-0.1,1.3l0,0.3c-0.2,1-0.2,1.7-0.2,2c0,0.7,0.2,1,0.7,1c0,0,0.3,0.1,0.9,0.1c0.6,0,1.3,0.1,2,0.4c0.6,0.4,0.8,0.8,0.8,1.2
		c0,0.3-0.2,0.5-0.7,0.6c-0.9-0.2-1.9-0.3-3.2-0.4c-0.3,0.1-0.4,0.3-0.4,0.8l-0.1,1.2l0,0.2l0,0.4l0.1,0.9v0.5l-0.1,1.3h0l-0.3,1.2
		h0l-0.1,0.5l0.1,0.4l0,0c0.1,0.2,0.1,0.5,0.1,0.6v0.8l0,1l-0.1,0.7c0,1.5,0.1,2.3,0.4,2.3c0,0.1,1.1,0.2,3.2,0.3
		c0.6,0.1,0.9,0.4,1.1,0.7c0.2,0.3,0.3,0.5,0.3,0.6c0,0.5-0.4,0.8-1.2,0.8h-0.3c-0.4,0-0.7,0-1.1-0.1l0,0h0c-1.4-0.1-2.4-0.2-3-0.4
		c-0.5-0.3-0.8-0.6-1.2-0.9c-0.4-0.5-0.6-1.1-0.6-1.6l0-1.8l0.2-1.7c-0.1-0.4-0.2-1.1-0.3-2.1c0.2-0.5,0.3-0.8,0.3-1.1l0.2-1.2V319
		l-0.1-1v-1.3l0.1-0.8v-1.4l-0.2-1.2l0.1-0.6l0-0.7c0.1-0.9,0.2-1.6,0.3-2.4v0l-0.1-2.3h0c-0.1-0.6-0.2-1.6-0.3-3.1h0l0,0v-0.9l0,0
		l0,0v0l0.1-0.4l0-0.7c0-0.8,0.2-1.3,0.3-1.3C560.7,300.6,561.1,300.5,561.6,300.5z"/>
	<path class="st2" d="M571.2,299.8h0.2c0.1,0,0.5,0.1,1.1,0.3c1.5,0,2.3,0.2,2.6,0.5c0.5,0.5,0.7,0.9,0.7,1.1c0,0.3-0.4,0.5-1.1,0.6
		l-1.5-0.1c-0.2,0.1-0.3,0.2-0.3,0.3v1.1c0,0.6,0,1.1,0.1,1.4l0,1.3v0.2l0,0.7l0,0.6l0.1,0.6v0.6l-0.1,1.1l0,0.8l-0.2,0.8
		c0.1,2.1,0.2,3.5,0.3,4.2c0.1,0.3,0.1,0.9,0.2,1.8c0.1,0,0.1,0.2,0.1,0.6l0,0.6l0.1,2.7l0,0.2l-0.2,2.5l0,0.2l0.1,0.6l0.1,3.9
		c0,0.3-0.2,0.5-0.6,0.9h-0.1c-0.3-0.1-0.8-0.3-1.3-0.8c0-0.1-0.1-0.3-0.3-0.5v-0.9l-0.1-1.5l0-0.6c-0.1-0.6-0.2-1.1-0.2-1.6
		c0.1-0.6,0.1-1.5,0.2-2.9l-0.2-1.8l0.1-0.6v-0.6c-0.1-1.7-0.3-2.7-0.4-3.1l-0.1-3l0.1-1.4v-1l0-1.1c0.1-0.2,0.1-0.5,0.1-0.8
		l-0.1-1.2v-0.5c-0.1-2.5-0.1-3.8-0.2-3.8c-0.1-0.1-0.2-0.2-0.3-0.2l-0.3,0c-0.6,0-1.1-0.3-1.7-0.9c-0.2-0.2-0.3-0.4-0.3-0.6v-0.1
		c0.2-0.5,0.5-0.7,1-0.7h0.2l0.7,0.1h0.4L571.2,299.8z"/>
	<path class="st2" d="M577.7,300.5l0.9,0h0.7c0.3,0,0.7,0,1,0.1v0c0.9,0.2,1.7,0.4,2.2,0.7c1,0.7,1.6,1.3,1.7,1.9l0.1,0.9v0.7l0,1.4
		c-0.1,0.2-0.1,0.4-0.1,0.7v0.2c0.1,0.3,0.2,0.7,0.2,1.3c0,0.4-0.1,0.9-0.3,1.4v0.4c0,0.3,0,0.6,0.1,0.8l0,0v0l0,0.5l0,0.9
		c0,0.5-0.1,1.1-0.3,1.7c0,0.5-0.1,0.9-0.2,1.1h0c-0.4,0.4-0.7,0.8-1,1.1c0,0.1-0.1,0.2-0.2,0.3l0,0v0l-0.1,0.5c0,0.2,0.3,0.9,1,2.2
		c0.6,2,0.9,3.1,0.9,3.2v0.5l-0.1,0.8l0,0.5l-0.1,0.7v0.3l0.1,0.9v0l0,0.1l0.1,0.6l-0.1,0.7v0l0,1.3c0,0.3,0.1,0.8,0.3,1.6l0.1,0.5
		v0c-0.1,0.4-0.3,0.5-0.5,0.5H584l0,0h0l-0.1,0c-0.5,0-1-0.5-1.7-1.6c-0.2-0.2-0.2-1-0.2-2.4v-0.1l0.1-0.7v-0.8l-0.1-1l0.2-2.3
		c0-0.7-0.3-1.8-0.8-3.3c-0.2-0.9-0.5-1.4-0.8-1.4h-0.6c-0.3,0-0.5,0.2-0.6,0.7v0.1l0.2,1.2l0,0.8l-0.1,1.1v0.5l0,0l-0.1,0.6l0,0.5
		c0,0.9,0,1.7-0.1,2.2l0.1,0.8l-0.1,0.8l0.1,0.9l0,0l0,0l0,0.4c-0.1,1.1-0.4,1.6-0.7,1.6h-0.3c-0.3-0.1-0.6-0.2-0.9-0.5
		c-0.3-0.4-0.5-0.7-0.5-0.9v-0.2l0-1.5l-0.1-0.7v-0.4l0-1.1l0-0.4l0-0.4l-0.1-0.8l0.2-2.6l-0.2-1.4c0-0.5,0.1-1.2,0.2-2.1l0-1.6
		l0.1-0.7l0-0.4l0.1-0.9l0-0.4v-0.1l0-0.3c0-0.7-0.1-1.7-0.2-3l0.1-0.9l0-0.9c-0.1-0.6-0.2-1.4-0.2-2.3l-0.2-2l0-0.9l0-0.5
		c0-1.3,0.1-1.9,0.3-1.9C577,300.7,577.3,300.6,577.7,300.5z M578.9,303.1l0.2,1.8v0.6l0.2,2.4l0,0.9c0.1,0.2,0.1,1.2,0.1,3.1
		c0.1,0.4,0.1,0.7,0.1,0.9l-0.1,0.6l0.1,0.6v0.1l-0.1,0.9c0,0.5,0.1,0.7,0.4,0.7h0.1c0.5,0,1-0.3,1.6-1c0.2-0.7,0.3-1.3,0.3-1.8v0
		l0,0l0,0v0c0.1-0.2,0.1-0.8,0.2-1.9l0-0.9l0.2-1.1l0-0.7l0-2l-0.2-0.6l0.3-1.3v-0.3c0-0.3-0.1-0.7-0.3-1.1
		c-0.2-0.3-0.8-0.4-1.7-0.4h-0.2C579.2,302.6,578.9,302.8,578.9,303.1z"/>
	<path class="st2" d="M589.6,300.1L589.6,300.1c1.4,0,2.5,0.6,3.4,1.8c0.4,0.4,0.6,1.1,0.6,2l0.1,0.6h0c0.1,0.3,0.1,1.4,0.2,3.3
		l0,0.5v0.3l0.1,0.7h0l0,0v0.1l0.1,1l-0.1,0.9l0.1,1.8v0.1c0,0.3-0.1,0.8-0.2,1.5l0,0.3l0.1,2.1h0l0.1,0.6c-0.1,0.3-0.1,1.3-0.2,3
		l0,0.6l-0.1,1.5l0.1,1.6v0l0,0l0,0.1l0.1,0.8l-0.1,0.9v0l0,0l0,0l-0.4,1.7c-0.2,0.4-0.4,0.8-0.8,1.3c-0.2,0.3-0.5,0.5-1,0.7
		l-0.6,0.5c-0.2,0.1-0.4,0.1-0.5,0.1h-0.4c-1.1,0-2.1-0.8-3.2-2.4c-0.1-0.2-0.2-0.5-0.4-1h0l-0.4-1.4c0-0.3-0.1-0.8-0.2-1.2l0-0.1
		l0-1.1h0l0,0v-0.1l-0.1-1.4l0-1.3L586,319v-0.6l0.1-1.7l-0.2-1.7c0-1,0.1-1.5,0.1-1.8l-0.1-2.9l0-0.5l0-1.2l0-0.7l0-1.2v-0.2
		c0.1-1.3,0.2-2.1,0.3-2.5l0.3-0.9h0c0.2-0.5,0.4-1,0.6-1.7c0.5-0.8,1.1-1.2,1.6-1.2C589,300.1,589.3,300.1,589.6,300.1z
		 M588.4,305.3l0,0.2l-0.1,1.6v1.1l0.1,0.6v0.1l-0.1,0.5l0,0.7l-0.1,0.8c0,0.9,0.1,1.4,0.1,1.5l0,1.6v0.4l0,0.4l0.3,2.2v0.1
		l-0.2,1.8l0.1,0.7l0,0.2c0,0.2,0.1,0.6,0.1,1.3l0,0.6l0.1,1.5v1.1c0,0.9,0.1,1.8,0.3,2.5c0.1,0,0.2,0.5,0.3,1.4
		c0,0.1,0.2,0.3,0.5,0.5h0.5c0.4-0.1,0.8-0.5,1.2-1.3c0.2-0.4,0.3-0.7,0.3-0.9v-0.8c0-1.2-0.1-2-0.2-2.2l0,0l0-0.4v-0.2
		c0-0.6,0.1-1.1,0.2-1.5v0l-0.1-1.2v-0.2c0-0.9,0.1-1.3,0.2-1.3l0,0v-0.1l0-0.2l0,0h0c-0.1-0.2-0.1-1-0.2-2.6
		c0.1-1.1,0.1-1.8,0.2-2.1l0,0l0-0.2l0-0.8l0-0.4l0,0l0,0h0l0,0l-0.1-0.5l0.1-0.3h0l0.1-0.4l-0.1-0.3h0l-0.2-2.4l0-0.7l0-1.4h0l0,0
		v0l-0.2-1.6l0-0.4c0-1-0.3-1.5-0.8-1.5c-0.9,0.1-1.4,0.3-1.4,0.5c-0.5,0.7-0.7,1.4-0.7,2.2L588.4,305.3z"/>
	<path class="st2" d="M597.5,300.2c1.1,0,2,0.1,2.6,0.3c1.1,0.4,2,1.1,2.7,2.3c0.1,0.4,0.2,1.1,0.4,2.2c0,0,0.1,0.4,0.2,1.1
		c0,0.1,0.1,0.9,0.2,2.3c0.1,0,0.2,0.8,0.3,2.5l0.1,1.1l-0.1,1.2v0.4c-0.2,0.9-0.3,1.9-0.3,3.1c-0.1,0.5-0.2,0.9-0.2,1.3
		c-0.2,0.6-0.3,1-0.5,1.2c0,0.1-0.1,0.2-0.2,0.3c-0.1,0.3-0.5,0.6-1.1,0.9c0,0.1-0.5,0.2-1.5,0.3l-1.4-0.1c-0.3,0.1-0.4,0.4-0.4,0.7
		v0.6l-0.1,0.8v0.2c0.1,0.8,0.1,1.8,0.2,2.8l-0.1,1c0,0.4,0.1,1.2,0.2,2.5v0.4c0,0.7-0.2,1.1-0.6,1.3l-0.2,0h-0.1
		c-0.3,0-0.6-0.2-1.1-0.6c-0.3-0.2-0.4-0.8-0.4-1.7c-0.1-0.4-0.1-0.9-0.1-1.3l0-1l-0.1-2c0-0.4,0.1-0.6,0.1-0.6l-0.2-0.8
		c0-0.5,0.1-1.1,0.2-1.7l-0.1-1.1v-0.4l-0.1-0.6l0-0.5l0-0.6l0.4-2.2v-0.1l-0.1-1.7V314l0-1l0-0.4l0,0v0l-0.2-1.8l0-0.5l-0.2-2.9
		l0.1-0.7c-0.2-0.8-0.3-1.8-0.3-3.1l-0.2-1.5l-0.3-0.9c0-0.4,0.4-0.7,1.2-0.9H597.5z M597.9,303.6c0.3,3.8,0.5,6.3,0.5,7.4l0.1,2.1
		l0,0.6l0,1.1l0,0v0l0.1,0.7v0.6c0,0.3-0.1,1-0.3,2c0,0.2,0.2,0.4,0.5,0.4h0.7c0.8-0.1,1.3-0.3,1.3-0.5c0.1,0,0.2-0.7,0.4-2.1
		c0-0.4,0.1-0.8,0.1-1h0l0,0v-0.4l0-0.4c0.2-0.8,0.3-1.3,0.3-1.6c-0.1-0.7-0.1-1.5-0.1-2.4v-0.8c-0.2-0.6-0.3-1.2-0.3-1.8l0,0l0-0.1
		l0,0L601,306c-0.1-1-0.3-2-0.5-3c-0.2-0.4-0.5-0.6-1-0.6l-0.9-0.1h-0.1C598.2,302.3,598,302.7,597.9,303.6z"/>
	<path class="st2" d="M609,300.1L609,300.1c1.4,0,2.5,0.6,3.4,1.8c0.4,0.4,0.6,1.1,0.6,2l0.1,0.6h0c0.1,0.3,0.1,1.4,0.2,3.3l0,0.5
		v0.3l0.1,0.7h0l0,0v0.1l0.1,1l-0.1,0.9l0.1,1.8v0.1c0,0.3-0.1,0.8-0.2,1.5l0,0.3l0.1,2.1h0l0.1,0.6c-0.1,0.3-0.1,1.3-0.2,3l0,0.6
		l-0.1,1.5l0.1,1.6v0l0,0l0,0.1l0.1,0.8l-0.1,0.9v0l0,0l0,0l-0.4,1.7c-0.2,0.4-0.4,0.8-0.8,1.3c-0.2,0.3-0.5,0.5-1,0.7l-0.6,0.5
		c-0.2,0.1-0.4,0.1-0.5,0.1h-0.3c-1.1,0-2.1-0.8-3.2-2.4c-0.1-0.2-0.2-0.5-0.4-1h0l-0.4-1.4c0-0.3-0.1-0.8-0.2-1.2l0-0.1l0-1.1h0
		l0,0v-0.1l-0.1-1.4l0-1.3l-0.1-1.6v-0.6l0.1-1.7l-0.2-1.7c0-1,0.1-1.5,0.1-1.8l-0.1-2.9l0-0.5l0-1.2l0-0.7l0-1.2v-0.2
		c0.1-1.3,0.2-2.1,0.3-2.5l0.3-0.9h0c0.2-0.5,0.4-1,0.6-1.7c0.5-0.8,1.1-1.2,1.6-1.2C608.4,300.1,608.7,300.1,609,300.1z
		 M607.7,305.3l0,0.2l-0.1,1.6v1.1l0.1,0.6v0.1l-0.1,0.5l0,0.7l-0.1,0.8c0,0.9,0.1,1.4,0.1,1.5l0,1.6v0.4l0,0.4l0.3,2.2v0.1
		l-0.2,1.8l0.1,0.7l0,0.2c0,0.2,0.1,0.6,0.1,1.3l0,0.6l0.1,1.5v1.1c0,0.9,0.1,1.8,0.3,2.5c0.1,0,0.2,0.5,0.3,1.4
		c0,0.1,0.2,0.3,0.5,0.5h0.5c0.4-0.1,0.8-0.5,1.2-1.3c0.2-0.4,0.3-0.7,0.3-0.9v-0.8c0-1.2-0.1-2-0.2-2.2l0,0l0-0.4v-0.2
		c0-0.6,0.1-1.1,0.2-1.5v0l-0.1-1.2v-0.2c0-0.9,0.1-1.3,0.2-1.3l0,0v-0.1l0-0.2l0,0h0c-0.1-0.2-0.1-1-0.2-2.6
		c0.1-1.1,0.1-1.8,0.2-2.1l0,0l0-0.2l0-0.8l0-0.4l0,0l0,0h0l0,0l-0.1-0.5l0.1-0.3h0l0.1-0.4l-0.1-0.3h0l-0.2-2.4l0-0.7l0-1.4h0l0,0
		v0l-0.2-1.6l0-0.4c0-1-0.3-1.5-0.8-1.5c-0.9,0.1-1.4,0.3-1.4,0.5c-0.5,0.7-0.7,1.4-0.7,2.2L607.7,305.3z"/>
	<path class="st2" d="M616.2,300.1c0.2,0,0.6,0.1,0.9,0.4c0.4,0.5,0.6,0.9,0.6,1.1v0l0,0.6l0.1,0.9l-0.1,0.5c0.1,1.1,0.2,2.4,0.3,4
		l-0.1,1.4v0.3l-0.1,1l0,0.4l-0.1,1.1l0,0.5c0,0.5-0.1,1.5-0.3,3.2c0,0.3-0.1,0.7-0.2,1.3v0.9l0.1,1.9l-0.1,2.2
		c0.1,1.8,0.1,3,0.3,3.7c0.2,0.9,0.3,1.7,0.3,2.3c0.2,0.3,0.5,0.4,0.8,0.4h0.3c0.7-0.1,1.2-0.1,1.5-0.2v0l0,0h0.6l0,0l0,0h0
		c0.7,0.2,1.1,0.3,1.1,0.5c0.3,0.4,0.4,0.7,0.4,0.8v0.1c0,0.4-0.5,0.7-1.6,0.8l0,0l-1,0.1l-0.8,0h-0.2c-0.4,0-0.9,0.2-1.5,0.6
		l-0.2,0c-0.4,0-0.9-0.3-1.5-0.9c-0.2-0.3-0.3-0.5-0.3-0.8l0.2-0.8v-0.3c-0.3-1.7-0.5-3.5-0.6-5.5l0-0.8l0.1-2.1V319l-0.1-1.6
		c0.1-1.1,0.1-2,0.3-2.7l0.2-0.5l0-0.3l0.2-3.2c0.1-1.1,0.1-2.2,0.2-3.4l0-1.3v-0.3l-0.1-1v-3.5c0-0.2,0-0.3,0.1-0.3l0,0v-0.5
		C615.6,300.2,615.8,300.1,616.2,300.1z"/>
	<path class="st2" d="M625,300.5c0.4,0,0.6,0.3,0.9,0.8c0.1,0.1,0.2,0.4,0.2,1.1h0c0.1,0.2,0.1,0.4,0.1,0.6v0.4l-0.1,0.7v0.5
		c-0.1,0.4-0.1,0.8-0.2,1.3c0.1,0.4,0.1,0.8,0.1,1.3l-0.1,0.1h0l-0.1,0.3l0,0.2v0.1l-0.1,1.6c0,0.4,0,0.8-0.1,1.1l0,0
		c0,0.3,0.1,0.6,0.3,1h0c0.1,0.2,0.1,0.6,0.2,1.1l0,0.4l0.1,0.6l-0.1,3l0,1.7l0,0.3c0,0.1,0.1,0.4,0.1,0.7v0.4c0,0.2,0,0.4,0.1,0.5
		l0,0l0.1,1.7v0.3l0,0v0h0c0.1,0.2,0.2,0.9,0.3,1.9c0,0.8-0.1,1.4-0.1,1.7l0.2,1.6l0,0.2v0.4l0,0.5c0,0.4-0.2,0.8-0.6,1.1h-0.1
		c-0.6-0.1-0.9-0.2-0.9-0.4l-0.1-0.1c-0.4-0.4-0.6-0.7-0.6-0.9v-0.9l-0.1-0.9l0-0.5l0-1.7v-0.5c0-0.4-0.1-1.6-0.4-3.5l-0.1-1.2v-0.1
		l0,0l0,0v-0.9l0-1.1l-0.1-0.9l0.1-0.4l0,0v-0.8l0.2-0.9c-0.1-1.3-0.2-2.3-0.4-2.9l0-0.2h0c-0.1-0.3-0.1-0.9-0.1-1.8h0l0,0V309l0,0
		l0,0c0.1-1,0.1-1.8,0.1-2.5l0,0c0.1-1,0.2-1.6,0.2-1.8v-0.1l0-0.3l0.1-1l0.1-1.7c0-0.2,0.2-0.5,0.6-0.9l0,0h0l0.1,0L625,300.5z
		 M624.2,325.5L624.2,325.5L624.2,325.5l0.2,0L624.2,325.5L624.2,325.5z M625.7,330.3L625.7,330.3c0.1-0.2,0.2-0.3,0.4-0.3
		c0.2,0.1,0.3,0.1,0.3,0.3c0,0.2-0.1,0.3-0.4,0.3C625.8,330.5,625.7,330.4,625.7,330.3z M626.1,331.9L626.1,331.9
		c0-0.1,0.1-0.2,0.2-0.3h0c0.2,0,0.3,0.1,0.3,0.2v0.1l-0.2,0.1h-0.1C626.3,332,626.2,332,626.1,331.9z M626.4,323.7l0.1-0.1h0.1l0,0
		l0,0.1L626.4,323.7L626.4,323.7z M626.9,330.1L626.9,330.1c0-0.1,0.1-0.1,0.2-0.2c0.2,0,0.3,0.1,0.3,0.2l-0.2,0.1h-0.2
		C627,330.3,627,330.2,626.9,330.1z M627.1,328.3l0.2-0.1h0c0.2,0,0.3,0.1,0.4,0.3c0,0.1-0.1,0.2-0.2,0.3h-0.2
		C627.2,328.8,627.1,328.6,627.1,328.3z M627.4,325.7L627.4,325.7l0.1-0.1h0l0.1,0.1v0.1l-0.1,0.1h-0.1L627.4,325.7z M627.5,331.6
		L627.5,331.6c0-0.2,0.1-0.3,0.3-0.3c0.2,0,0.3,0.1,0.3,0.3c0,0.1-0.1,0.2-0.2,0.2h-0.2L627.5,331.6z M628.1,323.4L628.1,323.4
		l0.1-0.2h0c0.2,0,0.2,0.1,0.2,0.2l-0.1,0.1h-0.2L628.1,323.4z M629.9,323.9L629.9,323.9L629.9,323.9h0.1v0L629.9,323.9L629.9,323.9
		z"/>
	<path class="st2" d="M630.7,299.8h0.2c0.1,0,0.5,0.1,1.1,0.3c1.5,0,2.3,0.2,2.6,0.5c0.5,0.5,0.7,0.9,0.7,1.1c0,0.3-0.4,0.5-1,0.6
		l-1.5-0.1c-0.2,0.1-0.3,0.2-0.4,0.3v1.1c0,0.6,0,1.1,0.1,1.4l0,1.3v0.2l0,0.7l0,0.6l0.1,0.6v0.6l-0.1,1.1l0,0.8l-0.2,0.8
		c0.1,2.1,0.2,3.5,0.3,4.2c0.1,0.3,0.1,0.9,0.2,1.8c0.1,0,0.1,0.2,0.1,0.6l0,0.6l0.1,2.7l0,0.2l-0.2,2.5l0,0.2l0.1,0.6l0.1,3.9
		c0,0.3-0.2,0.5-0.6,0.9h-0.1c-0.4-0.1-0.8-0.3-1.3-0.8c0-0.1-0.1-0.3-0.3-0.5v-0.9l-0.1-1.5l0-0.6c-0.1-0.6-0.2-1.1-0.2-1.6
		c0.1-0.6,0.1-1.5,0.2-2.9l-0.2-1.8l0.1-0.6v-0.6c-0.1-1.7-0.3-2.7-0.4-3.1l-0.1-3l0.1-1.4v-1l0-1.1c0.1-0.2,0.1-0.5,0.1-0.8
		l-0.1-1.2v-0.5c-0.1-2.5-0.1-3.8-0.2-3.8c-0.1-0.1-0.2-0.2-0.3-0.2l-0.3,0c-0.6,0-1.1-0.3-1.7-0.9c-0.2-0.2-0.3-0.4-0.3-0.6v-0.1
		c0.2-0.5,0.5-0.7,1-0.7h0.2l0.7,0.1h0.4L630.7,299.8z"/>
	<path class="st2" d="M634.5,357.9l0.1,0.1v0.1l-0.2,0.2l-0.1-0.1v-0.1L634.5,357.9z M641.1,299.8L641.1,299.8
		c0.4,0,0.8,0.5,1.4,1.4l0.1,0.8l0,0.2v0.2c0.1,0.8,0.2,1.7,0.3,2.9c0.2,1.6,0.3,2.6,0.3,3.2l0,0.9l0.1,0.7l0,0.7v0.8l0.1,1.8
		l0.1,1.4l-0.1,0.5l0,0.5v0.7l0.2,0.7l0,0.4c0.1,1.3,0.1,2,0.2,2.3h0c0.1,0.7,0.2,1.3,0.2,1.7c0.1,0.1,0.1,0.7,0.2,1.9l0,0.4
		c0.1,0.5,0.2,0.9,0.3,1.3c0.1,0.3,0.2,0.6,0.2,0.8v0.5c0,0.1,0.1,0.3,0.2,0.6h0l0,0v0.1l0.2,1.6v0.3c0,0.4-0.2,0.7-0.7,0.9h-0.2
		c-0.3,0-0.6-0.2-1-0.6c-0.4-0.4-0.6-1-0.6-1.8l-0.2-1.5c-0.1-0.4-0.2-0.9-0.3-1.4l0,0h0c-0.2-1.1-0.3-2.1-0.3-3
		c-0.2-0.2-0.3-0.3-0.4-0.4l0,0l-0.2,0h-0.5l-1.1-0.1c-0.3,0.1-0.4,0.3-0.4,0.6l-0.2,0.6l0.1,0.6c0,1.1-0.1,1.7-0.2,1.8l0,0v0.5
		l-0.2,1.5c0,0.4-0.1,0.9-0.2,1.7v0.2l0.2,1v0.1c0,0.2-0.1,0.4-0.4,0.7c0,0.1-0.1,0.1-0.2,0.2l-0.7-0.3c-0.8-0.5-1.1-1.1-1.1-1.8
		v-0.6l0,0c0.2-1,0.3-1.7,0.3-2.1h0c0.1-0.3,0.1-1,0.3-2l0-1.1l0.1-0.4h0l0,0V322c0.1-0.9,0.2-1.6,0.2-2v-0.1l0,0l0,0l0.1-0.4l0-0.6
		v-0.7l0.1-0.8l0-0.4l0.1-1.5l0-0.3l0.1-0.8l0-0.6c0-0.2,0-0.2,0.1-0.2l0,0l0.3-1.2l0,0l0.2-1.2l-0.1-0.5c0-0.5,0.1-1.5,0.4-3
		c0-1,0.1-2,0.2-2.9l0-0.5l0.2-1l0-0.5c0-0.7,0.1-1.3,0.4-1.9l0,0c0.1-0.2,0.2-0.2,0.4-0.2l0.5-0.2l0.6,0.2l0.5-0.3
		C640.6,299.9,640.9,299.8,641.1,299.8z M640.1,305.4l0,0.6c-0.1,0.2-0.2,0.6-0.2,1.2c0,0,0,0.1-0.1,0.3h0l-0.1,0.5v0.2l0,0.3
		c-0.1,0.7-0.2,1.4-0.3,2.1v1.4c0,0.2-0.1,0.6-0.2,1h0c-0.1,0.5-0.2,1.1-0.3,1.8v1.2l0,0.2l0,0l-0.1,0.5l0,1.6l0,0v0
		c0,0.6,0.2,0.9,0.7,0.9l1,0h0.2c0.2-0.1,0.4-0.3,0.4-0.5h0l0,0v0l0,0l0-0.2v-0.2l0-0.2h0l0,0v0l0,0v0l0,0h0l0-0.1l-0.2-1.9l0-0.6
		c-0.2-1.6-0.2-3-0.2-4.4l0.1-0.6l-0.2-0.7l0,0v-0.3l0,0l0.1-0.5c0-0.9-0.1-1.3-0.1-1.3l0,0l-0.1-1.1c-0.1-0.2-0.2-0.4-0.2-0.5
		l0.1-0.4l-0.1-0.2h-0.1C640.2,305.3,640.2,305.3,640.1,305.4z M644.7,310.3v0.1c0,0.2-0.1,0.3-0.2,0.3c-0.1,0-0.2-0.1-0.2-0.3
		c0-0.1,0.1-0.2,0.1-0.2h0.2L644.7,310.3z M645,330.4L645,330.4c-0.2-0.1-0.2-0.3-0.3-0.5l0.1-0.1c0.2,0,0.4,0,0.5,0.1l0,0
		c0.1,0.1,0.1,0.2,0.1,0.3l0.1,0l0.1,0.1v0.1l0,0l-0.1-0.1l0-0.1C645.2,330.4,645.1,330.4,645,330.4z M646,312v0.1l-0.1,0.1h0
		c-0.1,0-0.2-0.1-0.2-0.2l0.1-0.1h0.1L646,312z M646,310.9L646,311h-0.1l-0.1-0.1v-0.1l0.1-0.1h0.1C646,310.7,646,310.8,646,310.9z
		 M646.3,309.2L646.3,309.2v0.2h-0.1l0-0.1v-0.1L646.3,309.2L646.3,309.2z M646.4,331.5h0.2c0.1,0.1,0.2,0.1,0.2,0.2
		c0,0.2-0.1,0.3-0.3,0.3h0l-0.2-0.1C646.3,331.6,646.3,331.5,646.4,331.5z"/>
	<path class="st2" d="M647.6,300.6c0.2,0,0.5,0.1,1,0.4c0.3,0,0.7,0.4,1.3,1.3l0.4,1.8h0l0.4,1.6c0.3,0.7,0.5,1.4,0.7,2.3
		c0.2,1.1,0.4,1.8,0.6,2.2c0.3,1.2,0.6,1.7,0.7,1.7c0.2,0,0.3-0.4,0.4-1.2l0.1-0.3l0-0.5v-0.5l0-0.8l0-0.3l-0.1-2.5l0.1-1.7
		l-0.1-2.1l0-0.4l-0.1-0.1c0.2-0.5,0.4-0.8,0.6-0.8l0.3,0l0.4,0c0.3,0.1,0.6,0.5,1.2,1.3l0,0.1l0,0c0.1,0.5,0.1,1,0.1,1.7
		c0,1.1,0,1.8-0.1,2.3l0,1.5v0.2l0.1,2.4l-0.1,0.8l0.1,0.5l-0.1,0.8h0l-0.3,2.6h0l-0.1,0.4v0.1l0.1,0.6v0.1l-0.1,0.6l0.2,1.8
		c0.1,0.5,0.1,1.1,0.3,1.8v0.1c0,0.5-0.1,1-0.3,1.6l0,0.6v0.5l-0.5,1.5c0,0.2,0,0.5,0.1,0.7l0,0l0.2,1.6l0,0.9l0,0.6
		c-0.1,0.8-0.2,1.2-0.4,1.2c0,0.1-0.2,0.1-0.5,0.2c-0.3,0-0.6-0.2-0.9-0.5c-0.3-0.1-0.4-0.4-0.4-0.7c-0.1-0.1-0.2-0.2-0.2-0.4
		l0.1-0.5c0-0.2,0-0.4-0.1-0.5l0-0.3v-0.3l-0.1-0.5h0l-0.3-1.7v-0.1l0-0.7l-0.2-1.5l-0.1-0.2h0l-0.3-1h0l-0.3-1l0,0
		c0-0.5-0.1-1-0.3-1.5h0l-0.3-1h0c-0.2-0.8-0.4-1.6-0.5-2.5l-0.5-2.6c-0.4-1.7-0.7-2.6-0.9-2.6h-0.1c-0.2,0.2-0.2,0.4-0.2,0.6v0.3
		l-0.2,2.1v0.2l0,0.5l0,0.2l0,0.7l-0.1,0.7l0.2,2v1.3c0,1.3,0.1,2.3,0.2,2.7l0,0.3v0.5l0,0.3l-0.1,1.4c0.1,0.6,0.1,1,0.1,1.2
		c0,0.3-0.1,0.8-0.3,1.5v0.6l0,0.2l-0.2,1.3l0,0v0.7l0.1,0.9c0,0.2-0.2,0.4-0.5,0.7l-0.2,0l-0.7-0.2c-0.7-0.6-1.1-1.2-1.1-1.9
		c0.1-0.4,0.1-1.2,0.2-2.4c0,0,0.1-0.5,0.2-1.4v-0.8l0,0l0,0l-0.1-0.6v-0.3l0.1-0.9h0l0,0v-0.3l-0.4-3.9l0.1-0.7
		c0-0.3-0.1-0.9-0.2-1.9l0-0.4l0-0.3v0l0,0l0.1-0.8v-0.6l0-1.9l0.2-2.1v-0.4l0.2-0.9l-0.1-0.6l0.1-0.5l-0.2-1.7v-0.4l-0.1-2.3l0-0.3
		l0-1C646.5,301,646.9,300.7,647.6,300.6z"/>
	<path class="st2" d="M580.7,393.5l0.1,0.1v0.1l-0.2,0.2l-0.1-0.1v-0.1L580.7,393.5z M587.3,335.4L587.3,335.4
		c0.4,0,0.8,0.5,1.4,1.4l0.1,0.8l0,0.2v0.2c0.1,0.8,0.2,1.7,0.3,2.9c0.2,1.6,0.3,2.6,0.3,3.2l0,0.9l0.1,0.7l0,0.7v0.8l0.1,1.8
		l0.1,1.4l-0.1,0.5l0,0.5v0.7l0.2,0.7l0,0.4c0.1,1.3,0.1,2,0.2,2.3h0c0.1,0.7,0.2,1.3,0.2,1.7c0.1,0.1,0.1,0.7,0.2,1.9l0,0.4
		c0.1,0.5,0.2,0.9,0.3,1.3c0.1,0.3,0.2,0.6,0.2,0.8v0.5c0,0.1,0.1,0.3,0.2,0.6h0l0,0v0.1l0.2,1.6v0.3c0,0.4-0.2,0.7-0.7,0.9h-0.2
		c-0.3,0-0.6-0.2-1-0.6c-0.4-0.4-0.6-1-0.6-1.8l-0.2-1.5c-0.1-0.4-0.2-0.9-0.3-1.4l0,0h0c-0.2-1.1-0.4-2.1-0.4-3
		c-0.2-0.2-0.3-0.3-0.4-0.4l0,0l-0.2,0h-0.5l-1.1-0.1c-0.3,0.1-0.4,0.3-0.4,0.6l-0.2,0.6l0.1,0.6c0,1.1-0.1,1.7-0.2,1.8l0,0v0.5
		l-0.2,1.5c0,0.4-0.1,0.9-0.2,1.7v0.2l0.2,1v0.1c0,0.2-0.1,0.4-0.4,0.7c0,0.1-0.1,0.1-0.2,0.2l-0.7-0.3c-0.8-0.5-1.1-1.1-1.1-1.8
		v-0.6l0,0c0.2-1,0.3-1.7,0.3-2.1h0c0.1-0.3,0.1-1,0.3-2l0-1.1l0.1-0.4h0l0,0v-0.5c0.1-0.9,0.2-1.6,0.2-2v-0.1l0,0l0,0l0.1-0.4
		l0-0.6v-0.7l0.1-0.8l0-0.4l0.1-1.5l0-0.3l0.1-0.8l0-0.6c0-0.2,0-0.2,0.1-0.2l0,0l0.3-1.2l0,0l0.2-1.2l-0.1-0.5c0-0.5,0.1-1.5,0.4-3
		c0-1,0.1-2,0.2-2.9l0-0.5l0.2-1l0-0.5c0-0.7,0.1-1.3,0.4-1.9l0,0c0.1-0.2,0.2-0.2,0.4-0.2l0.5-0.2l0.6,0.2l0.5-0.3
		C586.8,335.5,587.1,335.4,587.3,335.4z M586.3,341l0,0.6c-0.1,0.2-0.2,0.6-0.2,1.2c0,0,0,0.1-0.1,0.3h0l-0.1,0.5v0.2l0,0.3
		c-0.1,0.7-0.2,1.4-0.3,2.1v1.4c0,0.2-0.1,0.6-0.2,1h0c-0.1,0.5-0.2,1.1-0.3,1.8v1.2l0,0.2l0,0l-0.1,0.5l0,1.6l0,0v0
		c0,0.6,0.2,0.9,0.7,0.9l1,0h0.2c0.2-0.1,0.3-0.3,0.3-0.5h0l0,0v0l0,0l0-0.2v-0.2l0-0.2h0l0,0v0l0,0v0l0,0h0l0-0.1l-0.2-1.9l0-0.6
		c-0.2-1.6-0.2-3-0.2-4.4l0.1-0.6l-0.2-0.7l0,0v-0.3l0,0l0.1-0.5c0-0.9-0.1-1.3-0.1-1.3l0,0l-0.1-1.1c-0.1-0.2-0.2-0.4-0.2-0.5
		l0.1-0.4l-0.1-0.2h-0.1C586.4,340.8,586.3,340.9,586.3,341z M590.9,345.8v0.1c0,0.2-0.1,0.3-0.2,0.3c-0.1,0-0.2-0.1-0.2-0.3
		c0-0.1,0.1-0.2,0.1-0.2h0.2L590.9,345.8z M591.2,366L591.2,366c-0.2-0.1-0.2-0.3-0.3-0.5l0.1-0.1c0.2,0,0.4,0,0.5,0.1l0,0
		c0.1,0.1,0.1,0.2,0.1,0.3l0.1,0l0.1,0.1v0.1l0,0l-0.1-0.1l0-0.1C591.4,366,591.3,366,591.2,366z M592.2,347.6v0.1l-0.1,0.1h0
		c-0.1,0-0.2-0.1-0.2-0.2l0.1-0.1h0.1L592.2,347.6z M592.2,346.5l-0.1,0.1H592l-0.1-0.1v-0.1l0.1-0.1h0.1
		C592.2,346.2,592.2,346.3,592.2,346.5z M592.5,344.8L592.5,344.8v0.2h-0.1l0-0.1v-0.1L592.5,344.8L592.5,344.8z M592.6,367h0.2
		c0.1,0.1,0.2,0.1,0.2,0.2c0,0.2-0.1,0.3-0.3,0.3h0l-0.2-0.1C592.4,367.2,592.5,367,592.6,367z"/>
	<path class="st2" d="M593.5,336l0.9,0h0.7c0.3,0,0.7,0,1,0.1v0c0.9,0.2,1.7,0.4,2.2,0.7c1,0.7,1.6,1.3,1.7,1.9l0.1,0.9v0.7l0,1.4
		c-0.1,0.2-0.1,0.4-0.1,0.7v0.2c0.1,0.3,0.2,0.7,0.2,1.3c0,0.4-0.1,0.9-0.3,1.4v0.4c0,0.3,0,0.6,0.1,0.8l0,0v0l0,0.5l0,0.9
		c0,0.5-0.1,1.1-0.3,1.7c0,0.5-0.1,0.9-0.2,1.1h0c-0.4,0.4-0.7,0.8-1,1.1c0,0.1-0.1,0.2-0.2,0.3l0,0v0l-0.1,0.5c0,0.2,0.3,0.9,1,2.2
		c0.6,2,0.9,3.1,0.9,3.2v0.5l-0.1,0.8l0,0.5l-0.1,0.7v0.3l0.1,0.9v0l0,0.1l0.1,0.6l-0.1,0.7v0l0,1.3c0,0.3,0.1,0.8,0.3,1.6l0.1,0.5
		v0c-0.1,0.4-0.3,0.5-0.5,0.5h-0.1l0,0h0l-0.1,0c-0.5,0-1-0.5-1.7-1.6c-0.2-0.2-0.2-1-0.2-2.4v-0.1l0.1-0.7V362l-0.1-1l0.2-2.3
		c0-0.7-0.3-1.8-0.8-3.3c-0.2-0.9-0.5-1.4-0.8-1.4h-0.6c-0.3,0-0.5,0.2-0.6,0.7v0.1l0.2,1.2l0,0.8l-0.1,1.1v0.5l0,0L595,359l0,0.5
		c0,0.9,0,1.7-0.1,2.2l0.1,0.8l-0.1,0.8l0.1,0.9l0,0l0,0l0,0.4c-0.1,1.1-0.4,1.6-0.7,1.6h-0.3c-0.3-0.1-0.6-0.2-0.9-0.5
		c-0.3-0.4-0.5-0.7-0.5-0.9v-0.2l0-1.5l-0.1-0.7v-0.4l0-1.1l0-0.4l0-0.4l-0.1-0.8l0.2-2.6l-0.2-1.4c0-0.5,0.1-1.2,0.2-2.1l0-1.6
		l0.1-0.7l0-0.4l0.1-0.9l0-0.4v-0.1l0-0.3c0-0.7-0.1-1.7-0.2-3l0.1-0.9l0-0.9c-0.1-0.6-0.2-1.4-0.2-2.3l-0.2-2l0-0.9l0-0.5
		c0-1.3,0.1-1.9,0.3-1.9C592.9,336.3,593.1,336.1,593.5,336z M594.7,338.7l0.2,1.8v0.6l0.2,2.4l0,0.9c0.1,0.2,0.1,1.2,0.1,3.1
		c0.1,0.4,0.1,0.7,0.1,0.9l-0.1,0.6l0.1,0.6v0.1l-0.1,0.9c0,0.5,0.1,0.7,0.4,0.7h0.1c0.5,0,1-0.3,1.6-1c0.2-0.7,0.3-1.3,0.3-1.8v0
		l0,0l0,0v0c0.1-0.2,0.1-0.8,0.2-1.9l0-0.9l0.2-1.1l0-0.7l0-2l-0.2-0.6l0.3-1.3v-0.3c0-0.3-0.1-0.7-0.3-1.1
		c-0.2-0.3-0.8-0.4-1.7-0.4h-0.2C595,338.2,594.7,338.4,594.7,338.7z"/>
	<path class="st2" d="M603.4,336.1h1c0.8,0,1.5,0.1,2.3,0.2v0c0.6,0.1,1.1,0.2,1.4,0.3c0.5,0.1,0.7,0.3,0.7,0.6
		c0.1,0.2,0.3,0.4,0.4,0.5v0.4c-0.2,0.3-0.5,0.4-1,0.4c-1.2-0.1-2-0.2-2.6-0.2h-0.4c-0.6,0-0.9,0.2-0.9,0.6c0,2.1,0.1,3.5,0.3,4.1
		l0.1,1.3l-0.1,1.3l0,0.3c-0.2,1-0.2,1.7-0.2,2c0,0.7,0.2,1,0.7,1c0,0,0.3,0.1,0.9,0.1c0.6,0,1.3,0.1,2,0.4c0.6,0.4,0.8,0.8,0.8,1.2
		c0,0.3-0.2,0.5-0.7,0.6c-0.9-0.2-1.9-0.3-3.2-0.4c-0.3,0.1-0.4,0.3-0.4,0.8l-0.1,1.2l0,0.2l0,0.4l0.1,0.9v0.5l-0.1,1.3h0l-0.3,1.2
		h0l-0.1,0.5l0.1,0.4l0,0c0.1,0.2,0.1,0.5,0.1,0.6v0.8l0,1l-0.1,0.7c0,1.5,0.1,2.3,0.3,2.3c0,0.1,1.1,0.2,3.2,0.3
		c0.6,0.1,0.9,0.4,1.1,0.7c0.2,0.3,0.3,0.5,0.3,0.6c0,0.5-0.4,0.8-1.2,0.8h-0.3c-0.4,0-0.7,0-1-0.1l0,0h0c-1.4-0.1-2.4-0.2-3-0.4
		c-0.5-0.3-0.8-0.6-1.2-0.9c-0.4-0.5-0.6-1.1-0.6-1.6l0-1.8l0.2-1.7c-0.1-0.4-0.2-1.1-0.3-2.1c0.2-0.5,0.3-0.8,0.3-1.1l0.2-1.2v-0.5
		l-0.1-1v-1.3l0.1-0.8v-1.4l-0.2-1.2l0.1-0.6l0-0.7c0.1-0.9,0.2-1.6,0.3-2.4v0l-0.1-2.3h0c-0.1-0.6-0.2-1.6-0.3-3.1h0l0,0v-0.9l0,0
		l0,0v0l0.1-0.4l0-0.7c0-0.8,0.2-1.3,0.4-1.3C602.4,336.1,602.8,336.1,603.4,336.1z"/>
	<path class="st2" d="M608.6,393.5l0.1,0.1v0.1l-0.2,0.2l-0.1-0.1v-0.1L608.6,393.5z M615.1,335.4L615.1,335.4
		c0.4,0,0.8,0.5,1.4,1.4l0.1,0.8l0,0.2v0.2c0.1,0.8,0.2,1.7,0.3,2.9c0.2,1.6,0.3,2.6,0.3,3.2l0,0.9l0.1,0.7l0,0.7v0.8l0.1,1.8
		l0.1,1.4l-0.1,0.5l0,0.5v0.7l0.2,0.7l0,0.4c0.1,1.3,0.1,2,0.2,2.3h0c0.1,0.7,0.2,1.3,0.2,1.7c0.1,0.1,0.1,0.7,0.2,1.9l0,0.4
		c0.1,0.5,0.2,0.9,0.3,1.3c0.1,0.3,0.2,0.6,0.2,0.8v0.5c0,0.1,0.1,0.3,0.2,0.6h0l0,0v0.1l0.2,1.6v0.3c0,0.4-0.2,0.7-0.7,0.9h-0.2
		c-0.3,0-0.6-0.2-1-0.6c-0.4-0.4-0.6-1-0.6-1.8l-0.2-1.5c-0.1-0.4-0.2-0.9-0.3-1.4l0,0h0c-0.2-1.1-0.4-2.1-0.4-3
		c-0.2-0.2-0.3-0.3-0.4-0.4l0,0l-0.2,0h-0.5l-1.1-0.1c-0.3,0.1-0.4,0.3-0.4,0.6l-0.2,0.6l0.1,0.6c0,1.1-0.1,1.7-0.2,1.8l0,0v0.5
		l-0.2,1.5c0,0.4-0.1,0.9-0.2,1.7v0.2l0.2,1v0.1c0,0.2-0.1,0.4-0.4,0.7c0,0.1-0.1,0.1-0.2,0.2l-0.7-0.3c-0.8-0.5-1.1-1.1-1.1-1.8
		v-0.6l0,0c0.2-1,0.3-1.7,0.3-2.1h0c0.1-0.3,0.1-1,0.3-2l0-1.1l0.1-0.4h0l0,0v-0.5c0.1-0.9,0.2-1.6,0.2-2v-0.1l0,0l0,0l0.1-0.4
		l0-0.6v-0.7l0.1-0.8l0-0.4l0.1-1.5l0-0.3l0.1-0.8l0-0.6c0-0.2,0-0.2,0.1-0.2l0,0l0.3-1.2l0,0l0.2-1.2l-0.1-0.5c0-0.5,0.1-1.5,0.3-3
		c0-1,0.1-2,0.2-2.9l0-0.5l0.2-1l0-0.5c0-0.7,0.1-1.3,0.4-1.9l0,0c0.1-0.2,0.2-0.2,0.4-0.2l0.5-0.2l0.6,0.2l0.5-0.3
		C614.7,335.5,614.9,335.4,615.1,335.4z M614.2,341l0,0.6c-0.1,0.2-0.2,0.6-0.2,1.2c0,0,0,0.1-0.1,0.3h0l-0.1,0.5v0.2l0,0.3
		c-0.1,0.7-0.2,1.4-0.3,2.1v1.4c0,0.2-0.1,0.6-0.2,1h0c-0.1,0.5-0.2,1.1-0.3,1.8v1.2l0,0.2l0,0l-0.1,0.5l0,1.6l0,0v0
		c0,0.6,0.2,0.9,0.7,0.9l1,0h0.2c0.2-0.1,0.4-0.3,0.4-0.5h0l0,0v0l0,0l0-0.2v-0.2l0-0.2h0l0,0v0l0,0v0l0,0h0l0-0.1l-0.2-1.9l0-0.6
		c-0.2-1.6-0.2-3-0.2-4.4l0.1-0.6l-0.2-0.7l0,0v-0.3l0,0l0.1-0.5c0-0.9-0.1-1.3-0.1-1.3l0,0l-0.1-1.1c-0.1-0.2-0.2-0.4-0.2-0.5
		l0.1-0.4l-0.1-0.2h-0.1C614.2,340.8,614.2,340.9,614.2,341z M618.7,345.8v0.1c0,0.2-0.1,0.3-0.2,0.3s-0.2-0.1-0.2-0.3
		c0-0.1,0.1-0.2,0.1-0.2h0.2L618.7,345.8z M619.1,366L619.1,366c-0.2-0.1-0.2-0.3-0.3-0.5l0.1-0.1c0.2,0,0.4,0,0.5,0.1l0,0
		c0.1,0.1,0.1,0.2,0.1,0.3l0.1,0l0.1,0.1v0.1l0,0l-0.1-0.1l0-0.1C619.3,366,619.2,366,619.1,366z M620,347.6v0.1l-0.1,0.1h0
		c-0.1,0-0.2-0.1-0.2-0.2l0.1-0.1h0.1L620,347.6z M620.1,346.5l-0.1,0.1h-0.1l-0.1-0.1v-0.1l0.1-0.1h0.1
		C620.1,346.2,620.1,346.3,620.1,346.5z M620.3,344.8L620.3,344.8v0.2h-0.1l0-0.1v-0.1L620.3,344.8L620.3,344.8z M620.4,367h0.2
		c0.1,0.1,0.2,0.1,0.2,0.2c0,0.2-0.1,0.3-0.3,0.3h0l-0.2-0.1C620.3,367.2,620.4,367,620.4,367z"/>
</g>
</svg>
