<?xml version="1.0" encoding="utf-8"?>
<!-- Generator: Adobe Illustrator 21.0.0, SVG Export Plug-In . SVG Version: 6.00 Build 0)  -->
<svg version="1.1" id="Capa_1" xmlns="http://www.w3.org/2000/svg" xmlns:xlink="http://www.w3.org/1999/xlink" x="0px" y="0px"
	 viewBox="0 0 1024 768" style="enable-background:new 0 0 1024 768;" xml:space="preserve">
<style type="text/css">
	.st0{clip-path:url(#SVGID_2_);}
	.st1{opacity:0.6;}
	.st2{fill:#6E4012;}
	.st3{opacity:0.8;}
	.st4{fill:#E5294D;}
</style>
<g>
	<defs>
		<rect id="SVGID_1_" x="124" y="0.1" width="900" height="719.9"/>
	</defs>
	<clipPath id="SVGID_2_">
		<use xlink:href="#SVGID_1_"  style="overflow:visible;"/>
	</clipPath>
	<g class="st0">
		<g>
			<g class="st1">
				<path class="st2" d="M384.4,247.3l3,1.3c-0.9-0.9-1.7-1.8-2.6-2.6C384.6,246.4,384.5,246.8,384.4,247.3z"/>
			</g>
			<g class="st1">
				<path class="st2" d="M1135.5,174.7c-2.7-37-7.2-73.9-13.7-110.5c-2-11.5-5.3-24.4-15.5-30c-5.7-3.1-12.5-3.3-18.9-3.3
					c-258.9-3.2-518.1-6.4-776.4,11c-36.1,2.4-72.2,5.2-108.4,4.2c-7-0.2-16.3,1.2-17.3,8.2c-1.2,9.2,14.7,14.5,12.4,23.5
					c4.8-2.6,9.6-5.2,14.4-7.9c-2.6,8.5-0.9,18.2,4.5,25.3c-3.4-0.1-6.8-2.2-8.2-5.4c-2.1,9.4,5.4,19.7,14.9,20.7
					c-5.5,8.3,1.7,19.1,9.4,25.4c7.7,6.3,17.2,13,17.3,23c0,4.3-1.6,9.3,4,11.5c0.8,0.3,1.6,0.5,2.5,0.6c34.8,5.1,59,34.7,86.4,56.7
					c2.9-3.5,13.9-1.8,17-1.8c8.7-0.1,17.5-0.2,26.2-0.3c0.7,0,1.4,0,2.1,0.3c2.7,1.2,1.7,5.6,3.7,7.7c0.6,0.6,1.4,1,2.1,1.3
					c16.8,7.6,33.7,15.1,50.5,22.7c4.6,2.1,9.3,4.2,14.1,5.6c3.7,1.1,7.6,1.8,11.4,2.4c9.2,1.4,18.6,2.1,28,2.1
					c4.1,0,10.2,0.7,14.1-0.7c1.6-0.6,1.7-1,2.2-2.6c0.2-0.5,1.2-6,1.5-6c10.4-1.5,20.7-2.9,31.1-4.4c1.3-0.2,2.8-0.4,4,0.1
					c1.3,0.5,2.2,1.8,3.1,2.9c4.5,6.3,8.8,13,14.8,17.9c4.5,3.7,10,6.5,13.1,11.5c1.4,2.2,2.1,4.8,3.1,7.3c3.9,9.9,11,18.6,20,24.3
					c3,1.9,6.4,3.5,9.8,3c2.5-0.4,4.7-1.8,6.7-3.5c3-2.6,5.5-5.9,7.3-9.5c0.7-1.4,1.4-3,2.9-3.7c1-0.5,2.3-0.3,3.4-0.1
					c18.4,3.2,35.1,15.4,43.7,32.1c2.7,5.2,4.7,10.8,8.3,15.4c2.7,3.4,6.5,6.4,7.4,10.7c0.6,2.9-0.2,6,0.7,8.9
					c0.7,2.3,2.3,4.2,4,5.9c2.5,2.7,5.4,6.4,8.7,8.3c2.9,1.7,6.7,2.6,9.9,3.8c4.7,1.9,9.5,3.8,14.6,4c0.4,0,0.9,0.1,1.3,0.2
					c10.7-7.8,15-24.1,8.3-35.8c-1.3-2.3-3.1-4.7-2.9-7.3s3.8-4.9,5.5-2.9c-2.5-8.1,2.4-17.7,10.4-20.5c1.8-0.6,3.8-1,5.4-2.2
					c2.3-1.8,3-5.1,5.3-6.8c2.1-1.5,4.9-1.4,7.5-1.5c7.7-0.4,15.2-3.7,20.7-9.1c0.7-0.7,1.4-1.5,1.6-2.4c1-4.1-6.5-6.1-4.9-11
					c0.6-1.9,2.4-3.3,4.4-3.7c4.3-0.9,8.2,1.5,12.4,2c3.5,0.4,7-0.5,10.4-1.2c14.4-3.1,29.3-3.3,43.8-0.7
					c9.4,1.7,20.2,6.3,21.7,15.8c1.1-3.1,3.4-6.9,6.6-6.1c1.1,0.3,2,1.2,3,1.6c6.9,3.1,11.5-11.2,19-9.8l-7.7-7.9
					c9.1-5.7,19.8-8.9,30.6-9.3c3.1-0.1,6.6-0.1,8.9-2.2c1.3-1.1,2-2.8,3.1-4c3.4-3.8,10.6-2.8,12.9,1.7c0.9,1.8,1.3,4.2,4.2,4.4
					c1.4,0.1,2.9-0.4,4.1-1.2c9.9-7.1,23-0.5,30.7,8.3c2.6,3,5.6,6.6,9.6,6.3c2.1-0.1,3.9-1.3,5.8-2.2c7.2-3.3,15.8-2.5,23.1,0.7
					c7.3,3.2,13.4,8.4,19.2,13.8c5,4.7,10.3,11.2,8.3,17.8c-1.1,3.8-4.4,6.6-5.5,10.4s3.1,9,6.2,6.5c-3.5,3.5-1.3,9.5,1.1,13.9
					c2.1,4,4.3,7.9,6.4,11.9c4.2,7.8,8.5,15.7,15.1,21.7c2.3,2.1,4.9,4,6.6,6.6c1.6,2.7,2,6.5-0.2,8.7c3.9,0.4,7.6,2.6,9.9,5.9
					c13.2-17.2,16.5-41.5,8.3-61.6c-3.9-9.6-10.2-18.1-14-27.7c-4.1-10.1-5.4-21.2-6.7-32c-1.5-12.9-2.9-26.4,2-38.4
					c5.3-13,17.1-21.8,27.6-30.6c3.9-3.3,13.6-7.5,15.7-11.6C1139.7,196.2,1136,181.1,1135.5,174.7z"/>
			</g>
			<g class="st3">
				<path class="st2" d="M717.8,389.5c-3.1-1.2-7-2.1-9.9-3.8c-3.2-1.9-6.1-5.6-8.7-8.3c-1.6-1.7-3.3-3.6-4-5.9
					c-0.8-2.9-0.1-6-0.7-8.9c-0.9-4.3-4.7-7.3-7.4-10.7c-3.6-4.6-5.6-10.2-8.3-15.4c-8.6-16.6-25.2-28.8-43.7-32.1
					c-1.1-0.2-2.3-0.4-3.4,0.1c-1.5,0.6-2.2,2.3-2.9,3.7c-1.8,3.6-4.3,6.8-7.3,9.5c-1.9,1.7-4.1,3.1-6.7,3.5c-3.5,0.5-6.9-1.1-9.8-3
					c-9-5.7-16.1-14.4-20-24.3c-1-2.5-1.7-5-3.1-7.3c-3-5-8.6-7.8-13.1-11.5c-6-4.9-10.3-11.6-14.8-17.9c-0.8-1.2-1.7-2.4-3.1-2.9
					c-1.3-0.5-2.7-0.3-4-0.1c-10.4,1.5-20.7,2.9-31.1,4.4c-0.3,0-1.3,5.5-1.5,6c-0.5,1.6-0.6,2-2.2,2.6c-3.9,1.4-10,0.7-14.1,0.7
					c-9.4,0.1-18.7-0.6-28-2.1c-3.8-0.6-7.7-1.3-11.4-2.4c-4.9-1.4-9.5-3.5-14.1-5.6c-16.8-7.6-33.7-15.1-50.5-22.7
					c-0.8-0.3-1.5-0.7-2.1-1.3c-2.1-2.1-1-6.5-3.7-7.7c-0.7-0.3-1.4-0.3-2.1-0.3c-8.7,0.1-17.5,0.2-26.2,0.3c-3.1,0-14.1-1.7-17,1.8
					c-0.7,0.8-0.9,1.9-0.5,3.3c0.7,2.4,2.7,4.1,4.3,6.1c2.4,3.1,3.6,7,4.7,10.8c2.2,7.7,4.5,15.4,6.1,23.3
					c1.4,6.7,2.4,13.7,5.4,19.9c2.4,4.8,5.9,8.9,9.4,12.9c3.8,4.4,7.6,8.8,11.4,13.2c3.3,3.8,6.7,7.9,7.6,12.9c0.4,2.3,0,5-2,6.2
					c-1.9,1.1-4.3,0.2-6.4-0.3c-2.3-0.6-4.7-0.7-7.1-0.3c-1.6,0.2-3.3,0.8-4,2.3c-0.9,1.9,0.5,4.1,2.2,5.2c1.7,1.1,3.8,1.7,5.5,2.9
					c2.5,1.9,3.6,5,5.1,7.7c5.3,9.2,15.9,13.4,24.4,19c4.3,2.8,8.7,6.1,11.3,10.6c3,5.1,8.9,9,8.2,15.8c-0.3,2.9-1.9,5.7-1.8,8.6
					c0.1,5,4.7,8.5,8.6,11.7c3.8,3.1,7.3,6.5,10.7,9.9c2.8,2.7,5.6,5.5,7.9,8.6c1,1.3,1.9,2.8,3.1,3.9c2.4,2.2,5.9,3.2,7.9,5.9
					c1.9,2.6,1.8,6,2.4,9.1c0.6,3.1,2.6,6.6,5.8,6.6c1.4,0,2.8-0.7,4-1.5c2.9-1.9,5.4-4.3,7.4-7.1c0.8-1.1,1.5-2.3,1.5-3.6
					c0.1-1.5-0.8-3-1.6-4.3c-4.2-6.6-8.6-13-13.3-19.2c-0.6-0.7-1.2-1.5-2-2c-2.3-1.4-5.1-0.1-7.5,1.1c-4.2-8.2-5.8-17.3-8-26.2
					c-2.9-11.8-6.7-23.3-11.5-34.4c-0.2-0.6-0.5-1.2-1.1-1.4c-0.4-0.2-0.9-0.1-1.4,0c-1.4,0.3-2.9,0.5-4.3,0.8
					c-9.3-18.5-18.7-36.8-28.7-55c-3.2-5.9-6.8-12.1-12.6-15.6c-0.7-0.4-1.6-0.9-2.1-1.6c-0.7-0.9-0.7-2.2-0.7-3.4
					c-0.6-14.7-10.1-29-6.8-43.1c0.1-0.4,0.2-0.9,0.4-1.3c0.9,0.9,1.7,1.8,2.6,2.6c3.4,3.4,6.8,6.8,10.2,10.2
					c1.3,1.3,2.6,2.6,4.2,3.3c1.6,0.7,3.3,0.7,4.9,1.1c7.6,1.9,11.2,10.3,14,17.6c6.9,18.3,15,36,24.3,53.2c0.7,1.2,1.4,2.5,2.3,3.5
					c4.5,5,14.3,4.7,16.4,11.2c0.7,2.1,0.3,4.3,0.6,6.5c0.7,4.5,4.2,7.9,7.5,10.9c5.4,5,10.8,10,16.2,15.1c1.7,1.5,3.5,3.7,2.6,5.8
					c-0.3,0.7-0.9,1.3-1.3,1.9c-1.8,2.6-1.1,6.3,0.8,8.8c3.2,4.3,8.3,5,11.7,9c7.5,9.1,17.3,16.1,25.5,24.6
					c7.6,7.9,13.9,16.9,20.1,26c6.3,9.1,12.6,18.3,16.8,28.6c1,2.5,1.9,5,2.7,7.5c1.2,4,2.3,8,3.3,12c0.3,1.5,0.7,2.9,0.5,4.4
					c-0.4,3.1-2.7,5.4-4.7,7.8c5.6,3.2,11.9,6.7,17,3.4c2.2-1.5,3.6-4,5.1-6.2c6.4-9.3,18.6-14.3,29.7-12.2c-1,9-2,18.1-2.9,27.1
					c6.9,2.5,13.8-4.3,16.9-10.9c3.2-6.7,5.5-14.7,12.1-18c12.3-6.3,26.8,9,40.1,5.1c3.4-1,6.3-3.2,9.7-4c6.8-1.8,14.6,2.9,16.3,9.8
					c4.6-7,6.3-15.8,4.7-24c7.5-3.6,14.8-7.6,21.9-12.1c-0.4-1.6-0.7-3.1-1.1-4.7c-1.1-4.7-2.2-9.4-2.2-14.2c0-4.3,0.8-8.6,0.8-12.9
					c0-5.5-1.3-11-1.9-16.5s-0.2-11.4,2.8-16.1c0.5-0.8,1.1-1.6,1.3-2.5c0.2-0.7,0.1-1.4,0-2.1c-0.4-3.7-0.8-7.3-1.2-11
					c-0.1-0.5-0.1-0.9-0.4-1.3c-0.2-0.3-0.5-0.4-0.8-0.5c-0.4-0.1-0.9-0.2-1.3-0.2C727.3,393.2,722.5,391.4,717.8,389.5z"/>
			</g>
		</g>
		<g class="st1">
			<path class="st2" d="M942.7,545.2c0.4,8.2,0.7,16.4,1.1,24.7c0.3,6.7,0.5,13.6-1.6,19.9c-1.2,3.5-3.1,6.7-3.5,10.4
				c-0.3,2.3,0.1,4.9-1.3,6.9c-0.9,1.3-2.5,2.1-3.4,3.5c-2.6,3.8,1.5,8.6,5.2,11.4c0.9,0.7,1.8,1.3,2.8,1.5c2.4,0.4,4.3-1.8,6.5-2.6
				c6.3-2.2,11.6,6.7,18.3,6.7c4,0,7.2-3.2,11-4.4c3.4-1,7.1-0.4,10.7-0.5c5.1-0.1,10.1-1.8,15.2-2.4c11.8-1.4,23.4,2.8,34.6,6.9
				c3.9,1.5,8.2,3.3,9.9,7.1c1.1,2.4,0.9,5.2,0.6,7.8c-2.2,24.1-5.7,48.1-9.2,72.1c-0.4,2.5-0.8,5.1-2.3,7.1
				c-2.6,3.4-7.5,3.8-11.8,4c-14.8,0.6-29.5,1.2-44.3,1.7c-4.9,0.2-10.2,0.3-14.1-2.6c-4.5-3.2-5.9-9.2-6.2-14.7s0-11.3-2.1-16.3
				c-0.9-2.1-2.2-4-2.9-6.3c-0.4-1.3-0.5-2.7-1.3-3.8c-1.8-2.4-5.3-1.8-8.3-1.9c-8.9-0.4-15.6-9.2-24.4-10.5
				c-5.8-0.9-12.5,1.3-16.9-2.5c-1.4-1.2-2.3-2.9-3.8-3.9c-2.5-1.9-6-1.7-9.2-1.8c-12.1-0.5-23.3-7.5-30.6-17.2
				c-7.3-9.6-11-21.6-12.2-33.7c-0.3-2.6-0.4-5.3,0.2-7.8c0.6-2.6,2.1-5,3.4-7.3c4.1-6.8,8.5-14,15.4-17.9c4.3-2.4,9.4-3.6,12.6-7.3
				c1.9-2.2,3-5,4.8-7.2c2.1-2.5,5.2-4,8.1-5.4c6-2.9,12.1-5.9,18.1-8.8"/>
		</g>
		<g>
			<path class="st4" d="M965.1,474.9c-3.5-2.3-8-2.4-12.1-1.4c-4,1-7.7,3.1-11.5,5c-8.6,4.3-17.7,7.5-27.1,9.5
				c-4.4,1-8.8,1.7-12.9,3.5s-7.8,4.9-9.2,9.2c-1,2.9-0.7,6.1-0.7,9.1c0.1,10.3-2.1,20.6-6.4,30c-0.3,0.7-0.6,1.3-1.2,1.8
				c-0.9,0.8-2.2,0.8-3.3,1.2c-2.2,0.7-3.7,3-3.7,5.3c0,1.1,0.3,2.1,0.4,3.1c0.3,4.4-4.8,8.3-8.9,6.8c-0.9-0.3-1.8-0.8-2.7-1.1
				c-1.2-0.3-2.5-0.1-3.7,0c-12.7,1.9-25.2,4.8-37.3,8.7c-3.1,1-6.4,2.1-9.6,1.4c-1.7-0.4-3.3-1.3-4.8-2.1c-7.5-3.8-15.7-6.1-24-6.8
				c-2.9-0.2-6.4-0.5-8-3c-0.8-1.2-0.9-2.8-1.7-4c-0.9-1.6-2.6-2.5-4.3-3.3c-0.8,1-1.3,2.1-1.4,3.4c-0.2,2.2,1,4.3,1.3,6.5
				c0.5,4.1-2,8.3-0.6,12.1c0.8,2,2.4,3.5,3.7,5.2c1.2,1.8,1.8,4.3,0.4,5.9c-3.5-1.5-6.9,3-6.9,6.8c0,3.8,1.7,7.7,0.7,11.4
				c-1.4,5.4-7.5,7.9-13,9.1c-8,1.7-16.2,2.1-24.1,4c-4.8,1.2-9.5,3.1-13.6,5.8c10.9,5.2,22,9.6,33.9,10.5
				c12.2,0.8,24.5-2.3,35.6-7.5c4-1.9,8-4.2,12.4-5c7.6-1.5,15.3,1.2,22.3,4.4c14.3,6.5,27.5,15.4,39,26.1c1.6,1.5,4.2,3,5.6,1.3
				c0.5-0.6,0.6-1.5,0.6-2.3c0.3-5.7,0.7-11.4,0.9-17.1c0.1-4.1,0.8-8.2,3.8-11.3c2.6-2.6,6.4-3.5,10-4.3c4.7-1,9.5-2,14.3-1.8
				c1.5,0.1,3.3,0.2,4.5-0.8c1.3-1.2,1.2-3.4,0.2-4.8c-1-1.5-2.6-2.4-4.1-3.3c-3.7-2.2-7.5-4.7-9.9-8.3c-3.3-4.9-3.7-11.6-0.9-16.8
				c16.4-0.5,31.9-7,47-13.4c-0.1-2.9,1.7-5.6,3.8-7.6c2.2-2,4.8-3.4,7.1-5.2c4.3-3.5,7.5-8.4,8.9-13.7c0.5-2.1,0.8-4.3,1.7-6.3
				c0.8-1.8,2.1-3.4,2.1-5.4c0-1.1-0.4-2.2-0.3-3.3c0.2-2.5,2.7-4.3,3.2-6.8c0.2-1.1,0-2.2,0-3.3c0.3-6.9,8.6-10.2,10.3-16.6
				C972.9,489,970.9,478.7,965.1,474.9z"/>
		</g>
		<g>
			<path class="st2" d="M756.6,608.4c5.5-1.1,11.6-3.7,13-9.1c1-3.7-0.7-7.6-0.7-11.4c0-3.8,3.3-8.4,6.9-6.8
				c1.4-1.6,0.8-4.1-0.4-5.9c-1.2-1.8-2.9-3.2-3.7-5.2c-1.4-3.8,1.1-8.1,0.6-12.1c-0.3-2.2-1.4-4.3-1.3-6.5c0.1-1.4,0.6-2.5,1.4-3.4
				c-1.8-0.9-3.6-1.6-4.8-3.1c-1.3-1.6-1.6-3.8-2.3-5.8c-1.2-3.3-3.4-6-5.7-8.7c-4.6-5.6-9.3-11.2-13.9-16.8
				c-2.7-3.2-5.9-7.6-5.3-12.1c0.3-2.3,1.8-3.9,1.9-6.3c0.1-2.7-1.2-5.3-2.2-7.8c-1.5-3.8-2.6-7.8-3.6-11.8
				c-7.1,4.4-14.4,8.5-21.9,12.1c1.6,8.2-0.1,17-4.7,24c-1.7-6.9-9.5-11.6-16.3-9.8c-3.4,0.9-6.3,3-9.7,4
				c-13.3,3.9-27.8-11.4-40.1-5.1c-6.6,3.4-8.9,11.4-12.1,18c-3.2,6.7-10,13.5-16.9,10.9c1-9,2-18.1,2.9-27.1
				c-11.1-2.1-23.2,2.9-29.7,12.2c-1.5,2.2-2.8,4.7-5.1,6.2c-5.1,3.4-11.4-0.2-17-3.4c-0.1,0.1-0.1,0.1-0.2,0.2
				c-2,2.4-3.9,5.7-2.7,8.7c0.6,1.4,1.7,2.5,2.7,3.7c3,3.6,4.4,8.7,6.8,12.8c2.9,4.7,7,8.7,12,11.2c3.7,1.9,7.9,3,11.3,5.3
				c4.2,2.9,7.1,7.3,10.9,10.6c10.5,9,26.4,7.9,38.5,14.6c4.2,2.3,7.9,5.6,12,8.1c9.2,5.7,20.1,7.6,30.3,11.2
				c10.8,3.7,21.1,9.3,31.5,14.3c4-2.8,8.8-4.7,13.6-5.8C740.5,610.5,748.7,610.1,756.6,608.4z"/>
		</g>
	</g>
</g>
</svg>
