<?xml version="1.0" encoding="utf-8"?>
<!-- Generator: Adobe Illustrator 21.0.0, SVG Export Plug-In . SVG Version: 6.00 Build 0)  -->
<svg version="1.1" id="Capa_1" xmlns="http://www.w3.org/2000/svg" xmlns:xlink="http://www.w3.org/1999/xlink" x="0px" y="0px"
	 viewBox="0 0 60.1 34.4" style="enable-background:new 0 0 60.1 34.4;" xml:space="preserve">
<style type="text/css">
	.st0{fill:#FFFFFF;}
	.st1{fill:#0D9B00;}
	.st2{fill:#FF1D07;}
	.st3{fill:#6E4012;}
</style>
<g>
	<g>
		<path class="st0" d="M38.9,31.2c0.1-1.4,0.4-2.7,0.4-4.1c0-1.2-0.2-2.5-0.3-3.7c-0.2-2-0.2-3.9-0.2-5.9c0-5.6,0.1-11.3,0.5-16.9
			C35,0.3,30.7,0.1,26.5,0c-2.4,0-4.9,0-7.3,0c-0.2,3.6-0.4,7.2-0.6,10.7c-0.2,3.8-0.4,7.6-0.4,11.4c0,2.6,0.1,5.3,0.7,7.8
			c0.2,1,0.5,2,0.5,3c5.1,0.5,10.1,1.1,15.2,1.3c1.5,0.1,2.9,0.1,4.4,0.1C38.8,33.3,38.8,32.2,38.9,31.2z"/>
		<path class="st1" d="M18.1,22.2c0-3.8,0.2-7.6,0.4-11.4c0.2-3.6,0.4-7.2,0.6-10.7C14,0.2,8.9,0.5,3.7,0.8C2.6,0.9,1.1,0.6,0.8,2
			C0.5,3.8,0.7,5.9,0.7,7.8c-0.1,3.8-0.2,7.6-0.3,11.4C0.2,23.4,0.1,27.6,0,31.9c0,0.3,0,0.6,0.2,0.9c0.3,0.5,1,0.4,1.5,0.3
			c5.8-0.9,11.7-0.6,17.6-0.1c-0.1-1-0.3-2-0.5-3C18.2,27.5,18.1,24.8,18.1,22.2z"/>
		<path class="st2" d="M59.9,3.6c0-1.3-1.1-2.4-2.4-2.4c-6,0.1-12.1-0.3-18.1-0.6c-0.4,5.6-0.4,11.3-0.5,16.9c0,2,0,3.9,0.2,5.9
			c0.1,1.2,0.3,2.5,0.3,3.7c0,1.4-0.3,2.7-0.4,4.1c-0.1,1.1-0.1,2.1,0,3.2c7,0,14-0.7,21-1.5C60.1,23.1,60.1,13.3,59.9,3.6z"/>
	</g>
	<path class="st3" d="M24.7,13.2c0.5-0.4,1.1-0.6,1.7-0.8c-0.1,0.6-0.2,1.1-0.3,1.7c0,0.2-0.1,0.3,0,0.5c0,0.1,0.1,0.2,0.2,0.3
		c0.3,0.5-0.1,1-0.2,1.6c0,0.1-0.1,0.3,0,0.4c0.1,0.2,0.2,0.3,0.4,0.4c0.5,0.3,1.1,0.3,1.6,0.6c1.2,0.5,1.8,1.9,1.9,3.2
		c0,0.1,0,0.3,0,0.4c-0.1,0.2-0.2,0.3-0.4,0.4c-0.9,0.6-2.1,0.5-3,0.1c-0.4-0.2-0.9-0.5-1.1-0.9c-0.2-0.4-0.3-0.9-0.5-1.4
		c-0.2-0.4-0.6-0.8-0.8-1.2c-0.3-0.6-0.2-1.3-0.3-2c0-0.1-0.1-0.2-0.1-0.3c-0.1-0.1-0.2,0-0.3,0c-0.3,0-0.7,0.1-1,0.3
		c-0.3,0.1-0.6,0.3-0.6,0.6c-0.1,0.2,0,0.3,0,0.5c0.1,0.6,0.1,1.3,0.2,1.9c0.1,0.8,0.2,1.6,0.5,2.3c0.2,0.4,0.5,0.7,0.9,0.9
		c0.4,0.2,0.8,0.2,1.2,0.4c1,0.4,1.6,1.4,2.6,1.8c0.6,0.3,1.3,0.2,2,0.1c0.9-0.2,1.8-0.4,2.7-0.7c1.5-0.5,3.1-1.1,4-2.4
		c0.5-0.7,0.7-1.7,0.6-2.6c0-0.1,0-0.1-0.1-0.2c0,0-0.1-0.1-0.1-0.1c-0.5-0.1-1-0.1-1.5,0.1c-0.5,0.3-0.9,0.8-1.4,1.1
		c-0.6,0.4-1.3,0.6-2,0.6c-0.1-0.4-0.1-0.7-0.2-1.1c-0.1-0.4-0.4-0.8-0.4-1.2c-0.2-1,0.6-2,0.3-2.9c-0.1-0.2-0.1-0.3-0.1-0.5
		c0-0.2,0.2-0.3,0.3-0.2c0,0,0.1,0.1,0.1,0.1c0.6,0.9,1,1.9,1.1,3c0,0.1,0,0.1,0.1,0.2c0.1,0.1,0.2,0,0.3,0c0.9-0.4,1.3-1.4,1.4-2.3
		c0.2-2-0.5-4-1.6-5.7c-0.5-0.8-1.2-1.5-2.1-1.8c-0.5-0.1-1-0.1-1.5,0c-0.5,0.1-1.1,0.2-1.6,0.4c-0.2,0.1-0.4,0.2-0.5,0.4
		c-0.1,0.2,0.1,0.4,0.1,0.5c0.3,0.5,0.6,1.2,0.6,1.8c0.1,0.8-0.6,0.4-0.9,0c-0.8-0.9-1.8,0.2-2.2,1.1c0.3-0.1,0.7-0.2,1-0.3
		C25.2,12.5,25,13,24.7,13.2z"/>
</g>
<g>
</g>
<g>
</g>
<g>
</g>
<g>
</g>
<g>
</g>
</svg>
