<?xml version="1.0" encoding="utf-8"?>
<!-- Generator: Adobe Illustrator 21.0.0, SVG Export Plug-In . SVG Version: 6.00 Build 0)  -->
<svg version="1.1" id="Capa_1" xmlns="http://www.w3.org/2000/svg" xmlns:xlink="http://www.w3.org/1999/xlink" x="0px" y="0px"
	 viewBox="0 0 206.8 207.3" style="enable-background:new 0 0 206.8 207.3;" xml:space="preserve">
<style type="text/css">
	.st0{fill:#6E4012;}
	.st1{fill:#E4294D;}
	.st2{fill:#FFFFFF;}
</style>
<g>
	<g>
		<path class="st0" d="M13.9,157.2c3.2,5.1,9.4,13.5,13.6,17.8c16.6,16.7,35,26,58.2,30.5c23.2,4.5,49.1,0.2,69.7-11.6
			c14.2-8.2,26-20.1,34.5-34c11.6-19,16.9-41.3,16.9-63.3c0-5.5-0.3-11.1-1-16.6c-0.1-1-0.2-2-0.5-2.8c-2.2-8.9-12.1-27-17.9-34.2
			c-5.8-7.2-12.5-13.5-19.3-19.7c-4.4-4-8.9-8-14.5-10c-1.2-0.4-15.4-8.1-24.8-9.6c0,0,0,0,0,0c-5.8-1.3-11.7-2-17.6-2.8
			c-3-0.4-6-0.8-9-0.8c-3.6,0-7.1,0.5-10.6,1.1C79,3.2,66.3,6.6,54.5,12.1c-1.3,0.6-2.6,1.3-3.1,2.6c-0.6,1.6,0.2,3.3,1.1,4.7
			c1.3,2.3,2.6,4.5,3.9,6.8c3.5,6.1,6.9,12.2,10.6,18.2c2.8,4.6,5.8,9.2,8.7,13.8c4.9,7.6,9.9,15.2,14.9,22.7
			c2.5,3.7,5,7.4,7.4,11.1c0.3,0.5,3.5,6.9,7,13.7c-0.3,0-0.7-0.1-1-0.2c-1.4-0.4-2.4-1.4-3.5-2.3C76.3,81.2,50.6,58.7,26.4,36.7
			c-0.9-0.8-2.2-0.7-2.9,0.2C2.3,64.4-6.3,98.2,5,135.8C7.3,143.2,9.8,150.6,13.9,157.2z"/>
		<path class="st1" d="M85.6,80.8c-1-1.4-1.9-2.9-2.9-4.3c-7.5-11.2-14.9-22.5-22-34c-4.6-7.6-9.1-15.3-14.5-22.4
			c-0.2-0.3-0.5-0.6-0.8-0.8c-0.5-0.2-1,0-1.4,0.1c-5.3,1.9-10,5.5-13.2,10.1c-0.4,0.5-0.7,1.1-0.8,1.7c0,0.6,0.3,1.3,0.6,1.8
			c5,8.6,14.2,13.7,21.1,20.9c1.7,1.7,3.2,3.6,4.9,5.3c4.6,4.7,10.3,8.2,15.2,12.6c3.1,2.7,5.9,5.8,8.9,8.6c1.7,1.6,4.6,5.1,7,5.7
			C90.6,86.9,86.2,81.8,85.6,80.8z"/>
	</g>
	<g>
		<g>
			<path class="st2" d="M71,120.7c0.2,0,0.5,0.4,0.9,1l0,0.5l-0.1,0.5c0,0.9,0,1.9,0.1,3l0,0v0l0.1,1.2l0,0.6l0,0.5l0,0.4v0.2l0,0.7
				l0,0.6l0,0l0,0v0c0,1.3,0.1,2.2,0.2,2.7l0,0v0.1c0,0.2,0.1,0.3,0.2,0.5h0.2c0.1-0.2,0.2-0.4,0.3-0.9h0c0.1-0.2,0.1-0.4,0.1-0.7
				l0-0.6v0l0.1-0.7v-0.4c0-0.2,0.1-0.4,0.2-0.8h0c0.1-0.3,0.1-0.9,0.2-1.8l0.2-1.3h0l0,0c0.1-0.7,0.2-1.2,0.2-1.6l0,0v0l0.3-1.2
				l0-0.5c0-0.8,0.2-1.3,0.5-1.5l0.3-0.1H75c0.3,0,0.6,0.3,1,1l0,0.6h0c-0.1,0.4-0.2,0.9-0.2,1.3c-0.2,0.6-0.4,1.2-0.4,1.7l-0.1,0.4
				l0,0l0,0.1l0,0l0,0.1v0.4l-0.2,0.9l-0.1,0.8l0,0.4c-0.2,0.8-0.2,1.4-0.2,1.8h0l0,0v0c-0.1,1.5-0.2,2.2-0.2,2.2l0,0l0,0.1l0,0.1
				l0,0.2l-0.1,0.8l0,0.5l0,0.6l0,0.8l0,1.1l0,0.6l-0.1,0.8l0,1.9l-0.1,0.5l0,0.4v0c0,0.2-0.1,0.5-0.2,1c0,0.1,0.1,0.6,0.1,1.4
				c-0.1,0.9-0.3,1.4-0.7,1.5c-0.9,0-1.5-0.2-1.8-0.7c-0.3-0.4-0.5-0.9-0.6-1.4l-0.4-2.1c-0.1-0.3-0.1-0.8-0.1-1.6
				c-0.1-0.4-0.1-0.6-0.2-0.6l-0.1,0c-0.2,0.1-0.3,0.7-0.3,1.9c-0.1,0.6-0.2,1.1-0.3,1.7c-0.1,0.1-0.1,0.7-0.2,1.6
				c-0.1,0.5-0.1,0.9-0.3,1.2c-0.2,0.3-0.4,0.4-0.5,0.4h-0.2c-0.3-0.1-0.7-0.3-1-0.8c-0.3-0.4-0.6-1-0.8-1.8l-0.2-0.7l0-0.2l0,0l0,0
				v-0.1l0,0c-0.1-0.2-0.1-0.4-0.1-0.5l0-0.5l-0.1-1.3h0l-0.2-1.3h0l0,0l0-0.3l-0.1-0.9c0-0.3,0-0.5,0.1-0.6l-0.1-1l0,0
				c0-0.7-0.1-1.4-0.2-2l0,0v0l-0.1-1.4l0-0.1c0-0.2-0.1-0.5-0.2-0.7l0,0l-0.1-0.6v-0.3c0.1-0.4,0.1-0.7,0.1-0.9
				c0-0.2,0-0.4-0.1-0.4l0,0c-0.1-0.2-0.1-0.4-0.1-0.6l0-1.5l0-0.3l0-0.1c0-0.7-0.1-1.4-0.1-2.3l0,0v-0.1l-0.2-2
				c0-0.5,0.2-0.8,0.5-0.8c0,0,0.1-0.1,0.3-0.1h0c0.2,0,0.5,0.4,0.9,1l0.1,0.9h0c0.1,0,0.1,0.4,0.1,1.3l0,1.2c0,0.1,0,0.3,0.1,0.5h0
				l0.1,1.1l-0.1,0.7l0,0.9v0.1l-0.1,1.1c0.1,0.7,0.1,1.3,0.2,1.8h0l0,0v0c0,0.7,0,1.6,0.1,2.6h0c0.1,0.9,0.2,1.5,0.2,1.9v0l0,0.1h0
				l0,0v0.2l0,0l0.1,0.3l0,0.1v0l0,0.2h0.1l0,0l0-0.1h0l0,0l0-0.2c0.2-0.2,0.3-0.5,0.3-1.1c0.1-0.8,0.1-1.3,0.2-1.5
				c0.2-0.6,0.3-1.2,0.3-1.8l0-0.4l0.2-1.7l0.1-0.6l-0.1-1.5c0.1-0.4,0.2-1,0.3-1.8V126l0-0.7l-0.1-1.1l0.2-1.7h0
				c0.1-1,0.2-1.5,0.3-1.5C70.5,120.8,70.7,120.7,71,120.7z M68.2,138.1c0,0.1,0,0.1,0.1,0.1h0.1c0.1,0,0.1-0.1,0.1-0.2v0
				c0-0.1,0-0.2-0.1-0.2h0C68.3,137.8,68.3,137.9,68.2,138.1z M72.2,135.5c0,0.1,0.1,0.3,0.2,0.5l0,0l0,0h0V136l0.1,0l0,0.1h0
				c0-0.1,0.1-0.2,0.2-0.4l0-0.2v0l-0.1-0.4l0-0.2c0-0.1,0-0.1-0.1-0.2h-0.1C72.4,134.7,72.3,135,72.2,135.5z"/>
			<path class="st2" d="M79.9,120.9L79.9,120.9c1.1,0,2,0.5,2.7,1.4c0.3,0.3,0.4,0.9,0.4,1.6l0,0.4h0c0,0.2,0.1,1.1,0.2,2.6l0,0.4
				v0.2l0.1,0.6h0l0,0v0.1l0.1,0.8l-0.1,0.7l0.1,1.4v0.1c0,0.2-0.1,0.6-0.2,1.2l0,0.2l0.1,1.7h0l0.1,0.5c-0.1,0.2-0.1,1-0.1,2.3
				l0,0.5l-0.1,1.2l0.1,1.2v0l0,0l0,0.1l0.1,0.7l-0.1,0.7v0l0,0l0,0L83,143c-0.1,0.3-0.4,0.7-0.7,1c-0.1,0.2-0.4,0.4-0.8,0.6
				l-0.5,0.4c-0.2,0.1-0.3,0.1-0.4,0.1h-0.3c-0.8,0-1.7-0.6-2.5-1.9c-0.1-0.1-0.2-0.4-0.3-0.8h0l-0.3-1.1c0-0.3,0-0.6-0.1-1l0-0.1
				l0-0.8h0l0,0v-0.1l-0.1-1.1l0-1.1l-0.1-1.3v-0.5l0.1-1.3l-0.2-1.4c0-0.8,0-1.2,0.1-1.4l-0.1-2.3l0-0.4l0-0.9l0-0.6l0-0.9v-0.2
				c0.1-1,0.1-1.7,0.2-2l0.2-0.7h0c0.2-0.4,0.4-0.8,0.5-1.3c0.4-0.6,0.8-0.9,1.2-0.9C79.5,120.9,79.7,120.9,79.9,120.9z M79,125
				l0,0.1l-0.1,1.2v0.9l0.1,0.4v0.1l-0.1,0.4l0,0.6l-0.1,0.6c0,0.7,0.1,1.1,0.1,1.2l0,1.2v0.3l0,0.3l0.2,1.7v0.1l-0.1,1.4l0,0.5
				l0,0.2c0,0.2,0.1,0.5,0.1,1l0,0.5l0.1,1.2v0.8c0,0.7,0.1,1.4,0.2,1.9c0.1,0,0.1,0.4,0.2,1.1c0,0.1,0.1,0.2,0.4,0.4h0.4
				c0.3-0.1,0.6-0.4,0.9-1c0.2-0.3,0.2-0.6,0.2-0.7v-0.6c0-1,0-1.6-0.1-1.7l0,0l0-0.3v-0.1c0-0.5,0-0.8,0.1-1.2v0l-0.1-1v-0.2
				c0-0.7,0.1-1.1,0.1-1.1l0,0v-0.1l0-0.1l0,0h0c-0.1-0.1-0.1-0.8-0.2-2c0-0.9,0.1-1.4,0.2-1.6l0,0l0-0.2l0-0.7l0-0.3l0,0l0,0h0l0,0
				l0-0.4l0-0.2h0l0.1-0.3l-0.1-0.2h0l-0.2-1.9l0-0.6l0-1.1h0l0,0v0l-0.2-1.2l0-0.3c0-0.8-0.2-1.2-0.7-1.2c-0.7,0.1-1.1,0.2-1.1,0.4
				c-0.4,0.6-0.5,1.1-0.5,1.7L79,125z"/>
			<path class="st2" d="M85.4,121.2l0.7,0h0.6c0.3,0,0.5,0,0.8,0.1v0c0.7,0.1,1.3,0.3,1.7,0.5c0.8,0.5,1.2,1,1.4,1.5l0,0.7v0.6
				l0,1.1c-0.1,0.1-0.1,0.3-0.1,0.5v0.2c0.1,0.2,0.1,0.6,0.1,1c0,0.3-0.1,0.7-0.2,1.1v0.3c0,0.3,0,0.5,0.1,0.7l0,0v0l0,0.4l0,0.7
				c0,0.4-0.1,0.9-0.2,1.3c0,0.4-0.1,0.7-0.1,0.9h0c-0.3,0.3-0.6,0.6-0.8,0.9c0,0.1,0,0.1-0.1,0.3l0,0v0l-0.1,0.4
				c0,0.2,0.3,0.7,0.8,1.7c0.5,1.6,0.7,2.4,0.7,2.5v0.4l-0.1,0.7l0,0.4l-0.1,0.6v0.2l0.1,0.7v0l0,0.1l0.1,0.5l-0.1,0.6v0l0,1
				c0,0.2,0.1,0.7,0.2,1.3l0.1,0.4v0c-0.1,0.3-0.2,0.4-0.4,0.4h-0.1l0,0h0l-0.1,0c-0.4,0-0.8-0.4-1.3-1.2c-0.1-0.2-0.2-0.8-0.2-1.9
				v0l0-0.5v-0.6l-0.1-0.8l0.1-1.8c0-0.6-0.2-1.4-0.6-2.6c-0.2-0.7-0.4-1.1-0.7-1.1h-0.5c-0.3,0-0.4,0.2-0.5,0.5v0.1l0.1,1l0,0.6
				l-0.1,0.9v0.4l0,0l-0.1,0.5l0,0.4c0,0.7,0,1.3,0,1.8l0.1,0.6l0,0.6l0,0.7l0,0l0,0l0,0.3c-0.1,0.8-0.3,1.3-0.6,1.3h-0.2
				c-0.2-0.1-0.4-0.2-0.7-0.4c-0.3-0.3-0.4-0.5-0.4-0.7v-0.1l0-1.2l-0.1-0.6v-0.3l0-0.9l0-0.3l0-0.3l-0.1-0.6l0.2-2.1l-0.2-1.1
				c0-0.4,0-1,0.1-1.7l0-1.2l0.1-0.5l0-0.3l0-0.7l0-0.4v-0.1l0-0.2c0-0.6-0.1-1.3-0.2-2.3l0.1-0.7l0-0.7c-0.1-0.5-0.1-1.1-0.2-1.8
				l-0.1-1.5l0-0.7l0-0.4c0-1,0.1-1.5,0.2-1.5C84.9,121.4,85.2,121.3,85.4,121.2z M86.4,123.3l0.1,1.4v0.5l0.1,1.9l0,0.7
				c0.1,0.1,0.1,1,0.1,2.5c0.1,0.3,0.1,0.5,0.1,0.7l0,0.5l0.1,0.5v0.1l-0.1,0.7c0,0.4,0.1,0.5,0.3,0.5h0.1c0.4,0,0.8-0.3,1.3-0.8
				c0.2-0.5,0.2-1,0.2-1.4v0l0,0l0,0v0c0.1-0.1,0.1-0.6,0.1-1.5l0-0.7l0.1-0.9l0-0.6l0-1.6l-0.2-0.4l0.2-1V124
				c0-0.3-0.1-0.5-0.2-0.8c-0.2-0.2-0.6-0.3-1.4-0.3h-0.1C86.6,122.9,86.4,123,86.4,123.3z"/>
			<path class="st2" d="M92.9,120.9c0.2,0,0.4,0.1,0.7,0.3c0.3,0.4,0.5,0.7,0.5,0.8v0l0,0.5l0.1,0.7l-0.1,0.4
				c0.1,0.8,0.1,1.9,0.2,3.2l-0.1,1.1v0.3l-0.1,0.8l0,0.3l-0.1,0.8l0,0.4c0,0.4-0.1,1.2-0.2,2.5c0,0.2,0,0.6-0.1,1v0.7l0.1,1.5
				l-0.1,1.7c0.1,1.4,0.1,2.4,0.2,2.9c0.1,0.7,0.2,1.3,0.2,1.8c0.2,0.2,0.4,0.3,0.6,0.3H95c0.5,0,0.9-0.1,1.2-0.1v0l0,0h0.5l0,0l0,0
				h0c0.6,0.1,0.9,0.3,0.9,0.4c0.2,0.3,0.3,0.5,0.3,0.7v0.1c0,0.3-0.4,0.5-1.3,0.6l0,0l-0.8,0.1l-0.6,0h-0.2c-0.3,0-0.7,0.2-1.2,0.5
				l-0.2,0c-0.3,0-0.7-0.2-1.2-0.7c-0.2-0.2-0.2-0.4-0.2-0.6l0.1-0.7v-0.2c-0.3-1.4-0.4-2.8-0.5-4.3l0-0.6l0.1-1.6v-0.7l-0.1-1.3
				c0-0.8,0.1-1.6,0.2-2.2l0.1-0.4l0-0.2l0.1-2.5c0.1-0.9,0.1-1.8,0.1-2.7l0-1v-0.2l-0.1-0.8v-2.8c0-0.2,0-0.3,0.1-0.3l0,0v-0.4
				C92.4,121,92.6,120.9,92.9,120.9z"/>
			<path class="st2" d="M100.4,120.6l0.2,0c0.6,0,1.4,0.3,2.4,0.8c0.5,0.2,0.9,0.6,1.4,1.1c0.2,0.3,0.4,0.6,0.5,0.9
				c0.1,0.1,0.1,0.6,0.2,1.4v0l-0.1,0.8l0,0.3c0,0.4-0.1,0.8-0.1,1.2l0,1.2l0,0.3c0.1,0.6,0.1,1.3,0.1,2.3l0,0.2l-0.1,1
				c0,0.1,0,0.6,0,1.4v0.1l-0.1,0.5l0.2,2.2l0,0.3l-0.2,0.9c0.1,0.4,0.1,1.2,0.1,2.4l-0.1,0.9l0,0.1l0,1.2c0,0.3-0.2,1-0.5,1.9
				c-0.2,0.2-0.4,0.4-0.7,0.7c-0.6,0.4-1.1,0.6-1.3,0.6c-0.1,0.1-0.6,0.1-1.7,0.1c0,0-0.1,0-0.2,0v0c-0.2,0.1-0.3,0.1-0.5,0.1
				c-0.3,0-0.5-0.2-0.8-0.7c-0.2-0.3-0.4-0.6-0.4-0.8c0.1-0.6,0.2-1,0.3-1.4c-0.1-0.2-0.1-0.3-0.1-0.4l0-0.9c0-0.5,0-0.7,0-0.7
				l0-0.1l0-0.9c0-1.1,0-1.8-0.1-2.1l0-0.3c0-0.7,0-1.3-0.1-1.9l0-0.2v-0.9l0.1-0.4c0-0.2-0.1-1-0.1-2.3l0.1-1.6l0.1-2.3l-0.1-1.1
				l0.1-0.6c-0.1-0.3-0.2-0.9-0.2-2c0,0,0-0.4,0-1.1c-0.3-0.5-0.5-0.9-0.6-1.1c0.2-0.5,0.5-0.7,0.8-0.7L100.4,120.6z M100.7,123.1
				c0,0.7,0,1.3,0.1,1.7l-0.1,0.5c0.1,0.3,0.1,0.9,0.1,2c0,0.4,0.1,0.9,0,1.5l0,0.4l0,0.4l-0.1,0.8l0,0.2l-0.1,0.8l0.1,0.9l0,0.3
				l0,1.7l-0.1,0.7l0.1,0.8l-0.1,0.4l0.1,0.7l0,0.2v0.2l0.1,2.4l-0.1,1.1v0.1l0.1,2.3l0,0.3c0,0.3,0.1,0.4,0.4,0.4l0.2,0
				c0.5,0,0.9-0.2,1.3-0.5c0.2-0.1,0.3-0.7,0.4-1.7l0-0.2l-0.1-0.6l0.1-1.8l0-0.9l0-0.3l0-0.4l0.1-0.6v-0.1c0-0.4,0-1-0.1-1.6l0-0.3
				l0-0.8l0-1l0-0.7l0.1-0.5l-0.1-2.6l0-0.3l0-0.4l0-0.9l0-0.4l0-0.3l0.1-0.8V126l0.1-0.6l0-0.4l0-0.6c0-0.5,0-0.9-0.2-1.3
				c-0.3-0.5-0.8-0.8-1.6-0.8c-0.5,0-0.7,0.1-0.7,0.4L100.7,123.1z"/>
			<path class="st2" d="M110.5,120.8c0.8,0,1.6,0.5,2.3,1.6c0.1,0.2,0.3,0.7,0.5,1.3l0,0l0.2,1.5c-0.1,1.3-0.1,1.9-0.2,1.9h0
				c-0.1,0.5-0.2,0.9-0.4,1c-0.1,0.2-0.2,0.3-0.2,0.3l-0.1,0l0,0h0l-0.2,0.1c-0.6-0.3-0.9-0.6-0.9-1.2l0-0.3h0
				c0.2-0.4,0.3-0.6,0.3-0.7v-0.7l0-0.5c0-0.5-0.1-1.1-0.3-1.9h0c-0.1-0.5-0.3-0.8-0.6-0.8h0c-0.4,0-0.6,0.1-0.8,0.4l-0.1,0.5h0
				c-0.1,0.3-0.2,0.8-0.2,1.4h0c-0.1,0.2-0.1,0.6-0.1,1.1l0.1,0.4l0,0.9c0,0.7,0,1.3,0.1,1.6l0,0l0,0.6l0,0.1c0,0.2,0.1,0.6,0.2,0.9
				h0c0.1,0.3,0.2,0.6,0.5,1c0,0.1,0.5,0.5,1.5,1.3l0.6,0.7c0.6,0.7,0.9,1.4,0.9,2l0.1,0.4h0l0,0l0,0.3v0.8l0.1,0.7l0,0.3l0.1,0.8
				l-0.2,1.5v0.3l-0.1,1.6l0,0.1h0c-0.1,0.5-0.3,0.9-0.6,1.1c-0.1,0.3-0.2,0.6-0.5,0.9c-0.6,0.5-1.1,0.8-1.4,0.9l-0.2,0.1v0l0,0h0
				c-1,0-1.9-0.7-2.6-2c-0.2-0.9-0.4-1.8-0.6-3l0,0l0-0.3l0-0.1h0c0.1-0.2,0.1-0.5,0.1-0.9l0-1.1c0-0.2,0.1-0.4,0.2-0.7l0-0.2
				c0-0.1,0.1-0.1,0.2-0.2l0.2,0c0.1-0.1,0.3-0.1,0.4-0.2c0.1,0,0.2,0.1,0.4,0.3l0.3,0.4c0.1,0.3,0.2,0.5,0.2,0.8l-0.1,0.7l0,0.2
				l0,1.1c0.1,0.5,0.1,0.8,0.1,0.9h0c0.1,0.3,0.2,0.6,0.2,0.9h0c0.1,0.5,0.2,0.9,0.2,1h0c0.1,0.4,0.2,0.6,0.5,0.6
				c0.2,0,0.5-0.2,0.8-0.6c0.3-0.6,0.5-1,0.5-1.2c0-0.3,0.1-0.7,0.2-1l0,0v-0.6l0,0l0,0c0-0.6,0.1-1.2,0.1-1.6l-0.1-0.7v-0.4l0,0
				c-0.1,0-0.1-0.4-0.1-1.3c0-0.4-0.2-1-0.6-2c-0.3-0.4-0.7-0.9-1.4-1.3c-0.8-0.7-1.3-1.3-1.4-1.7l-0.2-0.5v-0.2
				c-0.1-0.5-0.2-1.1-0.2-1.7c0,0-0.1-0.1-0.1-0.4V128l0-0.6l0-0.6v-0.2l0.1-0.8l0-0.3l0-0.7v-0.7c0-0.2,0-0.3,0.1-0.5l0,0
				c0.2-0.9,0.3-1.5,0.5-1.8c0.2-0.2,0.6-0.5,1.2-0.9C109.8,121,110.1,120.9,110.5,120.8z"/>
			<path class="st2" d="M124.6,120.7h0.2c0.1,0,0.4,0.1,0.9,0.2c1.2,0,1.8,0.1,2.1,0.4c0.4,0.4,0.6,0.7,0.6,0.9
				c0,0.2-0.3,0.4-0.8,0.5l-1.2-0.1c-0.1,0.1-0.2,0.1-0.3,0.2v0.9c0,0.5,0,0.8,0.1,1.1l0,1.1v0.1l0,0.5l0,0.4l0,0.5v0.4l0,0.9l0,0.7
				l-0.1,0.6c0.1,1.6,0.2,2.7,0.2,3.3c0.1,0.3,0.1,0.7,0.1,1.4c0,0,0.1,0.2,0.1,0.5l0,0.5l0.1,2.1l0,0.2l-0.1,2l0,0.2l0.1,0.5
				l0.1,3.1c0,0.2-0.2,0.4-0.5,0.7h-0.1c-0.3-0.1-0.6-0.3-1-0.6c0-0.1-0.1-0.2-0.2-0.4v-0.7l-0.1-1.2l0-0.5
				c-0.1-0.5-0.1-0.9-0.1-1.2c0.1-0.5,0.1-1.2,0.1-2.3l-0.1-1.4l0-0.5v-0.4c-0.1-1.3-0.2-2.1-0.3-2.4l0-2.3l0.1-1.1v-0.8l0-0.9
				c0-0.2,0.1-0.4,0.1-0.6l-0.1-1v-0.4c0-2-0.1-3-0.2-3c-0.1-0.1-0.2-0.2-0.2-0.2l-0.2,0c-0.4,0-0.9-0.2-1.3-0.7
				c-0.1-0.2-0.2-0.3-0.2-0.5v-0.1c0.1-0.4,0.4-0.6,0.8-0.6h0.2l0.5,0.1h0.4L124.6,120.7z"/>
			<path class="st2" d="M131.9,120.9L131.9,120.9c1.1,0,2,0.5,2.7,1.4c0.3,0.3,0.4,0.9,0.4,1.6l0,0.4h0c0,0.2,0.1,1.1,0.2,2.6l0,0.4
				v0.2l0.1,0.6h0l0,0v0.1l0.1,0.8l-0.1,0.7l0.1,1.4v0.1c0,0.2-0.1,0.6-0.2,1.2l0,0.2l0.1,1.7h0l0.1,0.5c-0.1,0.2-0.1,1-0.1,2.3
				l0,0.5l-0.1,1.2l0.1,1.2v0l0,0l0,0.1l0.1,0.7l-0.1,0.7v0l0,0l0,0L135,143c-0.1,0.3-0.4,0.7-0.7,1c-0.1,0.2-0.4,0.4-0.8,0.6
				L133,145c-0.2,0.1-0.3,0.1-0.4,0.1h-0.3c-0.8,0-1.7-0.6-2.5-1.9c-0.1-0.1-0.2-0.4-0.3-0.8h0l-0.3-1.1c0-0.3,0-0.6-0.1-1l0-0.1
				l0-0.8h0l0,0v-0.1l-0.1-1.1l0-1.1l-0.1-1.3v-0.5l0.1-1.3l-0.2-1.4c0-0.8,0-1.2,0.1-1.4L129,129l0-0.4l0-0.9l0-0.6l0-0.9v-0.2
				c0.1-1,0.1-1.7,0.2-2l0.2-0.7h0c0.2-0.4,0.4-0.8,0.5-1.3c0.4-0.6,0.8-0.9,1.2-0.9C131.4,120.9,131.7,120.9,131.9,120.9z
				 M130.9,125l0,0.1l-0.1,1.2v0.9l0.1,0.4v0.1l-0.1,0.4l0,0.6l-0.1,0.6c0,0.7,0.1,1.1,0.1,1.2l0,1.2v0.3l0,0.3l0.2,1.7v0.1
				l-0.1,1.4l0,0.5l0,0.2c0,0.2,0.1,0.5,0.1,1l0,0.5l0.1,1.2v0.8c0,0.7,0.1,1.4,0.2,1.9c0.1,0,0.1,0.4,0.2,1.1
				c0,0.1,0.1,0.2,0.4,0.4h0.4c0.3-0.1,0.6-0.4,0.9-1c0.2-0.3,0.2-0.6,0.2-0.7v-0.6c0-1,0-1.6-0.1-1.7l0,0l0-0.3v-0.1
				c0-0.5,0-0.8,0.1-1.2v0l-0.1-1v-0.2c0-0.7,0.1-1.1,0.1-1.1l0,0v-0.1l0-0.1l0,0h0c-0.1-0.1-0.1-0.8-0.2-2c0-0.9,0.1-1.4,0.2-1.6
				l0,0l0-0.2l0-0.7l0-0.3l0,0l0,0h0l0,0l0-0.4l0-0.2h0l0.1-0.3l-0.1-0.2h0l-0.2-1.9l0-0.6l0-1.1h0l0,0v0l-0.2-1.2l0-0.3
				c0-0.8-0.2-1.2-0.7-1.2c-0.7,0.1-1.1,0.2-1.1,0.4c-0.4,0.6-0.5,1.1-0.5,1.7L130.9,125z"/>
			<path class="st2" d="M138.7,120.7h0.2c0.1,0,0.4,0.1,0.9,0.2c1.2,0,1.8,0.1,2.1,0.4c0.4,0.4,0.6,0.7,0.6,0.9
				c0,0.2-0.3,0.4-0.8,0.5l-1.2-0.1c-0.1,0.1-0.2,0.1-0.3,0.2v0.9c0,0.5,0,0.8,0.1,1.1l0,1.1v0.1l0,0.5l0,0.4l0,0.5v0.4l0,0.9l0,0.7
				l-0.1,0.6c0.1,1.6,0.2,2.7,0.2,3.3c0.1,0.3,0.1,0.7,0.1,1.4c0,0,0.1,0.2,0.1,0.5l0,0.5l0.1,2.1l0,0.2l-0.1,2l0,0.2l0.1,0.5
				l0.1,3.1c0,0.2-0.2,0.4-0.5,0.7h-0.1c-0.3-0.1-0.6-0.3-1-0.6c0-0.1-0.1-0.2-0.2-0.4v-0.7l-0.1-1.2l0-0.5
				c-0.1-0.5-0.1-0.9-0.1-1.2c0.1-0.5,0.1-1.2,0.1-2.3l-0.1-1.4l0-0.5v-0.4c-0.1-1.3-0.2-2.1-0.3-2.4l0-2.3l0.1-1.1v-0.8l0-0.9
				c0-0.2,0.1-0.4,0.1-0.6l-0.1-1v-0.4c0-2-0.1-3-0.2-3c-0.1-0.1-0.2-0.2-0.2-0.2l-0.2,0c-0.4,0-0.9-0.2-1.3-0.7
				c-0.1-0.2-0.2-0.3-0.2-0.5v-0.1c0.1-0.4,0.4-0.6,0.8-0.6h0.2l0.5,0.1h0.4L138.7,120.7z"/>
			<path class="st2" d="M141.7,166.5L141.7,166.5l0.1,0.2l-0.2,0.2l-0.1-0.1v-0.1L141.7,166.5z M146.9,120.7L146.9,120.7
				c0.3,0,0.7,0.4,1.1,1.1l0.1,0.7l0,0.2v0.2c0.1,0.6,0.2,1.4,0.2,2.3c0.2,1.2,0.2,2.1,0.2,2.5l0,0.7l0.1,0.5l0,0.6v0.6l0.1,1.4
				l0.1,1.1l0,0.4l0,0.4v0.5l0.1,0.6l0,0.3c0.1,1,0.1,1.6,0.2,1.8h0c0.1,0.5,0.1,1,0.2,1.3c0.1,0,0.1,0.5,0.1,1.5l0,0.3
				c0.1,0.4,0.2,0.7,0.2,1c0.1,0.2,0.2,0.5,0.2,0.6v0.4c0,0.1,0,0.3,0.1,0.5h0l0,0v0.1l0.2,1.2v0.2c0,0.3-0.2,0.5-0.5,0.7h-0.1
				c-0.2,0-0.5-0.2-0.8-0.5c-0.3-0.3-0.5-0.8-0.5-1.4l-0.1-1.2c-0.1-0.3-0.2-0.7-0.2-1.1l0,0h0c-0.2-0.9-0.3-1.7-0.3-2.3
				c-0.1-0.2-0.3-0.3-0.4-0.3l0,0l-0.1,0h-0.4l-0.9-0.1c-0.2,0.1-0.3,0.2-0.3,0.5l-0.1,0.5l0.1,0.4c0,0.8-0.1,1.3-0.1,1.4l0,0v0.4
				l-0.2,1.2c0,0.3,0,0.7-0.1,1.3v0.2l0.2,0.8v0c0,0.2-0.1,0.3-0.4,0.5c0,0.1-0.1,0.1-0.2,0.1l-0.6-0.2c-0.6-0.4-0.9-0.9-0.9-1.4
				V143l0,0c0.2-0.8,0.2-1.3,0.2-1.6h0c0.1-0.2,0.1-0.8,0.2-1.6l0-0.9l0-0.3h0l0,0v-0.4c0.1-0.7,0.2-1.3,0.2-1.6v-0.1l0,0l0,0
				l0.1-0.3l0-0.4v-0.5l0.1-0.7l0-0.4l0-1.2l0-0.3l0.1-0.6l0-0.5c0-0.1,0-0.2,0.1-0.2l0,0l0.2-0.9l0,0l0.1-0.9l-0.1-0.4
				c0-0.4,0.1-1.2,0.3-2.3c0-0.8,0-1.5,0.1-2.3l0-0.4l0.1-0.8l0-0.4c0-0.6,0.1-1.1,0.3-1.5l0,0c0.1-0.1,0.2-0.2,0.3-0.2l0.4-0.1
				l0.5,0.2l0.4-0.2C146.6,120.7,146.8,120.7,146.9,120.7z M146.2,125.1l0,0.5c-0.1,0.2-0.1,0.5-0.1,0.9c0,0,0,0.1,0,0.2h0l-0.1,0.4
				v0.2l0,0.2c-0.1,0.5-0.2,1.1-0.2,1.7v1.1c0,0.2,0,0.4-0.1,0.8h0c-0.1,0.4-0.2,0.9-0.2,1.4v0.9l0,0.1l0,0l0,0.4l0,1.3l0,0v0
				c0,0.5,0.2,0.7,0.5,0.7l0.8,0h0.1c0.2-0.1,0.3-0.3,0.3-0.4h0l0,0v0l0,0l0-0.1v-0.1l0-0.1h0l0,0v0l0,0v0l0,0h0l0-0.1l-0.1-1.5
				l0-0.5c-0.1-1.2-0.2-2.4-0.2-3.5l0-0.5l-0.1-0.5l0,0v-0.3l0,0l0.1-0.4c0-0.7-0.1-1-0.1-1l0,0l-0.1-0.8c-0.1-0.2-0.2-0.3-0.2-0.4
				l0-0.3l-0.1-0.2h-0.1C146.2,125,146.2,125,146.2,125.1z M149.8,128.9L149.8,128.9c0,0.2,0,0.3-0.1,0.3s-0.1-0.1-0.2-0.2
				c0-0.1,0.1-0.1,0.1-0.2h0.1L149.8,128.9z M150,144.8L150,144.8c-0.1-0.1-0.2-0.2-0.2-0.4l0,0c0.2,0,0.3,0,0.4,0l0,0
				c0.1,0.1,0.1,0.2,0,0.3l0,0l0.1,0.1v0.1l0,0l-0.1,0l0-0.1C150.2,144.8,150.1,144.8,150,144.8z M150.8,130.3L150.8,130.3l-0.1,0.2
				h0c-0.1,0-0.1-0.1-0.1-0.2l0.1-0.1L150.8,130.3L150.8,130.3z M150.8,129.4L150.8,129.4l-0.1,0.1l-0.1-0.1v-0.1l0.1-0.1h0.1
				C150.8,129.2,150.8,129.3,150.8,129.4z M151,128.1L151,128.1v0.2H151l0-0.1v-0.1L151,128.1L151,128.1z M151.1,145.6h0.1
				c0.1,0,0.1,0.1,0.1,0.2c0,0.1-0.1,0.2-0.2,0.2h0l-0.1-0.1C151,145.7,151,145.6,151.1,145.6z"/>
			<path class="st2" d="M152,120.9c0.2,0,0.4,0.1,0.7,0.3c0.3,0.4,0.5,0.7,0.5,0.8v0l0,0.5l0.1,0.7l-0.1,0.4
				c0.1,0.8,0.1,1.9,0.2,3.2l-0.1,1.1v0.3l-0.1,0.8l0,0.3l-0.1,0.8l0,0.4c0,0.4-0.1,1.2-0.2,2.5c0,0.2,0,0.6-0.1,1v0.7l0.1,1.5
				l-0.1,1.7c0.1,1.4,0.1,2.4,0.2,2.9c0.1,0.7,0.2,1.3,0.2,1.8c0.2,0.2,0.4,0.3,0.6,0.3h0.2c0.5,0,0.9-0.1,1.2-0.1v0l0,0h0.5l0,0
				l0,0h0c0.6,0.1,0.9,0.3,0.9,0.4c0.2,0.3,0.3,0.5,0.3,0.7v0.1c0,0.3-0.4,0.5-1.3,0.6l0,0l-0.8,0.1l-0.6,0h-0.2
				c-0.3,0-0.7,0.2-1.2,0.5l-0.2,0c-0.3,0-0.7-0.2-1.2-0.7c-0.2-0.2-0.2-0.4-0.2-0.6l0.1-0.7v-0.2c-0.3-1.4-0.4-2.8-0.5-4.3l0-0.6
				l0.1-1.6v-0.7l-0.1-1.3c0-0.8,0.1-1.6,0.2-2.2l0.1-0.4l0-0.2l0.1-2.5c0.1-0.9,0.1-1.8,0.1-2.7l0-1v-0.2l-0.1-0.8v-2.8
				c0-0.2,0-0.3,0.1-0.3l0,0v-0.4C151.5,121,151.7,120.9,152,120.9z"/>
			<path class="st2" d="M62.1,151.4c0.2,0,0.4,0.2,0.7,0.7c0.2,0.2,0.3,0.3,0.3,0.5v0.4l0,0l0,0v0.7l0.2,2.6h0l0,0.1
				c0.1,1.2,0.2,1.9,0.2,1.9l0,0l0,0.3v0.1l0,0.4l0,0.5v0.3l0,0.7l0,0.2c0,0.3-0.1,0.8-0.2,1.5c0,0.6,0.1,1.2,0.2,1.7v1l-0.1,0.9
				v0.2l0,0l0,0v0c0.1,0.5,0.1,1,0.1,1.5v0.4l-0.1,0.9v0.3l0.1,1.1v0.3c-0.1,1.1-0.2,2-0.2,2.8l0,0l0,0.4v0.5c0,0.4-0.1,0.8-0.4,1
				c0,0.1-0.1,0.1-0.2,0.2c-0.3-0.1-0.6-0.2-0.8-0.5c-0.3-0.3-0.5-0.7-0.5-1.1v-0.3l0.1-0.6l-0.1-0.6c0.1-0.7,0.1-1.1,0.2-1.3l0,0
				v-1.2l0-1.3l0.1-1h0l0,0v-0.1l-0.1-1.8l0-0.6l0-0.4v-0.1l0-0.7v-0.1c0-0.2-0.1-0.5-0.2-1h0l-0.1-0.7l0-0.2v-0.1
				c0-0.2-0.1-0.2-0.1-0.2h-0.1c-0.1,0.1-0.3,0.5-0.4,1.2l-0.2,1.4l-0.1,1.3c-0.2,0.5-0.3,0.9-0.3,1.2v0.2l0,0.2l-0.2,1.3
				c-0.1,0.2-0.2,0.7-0.3,1.6l-0.2,2.2h0l0,0v0.3l0,0v0h0c0.2,0.6,0.3,1.2,0.3,1.7v0c0,0.4-0.1,0.7-0.4,0.8h-0.2l0,0l0,0h0
				c-0.3,0-0.6-0.2-0.9-0.7c-0.2-0.3-0.3-0.5-0.3-0.7h0c-0.1-0.5-0.3-1.2-0.4-2.2h0c-0.2-1.4-0.4-2.5-0.6-3.2l0,0
				c-0.1-1-0.1-1.7-0.2-2.2l0-0.8l0-0.3c0-0.7-0.1-1.4-0.3-2.1l-0.2-2.8l0-0.3c-0.1-0.2-0.2-0.3-0.2-0.3H56c-0.1,0-0.2,0.4-0.4,1.1
				h0l0,0l-0.1,0.4l0.1,1.2c-0.1,0.3-0.1,0.8-0.1,1.3v0.1l0,0.1l0,0.2v0.2l0,0.3c0.1,0.7,0.2,1.4,0.4,2.2h0l0,0v0l0,0l0,0v0.4l0.3,2
				l-0.1,0.6c0.1,0.2,0.1,0.4,0.1,0.5L56,171h0l0,0v0.3l0,0l0,0v0l0.1,1v0.4l0.1,1.3l-0.1,0.5h0c-0.1,0.2-0.2,0.4-0.4,0.4l-0.2,0
				c-0.3,0-0.7-0.3-1-0.8c-0.1,0-0.2-0.5-0.2-1.5l0-0.3v-0.7l0-0.1h0l-0.1-0.4l0.1-0.6l0-0.6l0-0.5c-0.1-1-0.1-1.7-0.2-1.9h0
				c-0.1-0.2-0.1-0.6-0.2-1.4h0l-0.2-1.1h0l0-0.3l0-0.2l-0.1-0.7v-0.3l0.1-0.5h0l0,0V163l0.1-1.1l-0.1-0.8c0.1-0.4,0.2-0.7,0.2-1.1
				h0c0.1-0.1,0.1-0.5,0.1-1.2l0-0.1l0-0.2h0l0,0l0-0.3v-0.8l0-0.2l0-0.1l0-0.8l0-1.3l0-0.1h0l-0.1-0.2l0.1-0.3l0,0
				c0.1-0.4,0.1-0.8,0.2-1.2l0,0v-0.7l0,0l0,0v-0.1c0.1-0.6,0.3-0.9,0.5-0.9l0.2,0.1l0.3-0.1l0.7,0.1H56l0.3-0.1h0l0.4,0.3
				c0.4,0.4,0.6,0.8,0.6,1.2l0.1,2.1l0,0.5l0,0.4l0,0.2c0.1,0.3,0.2,1.1,0.4,2.4c0.1,0.2,0.2,0.9,0.3,2v0.1l0,0.2l0.1,1.6l0.2,1
				c0.1,0.2,0.1,0.3,0.2,0.3h0.1c0.2,0,0.3-0.5,0.4-1.4c0.2-0.2,0.2-0.4,0.2-0.5v-0.3c0.1-0.3,0.1-1.1,0.2-2.5
				c0.1-0.5,0.1-0.8,0.2-1.1l0-0.7c0.1-1.2,0.2-2,0.3-2.3v-0.3l0.1-0.7l0-0.2l0-0.3v-0.6c0-0.5,0.1-0.9,0.4-1.1
				c0-0.1,0.2-0.2,0.6-0.3v0l0,0h0.1l0,0l0.3,0L62.1,151.4z"/>
			<path class="st2" d="M66.2,151.6c0.3,0,0.5,0.2,0.7,0.7c0.1,0.1,0.2,0.3,0.2,0.9h0c0.1,0.2,0.1,0.4,0.1,0.5v0.3l-0.1,0.6v0.4
				c-0.1,0.3-0.1,0.7-0.1,1c0.1,0.3,0.1,0.6,0.1,1.1l0,0.1h0l0,0.2l0,0.2v0.1l-0.1,1.3c0,0.3,0,0.6,0,0.9l0,0c0,0.2,0.1,0.5,0.2,0.8
				h0c0.1,0.2,0.1,0.5,0.1,0.9l0,0.3l0.1,0.5l-0.1,2.3l0,1.3l0,0.2c0,0.1,0,0.3,0,0.6v0.4c0,0.2,0,0.3,0.1,0.4l0,0l0,1.3v0.2l0,0v0
				h0c0.1,0.2,0.2,0.7,0.2,1.5c0,0.7-0.1,1.1-0.1,1.3l0.1,1.2l0,0.2v0.3l0,0.4c0,0.3-0.2,0.6-0.5,0.9h-0.1c-0.5-0.1-0.7-0.2-0.7-0.3
				l0-0.1c-0.3-0.3-0.5-0.5-0.5-0.7v-0.7l0-0.7l0-0.4l0-1.3v-0.4c0-0.3-0.1-1.3-0.3-2.7l-0.1-1v-0.1l0,0l0,0v-0.7l0-0.9l0-0.7l0-0.4
				l0,0v-0.6l0.1-0.7c-0.1-1.1-0.2-1.8-0.3-2.3l0-0.1h0c-0.1-0.3-0.1-0.7-0.1-1.4h0l0,0v-0.4l0,0l0,0c0.1-0.8,0.1-1.4,0.1-2l0,0
				c0.1-0.8,0.2-1.3,0.2-1.4v-0.1l0-0.2l0-0.8l0.1-1.3c0-0.2,0.2-0.4,0.5-0.7l0,0h0l0.1,0L66.2,151.6z M65.5,171.3L65.5,171.3
				L65.5,171.3l0.2,0L65.5,171.3L65.5,171.3z M66.7,175.1L66.7,175.1c0.1-0.2,0.2-0.2,0.3-0.2c0.2,0.1,0.2,0.1,0.2,0.2
				c0,0.1-0.1,0.2-0.3,0.2C66.8,175.3,66.7,175.2,66.7,175.1z M67.1,176.3L67.1,176.3c0-0.1,0.1-0.2,0.2-0.2h0
				c0.2,0,0.2,0.1,0.2,0.2v0l-0.1,0.1h-0.1C67.2,176.5,67.1,176.4,67.1,176.3z M67.3,169.9L67.3,169.9l0.2,0l0,0l0,0.1L67.3,169.9
				L67.3,169.9z M67.7,174.9L67.7,174.9c0-0.1,0.1-0.1,0.2-0.1c0.2,0,0.2,0.1,0.2,0.2l-0.1,0.1h-0.2C67.7,175.1,67.7,175,67.7,174.9
				z M67.8,173.5l0.2-0.1h0c0.2,0,0.3,0.1,0.3,0.2c0,0.1-0.1,0.2-0.2,0.2H68C67.9,173.9,67.8,173.8,67.8,173.5z M68.1,171.4
				L68.1,171.4l0.1-0.1h0l0.1,0.1v0l-0.1,0.1L68.1,171.4L68.1,171.4z M68.2,176.1L68.2,176.1c0-0.2,0.1-0.2,0.2-0.2s0.2,0.1,0.3,0.2
				c0,0.1-0.1,0.1-0.2,0.2h-0.2L68.2,176.1z M68.6,169.6L68.6,169.6l0.1-0.2h0c0.1,0,0.2,0.1,0.2,0.2l-0.1,0.1h-0.1L68.6,169.6z
				 M70,170L70,170L70,170h0.1v0L70,170L70,170z"/>
			<path class="st2" d="M69.5,151.3c0.2,0,0.4,0.1,0.7,0.3c0.3,0.4,0.5,0.7,0.5,0.8v0l0,0.5l0.1,0.7l-0.1,0.4
				c0.1,0.8,0.1,1.9,0.2,3.2l-0.1,1.1v0.3l-0.1,0.8l0,0.3l-0.1,0.8l0,0.4c0,0.4-0.1,1.2-0.2,2.5c0,0.2,0,0.6-0.1,1v0.7l0.1,1.5
				l-0.1,1.7c0.1,1.4,0.1,2.4,0.2,2.9c0.1,0.7,0.2,1.3,0.2,1.8c0.2,0.2,0.4,0.3,0.6,0.3h0.2c0.5,0,0.9-0.1,1.2-0.1v0l0,0h0.5l0,0
				l0,0h0c0.6,0.1,0.9,0.3,0.9,0.4c0.2,0.3,0.3,0.5,0.3,0.7v0.1c0,0.3-0.4,0.5-1.3,0.6l0,0l-0.8,0.1l-0.6,0h-0.2
				c-0.3,0-0.7,0.2-1.2,0.5l-0.2,0c-0.3,0-0.7-0.2-1.2-0.7c-0.2-0.2-0.2-0.4-0.2-0.6l0.1-0.7v-0.2c-0.3-1.4-0.4-2.8-0.5-4.3l0-0.6
				l0.1-1.6v-0.7l-0.1-1.3c0-0.8,0.1-1.6,0.2-2.2l0.1-0.4l0-0.2l0.1-2.5c0.1-0.9,0.1-1.8,0.1-2.7l0-1v-0.2l-0.1-0.8v-2.8
				c0-0.2,0-0.3,0.1-0.3l0,0v-0.4C69,151.4,69.2,151.3,69.5,151.3z"/>
			<path class="st2" d="M76.4,151.4c0.1,0,0.3,0.2,0.5,0.5c0,0.1,0.1,0.1,0.2,0.2l0.1,1l-0.1,1.1l0,0.3l-0.1,1.8
				c0.1,0.3,0.2,0.9,0.2,1.8v0c0,0.1,0.1,0.1,0.2,0.2h0c0.2,0,0.3-0.2,0.5-0.7c0.5-1,0.7-1.6,0.7-1.8c0.3-0.5,0.5-1,0.6-1.3l0.3-1
				l0.5-1.5c0.2-0.2,0.4-0.3,0.6-0.3h0.2c0.3,0,0.6,0.3,0.9,1v0.2c-0.2,0.6-0.4,1.1-0.6,1.5c-0.3,0.9-0.5,1.6-0.7,2.1
				c-0.1,0.6-0.3,1-0.4,1.2l-0.6,1.5c-0.1,0.1-0.3,0.5-0.4,1.1l-0.2,0.9h0l0,0v0.3l0,0v0h0c0.3,0.8,0.5,1.4,0.6,1.9l0.6,1.3
				c0.4,0.9,0.8,2,1.2,3.2c0.2,1.5,0.5,2.6,0.8,3.4l0.2,1.4c0.3,0.6,0.4,1.1,0.2,1.6c-0.1,0.4-0.3,0.6-0.6,0.6h0
				c-0.4-0.1-0.7-0.3-0.8-0.5c-0.2-0.6-0.4-1-0.5-1.5l-0.2-1h0c-0.1-0.7-0.4-1.4-0.7-2.2c-0.1-0.3-0.2-0.8-0.2-1.5
				c-0.3-1.1-0.6-2.1-1-3.1c-0.3-0.7-0.5-1.1-0.6-1.1h0c-0.2,0-0.3,0.4-0.3,1.1l0,0.7l0,0.3l0.1,2l0,5.2c0.1,0.6,0.1,1.1,0.1,1.4
				v0.2c-0.1,0.3-0.3,0.4-0.6,0.4l0,0h0c-0.3-0.1-0.6-0.2-0.8-0.4c-0.4-0.4-0.6-0.8-0.6-1.2l0.1-1.2l0-0.8V171
				c0.1-0.3,0.1-0.8,0.1-1.4l-0.1-0.6l0.1-0.6l0-1v-0.6l0-1.1v-0.2l0.1-1.5l0-0.3l0-0.6v-0.1l-0.1-0.8v-0.5l0-0.8l0.1-1.2l-0.1-0.5
				v-0.9l0-0.5l-0.1-0.7l0-0.4l0-0.6l0-0.7v-0.2l0-0.1l0-0.1v-1.3c0.1-1.3,0.2-1.9,0.2-1.9C75.7,151.5,76,151.4,76.4,151.4z
				 M77.7,176.2L77.7,176.2v0.2V176.2L77.7,176.2L77.7,176.2z M77.8,170.2L77.8,170.2l0,0.1l0,0.1l-0.1-0.1L77.8,170.2z M79.3,175.1
				l0.2,0.1l0.1,0.1l0,0.1l-0.2,0.3l-0.4-0.1l-0.1-0.2l0-0.2L79.3,175.1z M81.8,176.9L82,177c0,0.1,0,0.2,0,0.4
				c-0.1,0.1-0.2,0.1-0.5,0.1c-0.1-0.2-0.2-0.3-0.1-0.5L81.8,176.9z M82.3,172.8L82.3,172.8l0.2,0.2l-0.2,0.1l-0.1,0L82.3,172.8z
				 M83.3,176.1h0.4v0.2h-0.4V176.1z"/>
			<path class="st2" d="M91.9,151.4c0.9,0,1.6,0.1,2.1,0.2c0.9,0.3,1.6,0.9,2.1,1.8c0.1,0.3,0.2,0.9,0.3,1.7c0,0,0.1,0.3,0.1,0.9
				c0,0.1,0.1,0.7,0.2,1.8c0.1,0,0.1,0.7,0.2,2l0.1,0.9l-0.1,0.9v0.3c-0.1,0.7-0.2,1.5-0.2,2.4c-0.1,0.4-0.1,0.7-0.2,1
				c-0.1,0.4-0.3,0.8-0.4,1c0,0.1-0.1,0.1-0.2,0.2c-0.1,0.2-0.4,0.5-0.9,0.7c0,0.1-0.4,0.2-1.2,0.2l-1.1-0.1
				c-0.2,0.1-0.4,0.3-0.4,0.6v0.5l-0.1,0.7v0.2c0.1,0.6,0.1,1.4,0.1,2.2l-0.1,0.8c0,0.3,0.1,1,0.2,2v0.3c0,0.5-0.1,0.9-0.4,1l-0.2,0
				h-0.1c-0.2,0-0.5-0.2-0.9-0.5c-0.2-0.2-0.4-0.6-0.4-1.3c-0.1-0.3-0.1-0.7-0.1-1l0-0.8l-0.1-1.6c0-0.3,0-0.4,0.1-0.4l-0.1-0.6
				c0-0.4,0-0.8,0.1-1.3l-0.1-0.9v-0.3l0-0.4l0-0.4l0-0.5l0.4-1.8v-0.1l0-1.3v-0.2l0-0.8l0-0.3l0,0v0l-0.2-1.4l0-0.4l-0.1-2.3
				l0.1-0.6c-0.1-0.6-0.2-1.4-0.2-2.4l-0.1-1.2l-0.2-0.7c0-0.3,0.3-0.5,0.9-0.7H91.9z M92.3,154c0.3,3,0.4,5,0.4,5.8l0.1,1.6l0,0.5
				l0,0.9l0,0v0l0.1,0.5v0.5c0,0.3-0.1,0.8-0.2,1.6c0,0.2,0.1,0.3,0.4,0.3h0.6c0.7-0.1,1-0.2,1-0.4c0.1,0,0.2-0.6,0.3-1.7
				c0-0.3,0.1-0.6,0.1-0.8h0l0,0v-0.3l0-0.3c0.1-0.6,0.2-1,0.2-1.2c-0.1-0.6-0.1-1.2-0.1-1.9v-0.6c-0.2-0.5-0.2-1-0.2-1.4l0,0l0-0.1
				l0,0l-0.1-1c-0.1-0.8-0.3-1.6-0.4-2.4c-0.1-0.3-0.4-0.5-0.8-0.5l-0.7,0h-0.1C92.5,153,92.3,153.4,92.3,154z"/>
			<path class="st2" d="M98.9,151.6l0.7,0h0.6c0.3,0,0.5,0,0.8,0.1v0c0.7,0.1,1.3,0.3,1.7,0.5c0.8,0.5,1.2,1,1.4,1.5l0,0.7v0.6
				l0,1.1c-0.1,0.1-0.1,0.3-0.1,0.5v0.2c0.1,0.2,0.1,0.6,0.1,1c0,0.3-0.1,0.7-0.2,1.1v0.3c0,0.3,0,0.5,0.1,0.7l0,0v0l0,0.4l0,0.7
				c0,0.4-0.1,0.9-0.2,1.3c0,0.4-0.1,0.7-0.1,0.9h0c-0.3,0.3-0.6,0.6-0.8,0.9c0,0.1,0,0.1-0.1,0.3l0,0v0l-0.1,0.4
				c0,0.2,0.3,0.7,0.8,1.7c0.5,1.6,0.7,2.4,0.7,2.5v0.4l-0.1,0.7l0,0.4l-0.1,0.6v0.2l0.1,0.7v0l0,0.1l0.1,0.5l-0.1,0.6v0l0,1
				c0,0.2,0.1,0.7,0.2,1.3l0.1,0.4v0c-0.1,0.3-0.2,0.4-0.4,0.4h-0.1l0,0h0l-0.1,0c-0.4,0-0.8-0.4-1.3-1.2c-0.1-0.2-0.2-0.8-0.2-1.9
				v0l0-0.5V172l-0.1-0.8l0.1-1.8c0-0.6-0.2-1.4-0.6-2.6c-0.2-0.7-0.4-1.1-0.7-1.1h-0.5c-0.3,0-0.4,0.2-0.5,0.5v0.1l0.1,1l0,0.6
				l-0.1,0.9v0.4l0,0l-0.1,0.5l0,0.4c0,0.7,0,1.3,0,1.8l0.1,0.6l0,0.6l0,0.7l0,0l0,0l0,0.3c-0.1,0.8-0.3,1.3-0.6,1.3h-0.2
				c-0.2-0.1-0.4-0.2-0.7-0.4c-0.3-0.3-0.4-0.5-0.4-0.7v-0.1l0-1.2l-0.1-0.6v-0.3l0-0.9l0-0.3l0-0.3l-0.1-0.6l0.2-2.1l-0.2-1.1
				c0-0.4,0-1,0.1-1.7l0-1.2l0.1-0.5l0-0.3l0-0.7l0-0.4V162l0-0.2c0-0.6-0.1-1.3-0.2-2.3l0.1-0.7l0-0.7c-0.1-0.5-0.1-1.1-0.2-1.8
				l-0.1-1.5l0-0.7l0-0.4c0-1,0.1-1.5,0.2-1.5C98.4,151.8,98.6,151.6,98.9,151.6z M99.8,153.7l0.1,1.4v0.5l0.1,1.9l0,0.7
				c0.1,0.1,0.1,1,0.1,2.5c0.1,0.3,0.1,0.5,0.1,0.7l0,0.5l0.1,0.5v0.1l-0.1,0.7c0,0.4,0.1,0.5,0.3,0.5h0.1c0.4,0,0.8-0.3,1.3-0.8
				c0.2-0.5,0.2-1,0.2-1.4v0l0,0l0,0v0c0.1-0.1,0.1-0.6,0.1-1.5l0-0.7l0.1-0.9l0-0.6l0-1.5l-0.2-0.4l0.2-1v-0.2
				c0-0.3-0.1-0.5-0.2-0.8c-0.2-0.2-0.6-0.3-1.4-0.3h-0.1C100.1,153.3,99.8,153.4,99.8,153.7z"/>
			<path class="st2" d="M108.3,151.2L108.3,151.2c1.1,0,2,0.5,2.7,1.4c0.3,0.3,0.4,0.9,0.4,1.6l0,0.4h0c0,0.2,0.1,1.1,0.2,2.6l0,0.4
				v0.2l0.1,0.6h0l0,0v0.1l0.1,0.8l-0.1,0.7l0.1,1.4v0.1c0,0.2-0.1,0.6-0.2,1.2l0,0.2l0.1,1.7h0l0.1,0.5c-0.1,0.2-0.1,1-0.1,2.3
				l0,0.5l-0.1,1.2l0.1,1.2v0l0,0l0,0.1l0.1,0.7l-0.1,0.7v0l0,0l0,0l-0.3,1.3c-0.1,0.3-0.4,0.7-0.7,1c-0.1,0.2-0.4,0.4-0.8,0.6
				l-0.5,0.4c-0.2,0.1-0.3,0.1-0.4,0.1h-0.3c-0.8,0-1.7-0.6-2.5-1.9c-0.1-0.1-0.2-0.4-0.3-0.8h0l-0.3-1.1c0-0.3,0-0.6-0.1-1l0-0.1
				l0-0.8h0l0,0v-0.1l-0.1-1.1l0-1.1l-0.1-1.3v-0.5l0.1-1.3l-0.2-1.3c0-0.8,0-1.2,0.1-1.4l-0.1-2.3l0-0.4l0-0.9l0-0.6l0-0.9v-0.2
				c0.1-1,0.1-1.7,0.2-2l0.2-0.7h0c0.2-0.4,0.4-0.8,0.5-1.3c0.4-0.6,0.8-0.9,1.2-0.9C107.8,151.3,108.1,151.2,108.3,151.2z
				 M107.3,155.4l0,0.1l-0.1,1.2v0.9l0.1,0.4v0.1l-0.1,0.4l0,0.6l-0.1,0.6c0,0.7,0.1,1.1,0.1,1.2l0,1.2v0.3l0,0.3l0.2,1.7v0.1
				l-0.1,1.4l0,0.5l0,0.2c0,0.2,0.1,0.5,0.1,1l0,0.5l0.1,1.2v0.8c0,0.7,0.1,1.4,0.2,1.9c0.1,0,0.1,0.4,0.2,1.1
				c0,0.1,0.1,0.2,0.4,0.4h0.4c0.3-0.1,0.6-0.4,0.9-1c0.2-0.3,0.2-0.6,0.2-0.7v-0.6c0-1,0-1.6-0.1-1.7l0,0l0-0.3v-0.1
				c0-0.5,0-0.8,0.1-1.2v0l-0.1-1v-0.2c0-0.7,0.1-1.1,0.1-1.1l0,0v-0.1l0-0.1l0,0h0c-0.1-0.1-0.1-0.8-0.2-2c0-0.9,0.1-1.4,0.2-1.6
				l0,0l0-0.2l0-0.7l0-0.3l0,0l0,0h0l0,0l0-0.4l0-0.2h0l0.1-0.3l-0.1-0.2h0l-0.2-1.9l0-0.6l0-1.1h0l0,0v0l-0.2-1.2l0-0.3
				c0-0.8-0.2-1.2-0.7-1.2c-0.7,0.1-1.1,0.2-1.1,0.4c-0.4,0.6-0.5,1.1-0.5,1.7L107.3,155.4z"/>
			<path class="st2" d="M114.8,151l0.2,0c0.6,0,1.4,0.3,2.4,0.8c0.5,0.2,0.9,0.6,1.4,1.1c0.2,0.3,0.4,0.6,0.5,0.9
				c0.1,0.1,0.1,0.6,0.2,1.4v0l-0.1,0.8l0,0.3c0,0.4-0.1,0.8-0.1,1.2l0,1.2l0,0.3c0.1,0.6,0.1,1.3,0.1,2.3l0,0.2l-0.1,1
				c0,0.1,0,0.6,0,1.4v0.1l-0.1,0.5l0.2,2.2l0,0.3l-0.2,0.9c0.1,0.4,0.1,1.2,0.1,2.4l-0.1,0.9l0,0.1l0,1.2c0,0.3-0.2,1-0.5,1.9
				c-0.2,0.2-0.4,0.4-0.7,0.7c-0.6,0.4-1.1,0.6-1.3,0.6c-0.1,0.1-0.6,0.1-1.7,0.1c0,0-0.1,0-0.2,0v0c-0.2,0.1-0.3,0.1-0.5,0.1
				c-0.3,0-0.5-0.2-0.8-0.7c-0.2-0.3-0.4-0.6-0.4-0.8c0.1-0.6,0.2-1,0.3-1.4c-0.1-0.2-0.1-0.3-0.1-0.4l0-0.9c0-0.5,0-0.7,0-0.7
				l0-0.1l0-0.9c0-1.1,0-1.8-0.1-2.1l0-0.3c0-0.7,0-1.3-0.1-1.9l0-0.2v-0.9l0.1-0.4c0-0.2-0.1-1-0.1-2.3l0.1-1.6l0.1-2.3l-0.1-1.1
				l0.1-0.6c-0.1-0.3-0.2-0.9-0.2-2c0,0,0-0.4,0-1.1c-0.3-0.5-0.5-0.9-0.6-1.1c0.2-0.5,0.5-0.7,0.8-0.7L114.8,151z M115,153.5
				c0,0.7,0,1.3,0.1,1.7l-0.1,0.5c0.1,0.3,0.1,0.9,0.1,2c0,0.4,0.1,0.9,0,1.5l0,0.4l0,0.4l-0.1,0.8l0,0.2l-0.1,0.8l0.1,0.9l0,0.3
				l0,1.7l-0.1,0.7l0.1,0.8l-0.1,0.4l0.1,0.7l0,0.2v0.2l0.1,2.4l-0.1,1.1v0.1l0.1,2.3l0,0.3c0,0.3,0.1,0.4,0.4,0.4l0.2,0
				c0.5,0,0.9-0.2,1.3-0.5c0.2-0.1,0.3-0.7,0.4-1.7l0-0.2l-0.1-0.6l0.1-1.8l0-0.9l0-0.3l0-0.4l0.1-0.6v-0.1c0-0.4,0-1-0.1-1.6l0-0.3
				l0-0.8l0-1l0-0.7l0.1-0.5l-0.1-2.6l0-0.3l0-0.4l0-0.9l0-0.4l0-0.3l0.1-0.8v-0.1l0.1-0.6l0-0.4l0-0.6c0-0.4,0-0.9-0.2-1.3
				c-0.3-0.5-0.8-0.8-1.6-0.8c-0.5,0-0.7,0.1-0.7,0.4L115,153.5z"/>
			<path class="st2" d="M121.9,151.2c0.5,0,0.9,0.4,1.1,1.1l-0.1,0.8v1.3c0,0.3,0,0.5,0,0.7l0,1.5v0.5l0,1.4l0,0.2l0,0.3v0.4
				l-0.1,1.6l0,1.7l0,0.8l0,0.5l-0.1,1.3c0,0.7,0.1,1.5,0.4,2.3l0.1,0.4c0,0.5,0,1-0.1,1.4l0.1,0.4l0,0.7l0.1,1.1l0,0.4
				c0.1,1.3,0.2,2,0.4,2c0.1,0.1,0.2,0.1,0.4,0.1h0.2c0.4,0,0.8-0.3,1.2-1l0.2-1.3l0-0.1l-0.2-1.8l0-0.3l-0.1-1.3
				c0,0-0.1-0.2-0.1-0.5l0-0.3l-0.1-1.2l0-0.9c-0.1-0.4-0.1-1.2-0.1-2.3c0-0.6,0-1.6,0-2.9c0.1-1.1,0.2-1.9,0.3-2.5
				c0.1,0,0.1-0.7,0-2.2c0,0,0-0.3,0.1-0.8c0.1,0,0.1-0.8-0.1-2.5c0.1-0.3,0.2-0.4,0.2-0.4l0.1,0l0.2,0l0.3-0.1h0
				c0.2,0,0.4,0.2,0.6,0.5c0.2,0.2,0.3,0.4,0.3,0.8c0.2,1.2,0.2,1.9,0.1,2.1l0.1,2.2c-0.1,0.6-0.2,1.2-0.3,1.7c0,0.5,0,0.9,0,1.4
				v0.5c-0.1,0.3-0.1,1.2-0.1,2.9l0.1,1.9l0,0.5l0,1v0.2c0.1,1.5,0.2,2.5,0.2,2.9h0l0,0v0l0.1,1c0,1,0,1.7-0.1,2.1
				c-0.2,0.3-0.3,0.6-0.3,0.8c-0.1,0.2-0.3,0.5-0.5,0.7c-0.1,0.2-0.3,0.5-0.8,0.7c-0.3,0.2-0.6,0.4-1,0.4c-0.7,0-1-0.1-1-0.1v0
				c-0.7-0.2-1.2-0.5-1.5-0.9c-0.4-0.4-0.6-0.9-0.6-1.7c-0.1-0.1-0.1-0.6-0.1-1.5l0.1-0.5v0l0,0l0,0v-0.5l-0.1-1
				c0-0.2,0-0.4,0.1-0.7l0-0.3l0-0.5l-0.3-1.4l-0.1-1.7c0.1-0.6,0.1-1.2,0.1-1.7V163l0-1.4l0.1-0.8v0l-0.1-0.9v-0.1l0.1-0.9v-1.1
				l0-0.7l0-0.6l0-1.3l0-0.4l0-1.4v0l0.1-0.7V152C121.2,151.5,121.5,151.2,121.9,151.2z"/>
			<path class="st2" d="M129.8,175.2c-0.3-0.3-0.5-0.6-0.5-0.8c-0.2-0.3-0.2-0.6-0.2-0.9c-0.2-0.8-0.2-1.6-0.2-2.5l0-0.6l-0.1-1.2
				l0-0.4l0-0.3l0-1.4v-0.7l-0.1-1.7l0.1-0.6l-0.1-0.6l0.1-0.7v-1l0-0.4l0-0.5l0.1-2l-0.1-0.6l0.1-2.5l0-0.3l0-0.4l0-0.9v-0.3l0-0.4
				c0.6-1.5,1.6-2.3,2.8-2.3c0.2,0.1,0.4,0.1,0.4,0.2c0.4,0.1,0.7,0.2,0.7,0.2c0.5,0.2,0.9,0.4,1.1,0.7c0.4,0.3,0.6,0.6,0.6,0.8
				c0.3,0.5,0.4,1.1,0.4,2l0,0.2l0,0.3v0.2c-0.2,1.7-0.3,2.8-0.3,3.4v0.7l0,0.1c-0.3,0.7-0.7,1.1-0.9,1.1h0
				c-0.6-0.1-0.8-0.3-0.8-0.7v-1.1c0.1-1.6,0.2-2.6,0.3-2.9l0-0.1l0,0v-0.4l0,0l0,0V156l0,0c0,0,0.1-0.1,0.1-0.4c0-0.3,0-0.6-0.1-1
				c0-0.4-0.3-0.8-0.9-1.1v0l-0.8-0.3l-0.2,0.1c-0.2,0-0.3,0.4-0.4,1.1c0.1,0.3,0.1,0.6,0.1,0.7s0,0.4-0.1,0.7l0.1,1
				c0,0.1-0.1,0.3-0.1,0.5v0.1l0,1.2l0.1,0.4c0,0.3,0,0.7-0.1,1l0,1.2c0,0.6,0,1-0.1,1.3l0.1,0.4l-0.1,0.8l0.1,1.7v0.5l0,0.7l0.1,1
				v0.8l0,1l0.1,0.4l-0.1,0.6l0.2,2.5c0.1,0.5,0.2,0.8,0.5,0.8c0.2,0,0.3,0,0.3-0.1c0.2,0,0.4-0.5,0.6-1.5c0-0.5,0.1-0.9,0.1-1.2
				l0.2-1.8c0-1,0.1-1.5,0.3-1.6c0.4-0.5,0.8-0.8,1.1-0.8h0l0,0c0.4,0.2,0.6,0.7,0.6,1.5c-0.1,1.9-0.2,3-0.3,3.4
				c0,0.5-0.1,1-0.2,1.3c0,0.3-0.4,0.8-1.1,1.5c-0.8,0.6-1.5,0.9-1.9,0.9h-0.3C130.5,175.6,130.2,175.5,129.8,175.2z"/>
			<path class="st2" d="M138.1,151.1h0.2c0.1,0,0.4,0.1,0.9,0.2c1.2,0,1.8,0.1,2.1,0.4c0.4,0.4,0.6,0.7,0.6,0.9
				c0,0.2-0.3,0.4-0.8,0.5l-1.2-0.1c-0.1,0.1-0.2,0.1-0.3,0.2v0.9c0,0.5,0,0.8,0.1,1.1l0,1.1v0.1l0,0.5l0,0.4l0,0.5v0.4l0,0.9l0,0.7
				l-0.1,0.6c0.1,1.6,0.2,2.7,0.2,3.3c0.1,0.3,0.1,0.7,0.1,1.4c0,0,0.1,0.2,0.1,0.5l0,0.5l0.1,2.1l0,0.2l-0.1,2l0,0.2l0.1,0.5
				l0.1,3.1c0,0.2-0.2,0.4-0.5,0.7h-0.1c-0.3-0.1-0.6-0.3-1-0.6c0-0.1-0.1-0.2-0.2-0.4v-0.7l-0.1-1.2l0-0.5
				c-0.1-0.5-0.1-0.9-0.1-1.2c0.1-0.5,0.1-1.2,0.1-2.3l-0.1-1.4l0-0.5v-0.4c-0.1-1.3-0.2-2.1-0.3-2.4l0-2.3l0.1-1.1v-0.8l0-0.9
				c0-0.2,0.1-0.4,0.1-0.6l-0.1-1V156c0-2-0.1-3-0.2-3c-0.1-0.1-0.2-0.2-0.2-0.2l-0.2,0c-0.4,0-0.9-0.2-1.3-0.7
				c-0.1-0.2-0.2-0.3-0.2-0.5v-0.1c0.1-0.4,0.4-0.6,0.8-0.6h0.2l0.5,0.1h0.4L138.1,151.1z"/>
			<path class="st2" d="M143.7,151.6c0.3,0,0.5,0.2,0.7,0.7c0.1,0.1,0.2,0.3,0.2,0.9h0c0.1,0.2,0.1,0.4,0.1,0.5v0.3l-0.1,0.6v0.4
				c-0.1,0.3-0.1,0.7-0.1,1c0.1,0.3,0.1,0.6,0.1,1.1l0,0.1h0l0,0.2l0,0.2v0.1l-0.1,1.3c0,0.3,0,0.6,0,0.9l0,0c0,0.2,0.1,0.5,0.2,0.8
				h0c0.1,0.2,0.1,0.5,0.1,0.9l0,0.3l0.1,0.5l-0.1,2.3l0,1.3l0,0.2c0,0.1,0,0.3,0,0.6v0.4c0,0.2,0,0.3,0.1,0.4l0,0l0,1.3v0.2l0,0v0
				h0c0.1,0.2,0.2,0.7,0.2,1.5c0,0.7-0.1,1.1-0.1,1.3l0.1,1.2l0,0.2v0.3l0,0.4c0,0.3-0.2,0.6-0.5,0.9h-0.1c-0.5-0.1-0.7-0.2-0.7-0.3
				l0-0.1c-0.3-0.3-0.5-0.5-0.5-0.7v-0.7l0-0.7l0-0.4l0-1.3v-0.4c0-0.3-0.1-1.3-0.3-2.7l-0.1-1v-0.1l0,0l0,0v-0.7l0-0.9l0-0.7l0-0.4
				l0,0v-0.6l0.1-0.7c-0.1-1.1-0.2-1.8-0.3-2.3l0-0.1h0c-0.1-0.3-0.1-0.7-0.1-1.4h0l0,0v-0.4l0,0l0,0c0.1-0.8,0.1-1.4,0.1-2l0,0
				c0.1-0.8,0.2-1.3,0.2-1.4v-0.1l0-0.2l0-0.8l0.1-1.3c0-0.2,0.2-0.4,0.5-0.7l0,0h0l0.1,0L143.7,151.6z M143.1,171.3L143.1,171.3
				L143.1,171.3l0.2,0L143.1,171.3L143.1,171.3z M144.2,175.1L144.2,175.1c0.1-0.2,0.2-0.2,0.3-0.2c0.2,0.1,0.2,0.1,0.2,0.2
				c0,0.1-0.1,0.2-0.3,0.2C144.3,175.3,144.2,175.2,144.2,175.1z M144.6,176.3L144.6,176.3c0-0.1,0.1-0.2,0.2-0.2h0
				c0.2,0,0.2,0.1,0.2,0.2v0l-0.1,0.1h-0.1C144.7,176.5,144.6,176.4,144.6,176.3z M144.8,169.9L144.8,169.9l0.2,0l0,0l0,0.1
				L144.8,169.9L144.8,169.9z M145.2,174.9L145.2,174.9c0-0.1,0.1-0.1,0.2-0.1c0.2,0,0.2,0.1,0.2,0.2l-0.1,0.1h-0.2
				C145.3,175.1,145.2,175,145.2,174.9z M145.3,173.5l0.2-0.1h0c0.2,0,0.3,0.1,0.3,0.2c0,0.1-0.1,0.2-0.2,0.2h-0.2
				C145.4,173.9,145.3,173.8,145.3,173.5z M145.6,171.4L145.6,171.4l0.1-0.1h0l0.1,0.1v0l-0.1,0.1L145.6,171.4L145.6,171.4z
				 M145.7,176.1L145.7,176.1c0-0.2,0.1-0.2,0.2-0.2c0.2,0,0.2,0.1,0.3,0.2c0,0.1-0.1,0.1-0.2,0.2h-0.2L145.7,176.1z M146.1,169.6
				L146.1,169.6l0.1-0.2h0c0.1,0,0.2,0.1,0.2,0.2l-0.1,0.1h-0.1L146.1,169.6z M147.5,170L147.5,170L147.5,170h0.1v0L147.5,170
				L147.5,170z"/>
			<path class="st2" d="M148.9,151.2L148.9,151.2c1.1,0,2,0.5,2.7,1.4c0.3,0.3,0.4,0.9,0.4,1.6l0,0.4h0c0,0.2,0.1,1.1,0.2,2.6l0,0.4
				v0.2l0.1,0.6h0l0,0v0.1l0.1,0.8l-0.1,0.7l0.1,1.4v0.1c0,0.2-0.1,0.6-0.2,1.2l0,0.2l0.1,1.7h0l0.1,0.5c-0.1,0.2-0.1,1-0.1,2.3
				l0,0.5l-0.1,1.2l0.1,1.2v0l0,0l0,0.1l0.1,0.7l-0.1,0.7v0l0,0l0,0l-0.3,1.3c-0.1,0.3-0.4,0.7-0.7,1c-0.1,0.2-0.4,0.4-0.8,0.6
				l-0.5,0.4c-0.2,0.1-0.3,0.1-0.4,0.1h-0.3c-0.8,0-1.7-0.6-2.5-1.9c-0.1-0.1-0.2-0.4-0.3-0.8h0l-0.3-1.1c0-0.3,0-0.6-0.1-1l0-0.1
				l0-0.8h0l0,0v-0.1l-0.1-1.1l0-1.1l-0.1-1.3v-0.5l0.1-1.3l-0.2-1.3c0-0.8,0-1.2,0.1-1.4l-0.1-2.3l0-0.4l0-0.9l0-0.6l0-0.9v-0.2
				c0.1-1,0.1-1.7,0.2-2l0.2-0.7h0c0.2-0.4,0.4-0.8,0.5-1.3c0.4-0.6,0.8-0.9,1.2-0.9C148.5,151.3,148.7,151.2,148.9,151.2z
				 M148,155.4l0,0.1l-0.1,1.2v0.9l0.1,0.4v0.1l-0.1,0.4l0,0.6l-0.1,0.6c0,0.7,0.1,1.1,0.1,1.2l0,1.2v0.3l0,0.3l0.2,1.7v0.1
				l-0.1,1.4l0,0.5l0,0.2c0,0.2,0.1,0.5,0.1,1l0,0.5l0.1,1.2v0.8c0,0.7,0.1,1.4,0.2,1.9c0.1,0,0.1,0.4,0.2,1.1
				c0,0.1,0.1,0.2,0.4,0.4h0.4c0.3-0.1,0.6-0.4,0.9-1c0.2-0.3,0.2-0.6,0.2-0.7v-0.6c0-1,0-1.6-0.1-1.7l0,0l0-0.3v-0.1
				c0-0.5,0-0.8,0.1-1.2v0l-0.1-1v-0.2c0-0.7,0.1-1.1,0.1-1.1l0,0v-0.1l0-0.1l0,0h0c-0.1-0.1-0.1-0.8-0.2-2c0-0.9,0.1-1.4,0.2-1.6
				l0,0l0-0.2l0-0.7l0-0.3l0,0l0,0h0l0,0l0-0.4l0-0.2h0l0.1-0.3l-0.1-0.2h0l-0.2-1.9l0-0.6l0-1.1h0l0,0v0l-0.2-1.2l0-0.3
				c0-0.8-0.2-1.2-0.7-1.2c-0.7,0.1-1.1,0.2-1.1,0.4c-0.4,0.6-0.5,1.1-0.5,1.7L148,155.4z"/>
			<path class="st2" d="M154.6,151.7c0.1,0,0.4,0.1,0.8,0.3c0.2,0,0.6,0.3,1,1l0.4,1.4h0l0.3,1.3c0.2,0.5,0.4,1.1,0.5,1.8
				c0.2,0.9,0.3,1.4,0.4,1.7c0.3,0.9,0.5,1.4,0.6,1.4c0.1,0,0.2-0.3,0.3-1l0.1-0.2l0-0.4v-0.4l0-0.7l0-0.2l-0.1-2l0.1-1.3l-0.1-1.7
				l0-0.3l0-0.1c0.2-0.4,0.3-0.6,0.5-0.6l0.2,0l0.3,0c0.2,0,0.5,0.4,0.9,1l0,0.1l0,0c0.1,0.4,0.1,0.8,0.1,1.4c0,0.9,0,1.5-0.1,1.8
				l0,1.2v0.2l0.1,1.9l-0.1,0.6l0.1,0.4l-0.1,0.7h0l-0.2,2.1h0l-0.1,0.3v0.1l0.1,0.4v0.1l-0.1,0.5l0.2,1.4c0,0.4,0.1,0.8,0.2,1.4
				v0.1c0,0.4-0.1,0.8-0.2,1.3l0,0.4v0.4l-0.4,1.2c0,0.2,0,0.4,0.1,0.5l0,0l0.1,1.3l0,0.7l0,0.5c-0.1,0.6-0.2,0.9-0.3,0.9
				c0,0.1-0.1,0.1-0.4,0.1c-0.2,0-0.5-0.2-0.7-0.4c-0.2-0.1-0.3-0.3-0.3-0.5c-0.1-0.1-0.1-0.2-0.1-0.3l0.1-0.4c0-0.2,0-0.3-0.1-0.4
				l0-0.2v-0.2l0-0.4h0l-0.2-1.3v-0.1l0-0.6l-0.2-1.2l-0.1-0.1h0l-0.2-0.8h0l-0.2-0.8l0,0c0-0.4-0.1-0.8-0.2-1.2h0l-0.2-0.8h0
				c-0.2-0.6-0.3-1.3-0.4-1.9l-0.4-2c-0.3-1.3-0.5-2-0.7-2h-0.1c-0.1,0.1-0.2,0.3-0.2,0.5v0.2l-0.1,1.6v0.2l0,0.4l0,0.2l0,0.6
				l-0.1,0.6l0.2,1.5v1c0,1.1,0.1,1.8,0.2,2.1l0,0.2v0.4l0,0.2l-0.1,1.1c0.1,0.5,0.1,0.8,0.1,1c0,0.2-0.1,0.6-0.2,1.2v0.5l0,0.2
				l-0.2,1l0,0v0.6l0.1,0.7c0,0.2-0.1,0.4-0.4,0.5l-0.1,0l-0.6-0.2c-0.6-0.4-0.9-0.9-0.9-1.5c0.1-0.3,0.1-0.9,0.2-1.9
				c0,0,0.1-0.4,0.1-1.1v-0.6l0,0l0,0l-0.1-0.5v-0.2l0.1-0.7h0l0,0v-0.2l-0.3-3.1l0.1-0.5c0-0.2-0.1-0.7-0.2-1.5l0-0.3l0-0.2v0l0,0
				l0.1-0.6v-0.4l0-1.5l0.2-1.6v-0.4l0.1-0.7l-0.1-0.4l0.1-0.4l-0.2-1.3v-0.3l-0.1-1.8l0-0.2l0-0.8
				C153.8,151.9,154.1,151.8,154.6,151.7z"/>
		</g>
	</g>
</g>
<g>
</g>
<g>
</g>
<g>
</g>
<g>
</g>
<g>
</g>
</svg>
