<?xml version="1.0" encoding="utf-8"?>
<!-- Generator: Adobe Illustrator 21.0.0, SVG Export Plug-In . SVG Version: 6.00 Build 0)  -->
<svg version="1.1" id="Capa_1" xmlns="http://www.w3.org/2000/svg" xmlns:xlink="http://www.w3.org/1999/xlink" x="0px" y="0px"
	 viewBox="0 0 91.7 264.2" style="enable-background:new 0 0 91.7 264.2;" xml:space="preserve">
<style type="text/css">
	.st0{fill:#FFFFFF;}
	.st1{fill:#6E4012;}
</style>
<g>
	<g id="O68PMz_1_">
		<g>
			<g>
				<path class="st0" d="M0,167.8c0-29.7,0-59.4,0-89.1c0-3,0.9-5.3,3.1-7.4C14.5,60,25.8,48.7,37,37.3c0.8-0.8,1.3-2.2,1.3-3.3
					c0.1-8.7,0-17.4,0.1-26.2c0.1-6.1,5.9-9.7,11-6.9c2.9,1.6,3.9,4.1,3.8,7.3c0,8.4,0,16.7-0.1,25.1c0,1.9,0.5,3.2,1.9,4.5
					c11.6,11.4,23,23,34.6,34.4c1.9,1.9,2.1,4.1,2.1,6.5c0,38.4,0,76.9,0,115.3c0,21.2,0,42.3,0,63.5c0,5.1-1.6,6.7-6.7,6.7
					c-26.3,0-52.5,0-78.8,0c-4.7,0-6.3-1.7-6.3-6.5C0,227.7,0,197.7,0,167.8z M25.4,70.8c13.7,0,27.5,0,40.8,0
					c-6.8-6.9-13.6-13.9-20.3-20.6C39.1,57,32.2,63.9,25.4,70.8z"/>
			</g>
		</g>
	</g>
	<g>
		<path class="st1" d="M35.1,127.8c0.4,0,1,0.5,1.7,1.4c0.4,0.3,0.6,0.7,0.6,1v0.7l0,0.1l0,0.1v1.4l0.4,5.4h0.1l-0.1,0.2
			c0.2,2.5,0.4,3.8,0.5,3.8l-0.1,0l0.1,0.6v0.2l-0.1,0.8l0.1,1v0.7l-0.1,1.4l0.1,0.4c0,0.7-0.1,1.7-0.4,3c0,1.2,0.2,2.4,0.5,3.4v2
			l-0.2,1.8v0.3l0.1,0.1l-0.1,0.1v0c0.2,1,0.3,2.1,0.3,3.2v0.9l-0.1,1.8v0.5l0.1,2.3v0.7c-0.3,2.2-0.4,4.2-0.5,5.8l-0.1,0.1l0.1,0.8
			v1c0,0.9-0.3,1.6-1,2c0,0.1-0.2,0.2-0.4,0.3c-0.8-0.1-1.4-0.4-1.8-1c-0.7-0.7-1.1-1.4-1.1-2.2v-0.5L34,172l-0.1-1.1
			c0.2-1.4,0.3-2.3,0.5-2.7l-0.1-0.1v-2.4l-0.1-2.6l0.1-2h-0.1l0.1-0.1v-0.2l-0.2-3.7l0.1-1.1l0-0.7v-0.1l0.1-1.4v-0.3
			c0-0.4-0.2-1.1-0.5-2h0.1l-0.2-1.4l0.1-0.3v-0.3c-0.1-0.3-0.2-0.5-0.2-0.5h-0.2c-0.3,0.1-0.6,0.9-1,2.4l-0.5,2.9l-0.3,2.7
			c-0.4,1-0.6,1.8-0.6,2.5v0.4l0,0.3l-0.5,2.7c-0.2,0.3-0.5,1.4-0.7,3.3l-0.5,4.4h0.1l-0.1,0.1v0.7l0.1,0v0.1h-0.1
			c0.5,1.3,0.7,2.4,0.7,3.5v0.1c0,0.9-0.3,1.4-1,1.5h-0.4l-0.1-0.1l-0.1,0.1h-0.1c-0.6,0-1.3-0.5-2.1-1.4c-0.4-0.5-0.6-1-0.6-1.5
			h0.1c-0.3-1-0.6-2.5-1-4.5h0.1c-0.5-3-1-5.2-1.4-6.6l0.1-0.1c-0.1-2-0.3-3.5-0.5-4.5l-0.1-1.6l0.1-0.7c0-1.4-0.2-2.8-0.6-4.4
			l-0.5-5.8l-0.1-0.6c-0.2-0.4-0.4-0.5-0.5-0.5H21c-0.2,0-0.5,0.8-0.8,2.3h-0.1l0.1,0.1l-0.2,0.9l0.1,2.5c-0.2,0.7-0.2,1.6-0.2,2.8
			v0.2l-0.1,0.3l0.1,0.3v0.4l-0.1,0.6c0.1,1.5,0.4,3,0.8,4.5h0l0,0.1v0.1l0,0l0,0.1v0.9l0.6,4l-0.2,1.1c0.1,0.4,0.2,0.8,0.2,1.1
			L21,168h0.1l-0.1,0.1v0.6l0.1,0.1l-0.1,0.1v0l0.3,2v0.9l0.3,2.8l-0.2,1.1h0.1c-0.2,0.5-0.5,0.8-1,0.8l-0.5,0.1
			c-0.8,0-1.6-0.6-2.3-1.7c-0.2,0-0.4-1.1-0.5-3.2l-0.1-0.6v-1.4l0-0.3h0l-0.2-0.8l0.1-1.2L17,166l0.1-1.1c-0.2-2.1-0.3-3.5-0.5-3.9
			h0.1c-0.1-0.3-0.3-1.3-0.5-2.8h0.1l-0.5-2.2h0l-0.1-0.6l0.1-0.3l-0.1-1.5V153l0.2-1.1h0l0-0.1v-0.2l0.2-2.3l-0.2-1.6
			c0.2-0.8,0.4-1.5,0.5-2.3h-0.1c0.1-0.2,0.2-1,0.3-2.5l0.1-0.3l0.1-0.3h0.1l-0.1,0l0.1-0.7v-1.6l0.1-0.4l-0.1-0.3l0.1-1.7l-0.1-2.6
			l-0.1-0.2h0.1l-0.1-0.5l0.1-0.6l-0.1-0.1c0.1-0.9,0.3-1.7,0.5-2.4l0,0v-1.4l0-0.1l0,0v-0.1c0.2-1.2,0.6-1.8,1.1-1.8l0.5,0.1
			l0.6-0.1l1.7,0.2h0.2l0.6-0.2h0.1l1,0.6c1,0.8,1.4,1.6,1.4,2.4l0.3,4.2l0,1l0,0.8l0,0.5c0.2,0.6,0.4,2.3,0.8,5
			c0.2,0.4,0.4,1.8,0.7,4.1v0.2L26,147l0.2,3.3l0.5,2c0.2,0.3,0.3,0.5,0.5,0.6h0.2c0.4,0,0.6-1,0.9-2.9c0.4-0.5,0.5-0.9,0.5-1v-0.6
			c0.1-0.6,0.3-2.3,0.5-5c0.1-0.9,0.2-1.7,0.4-2.2l-0.1-1.4c0.3-2.5,0.5-4,0.7-4.7v-0.6l0.1-1.4l-0.1-0.3l0.1-0.6v-1.3
			c0-1.1,0.3-1.8,1-2.3c0-0.1,0.4-0.3,1.3-0.5v0l0.1,0h0.3l0,0l0.8,0.1L35.1,127.8z"/>
		<path class="st1" d="M44.4,128.2c0.6,0,1.2,0.5,1.6,1.4c0.2,0.1,0.4,0.7,0.4,1.8h-0.1c0.1,0.4,0.2,0.7,0.2,1v0.6l-0.2,1.1v0.9
			c-0.2,0.7-0.3,1.4-0.3,2.1c0.2,0.6,0.2,1.3,0.2,2.2l-0.1,0.2h0l-0.1,0.5l0.1,0.3v0.2l-0.2,2.6c0,0.7,0,1.3-0.1,1.9l0,0.1
			c0.1,0.4,0.2,1,0.5,1.5h-0.1c0.1,0.3,0.2,0.9,0.3,1.8l-0.1,0.7l0.1,1l-0.2,4.8l0,2.7l0,0.4c0.1,0.2,0.1,0.6,0.1,1.2v0.7
			c0,0.3,0.1,0.6,0.2,0.8l-0.1,0.1l0.1,2.7v0.5l0,0v0.1h0c0.2,0.4,0.4,1.4,0.6,3c0,1.4-0.1,2.3-0.2,2.7l0.3,2.6l0,0.3v0.6l0,0.9
			c0,0.6-0.4,1.2-1.1,1.8H46c-1.1-0.1-1.6-0.3-1.6-0.6l-0.1-0.1c-0.7-0.6-1.1-1.1-1.2-1.4v-1.4l-0.1-1.5l0.1-0.8l-0.1-2.7v-0.8
			c0-0.7-0.2-2.6-0.7-5.6l-0.2-2v-0.2l0.1-0.1l-0.1,0v-1.5l0.1-1.8l-0.1-1.5l0.1-0.7l-0.1-0.1v-1.3l0.3-1.5
			c-0.2-2.2-0.4-3.7-0.7-4.6l-0.1-0.3h0.1c-0.2-0.5-0.3-1.5-0.2-2.8h0.1l-0.1-0.1v-0.9l0.1-0.1l-0.1,0c0.1-1.6,0.2-3,0.2-4.1l-0.1,0
			c0.3-1.7,0.4-2.7,0.4-2.9v-0.2l0-0.5l0.1-1.5l0.2-2.8c0-0.3,0.4-0.8,1.1-1.4l0.1,0h0.1l0.2,0L44.4,128.2z M43,168.8L43,168.8
			l0.1-0.2l0.2,0.1l-0.2,0.2L43,168.8z M45.7,176.5v-0.2c0.2-0.2,0.4-0.3,0.7-0.3c0.4,0.1,0.5,0.2,0.5,0.4c0,0.3-0.2,0.4-0.7,0.4
			C45.9,176.9,45.7,176.7,45.7,176.5z M46.5,179.1L46.5,179.1c0-0.2,0.1-0.3,0.4-0.4H47c0.4,0,0.5,0.1,0.5,0.4v0.1l-0.3,0.2H47
			C46.8,179.3,46.6,179.2,46.5,179.1z M47.1,165.8l0.2-0.1h0.1l0.1,0l-0.1,0.2h-0.3L47.1,165.8z M48,176.1L48,176.1
			c0-0.1,0.1-0.2,0.4-0.3c0.4,0,0.5,0.1,0.5,0.3l-0.3,0.2h-0.4C48.1,176.5,48,176.4,48,176.1z M48.2,173.3l0.4-0.2h0.1
			c0.4,0,0.6,0.2,0.7,0.5c0,0.2-0.1,0.3-0.4,0.4h-0.4C48.4,174.1,48.3,173.8,48.2,173.3z M48.9,169L48.9,169l0.2-0.2h0.1l0.2,0.2
			v0.1l-0.1,0.1h-0.1L48.9,169z M49,178.6v-0.2c0-0.2,0.2-0.3,0.5-0.3c0.4,0,0.6,0.1,0.6,0.4c-0.1,0.1-0.2,0.3-0.4,0.3h-0.4
			L49,178.6z M50.1,165.3v-0.2l0.2-0.2h0.1c0.3,0,0.4,0.1,0.4,0.3l-0.2,0.2h-0.3L50.1,165.3z M53.4,166.1L53.4,166.1L53.4,166.1h0.2
			v0.1l-0.1,0.1L53.4,166.1z"/>
		<path class="st1" d="M52.2,127.6c0.4,0,1,0.2,1.7,0.7c0.7,0.8,1.1,1.4,1.1,1.7v0.1l-0.1,1l0.1,1.4l-0.1,0.9
			c0.2,1.7,0.3,3.9,0.5,6.5l-0.1,2.3v0.5l-0.2,1.6l0.1,0.6l-0.2,1.7l0,0.9c0,0.8-0.2,2.5-0.5,5.2c0,0.5-0.1,1.2-0.3,2.1v1.5l0.2,3
			l-0.2,3.5c0.1,2.8,0.3,4.8,0.5,6c0.3,1.5,0.5,2.7,0.6,3.8c0.4,0.5,0.8,0.7,1.4,0.7h0.5c1.2-0.1,2.1-0.2,2.7-0.3v0.1l0.1-0.1h1.1
			l0.1,0.1l0.1-0.1H61c1.3,0.3,2,0.6,2,0.9c0.5,0.6,0.7,1.1,0.7,1.4v0.2c0,0.7-1,1.1-2.9,1.3l0-0.1l-1.8,0.2l-1.4-0.1h-0.4
			c-0.8,0-1.7,0.3-2.7,1l-0.4,0.1c-0.7,0-1.6-0.5-2.8-1.5c-0.4-0.4-0.6-0.9-0.6-1.3l0.3-1.4v-0.4c-0.6-2.8-1-5.7-1.1-8.9l-0.1-1.3
			l0.2-3.4v-1.5l-0.2-2.6c0.1-1.7,0.2-3.2,0.5-4.4l0.3-0.9l-0.1-0.4l0.3-5.1c0.2-1.8,0.3-3.6,0.3-5.5l-0.1-2v-0.5l-0.2-1.5v-5.7
			c0-0.3,0.1-0.5,0.2-0.5l0,0v-0.8C51,127.8,51.5,127.6,52.2,127.6z"/>
		<path class="st1" d="M68,127.7c0.3,0,0.6,0.3,1.2,1c0,0.1,0.2,0.3,0.5,0.5l0.2,2.1l-0.2,2.2l0,0.5l-0.3,3.7
			c0.3,0.6,0.4,1.9,0.4,3.7v0.1c0.1,0.2,0.2,0.3,0.4,0.4h0.1c0.4,0,0.7-0.5,1.1-1.4c1.1-2,1.6-3.2,1.6-3.7c0.7-1.1,1.1-2,1.3-2.7
			l0.7-2.1l1.2-3.1c0.4-0.4,0.9-0.6,1.3-0.6h0.5c0.7,0,1.4,0.7,2.1,2.1v0.4c-0.4,1.2-0.9,2.3-1.4,3.1c-0.6,1.8-1.2,3.3-1.7,4.4
			c-0.3,1.2-0.6,2-1,2.5l-1.5,3.1c-0.3,0.3-0.6,1-1,2.2L73,148h0l0,0.1v0.6l0,0.1v0.1h0c0.8,1.6,1.2,2.8,1.3,3.8l1.3,2.7
			c0.9,1.9,1.8,4.1,2.7,6.7c0.5,3.1,1.1,5.4,1.7,6.9l0.5,2.9c0.8,1.2,0.9,2.3,0.4,3.2c-0.3,0.8-0.7,1.2-1.3,1.2h-0.1
			c-0.9-0.2-1.5-0.5-1.8-1c-0.6-1.1-1-2.1-1.2-3l-0.4-2.1h0.1c-0.3-1.4-0.8-2.9-1.6-4.6c-0.3-0.7-0.4-1.7-0.5-3.1
			c-0.7-2.2-1.5-4.4-2.3-6.3c-0.7-1.5-1.2-2.2-1.5-2.2h-0.1c-0.4,0-0.6,0.7-0.7,2.2l0.1,1.4l-0.1,0.6l0.2,4.1l-0.1,10.7
			c0.2,1.3,0.3,2.2,0.3,2.8v0.4c-0.2,0.5-0.6,0.8-1.4,0.8l-0.1,0.1h-0.1c-0.7-0.1-1.3-0.4-1.8-0.9c-0.9-0.9-1.4-1.7-1.4-2.6l0.1-2.5
			l-0.1-1.6v-1.1c0.1-0.7,0.2-1.6,0.2-2.9l-0.1-1.2l0.1-1.2l-0.1-2.1v-1.1l-0.1-2.3v-0.5l0.2-3.2l-0.1-0.6l0.1-1.2v-0.3l-0.1-1.5
			v-1.1l-0.1-1.7l0.2-2.5l-0.1-1V142l0.1-1l-0.1-1.4l0.1-0.8l-0.1-1.3l0.1-1.4v-0.3l-0.1-0.2l0.1-0.3v-2.7c0.2-2.7,0.4-4,0.5-4
			C66.4,128.1,67.1,127.7,68,127.7z M71,178.7v0.1v0.3v-0.3l-0.2-0.1H71z M71.2,166.5l0.1,0.1l0,0.1l0,0.2l-0.1-0.2L71.2,166.5z
			 M74.6,176.6l0.5,0.1l0.3,0.3l0,0.1l-0.4,0.6l-0.8-0.2l-0.3-0.3l0.1-0.4L74.6,176.6z M80.4,180.3l0.5,0.1c0.1,0.1,0.1,0.4,0,0.9
			c-0.2,0.2-0.5,0.3-1.1,0.1c-0.3-0.4-0.4-0.7-0.3-0.9L80.4,180.3z M81.7,171.9l0.2,0.1l0.3,0.3l-0.4,0.2l-0.2,0L81.7,171.9z
			 M83.9,178.6h0.9v0.5h-0.9V178.6z"/>
	</g>
</g>
<g>
</g>
<g>
</g>
<g>
</g>
<g>
</g>
<g>
</g>
</svg>
