<?xml version="1.0" encoding="utf-8"?>
<!-- Generator: Adobe Illustrator 21.0.0, SVG Export Plug-In . SVG Version: 6.00 Build 0)  -->
<svg version="1.1" id="Capa_1" xmlns="http://www.w3.org/2000/svg" xmlns:xlink="http://www.w3.org/1999/xlink" x="0px" y="0px"
	 viewBox="0 0 306.2 208.6" style="enable-background:new 0 0 306.2 208.6;" xml:space="preserve">
<style type="text/css">
	.st0{fill:#FFA000;}
</style>
<g>
	<g>
		<g>
			<path class="st0" d="M56,91c0.1,0.6,0.2,0.5,0.4,0.8c0.3,0.3,0.4,0.5,0.6,0.3c0.3-0.3,0.3-0.4,0.3-0.9c0-0.4,0.1-0.6,0-0.9
				c-0.1-0.3-0.9-0.6-0.9-0.6s0.3-0.1-0.2-0.2c-0.4-0.1-0.5-0.8-0.4-0.1c0.1,0.7,0,0.8,0,0.9S55.9,90.5,56,91z"/>
		</g>
		<g>
			<path class="st0" d="M43.8,95.7c0,0,0.1-0.4-0.4-0.5c-0.4-0.1-0.1,0-0.4-0.1c-0.3-0.1-0.1-0.8-0.3-0.1c-0.2,0.6-0.7-0.3-0.2,0.6
				c0.5,0.9,0.3,0.9,0.7,1.2c0.4,0.3,0.4,0.3,0.6,0.4c0.3,0.1,0.4,0,0.6-0.2c0.1-0.2,0.3-0.1,0.2-0.4C44.4,96.3,43.8,95.7,43.8,95.7
				z"/>
		</g>
		<g>
			<path class="st0" d="M59.4,96.2c-0.8-0.1-1.1-0.4-1.2-0.1c-0.1,0.4-0.4,0,0,0.6c0.4,0.6,0,0.6,0.6,0.7c0.6,0.1,0.8,0.1,0.9-0.1
				c0.1-0.3,0.3-0.3,0.3-0.6c0-0.3-0.2-0.4-0.2-0.4S60.2,96.3,59.4,96.2z"/>
		</g>
		<g>
			<path class="st0" d="M58.9,107.2c0,0,0.2,0.1,0.4,0C59.1,106.8,58.9,107.2,58.9,107.2z"/>
		</g>
		<g>
			<path class="st0" d="M17.6,58.8C17.6,58.8,17.6,58.9,17.6,58.8L17.6,58.8z"/>
		</g>
		<g>
			<path class="st0" d="M41.3,60.9l0,0.1C41.8,61.4,41.3,60.9,41.3,60.9z"/>
		</g>
		<g>
			<path class="st0" d="M13.1,49c0,0,0,0.1-0.3,0.8c-0.3,0.7-0.8,0.9-0.8,0.9s-0.1-0.9-0.2,0.6c-0.1,1.5-0.2,1.9,0.1,2
				c0.3,0.1,0.4,0.1,0.8-0.3c0.4-0.4,0.3-0.4,0.6-0.8c0.3-0.4,0.3-0.5,0.3-1c0-0.5-0.1-0.9-0.1-1.4C13.4,49.3,13.1,49,13.1,49z"/>
		</g>
		<g>
			<path class="st0" d="M40.9,46.4c1,0.6,0,0.9,1,0.6c1-0.3,0.9,0,1.2-0.8c0.3-0.8,0-0.6,0.3-1.3c0.3-0.7,0.4-1.6,0.4-1.6
				s-0.5-0.5-0.6-1c-0.1-0.5-0.9-0.8-0.9-0.8c-0.4,0.1-0.6-0.8-0.7,0.1c-0.1,0.9-0.1,1.1-0.3,1.3c-0.1,0.3-0.1,0-0.3,0.6
				c-0.1,0.6-0.3,0.4-0.4,0.9c-0.1,0.5-0.3,0.1-0.1,0.8C40.6,46.1,39.9,45.9,40.9,46.4z"/>
		</g>
		<g>
			<path class="st0" d="M31.9,41.8c0.9,0.8,0.8,1,1.1,1.1c0.3,0.1,0.1-0.3,0.5,0.1c0.4,0.4,0.5,1.4,0.6,0.5s0.2-1.1,0.2-1.6
				c0-0.5,0.2-0.8-0.4-1s-1.5-1-1.5-1s0.1-0.3,0.1-0.6s-0.4-1.2-0.4-1.2s-0.5-0.6-0.6-0.8c-0.1-0.3-0.9-0.6-0.9-0.6
				s-0.4,0.2-0.4,0.6c0.1,0.4,0.1,0.4,0.2,0.9c0.1,0.5,0,0.2,0.1,0.8c0.1,0.6,0.1,0.6,0.4,1c0.3,0.4,0.5,0.4,0.6,0.9
				C31.6,41.3,31,41,31.9,41.8z"/>
		</g>
		<g>
			<path class="st0" d="M106.8,143.7L106.8,143.7C106.8,143.7,106.8,143.7,106.8,143.7z"/>
		</g>
		<g>
			<path class="st0" d="M112.3,156C112.3,156,112.3,155.9,112.3,156C112.3,155.9,112.3,155.9,112.3,156z"/>
		</g>
		<g>
			<path class="st0" d="M204.9,197.7c-0.1,0-0.2,0-0.2,0S204.8,197.7,204.9,197.7z"/>
		</g>
		<g>
			<path class="st0" d="M306.2,136.8c-0.2-0.2,0-0.6,0-0.9c0-0.3,0-0.3,0-0.5s0-0.4,0-0.4s-0.1-0.4-0.7,0.1
				c-0.6,0.5-0.1-0.1-0.6,0.8c-0.6,0.8-0.8,0.9-0.8,1.1c0.1,0.3,0.1,0.1,0.1,0.6c0,0.5-0.1,0.1,0,0.5c0.1,0.4-0.1,0.2,0.1,0.4
				c0.2,0.3-0.3,0.3,0.2,0.3c0.4,0,0.7-0.3,0.8-0.5c0.1-0.3,0.9-0.6,0.9-0.9C306.2,137,306.3,137,306.2,136.8z"/>
		</g>
		<g>
			<path class="st0" d="M299,156.8C298.9,156.8,298.9,156.8,299,156.8L299,156.8z"/>
		</g>
		<g>
			<g>
				<path class="st0" d="M305,132.3c0.1-0.6,0.1-0.3,0.2-0.8c0.1-0.6,0.1-0.7,0.2-1.1c0.1-0.4-0.1-1.4-0.1-1.8
					c-0.1-0.4,0-0.4,0.1-1.1c0.1-0.8-0.1-0.3-0.3-0.6c-0.1-0.3-0.3-0.6-0.3-1c0-0.4-0.3-0.2-0.8-0.6c-0.6-0.4-0.6-0.3-0.9-0.8
					c-0.4-0.5-0.2-0.3-0.5-0.6c-0.3-0.3-0.6,0.1-0.8,0.3c-0.2,0.1-1,0.5-1,0.5s-0.5-0.3-0.7-0.3s-0.3,0.2-0.4,0.4
					c-0.1,0.3-0.4,0.6-0.4,0.9c-0.1,0.3-0.3,0-0.8-0.3c-0.5-0.3-0.3,0-0.6,0.2c-0.2,0.1-0.3,0.4-0.4,0.6c-0.1-0.1-0.2-0.2-0.3-0.5
					c-0.1-0.5-0.3,0-0.7-0.1c-0.4-0.1-0.7-0.1-1-0.1c-0.3,0-0.6,0-0.8,0.1c-0.2,0.1-1,0.1-1.4,0.1c-0.4,0-1.1,0.1-1.3,0.1
					c-0.2,0-1.1,0-1.9,0c-0.8,0-0.8,0.3-1.1,0.3c-0.3,0-1.1,0.4-1.4,0.4c-0.4,0.1-0.9,0.3-1.9,0.8c-0.9,0.4-0.7,0.4-1,0.5
					c-0.3,0.1-0.9,0.3-1.2,0.4c-0.3,0.1-0.3,0.2-0.9,0.4c-0.6,0.3-1.2,0.3-1.5,0.4c-0.3,0.1-0.8,0-1.8,0c-1,0-0.7,0.2-1,0.2
					c-0.3,0-0.5,0.3-1,0.6c-0.5,0.3-1,0.3-1.3,0.3c-0.3,0-0.7,0.3-1.2,0.3c-0.5,0.1-0.6,0.4-1.1,0.6c-0.5,0.2-0.8,0.5-1.1,0.6
					c-0.4,0.1-0.6,0.4-1.1,0.6c-0.5,0.3-0.6,0.3-1,0.4s-0.3,0.3-0.7,0.4c-0.4,0.2,0,0-0.6,0.9c-0.6,0.9-0.1,0.4-0.4,0.8
					c-0.3,0.4-0.2,0.8-0.2,1.2c0,0.1,0,0.2,0,0.2c0,0-0.1-0.1-0.1-0.1c-0.2-0.2-0.3,0.3-0.3,0.3l-0.1,0.9c0,0-0.3,0.4-0.6,1.1
					c-0.3,0.7,0,0.5,0,0.9c0,0.4,0,0.4,0,0.8c0,0.4,0.2,0.7,0.3,0.9c0.1,0.3,0.3,1.6,0.3,2s0.1,0.9,0.1,1.4c0,0.5,0,2-0.1,2.5
					c-0.1,0.4-0.2,0.4-0.4,0.8c-0.3,0.4-0.4,0.5-0.8,1c-0.4,0.5,0,0.8-0.1,0.9c-0.1,0.2-0.2,1.1-0.3,1.3c-0.1,0.3-0.1,1.1-0.1,1.4
					c0,0.3-0.2,0.4-0.3,0.6c-0.1,0.2-0.3,0.8-0.4,1c-0.1,0.3-0.9,0.6-1.2,0.8c-0.3,0.2-0.8,0.7-0.9,0.9c-0.2,0.3-1.2,0.4-1.5,0.4
					c-0.3,0.1-0.8,0.6-1,0.8c-0.3,0.2-1.3,0.9-1.7,1.3c-0.4,0.4-0.4,0.6-0.4,0.6s0,0.2,1.1,1c1.1,0.8,0.3,0.4,0.6,0.8
					s-0.1,0.7-0.1,0.9c0,0.2-0.3,0.5-0.3,0.8c0,0.3-0.8,0.4-1,0.4c-0.3,0-0.4,0.3-0.5,0.5c-0.1,0.2-0.8,0.3-1,0.3
					c-0.2,0.1-0.7,0.2-1.9,0.2c-0.3,0-0.5,0-0.6,0c0,0,0,0,0-0.1c-0.2-0.2-0.3-0.3-0.4-0.9c-0.1-0.7-0.6-0.2-0.6-0.2s-0.4,0-0.3-0.6
					c0.1-0.6,0,0,0.1-0.4s-0.3-0.2-0.5-0.4c-0.2-0.3-0.7,0-1.1,0c-0.4,0-0.4,0.3-0.6,0.3s-0.2,0.1-1.2,0.4c-1,0.3-0.5,0.3-0.7,0.4
					c-0.2,0.1-1.2,0-1.5,0c-0.1,0-0.2,0.1-0.3,0.2c-0.5-0.7-0.2,0.1-0.2,0.1l-1.1,0.1c0,0-0.8,0.4-1,0.5c-0.3,0.1-1,0.8-1,0.8
					s-0.6,0.4-0.9,0.5c-0.3,0.1-0.6,0-0.9,0c-0.3,0-0.8,0.4-0.8,0.4s-0.8,0.5-1.1,0.5c-0.3,0,0,0-1.1-0.2c-0.2,0-0.3,0-0.4-0.1
					c-0.3,0-0.9,0-1.3,0.1c-0.6,0.1-0.6,0.2-0.9,0.3c-0.3,0.1-0.5,0.1-1.1,0.3c-0.6,0.1-0.6,0.4-0.8,0.6c-0.2,0.1-0.6,0.5-0.8,0.6
					c-0.2,0.1-0.3,0.4-0.3,0.6c-0.1,0.2-0.3,0.3-0.6,0.3c-0.3,0-0.9,0-1.1,0c-0.2,0-0.4,0-1,0c-0.6,0-0.4,0.1-0.6,0.1
					c-0.1,0-0.3,0.1-0.5,0.3c0,0,0,0,0,0c-0.4-0.1-0.9-0.1-0.9-0.1s-0.1-0.2-0.6,0.1c-0.6,0.3-0.1,0.1-0.8,0.4
					c-0.7,0.3-0.4,0.3-0.9,0.3c-0.4,0-0.3,0.1-0.9-0.1c-0.6-0.2-0.6-0.1-0.8-0.3c-0.2-0.3-0.4-0.6-0.4-0.6s0.4-0.5-0.3-0.6
					s-0.9-0.6-0.9-0.6l-0.3-0.5l-0.3-0.3c0,0,0.1,0.1-0.3-0.2c-0.4-0.3-0.1-0.4-0.6-0.6s-0.8-0.4-0.8-0.4l-0.3-0.3
					c0,0,0.5-0.1-0.4-0.4s-0.4-0.4-1-0.5c-0.6-0.1-0.3-0.2-1-0.3c-0.7-0.1-0.4,0.1-0.7-0.1c-0.3-0.3-0.3-0.5-0.7-0.6
					c-0.4-0.1-0.3-0.5-0.6-0.6c-0.4-0.1-0.1-0.9-0.6-0.3c-0.4,0.6-0.4,0.3-0.4,0.6c-0.1,0.3,0.3-0.1-0.1,0.3
					c-0.4,0.4,0.2,0.1-0.4,0.4c-0.6,0.3-0.4,0.3-0.8,0.1c-0.4-0.1,0.3,0.1-0.4-0.1s0.1-0.5-0.9-0.3c-1.1,0.2-1.1,0.1-1.4,0.3
					c-0.3,0.1-0.1-0.7-0.3,0.1c-0.3,0.8-0.3,0.7-0.4,1c-0.2,0.3,0.3,0-0.3,0.5c-0.6,0.5-0.7,0.5-0.8,0.7c-0.1,0.2,0.3,0.1-0.1,0.2
					c-0.4,0.1-0.6-0.3-0.1-0.8c0.5-0.4,0.6-0.6,0.6-0.9c0.1-0.3,0.1-0.9,0.1-1.1c0-0.3,0.4-0.2-0.1-0.6s-0.6-1.1-0.6-1.1
					s0.3-0.1,0-0.4c-0.3-0.3-0.3-0.9-0.3-0.9s0.1-0.3-0.5-0.7c-0.6-0.4-0.8-0.7-0.8-0.7s0.2-0.1-0.4-0.4c-0.6-0.3-0.5-0.1-0.8-0.4
					c-0.3-0.3-0.2-0.6-0.6-0.9c-0.4-0.3-0.8-0.4-0.9-0.8s-0.3-0.8-0.3-0.8l-0.2-0.7c0,0-0.5-0.5-0.5-0.7c0-0.2,0.1-0.2-0.1-0.8
					c-0.2-0.6-0.8-1.4-0.9-1.6c-0.1-0.3-0.1-0.7-0.3-1.1c-0.3-0.4-0.8-0.7-1.2-1c-0.4-0.3-0.4-0.3-0.6-0.7c-0.1-0.4-0.1-0.4-0.3-0.6
					c-0.1-0.2-0.2-0.1-0.4-0.5c-0.3-0.4-0.4-0.6-0.4-0.6s0.4,0.6-0.4-0.4c-0.9-1.1-0.3-0.4-1.1-1.3c-0.9-0.9-0.6-0.8-1.1-1.1
					c-0.4-0.3-0.6-0.1-0.6-0.4c-0.1-0.3-0.1-0.2-0.2-0.6c-0.1-0.4-0.2-0.4-0.3-0.8c-0.1-0.4-0.2-0.3-0.3-0.6
					c-0.1-0.3-0.3-0.3-0.4-0.6c-0.1-0.3-0.3-0.5-0.4-0.8c-0.1-0.3-0.3-0.7-0.3-0.7s-0.5-0.6-0.5-0.9c0-0.3,0.1-0.4-0.1-0.8
					c-0.3-0.4-0.5-1.3-0.5-1.3s-0.1-0.8-0.1-1.1c-0.1-0.3-0.3-0.6-0.4-0.9c-0.1-0.4-0.4-0.7-0.4-0.7s0.8-0.4,0.8-0.6
					c0-0.2-0.1-0.6,0.1-0.9c0.1-0.3,0.1-0.7,0.1-0.7s0.1-0.3-0.1-0.6c-0.2-0.3,0.1-0.1-0.6-0.7c-0.7-0.6-1-0.8-1-0.8s0,0.1-0.4-0.4
					c-0.4-0.4-0.3-0.3-0.8-0.7c-0.1-0.1-0.2-0.1-0.2-0.2c-0.3-0.3-0.3-0.5-0.3-0.5s-0.2,0.2,0.3,1.1c0.4,0.9,0.9,1,0.9,1.2
					c0,0.2-0.3,0,0.1,0.4c0.4,0.4-0.3-0.1,0.4,0.4c0.7,0.6,0.6,0.4,0.7,0.6c0.1,0.2,0.4,0,0.2,0.4c-0.2,0.4,0.2-0.3-0.2,0.4
					c-0.4,0.6-0.3,0.5-0.5,0.9c-0.2,0.4,0.1,0.3-0.2,0.4c-0.3,0.1-0.4-0.4-0.4-0.4s-0.1,0.1-0.3-0.3c-0.3-0.4-0.3-0.6-0.3-0.6
					s-0.2-0.2-0.4-0.5c-0.2-0.3-0.2-0.5-0.4-0.7c-0.2-0.2-0.8-1-0.8-1v-0.5c0,0-0.1-0.5-0.2-0.7c-0.1-0.2-0.1-0.9-0.1-0.9
					s-0.2-0.3-0.5-0.6c-0.1-0.1-0.2-0.2-0.2-0.2l-0.1-0.1c0-0.1,0-0.2,0-0.4c0-0.5,0-0.8,0-1.4s-0.1-1.8-0.1-1.9c0,0,0-0.1-0.1-0.2
					c0.1-0.4,0,0,0-0.3c-0.1-0.3-0.3-0.6-0.6-1.1c-0.3-0.5,0,0-0.1-0.9c-0.1-0.9-0.1-0.6-0.6-1.5c-0.5-0.9,0.1-0.3,0.2-0.9
					c0.1-0.6,0.1-0.2,0.6-0.4c0.4-0.2,0,0,0.4-0.3c0.4-0.3,0.3-0.3,0.6-0.8c0.4-0.5,0,0,0.1-0.2s0.2-0.4,0.2-0.4s-0.3-1.2-0.3-1.4
					c0-0.2,0-0.3,0-0.6c0-0.4-0.1-0.3-0.1-0.3s-0.3-0.1-0.3-0.6c-0.1-0.6,0-0.4,0-0.7c0-0.3-0.1-0.4,0-0.9c0.1-0.5,0.1-0.2,0.3-0.6
					c0.1-0.4,0.1-0.3,0.1-0.6c0-0.3,0,0,0.1-0.2c0.1-0.2,0.1-0.5,0.2-1.1c0.1-0.6,0-0.3-0.1-0.6c-0.1-0.3-0.2-0.3-0.3-0.7
					c-0.1-0.4-0.2-0.3-0.3-0.6c-0.1-0.3-0.3-0.1-0.3-0.1l0.1-0.9c0,0,0,0,0.4-0.7c0.4-0.7,0,0-0.2-0.3c-0.2-0.3,0,0-0.4-0.6
					s0,0-0.1-0.6c-0.1-0.6,0.1-0.3,0.2-0.9c0.1-0.3,0-0.3,0.2-0.5c0.2-0.3,0.1-0.4,0.4-0.9c0.3-0.5,0,0,0.1-0.4
					c0.1-0.4-0.1-0.4-0.1-0.7c0-0.3,0.1-0.3,0-0.9c-0.1-0.6-0.3-0.3-0.3-0.3s-0.7,0-1-0.3c-0.3-0.3,0,0,0.1-0.3
					c0.1-0.3,0.1-0.2,0.3-0.4c0.2-0.3,0.1-0.3,0.4-0.6c0.4-0.3,0,0,0.2-0.2c0.2-0.2,0.2-0.1,0.3-0.5c0.1-0.4,0,0,0.2-0.5
					c0.2-0.5,0-0.2-0.2-1.6c-0.2-1.4,0,0,0.3-0.5c0.3-0.5,0.1-0.3,0.1-0.6c0-0.3-0.2-0.3-0.4-0.5c-0.3-0.2-0.1-0.4-0.1-0.4
					s0.3-0.4,0.3-0.7c0-0.3,0-0.2-0.3-0.7c-0.3-0.5,0,0,0-0.3c0-0.3,0,0,0.1-0.3c0.1-0.3,0.2-0.3,0.3-0.7c0.1-0.4-0.3-0.1-0.4-0.3
					c-0.2-0.1-0.6-0.3-0.6-0.3s0.6-0.4,0.8-0.6c0.3-0.2,0,0-0.1-0.4c-0.1-0.4,0.2-0.7,0.2-0.7l0.1,0.2c0,0,1.1,0.4,1.4,0.7
					c0.4,0.3,0,0,0.3-0.2c0.3-0.2,0,0,0.1-0.5c0.1-0.5,0-0.3,0.3-0.6c0.3-0.3,0.2-0.1,0.2-0.1s0.3,0.5,0.8,0.8
					c0.4,0.3,0.2,0,0.4-0.3c0.2-0.3,0.2-0.3,0.6-0.7c0.4-0.4,0.1-0.3,0.3-0.6c0.1-0.4,0.3-0.5,0.3-0.9s0,0,0.3-0.6
					c0.3-0.6,0.2-0.7,0.3-1c0.1-0.3,0.5-0.8,0.3-1.9c-0.2-1.1-0.1-0.4-0.1-0.4l-0.9,0.3c0,0-0.6,0.3-1.2,0.5
					c-0.6,0.2-0.4,0.1-0.8,0.2c-0.4,0.1,0,0-0.6-0.1c-0.6-0.1-0.2-0.2-0.4-0.5c-0.2-0.3-0.3-0.2-0.4-0.6c-0.1-0.4-0.7-0.4-1.1-0.4
					c-0.4,0-1.1,0.1-1.1,0.1s-0.6-0.1-1.3-0.2c-0.8-0.1-0.6-0.1-0.9-0.1c-0.3,0-1,0-1.2-0.1c-0.2-0.1-0.4-0.1-0.6-0.1
					c-0.2,0-0.4-0.2-0.9-0.6c-0.5-0.4-0.3-0.3-0.3-0.3s-0.8-0.1-1.3-0.1c-0.4,0-0.9-0.2-1.1-0.3c-0.2-0.1-0.6-0.3-0.7-0.5
					c-0.1-0.3-0.8-0.2-0.9-0.4c-0.2-0.3-0.8-0.4-0.8-0.4l-0.4-0.1c0,0-1.3,0.3-1.5-0.3c-0.3-0.6-0.4-0.6-0.4-0.6s-1.1-0.5-1.2-0.7
					c-0.1-0.2-0.1-0.3-0.1-0.5c0-0.2-0.1-0.4-0.1-0.8c-0.1-0.4-0.1-0.3-0.3-0.6s-0.3-0.5-0.4-0.8c-0.1-0.3-0.3-0.4-0.7-0.9
					c-0.4-0.5-0.4-0.8-0.6-1.1c-0.2-0.3-0.2-0.3-0.3-0.6c-0.1-0.3-0.1-0.3-0.3-0.8c-0.2-0.5-0.4-0.6-0.4-0.6s-0.1-0.3-0.2-0.9
					c-0.1-0.6-0.2-0.5-0.3-0.9c-0.1-0.4,0-0.3,0-0.3s0-0.2-0.1-0.8c-0.1-0.6,0,0-0.1-0.4c-0.1-0.4-0.3-0.3-0.3-0.5
					c-0.1-0.2,0-0.3,0-0.3s-0.1-0.6-0.2-0.9c-0.1-0.3,0,0,0-0.2c0-0.2-0.3-0.2-0.3-0.4c-0.1-0.2-0.4-0.4-0.4-0.6
					c0-0.2-0.1-0.2-0.3-0.6c-0.2-0.4,0,0-0.3-0.4c-0.3-0.4,0,0-0.2-0.1c-0.2-0.1-0.2-0.1-0.5-0.2c0,0,0.1-0.1,0.1-0.1
					c0.3-0.3,0.1-0.6-0.2-0.9c-0.3-0.3-0.2-0.1-0.6-0.5c-0.4-0.4-0.3-0.1-0.5-0.4c-0.3-0.3-0.4-0.2-0.8-0.3c-0.3-0.1,0-0.4,0-0.6
					c0-0.2-1-0.8-1-1.3s-0.3-0.6-0.3-0.8c0-0.2-0.4-0.2-0.5-0.4c-0.1-0.3-1-0.5-1-0.5l-0.5-0.5c0,0,0,0,0.1-0.3
					c0.1-0.3-0.3-0.4-0.5-0.7c-0.2-0.3-0.4-0.4-0.5-0.6c-0.1-0.2-0.3-0.6-0.3-0.8c0-0.3-0.2-0.3-0.4-0.7c-0.2-0.4-0.3-0.3-0.4-0.8
					c-0.1-0.4-0.3-0.4-0.4-0.6c-0.1-0.2-0.1-0.3-0.1-0.7c0-0.4-0.1-0.3-0.3-0.7c-0.2-0.4-0.4-0.3-0.6-0.6c-0.2-0.3-0.2-0.8-0.2-0.8
					s0-0.8-0.1-1c-0.1-0.3-0.6-0.5-0.6-0.5s-0.3-0.4-0.3-0.6s-0.1-0.4-0.1-0.7c-0.1-0.3-0.4-0.4-0.4-0.4l-0.3-0.3
					c0,0-0.6-0.3-0.7-0.4c-0.1-0.2-0.9-0.4-1.1-0.6c-0.2-0.2,0-0.6,0-0.6s-0.4-0.3-0.9-0.6c-0.6-0.4-0.3-0.2-0.3-0.4
					c-0.1-0.2-0.1-0.3-0.4-0.5s0,0-0.4-0.4c-0.4-0.4-0.8-0.4-0.8-0.4s-0.7-0.2-0.8-0.5c-0.1-0.3-0.1-0.2-0.1-0.4
					c0-0.3-0.1-0.2-0.4-0.5c-0.3-0.3-0.2-0.1-0.5-0.4c-0.3-0.3,0,0-0.4-0.2c-0.4-0.2-0.6-0.1-1.4-0.6c-0.8-0.6-0.3-0.1-0.7-0.1
					c-0.4,0-0.6,0-1,0c-0.4,0-1.2,0.1-1.2,0.1s-0.8,0.1-1.2,0.1s-0.9-0.1-0.9-0.1s-0.6-0.1-1.4-0.6c-0.8-0.4,0,0-0.3-0.1
					c-0.3-0.1-0.2,0-0.2,0s-0.6,0.2-1,0.3c-0.4,0.1-0.5,0.4-0.5,0.4s-0.8,0.4-1.1,0.4c-0.3,0.1-0.7,0.4-0.7,0.4s-0.6,0.3-0.9,0.4
					c-0.3,0.1-0.1,0.4-0.1,0.7c0,0.3-0.4,0.8-0.4,0.8l-0.4,0.4c0,0-0.3,0.8-0.3,1.2c0,0.4-0.1,0.6-0.1,0.6l-0.3,0.8
					c0,0-0.1,0.5-0.3,0.7c-0.1,0.2-0.3,0.6-0.3,0.6s-0.4,0.4-0.5,0.6c-0.1,0.2-0.8,0.4-0.8,0.4s-0.3,0.3-0.3,0.5s-0.4,0.4-0.4,0.4
					l-0.5,0.2c0,0-0.2-0.1-0.6-0.3c-0.4-0.2-0.8-0.2-0.8-0.2v0.3c-0.6-0.3-1.6-0.7-1.6-0.7l-0.1-0.5c0,0,0.6-0.2-0.8-0.8
					c-1.4-0.6-2.1-0.8-2.1-0.8c-0.3-0.2-2.6-1.4-2.9-1.5c0,0,0,0-0.2-0.2c-0.4-0.3-0.6-0.4-0.7-0.6c-0.1-0.2,0.4-0.1-0.4-0.9
					c-0.8-0.8-1.4-1.4-1.4-1.4s-0.1-0.1-0.3-0.3c-0.2-0.2-1.3-1.3-1.3-1.3l-0.2-0.3l-0.6-0.9l-0.2-0.6c0,0-0.3-0.4-0.4-0.8
					c-0.1-0.3-0.1-0.9-0.1-0.9s-0.1-0.5-0.1-0.8c-0.1-0.3-0.1-0.8-0.2-1s0.2,0.1-0.1-0.3c-0.3-0.3-0.9-1.5-0.9-1.5s0.2,0.1-0.3-0.7
					c-0.4-0.8-0.5-1.1-0.5-1.1c-0.2-0.3-0.5-0.1-0.8-0.9c-0.3-0.9-2.2-1.7-2.2-1.7s0.4-0.1-0.2-0.4c-0.6-0.3-0.7-0.4-0.9-0.7
					c-0.2-0.3-2.3-1.7-2.3-1.7l-0.1-0.2l-0.8-0.6l-0.3-0.6l-0.3-0.4l-0.6-0.4c-0.9-0.8-0.9-0.8-0.9-0.8l-0.3-0.4
					c0,0-0.1-0.3-0.3-0.6c-0.2-0.3-0.9-0.8-1.3-1.1c-0.3-0.3-0.9-0.9-0.9-0.9s0,0.1-0.1-0.3c-0.1-0.3,0.1,0.1-0.6-0.5
					c-0.7-0.6-0.7-0.6-0.7-0.6s-0.4-0.3-0.9-0.6c-0.5-0.4-0.5-0.4-0.7-0.5s1.6,0.1-0.2-0.1c-1.8-0.2-1.9-0.2-1.9-0.2
					s2.1,1.1-0.6-0.1c-2.7-1.2-2.5-1-3.7-0.6c-1.2,0.4-1.1,0.4-1.4,0.4c-0.3,0-1.9-0.3-1.9-0.3l-0.3-0.1h-1.1h-1.3
					c0,0-0.7-0.2-1.2-0.2c-0.5,0-0.8-0.1-0.8-0.1s-0.2-0.1-0.4-0.1c-0.3,0-0.7,0-0.7,0c-0.1,0.3-0.1,0.2-0.1,0.5c0,0.1,0,0.1,0,0.1
					c0,0,0,0,0,0c0,0,0,0.1,0,0.2c0,0.4,0.8-0.1,0.1,0.7c-0.7,0.8-0.9,0.8-1,1c-0.1,0.3-0.2,0.1-0.1,0.6c0.1,0.4,0.1,0.6,0,1
					c-0.1,0.4-0.1,0.6-0.2,0.9c-0.1,0.3-1.4-0.1-1.4-0.1s0.6-0.1-0.5-0.1c-1.1,0-0.6,0.1-1.7-0.1c-1.1-0.1-1.6-0.4-1.9-0.3
					s-0.8-0.1-1.1,0.2c-0.2,0.2-0.7,0-0.9,0.2c-0.1,0-0.1,0-0.2,0c-0.4,0-0.1,0.1-0.6-0.1c-0.5-0.1-1.3-0.3-1.5-0.3
					c-0.3,0-0.8,0-1.1,0c-0.3,0,0.4-0.1-0.6,0c-0.9,0.1-0.6,0.1-1.3,0.1c-0.8-0.1-0.8-0.2-1.4-0.2c-0.6,0,0.2-0.1-1-0.2
					c-1.2-0.1-1.5-0.1-1.8-0.1c-0.3-0.1,0.3-0.2-0.5-0.1c-0.8,0.1-0.6,0.1-1.3,0.1c-0.6,0-0.9-0.1-1.5-0.1c-0.6,0-0.8,0-1.4,0
					c-0.6,0-1-0.2-1.4-0.1c-0.4,0.1-0.8,0.1-1.1,0.1s-0.1,0.1-0.9,0c-0.8-0.1-0.1,0.1-1.3-0.1c-1.2-0.3-0.1-0.1-1.4-0.4
					c-0.9-0.2-1.4-0.3-1.6-0.3c-0.1-0.1-0.3-0.2-0.7-0.5C53.7,17.4,22.8,3.2,21.7,2.7c0.1-0.5,0.2-0.9,0.4-0.9
					c0.3,0,0.5-0.1,0.7-0.3C23,1.2,23,0.7,23,0.7S23.6,0,22.6,0c-1,0-22.4,0.6-22.4,0.6S-0.1,0.8,0.1,1c0.2,0.3,0.3,0.1,0.4,0.8
					c0.1,0.7,0.3,0.7,0.4,1.1c0.2,0.3,0.1,0.4,0.2,0.6C1.1,3.3,1,3.2,1.3,4.2C1.8,6,1.9,6,1.9,6.4c0,0.4,0.7,0.8,0.9,1
					C3,7.6,3,7.2,3.2,7.7c0.3,0.5,0.4-0.1,0.4,0.8S3.5,9.6,3.3,9.9C3,10.2,2.9,9.8,2.8,10.5s-0.1,0.8-0.1,1.1
					c0.1,0.3,0.1,0.3,0.2,0.6c0.1,0.3-0.3,0,0.4,0.8c0.7,0.8,1.1,0.9,1.1,1.1c0.1,0.2-0.1,0.1,0.1,0.6c0.1,0.5,0.2,0.8,0.2,0.8
					s-0.1-0.8,0.4,0.1c0.4,0.9,0.7,0.6,0.4,1.1c-0.3,0.5-0.3-0.1-0.3,0.5c0,0.6-0.1,1-0.1,1.2c0.1,0.2,0.1-0.1,0.4,0.7
					C6,20,6.3,20.7,6.4,20.9c0.1,0.3,0.7,0.4,0.7,0.4s0.3-0.5,0.6,0.4c0.3,0.9,0.8,1.2,0.5,1.6c-0.3,0.4,0.1,0.4-0.4,0.8
					c-0.6,0.4-0.8-0.1-0.8,0.7c0.1,0.8,0.4,1.2,0.8,1c0.4-0.2,0.5-0.5,0.7-0.4c0.2,0.1,0.6,0.3,0.6,1c0.1,0.8,0.8,1.1,0.7,1.6
					c-0.1,0.5-0.3-0.4-0.2,1.1s0.3,1.4,0.3,1.8c0,0.4,0.1,0.6,0.1,1.1c0,0.4-0.1,0,0,0.7c0.1,0.7-0.5,0.4,0.4,0.9
					c0.9,0.4,0.8-0.1,1.1,0.8c0.3,0.9,0.3,1.1,0.8,1.4c0.4,0.3,0.5,0.1,0.8,0.4c0.3,0.3,0.4,0.3,0.5,0.4c0.1,0.2,1.1,1.3,1.1,1.3
					s0.1,0.1,0.4,0.1c0.3-0.1,0.4-0.8,0.9-0.1c0.4,0.5,1.5,1.3,2.1,1.6c0,0.1,0.1,0.2,0.3,0.5c0.8,1.1,0.9,1.1,1.1,1.4
					c0.1,0.3,0.7,0.8,0.8,1c0.1,0.2,0.5,0.8,0.5,1c0,0.2-0.1-0.1,0.1,0.4s0.3,0.9,0.7,1c0.4,0.1,0.2-0.5,0.4,0.1
					c0.2,0.6,0.1,1.1,0.3,1.3c0.2,0.1,1.3,0.7,1.3,0.9c0,0.3-0.2,0.1,0.1,0.5c0.3,0.4,1,0.4,1.1,0.6c0.1,0.2,0.4,0.6,0.3,0.9
					c-0.1,0.4,0.5-0.6-0.1,0.4c-0.6,0.9-0.8,0.9-0.8,0.9s-0.3-0.4-0.1,0.3c0.3,0.8,0.5,0.8,0.5,0.9s0.4,0.3-0.1,0.6
					c-0.1,0-0.1,0.1-0.2,0.1c-0.6,0-1.2,0-1.2,0.1c0,0.2-0.9,2.1-0.9,2.1s0.2,0.3,0.4,0.4c0.3,0.1,0.6-0.1,0.8,0.1
					c0.2,0.1,0.3,0.1,0.3,0.6s-0.1,0.4,0,0.8c0.1,0.3-0.3,0.5,0.1,0.6c0.4,0.1,0.9,0.7,0.9-0.1c0-0.8,0.2-0.4,0-0.8
					c-0.2-0.4-0.3-0.8-0.3-0.8s0-0.3,0.2-0.3c0.2,0.1,0.1-0.1,0.4,0.4c0.3,0.4,0.4,0.3,0.6,0.7c0.2,0.4,0.1-0.9,0.4,0.8
					c0.3,1.6,0.3,1.3,0.3,1.6c0,0.4,0.4,1.1-0.1,1.3c-0.5,0.2-0.2-0.1-0.7-0.4c-0.5-0.3-0.8-0.6-0.9-0.9c-0.2-0.3,0.3-0.5-0.4-0.5
					s-0.3,0.2-0.7,0c-0.4-0.2-0.9-0.8-0.9-0.8l-1-0.6l-0.1-0.3c0,0-0.1-0.8-0.5-0.8c-0.4,0-1-0.1-1.2,0c-0.2,0.1,0.3-0.1-0.2,0.1
					s-1.9,0.3-1.9,0.3s-0.4-0.2-0.6-0.3c-0.2-0.1,0.7-0.3-0.9-0.4c-1.6-0.2-2.3-0.7-1.8,0.1c0.5,0.8,0.7,0.6,1,1.1
					c0.3,0.5,0.4,0.5,0.9,0.8c0.5,0.3,0.9,0.4,1.1,0.7c0.2,0.3,0.2,0.4,0.3,0.7c0,0,0,0,0,0c0,0,0.1,0.1,0.4,0.6
					c0.7,1.1,0.6,0.7,0.7,1.1c0.1,0.4-0.1,0.3,0.1,0.9c0.2,0.6,0.7,0.6,0.8,0.7c0,0.1,0,0.1,0,0.2c0.1,0.8-0.2,0.5,0.1,0.8
					c0.3,0.3,0.1,0.4,0.5,0.4c0.4,0,0.4,0,0.6,0s0.9,0.1,1.2,0.3c0.3,0.1,0.3,0,0.8,0.4c0.5,0.4,0.5,0.4,0.7,0.6
					c0.2,0.3,0.6,0.3,0.7,0.6c0.1,0.3,0.5,0.8,0.5,0.8s0.8,0.2,1.1,0.6c0.4,0.4,1.2,0.8,1.3,1.1c0.1,0.4,0.3,0.6,0.4,0.8
					c0.1,0.3-0.3,0.2,0.1,0.3c0.4,0.1,0.7-0.2,0.9-0.3c0.2-0.1,0.3-0.4,1-0.3c0.8,0.2,1.1,0.3,1.1,0.3s0.1,0,0.2-0.3
					c0.1-0.3-0.7-1.1,0.1-1.1c0.8-0.1,1.1-0.5,1.3-0.3c0.2,0.3,0.8,0.4,0.3,0.8c-0.5,0.3-0.3-0.3-0.5,0.3c-0.2,0.6-0.4,0.1-0.2,0.6
					c0.2,0.5,0.4,0.5,0.6,0.9c0.1,0.4,0.4,0.6,0.5,0.8c0.1,0.3-0.2-0.2,0.3,0.6c0.4,0.8,0.6,0.7,0.7,0.9c0.1,0.2,0.3,0.4,0.6,0.7
					c0.4,0.3,0.8,0.9,1.3,1.1c0.5,0.3,0.2,0.1,0.5,0.3c0.3,0.2,0.5,0.6,0.5,0.6s0.3,0.1,0.5,0.3c0.2,0.2,0.9,0.5,0.9,0.5
					s-0.1-0.4,0.5,0.1c0.6,0.5,1.3,1.2,1.4,1.4c0.1,0.2,0.3,0.1,0.5,0.6c0.2,0.4,0.8,0.9,0.8,1.1c0,0.3,0.1-0.1,0.1,0.6
					c0,0.8-0.1,0,0.1,1c0.2,1,0.5,0.7,0.5,1.3s0.4,0.3,0.1,0.9c-0.3,0.6-0.7,1.1-0.7,1.3c0,0.3,0.1,0.3,0.1,0.9
					c0,0.6,0.2,1.2,0.1,1.4c-0.1,0.2-0.4,0.6-0.6,0.9c-0.1,0.3-0.2-0.1-0.5,0.8c-0.3,0.9-0.3,1.4-0.4,1.8c-0.1,0.4,0.3,0.3-0.3,0.8
					c-0.6,0.4-0.8,1.1-0.8,1.1l0.6,1.2c0,0,0.1-0.3,0.3-0.6c0.1-0.3,0.3-0.8,0.3-0.8l0.6,0.4c0,0-0.1,0.2,0.1,0.2c0.3,0,0-0.4,0.6,0
					c0.6,0.4,0.3,0.2,0.6,0.4c0.3,0.3,0.1,0.3,0.4,0.6c0.3,0.3,0.4,0.3,0.6,0.6c0.3,0.3,0.3,0.6,0.3,0.8c0.1,0.3-0.2,0,0.1,0.3
					c0.3,0.3,0.6,0.2,0.6,0.4c0,0.3,0.5-0.1,0.5-0.1s0.3-0.2,0.6,0c0.4,0.2,2.6,1.2,2.5,1.5c-0.1,0.3-1.8-1.1-1.4-0.6
					c0.3,0.6,0.1-0.3,0.7,0.7c0.6,1,1.8,1.7,1.8,1.7c0.1,0.4-0.1,0.3,0.4,0.6c0.6,0.3,0.6,0.3,0.6,0.3s0-0.4,0.4,0.3
					c0.4,0.7,0.8,0.8,1.2,1.3c0.4,0.4,1.3,0.8,1.3,0.8c0.2,0.4,1.3,1.3,1.4,1.5c0.1,0.2-0.3-0.4,0.1,0.2c0.3,0.6,0.7,1.4,0.7,1.4
					s0.1-0.1,0.4,0.2c0.3,0.3,0.6,0.3,0.6,0.3s0.1,0.1,0.6,0.3c0.5,0.2,0.8,0.2,1.1,0.4s1.9,0.6,2,0.8c0.1,0.3,0.3,0.3,0.1,0.5
					c-0.1,0.1-0.1,0.1-0.2,0.1c0.1,0.1,0.1,0.3,0.2,0.5c0.3,1.1,0.3,1.1,0.3,1.1s0.3,0.1,0.3,0.6c0.1,0.4,0.1,0.3,0.1,0.6
					c0,0.3,0.2,0.9,0.2,0.9s0.2,0,0.2,0.4c0,0.4-0.1,0,0,0.4c0.1,0.4,0,0.3,0.1,0.8c0.1,0.5-0.1,0.2,0.3,0.8
					c0.4,0.6,0.4,0.3,0.8,0.6c0.4,0.4,0.6,0.4,0.8,0.5c0.2,0.1,0.6,0,0.8-0.3c0.3-0.3,1.1,0,1.1-0.4s-0.1-0.6,0.1-0.7
					c0.2-0.1,0.9-0.4,0.9-0.4s-0.5,0.3,0.3-0.1c0.8-0.4,0.7-0.1,0.8-0.4c0.1-0.3-0.5,0.2,0.1-0.3c0.6-0.5,0.8-0.3,0.8-0.7
					c-0.1-0.4-0.1-0.6-0.3-0.9c-0.2-0.3-0.1-0.5,0-0.9c0.1-0.4,0.4-0.6,0.3-1c-0.1-0.4-0.3-0.6-0.4-0.9c-0.1-0.3-0.3-0.4-0.6-0.6
					c-0.4-0.2-0.2-0.7-0.6-0.7c-0.4,0-0.4-0.1-0.6-0.4c-0.2-0.3-0.6-1-0.6-1.4c-0.1-0.4,0.3-0.1-0.5-0.8c-0.8-0.7,0.2-1.3,0.2-1.3
					s0.2-1.3-0.5-1.1c-0.7,0.1-1.3,0.2-1.3,0.2l-0.6-1l-0.9-1.1l-0.7-0.8c0,0,0.1-0.6-0.4-0.2c-0.4,0.4-0.4,0.1-0.4,0.4
					c-0.1,0.3-0.1,0.3-0.1,0.3s0.6,0.1-0.3,0.1c-0.9,0-1.3,0-1.3,0s-0.2-0.1-0.9-0.3c-0.8-0.2-0.1,0.6-0.8-0.2
					c-0.7-0.8-0.6-1.3-0.6-1.3s-0.2,0.4-0.1-0.2c0.1-0.6,0.3-1.2-0.1-1.4c-0.4-0.2-0.4-0.4-0.4-0.4l-0.4-0.9c0,0-0.5,0,0-0.4
					c0.5-0.4,0.4-0.5,0.6-0.8c0.2-0.3,0.2,0,0.3-0.7c0.1-0.7,0.2-0.3,0-1c-0.2-0.8,0-0.4-0.4-1.1s-0.3-0.6-0.4-0.7
					c-0.2-0.1-0.1-0.2-0.3-0.4c-0.2-0.2-0.5-0.6-0.5-0.6v-0.5c0,0-0.3-0.3-0.3-0.8c0-0.5-0.1-0.8-0.1-1.1c0-0.3-0.2-0.6-0.2-0.8
					c0-0.3,0.1-0.3,0-0.6c-0.1-0.3-0.4-0.9-0.6-1.3c-0.1-0.4,0-0.4-0.3-0.6c-0.3-0.1-0.8-0.1-0.9-0.3c-0.1-0.2,0.2,0.1-0.1-0.2
					c-0.3-0.3-0.4-0.7-0.5-0.9c-0.1-0.2-0.4-0.4-0.4-0.6c0-0.3-0.1-0.6-0.1-0.6s-0.2-0.6-0.2-0.9c0-0.4,0-0.5,0-0.7
					c0-0.2-0.1,0-0.3-1.1c-0.2-1.1-0.1-1.3-0.2-1.4c-0.1-0.2-0.1,0.1-0.2-0.4c-0.1-0.6-0.7-1.7-0.7-1.7s0.4-0.7,0.1-0.9
					c-0.4-0.3-0.8-0.3-0.8-0.8c0-0.4-0.3-1.1-0.3-1.1s-0.3-0.4-0.4-0.9c-0.1-0.4-0.1-0.4-0.1-0.4s-0.1-0.3-0.4-0.6
					c-0.3-0.3-0.9-1-0.9-1s-0.4-0.3-0.4,0.3c0,0.6-0.3,0.6,0,1.1c0.3,0.5,0.5,0.6,0.6,0.9c0.1,0.4,0.1,0.3,0.2,0.8
					c0.1,0.5,0.1,0.5,0.1,0.5s0.6,1.1-0.6,0.1c-1.2-1-1.4-0.9-1.4-1.1S44,70.8,44,70.2c0.1-0.6,0.3-0.8,0.2-1.4
					C44.2,68,44.2,68,44,67.5c-0.2-0.5-0.1-1.3,0.1-1.6c0.1-0.4,0.1-1.3-0.1-1.4c-0.2-0.1-0.4,0-0.8,0.3c-0.4,0.3-0.5,0.8-0.9,0.1
					c-0.4-0.6-0.2-0.4-0.4-0.6c-0.3-0.3-0.6-0.8-0.4-1c0.1-0.3,0.1-0.6,0.1-0.6l-0.1-1.6c-0.1,0-0.2-0.1-0.3-0.2
					c-1.1-0.6-1.1-0.9-1.1-0.9s0.1-0.4-0.3-0.6c-0.4-0.3-0.6-0.1-0.9-0.6c-0.3-0.5-0.9-0.9-1.1-1.1c-0.2-0.2-0.6-2.5-0.6-2.5
					l-0.2-0.2l-0.1-0.7c0,0,0.1-0.8-0.1-0.9c-0.2-0.2-0.4-0.4-0.5-0.6c-0.1-0.2,0.4-0.2,0.3-0.7c-0.1-0.5-0.1-1.4-0.1-1.8
					c0-0.3,0.8-0.4-0.1-0.5c-0.9-0.1-0.1,0.1-1.2-0.1c-1.1-0.2-1.7-0.8-1.7-0.8s0.2-0.1,0.4-0.4c0.3-0.3,0.4-0.3,0.2-0.7
					c-0.3-0.4-1-1.2-1-1.4s0-0.4,0-0.4s0.3-0.6-0.3-0.7c-0.5-0.1-1.1-0.1-1.1-0.1l-0.3-0.9c0,0,0.7,0-0.1-0.2
					c-0.8-0.2-0.6,0.3-0.8-0.2c-0.1-0.4-0.3-1-0.3-1s0.1-0.4-0.1-0.9c-0.2-0.4-0.2-0.6-0.4-0.8c-0.2-0.2-0.9-0.6-1-1.1
					s-0.4-0.9-0.5-1.2c-0.1-0.3-0.1-0.4-0.5-1c-0.4-0.6-0.4-1-1-1.3c-0.6-0.3-0.9-0.2-1.1-0.5c-0.3-0.3,0.3-0.1-0.6-1
					c-0.8-0.9-0.8-0.8-0.9-1.3c-0.1-0.5,0-0.6-0.5-0.8c-0.5-0.2-0.6-0.2-0.9-0.6c-0.3-0.4,0.4,0.6-0.6-0.6c-0.9-1.2-0.9-1.2-0.9-1.2
					l-0.6-0.7c0,0,0.1-8.8,0.1-9.1c0-0.3-0.8-1.4-0.8-1.4l-0.3-0.3c0,0-0.1,0.1-0.3-0.4c-0.2-0.5-0.2-0.7-0.2-1.1s0.1-0.8,0.2-1.1
					c0.1-0.3,0.2-0.6,0.3-0.9c0.1-0.3,0.4-1.3,0.5-1.6c0.1-0.3,0.1-0.6,0.3-1.1c0.1-0.4,0.1-0.8,0.3-1.4c0.1-0.3,0.1-0.4,0.2-0.6
					c0.1,0.1,0.1,0.1,0.2,0.2c0.3,0.2,0.4,0.6,0.4,0.6s0.1-0.4,0.4-0.6c0.3-0.2,0.3-0.8,0.9-0.2c0.6,0.6,1.3,0.8,1.4,1.2
					c0.1,0.4,0.1,0.8,0.3,1.1c0.1,0.3,0.3,0.9,0.6,1c0.3,0.1-0.1,0,0.6,0.1c0.8,0.1,0.8,0.4,1.3,0.1c0.5-0.4,0.9,0.1,0.9,0.1
					s-0.1-0.4,0.4-0.5c0.5-0.1,1.1,0.3,1.2,0.1c0.1-0.2-0.1-0.4,0.1-0.2c0.2,0.3,0.2,0.2,0.4,0.4c0.3,0.3,1.3,1,1.3,1s0.3,0,0.3,0.2
					c0,0.2,0.8,0.9,0.8,1.1c0,0.2,0.1,0.4,0.1,0.4s0.1-0.3,0.3,0.1c0.3,0.4,1.3,1.1,1.6,1.1c0.3-0.1,0.9-0.2,0.9-0.2s-0.6-0.3,0.2,0
					c0.8,0.3,1.6,0.2,1.6,0.5s0.1-0.1,0.2,0.3c0.1,0.4,0.1,0.4,0.1,0.9s0.3,0,0,0.4c-0.3,0.4-0.3,0.7-0.4,0.9
					c-0.1,0.2,0-0.7-0.1,0.2c-0.1,0.9,0,0.6-0.1,0.9c-0.1,0.3-0.1,0.4-0.1,0.8s0.1,0.3,0,0.7c-0.1,0.4-0.1,1.1,0,1.3
					c0.1,0.2,0.3,0.1,0.4,0.5c0.2,0.4,0.6,1,0.7,1.3c0.1,0.3,0.8,0.8,0.8,1c0,0.3,0,0,0,0.4s0.3,0.8,0.3,1.3
					c0.1,0.5,0.3,0.5,0.3,0.8s-0.2,0.8-0.3,1c-0.1,0.3-0.1,0.3,0,0.6c0.1,0.4,0,0.3,0.3,0.8c0.3,0.5,0.6,0.8,0.7,1.2
					c0.1,0.4,0.1,0.1,0.4,0.9c0.3,0.8-0.1-0.1,0.3,0.8c0.4,0.8,0.2,0.1,0.4,0.8c0.3,0.7,0.4,1.6,0.5,1.9c0.1,0.3,0.3,0.7,0.4,0.9
					c0.1,0.2,0.1-0.4,0.1,0.2c0.1,0.6,0.4,1.7,0.4,1.7l0.8-0.3c0,0,1.2,0.9,1.2,1.2s-0.2,0.4-0.3,0.7c-0.1,0.3-0.3,0.3-0.1,0.8
					c0.1,0.6,0.4,0.6,0.5,1.1c0.1,0.5-0.1,0.3,0.3,0.7c0.4,0.4,0.8,0.7,0.9,0.9c0.1,0.2,0.3,0.6,0.3,0.6s1.1,0.9,1.2,1.2
					c0.1,0.3,0.6,0.3,0.6,0.6c0,0.3-0.1,0.6,0,0.9c0.1,0.3,0.6,0.6,0.6,0.8c0.1,0.2,0.2,0.3,0.4,0.4c0.2,0.1,0.4-0.1,0.5,0.3
					c0.1,0.4,0.6,0.9,0.6,0.9s0.1-0.1,0.2,0.1c0.1,0.3,0.2,0.2,0.2,0.5c0,0.3-0.1,0.3,0.1,0.5c0.2,0.3,0.4,0.4,0.8,0.8
					c0.4,0.3-0.8-1,0.8,0.8c1.6,1.8,1.6,1.6,1.8,2c0.1,0.4-0.3,0.1,0.3,0.5c0.6,0.4,0.6,0.6,0.9,0.6c0.3,0-0.3-0.3,0.5-0.3
					c0.8,0,1.1-0.1,1.3,0.1c0.2,0.2,0.8,0.3,1.1,0.3s0.6,0.2,0.9,0.4c0.3,0.2,0.1-0.2,0.3,0.2c0.2,0.4-0.4,1.3-0.4,1.7
					c0,0.4,0.1,0.8,0.1,1.2s-0.1,0.5,0.1,0.9c0.1,0.4,0.3,0.4,0.3,0.8c0,0.4,0,0.5,0.1,0.7c0.1,0.2,0.2,0.3,0.3,0.7
					c0.1,0.4-0.2,0.1,0.1,0.4c0.3,0.3,0.4-0.1,0.6,0.3c0.1,0.3,0.9,0.8,0.9,0.8s-0.2-0.4,0.1,0.2c0.3,0.6,0.7,1,0.7,1
					s0.6,0.3,0.8,0.3c0.2,0,0.2,0,0.2,0l1.2,0.2c0,0,1-0.1,0.8,0.3c-0.2,0.4-1.1-0.1-0.3,1.1c0.9,1.1,1.4,1.1,1.3,1.4
					c-0.1,0.3-0.1,0.3-0.1,0.3s-0.4,0-0.2,0.4c0.3,0.4,0.6,0.6,0.6,0.6l0.4,0.4c0,0,0,0,0.2,0.1c0.2,0.1,1.8,0.3,1.8,0.3
					s-0.1-0.4,0.1-0.4s1.6-0.1,1.6,0.3c0,0.4,0.1,0,0,0.4c-0.1,0.4,0.2,0.7,0.3,1.1c0.1,0.4-0.1-0.1,0.1,0.4
					c0.2,0.4,0.2,0.4,0.2,0.4s0.1,0.5,0.4,0.8c0.3,0.3,0.9,0.7,0.9,1c0,0.3,0,0.6,0,0.8c0,0.1,0,0.1,0,0.1c-0.3,0.3-0.3,0.3-0.5,0.5
					c-0.3,0.3-0.6,0.4-0.8,0.5c-0.2,0.1-0.5,0.3-0.7,0.4c-0.2,0.2-0.2,0.2-0.3,0.6c-0.1,0.4-0.1,0.1-0.2,0.7
					c-0.1,0.6,0.1,0.9-0.3,1.6c-0.3,0.7-0.6,1.3-0.6,1.3l0.8,0.2c0,0,0.7,0.3,0.9,0.4c0.2,0.1,0.5-0.1,0.5,0.4s-0.8,0.2,0,0.6
					c0.8,0.4,0.1,0.3,0.8,0.4c0.8,0.1,0.9-0.1,1.3-0.1c0.3-0.1,0.8-0.4,1-0.2c0.2,0.2,0.9,0.3,0.3,0.8c-0.6,0.4-0.6,0.3-0.8,0.6
					c-0.2,0.4-1.1-0.2-0.2,0.4s1.3,0.9,1.6,0.8c0.3-0.1,0.8-0.6,0.8-0.6s-0.3-0.9,0.3,0c0.5,0.9,0.6,1.1,0.7,1.4
					c0.1,0.4,0.4,1.1,0.7,1.1c0.3,0-0.1,0,0.7,0c0.8,0,0.8,0,0.8,0s0.3-0.3,0.4,0c0.2,0.3,0,0.4,0.6,0.7c0.6,0.3,0.6,0.4,0.9,0.4
					c0.3,0,1.1,0.3,1.1,0.3s-0.1-0.3,0.3,0.2c0.3,0.4,0.8,0.8,0.8,0.8s0.3-0.3,0.2,0.2c-0.1,0.4-0.5-0.1-0.2,0.9
					c0.3,1,0.8,1.1,0.4,1.4c-0.3,0.3-0.4,0.1-0.4,0.5c0,0.4-0.7,0.1,0.1,0.7c0.8,0.6,1,0.6,1.1,0.9c0.1,0.3,0.4,0.3,0.5,0.6
					c0.1,0.3,0.3,0.4,0.4,0.6c0.2,0.3,0.6,0.4,1,0.8c0.4,0.3,0.9,0.4,1.1,0.4s1.4-0.3,1.4,0.1c0,0.4-0.1,0.8-0.3,0.9
					c-0.2,0.1,0.2,0.3-0.4,0.2s-1.4-0.6-1.1-0.1c0.4,0.4,0.9,0.8,0.9,0.8l1.1,0.3c0,0,0.1-0.3,0.2,0.1c0.1,0.3,0.8,1,0.8,1
					s0.6-0.1,0.7,0.1c0.1,0.2,0.1,0.3,0.4,0.6c0.3,0.3,0.7,0.9,0.7,0.9s-0.1-0.1,0.3,0.4c0.4,0.5-0.6-0.8,0.6,0.6
					c1.1,1.4,0.9,1.4,1.2,1.6c0.3,0.3,0.9,0.3,1,0.6c0.1,0.3-0.2,0.2,0.4,0.6c0.6,0.4,0.4,0.1,0.7,0.7c0.3,0.6,0.9,1.3,0.9,1.5
					c0.1,0.2-0.7-0.8,0.1,0.2c0.8,0.9,1.5,1.2,1.5,1.6c0,0.4,0.1,0.2,0.2,0.6c0.1,0.4,0.3,1.3,0.3,1.3s0-0.4,0.4,0.4
					c0.4,0.9,0.7,1.3,0.8,1.5c0.1,0.2-0.3-0.3,0.1,0.2c0.4,0.5,0.8,0.6,0.9,0.8c0.1,0.3,0.8,0.4,0.9,0.8s1,0.8,1,0.8
					c0.6,0.5,2.6,1.1,2.6,1.4c0,0.3,0.1,0.3,0.1,0.8s0.6,1.2,0.8,1.4c0.1,0.1,0.3,0.3,0.4,0.4c-0.2,0.2-0.4,0.2-0.2,0.7
					c0.2,0.5,0.1,0.4,0.4,1c0.3,0.6,0.4,0.6,0.3,1.1c-0.2,0.5-0.3,0.1-0.4,1c-0.2,0.9-0.4,0.8,0,1.4c0.4,0.6,0.5,0.6,0.6,0.9
					c0.1,0.3,0.5,0.8,0.7,1.2c0.2,0.4,0.6,0.6,0.8,1c0.2,0.4,0-0.1,0.4,0.6c0.4,0.6,0.4,0.4,0.6,0.8c0.2,0.4-0.3,0.2,0.3,0.8
					c0.6,0.6,0.8,0.8,0.9,1c0.1,0.3,0-0.1,0.4,0.4c0.4,0.5,0.3,0.9,0.1,1.2c-0.2,0.3-0.7,0.9-0.7,0.9s0.1,0.3-0.1,0.9
					c-0.2,0.6,0.1,0-0.2,0.6c-0.3,0.6-0.6,1.3-0.8,1.6c-0.3,0.3-0.6,0.7-0.6,0.7s-0.2-0.3-0.2,0.3c0,0.6-0.3,0.9,0.1,1.1
					c0.4,0.2,1.6,0.7,1.6,0.7s0-0.1,0.2-0.1c0,0.1,0,0.1,0,0.2c-0.1,0.3-0.2,0.2,0,0.6c0.2,0.4,0.9-0.1,0.2,0.4
					c-0.8,0.5-0.3,0.1-0.8,0.5c-0.4,0.4-0.6,0.4-0.6,0.4s-0.4,0.1-0.6,0.1c-0.2,0-0.2,0-0.2,0h-0.3l-1.3,0.4c0,0,0,0.1-0.1,0.4
					c-0.1,0.5,0.1,0.2-0.1,0.5s-0.1,0.1-0.2,0.3c-0.1,0.3-0.3,0.1-0.3,0.5c0,0.4-0.3-0.1,0,0.4c0.3,0.4,0.7,0.8,0.7,1
					c0,0.3-0.1-0.4,0,0.3c0.1,0.6-0.1,0.9,0,1.1c0.1,0.2,0.2,0.3,0.3,0.6s0.3,0.6,0.6,1.1c0.3,0.4,0,0.2,0.3,0.4
					c0.3,0.3,0.3,0.3,0.4,0.6c0.2,0.3,0.7,0.8,0.7,0.8s0.1-0.1,0.3,0.1c0.2,0.2,0.9,0.9,0.9,0.9s-0.3-0.7,0.2,0.2
					c0.5,0.9-0.1,0.5,0.1,0.9c0.1,0.4,0.8,0.6,0.8,0.6s0.2,0,0.4,0.4s0.2,0.4,0.2,0.4s0.2,0.5,0.4,0.9c0,0.1,0.1,0.1,0.1,0.1
					c0,0,0,0,0,0l0,0c0,0,0,0,0,0c0,0,0,0.1,0.1,0.2c0.3,0.5,0.4,0.7,0.6,0.8c0.2,0.1,0.2,0.1,0.2,0.1s-0.2-0.3,0.4,0.2
					c0.6,0.5,0.6,0.4,0.9,0.6c0.3,0.1,0.8,0.4,0.8,0.4l0.3,0.3c0,0-0.6-0.1,0.3,0.1c0.8,0.3,0.4,0.3,0.8,0.3s0.6-0.1,0.8-0.1
					c0.2,0-0.7-0.3,0.1-0.1c0.4,0.4,1.2,1,1.2,1s0.9,0,1.1,0.2c0.3,0.2,0-0.2,0.5,0.4c0.5,0.6,0.1,0.4,0.5,0.6
					c0.4,0.2,0.5,0.3,0.9,0.5c0.4,0.2,0.6,0.1,0.9,0.1c0.3,0,0.7-0.4,0.9,0c0.2,0.4-0.3,0.4,0.4,0.9c0.8,0.5,1,0.4,1.1,0.8
					c0.1,0.3,0.6,1,0.8,1.1c0.2,0.1-0.9-0.4,0.2,0.1c0.1,0,0.2,0.1,0.3,0.2c0,0,0,0,0,0c0,0,0,0,0,0c0,0,0,0.1,0,0.1c0,0,0,0,0,0.1
					c0,0,0,0.1,0,0.1c0,0,0,0.1,0,0.1c0.3,0.6,0.6,0.9,0.8,1.2c0.2,0.3,0.8,1.1,1,1.4c0.3,0.3,0.6,0.3,0.8,0.6
					c0.3,0.4,0.8,0.8,0.8,0.8s0.2-0.2,0.8,0.2c0.6,0.4,2.3,0.8,2.3,0.8s0,0,0,0c0,0,0,0,0,0s-0.3-0.2-0.2-0.3c0,0,0.1,0,0.5,0.2
					c0.9,0.5,2.4,1.1,2.6,1.1s0.3,0.1,0.6,0.1c0.3,0,0.8-0.1,0.9,0c0.2,0.1,0.4,0.1,0.6,0.2c0,0,0,0,0,0c0,0-0.5-0.2-0.5-0.1
					c0,0,0.1,0.1,0.8,0.5c1.8,0.9,1.2,0.8,2.1,1c0.9,0.3,0.7,0.2,0.9,0.3c0.2,0.1-0.1-0.1,0.8-0.1c0.2,0,0.3,0,0.5,0
					c-0.2,0.3-0.4,0.3,0.2,0.2c0.8-0.1,2.4,0.4,2.6,0.4c0.2,0,0.9,0,0.9,0s0.3-0.1,0.6,0.3c0.3,0.4-0.6-0.2,0.6,0.7
					c1.2,0.9,0.3,0,1.2,0.9c0.9,0.9,1.4,1,1.6,1.1c0.2,0.1-1.4-0.7,0.5,0.3c1.9,1,1.6,0.8,1.9,1s0.1,0.6,0.1,0.6s-0.7-0.7,0.4,0.5
					c1.1,1.2,0.2,0.9,1.1,1.2c0.9,0.3,1.1,0.2,1.4,0.4c0.4,0.2-0.1,0,0.4,0.2c0.5,0.2-0.1-0.1,0.5,0.2c0.6,0.3,0.8,0.3,0.9,0.5
					c0.1,0.2-0.3,0.3,0.7,0.5c0.9,0.3,0.4,0.1,0.9,0.3c0.6,0.1,0.3-0.2,1,0.1c0.7,0.3,0.8,0.3,1.2,0.4c0.4,0.1,0.4,0.1,1.1,0.3
					c0.6,0.1,1.2,0.3,1.2,0.3c0.1,0,0.2,0.1,0.3,0.1c0.9,0.4,0.5,0.1,0.9,0.4c0.4,0.3,0.7,0.3,0.9,0.4c0.2,0.1,0-0.1,0.2,0.1
					c0.2,0.2,0.4,0.1,0.5,0.4c0.1,0.3,0.3,0.1,0.5,0.3c0.2,0.2,0.3-0.2,0.6,0.3c0.3,0.4,0.3,0.4,0.3,0.4l1.3,0.1
					c0,0,0.1,0.6,0.9,0.9s0.5,0.4,1.4,0.4c0.9,0.1,0.9,0.1,1.3,0.1c0.4,0,0.6,0.1,1.1,0.1c0.5,0.1,0.3-0.1,1.4,0.3
					c1.2,0.3,1.3,0.3,1.6,0.4c0.3,0.1,1.1,0.4,1.4,0.4s0.3,0,0.8,0.1c0.5,0.1,0.5-0.3,1.1-0.1c0.6,0.1,0.9-0.2,1.3,0.3
					c0.3,0.4,0.3,0.4,0.8,0.8c0.5,0.4,0.4,0.7,0.5,0.9c0.1,0.3,0.1-0.1,0.1,0.3c0,0.3,0.4,0.1,0.4,0.4c0,0.3-0.6,0.5,0.2,0.5l0,0.1
					l0.6,0.1c0,0,0,0,1,0.1c1,0.1,0.3,0,0.6,0s0.8,0.4,0.8,0.4s1.2,0.4,1.6,0.6c0,0,0.8,0.6,1.4,0.8c0.6,0.3,0.8,0.3,0.8,0.3
					s0,0.4,1.1,0.8c1.1,0.3,0.3,0,0.3,0s0,0,0.4,0c0.4,0,0.4,0,1.4,0.1c1.1,0.1,0.7,0.1,0.9,0.1c0.2,0,0.6,0.4,0.8,0.6
					c0.2,0.2,0.3,0,0.8,0.1c0.5,0.1,0.2,0,1.3,0c1.1,0,0.3,0.1,1,0.2c0.7,0.1,0.3,0,1.8,0.9c1.6,0.9,0,0,0.3,0.1
					c0.3,0.1,0.5,0.4,0.9,0.5c0.4,0.1,0.8,0.4,0.8,0.6c0,0.2,0.3,0.1,1.4,0.2c1.2,0.1,0.2,0.1,1.3,0c0.6,0,0.7,0,0.6,0
					c0.2,0,0.6-0.1,1.3-0.2c0.9-0.1,0.8,0,0.8,0s1.4-0.5,1.8-0.7c0.3-0.2,0.4-0.1,0.8-0.3c0.4-0.2,0.3-0.2,1.1-0.4
					c0.8-0.3,0.3-0.2,0.6-0.4c0.4-0.3,0.4-0.1,0.8-0.3c0.4-0.2,0.9-0.1,1.2-0.3c0.3-0.1,0.4-0.1,0.8-0.3c0.4-0.2,0.3-0.1,1.1-0.3
					c0.9-0.2,0.5-0.4,0.7-0.6c0.2-0.2,0,0,1.8-0.3c1.8-0.3-0.1-0.2-0.1-0.2s0.2-0.2,0.9-0.6c0.8-0.4,0.3-0.1,1-0.5s0.4-0.6,0.6-0.8
					c0.1-0.2,0.3-0.2,1.1-0.3c0.8-0.1,0.4-0.2,0.9-0.3c0.5-0.1,0.9-0.2,1.4-0.5c0.5-0.3-0.4-0.2-0.6-0.5c-0.2-0.3-0.3,0-0.6-0.1
					c-0.3-0.1-0.4-0.4-0.4-0.4s0.1-0.5,0.1-0.9c0.1-0.4,0.4-0.3,0.9-0.6c0.6-0.4,0.5,0.6,0.8,1.2c0.3,0.6,0.3,0.6,0.5,0.5
					c0.2-0.1,0.3-0.4,0.4-0.6c0.2-0.1,1,0,1.1,0.3c0.1,0.3-0.4,0.5-0.4,0.5l-0.5,0.7c0,0,0.3,0.5,0.5,0.5c0.3,0,0,0,0.3,0
					c0.3,0,0.3,0,1,0s0.4,0,0.9-0.3c0.5-0.3,0,0,0.8-0.4s-0.1-0.2-0.1-0.4c-0.1-0.2,0.3,0,0.6,0.1c0.4,0.1,0.4,0.1,0.4,0.1
					s0.4,0.1,0.8,0.1c0.4,0,0,0,1.6,0.8c0.3,0.2,0.5,0.3,0.6,0.3c0,0,0,0,0,0c0.1,0.1,0.1,0,0,0c0.1,0,0.2-0.1,0.9,0
					c1,0.1,0,0,0.3,0s0.4,0.1,0.9,0.3c0.4,0.1,0.1,0.4,0.1,0.4l0.1,0.5l0.3,0.6c0,0,0,0.2,1.6,0.3c1.6,0.1,0.4,0.5,0.4,0.8
					c0.1,0.3,0.6,0.2,1.1,0.6c0.5,0.4,0.8,1.1,0.8,1.1l1.9,1.3c0,0,1,0.9,1.1,1.1c0.1,0.2,0.1,0.2,0.1,0.2s0.4,0.2,1.1,0.7
					c0.6,0.5,0.2,0.4,0.2,0.4l0.8,0.4c0,0,0.5,0.3,1.1,0.5c0.6,0.2,0.5,0.3,0.9,0.5c0.4,0.2,0.3,0.2,0.6,0.2c0.3,0,0.9,1.3,1.1,1.3
					c0,0,1.8,1.5,2.2,2.1c0.4,0.6,0.2,0.4,0.4,0.8c0.2,0.3,0.3,0.6,0.3,0.6s0.1,0.3,0.6,0.6c0.4,0.3,0,0,0.5,0.4
					c0.5,0.4,0.3,0.4,0.9,0.6c0.6,0.3,0.6,0.6,1.5,1c0.9,0.4,0,0-0.1-0.4c-0.1-0.4-0.1-0.8-0.1-1.1s0.1-0.8,0.1-1.5
					c-0.1-0.8,0-1.3-0.1-2.2c-0.1-0.9,0.3-0.6,0.3-1.1c0.1-0.5,0-0.4-0.3-0.8c-0.3-0.4-0.2-0.3-0.3-0.8c-0.1-0.5-0.1-0.2-0.3-1
					c-0.1-0.8,0.1-0.4,0.5-1.7c0.4-1.3,0.3-0.7,0.4-0.9c0.1-0.3,0.3-0.2,0.5-0.9c0.3-0.8,0.2-0.6,0.8-1.3c0.6-0.6,0.2-0.2,0.8-0.9
					s0.7-1.1,0.7-1.4s0.4-1.1,0.4-1.3c0-0.2,0.5-0.6,0.6-0.8c0.1-0.2,0.6-0.3,0.9-0.4c0.3-0.1,0,0,1.3-0.1c1.3-0.1,0.9,0.2,1.1,0.2
					c0.2,0,1.8,0,2-0.1c0.3-0.1,0.3,0,1.4-0.1c1.2-0.1,0.3,0,0.5,0s0.9-0.2,0.9-0.2s0.3,0,0.9-0.1c0.6-0.1,0.5-0.1,0.8-0.1
					c0.3-0.1,0.4,0.1,0.4,0.1s1.3,0.1,1.9,0.1c0.6,0,0.3,0.1,0.9-0.3c0.6-0.3,0,0,0.4-0.4c0.4-0.4,0.2-0.4,0.2-1c0-0.6,0-0.7,0-0.7
					s-0.1-0.3-0.2-0.7c-0.1-0.4-0.1-0.4-0.1-0.7c0-0.3-0.1-0.3-0.4-0.5c-0.3-0.2-0.7-0.3-0.8-0.4c-0.1-0.2-0.4-0.5-0.4-0.7
					c-0.1-0.2-0.3-0.4-0.4-0.7c-0.1-0.3-0.3-0.2-0.8-0.6c-0.5-0.4-0.7-0.6-0.7-0.6s-0.5-0.1-1.1-0.4c-0.6-0.4-0.4-0.3-0.6-0.6
					c-0.1-0.3-0.3-0.3-0.6-0.9c-0.3-0.6-0.5-0.3-0.8-0.4c-0.3-0.1-0.3-0.1-0.7-0.4c-0.4-0.3-0.6-0.2-1-0.4c-0.4-0.3,0,0-0.8-0.9
					c-0.8-0.9-0.3-0.2-0.5-0.4c-0.1-0.1-0.4-0.4-0.7-0.7c0.2-0.1,0.6-0.3,1.5-0.5c2.4-0.6,0.2,0.1,1.2-0.1c1-0.1,0.8-0.1,0.8-0.8
					c0.1-0.6-0.2-0.3-0.2-0.9s0-0.2,0-0.8s-0.1-0.3-0.1-0.7s-0.1-0.4-0.1-1.2c0-0.8-0.1-0.4-0.1-1.1c0-0.7,0-0.2,0.1-0.8
					c0-0.2,0-0.4,0-0.5c0.4,0,1,0.1,2,0.1c2.7,0.1,1-0.2,2.8-0.2s0.4-0.1,1-0.3c0.6-0.2,1.1,0.1,2.3-0.1c1.2-0.1,0.9,0,1.9-0.1
					c1-0.1,0.3,0,1.3-0.1c1-0.1,0.6-0.1,1.4-0.3c0.8-0.2,0.2,0,1.5-0.1c1.3-0.1,1.1,0.2,2.1,0.3c0.7,0.1,0.5-0.3,0.3-0.8l2.9-0.1
					c0,0,0.1-0.4,0-0.9c-0.1-0.5,0.1-0.3,0.5-0.7c0.4-0.4,0.9-0.2,1.3-0.1c0.3,0.1,1.3,0.8,1.6,0.5c0.4-0.3,0.3-0.3,0.6-0.6
					c0.3-0.4,0.2-0.2,0.3-0.7c0.1-0.5,0.4-0.9,0.8-1.7c0.3-0.8,0.3-0.9,0.5-1.2c0.2-0.3,0.5-0.8,1.1-1.5c0.6-0.8,0.4-0.9,0.8-1.3
					c0.4-0.4,0.4-0.2,0.5-0.6c0.1-0.4,0.3-0.1,1.1-0.6c0.8-0.4,0.3-0.4,0.4-0.8c0.2-0.4,0.4-0.8,0.7-1.8c0.3-1.1,0,0,0.5-0.5
					c0.5-0.5,0.3,0,0.8,0.3c0.5,0.3,0,0.7-0.1,0.9c-0.1,0.3-0.2,1.5-0.2,1.8c0,0.3-0.1,0.6-0.3,0.9c-0.2,0.3-0.1,0.3-0.1,0.3
					s0.6,0.4,0.8,0.5c0.2,0.1,0.6,0.3,0.9,0.5c0.3,0.2,0.5,0.4,0.6,0.6c0.1,0.2,0.1,0.4,0.3,0.8c0.3,0.4,0,0,0.6-0.4
					c0.6-0.4,0,0,0.3-0.6c0.3-0.6,0.1-0.3,0.3-0.9c0-0.2,0.1-0.3,0.1-0.3c-0.1-0.1-0.3-0.4-0.3-0.7c0-0.5,0.1-0.3,0.2-1.2
					c0.1-0.9,0-0.4,0.4-1.3c0.1-0.2,0.1-0.3,0.2-0.4c0,0,0,0,0,0c0,0,0,0,0,0c0,0,0,0,0,0c0,0,0,0,0-0.1c0.2-0.4,0,0,0.4-0.9
					c0.4-0.9-0.1-0.6-0.1-0.6s-0.1-0.9,0.3-1.2c0.3-0.3,0.1-0.3,0.1-0.6c0-0.3,0.1-0.8,0-1.6c-0.1-0.8,0.2-0.7,0.4-1.4
					c0.2-0.7-0.3,0.2-0.5,0.4c-0.2,0.2-1,0.4-1.1-0.1c-0.1-0.6,0-0.3,0.1-0.7c0.1-0.4,0.4-0.6,0.6-0.9c0.2-0.3,0.2-0.1,0.5-0.3
					c0.3-0.3,0.1-0.2,0.5-0.8c0.4-0.6,0.1-0.4,0.4-0.9c0.3-0.5-0.1-0.2-0.1-0.2s-0.5,0.1-0.8,0.3c-0.3,0.2-0.6,0.3-0.9,0.4
					c-0.3,0.1-0.5,0.1-0.8-0.2c-0.3-0.3-0.3-0.2-0.4-0.5c-0.1-0.3,0.1-0.4,0.3-0.8s0.1-0.3,0.3-0.9c0.1-0.6,0,0,0.6-0.4
					c0.6-0.4,0.7-0.2,1.1-0.6c0.4-0.4,0-0.4,0-0.7s0.1-0.8,0.1-0.8s-0.1-0.6-0.1-1.2c0-0.6,0.1-0.4,0.3-1.2c0.1-0.8,0.1-0.3,0.2-1.1
					c0.1-0.8,0,0,0.3-0.6c0.3-0.6,0.3-0.4,0.3-0.6c0-0.2,0.4-1,0.5-1.3c0.1-0.3,0.6-0.7,0.8-1.1s0.4-0.5,1.1-1.1
					c0.7-0.6,0,0,0.6-0.6C304.6,133.4,304.8,132.9,305,132.3z M19.6,62.1C19.7,62.1,19.7,62.1,19.6,62.1
					C19.7,62.2,19.7,62.2,19.6,62.1z M163.1,182.9C163.1,182.9,163.1,182.9,163.1,182.9L163.1,182.9z M231.9,191.1
					c0.1,0,0.1,0,0.2,0c0,0,0,0,0,0c0,0,0,0.1,0.1,0.1C232,191.2,231.7,191,231.9,191.1z M299,156.7C299,156.7,299,156.7,299,156.7
					L299,156.7z"/>
			</g>
		</g>
		<g>
			<path class="st0" d="M298.6,160.4C298.6,160.4,298.6,160.2,298.6,160.4C298.6,160.4,298.6,160.4,298.6,160.4z"/>
		</g>
		<g>
			<path class="st0" d="M239.1,165.1c0.1,0,0.2,0,0.2,0S238.6,165,239.1,165.1z"/>
		</g>
	</g>
</g>
<g>
</g>
<g>
</g>
<g>
</g>
<g>
</g>
<g>
</g>
</svg>
