<?xml version="1.0" encoding="utf-8"?>
<!-- Generator: Adobe Illustrator 21.0.0, SVG Export Plug-In . SVG Version: 6.00 Build 0)  -->
<svg version="1.1" id="Capa_1" xmlns="http://www.w3.org/2000/svg" xmlns:xlink="http://www.w3.org/1999/xlink" x="0px" y="0px"
	 viewBox="0 0 57.6 20.4" style="enable-background:new 0 0 57.6 20.4;" xml:space="preserve">
<style type="text/css">
	.st0{fill:#008E45;}
	.st1{fill:#037A38;}
	.st2{fill:#39B14A;}
</style>
<g>
	<g>
		<path class="st0" d="M1.8,20.4c0.8,0,1.6,0,2.4,0c1,0,2.1,0,3.1-0.1c0.3,0,0.6,0,0.9,0c4.1,0,7.7,0,11.3,0c0.4,0,0.9,0,1.3,0
			c1.6,0,3.3,0,4.9-0.1c0.6,0,1.1,0,1.7,0c2.3,0,4.7-0.1,7.4-0.1c3.6,0,7.2,0,10.7,0l1.6,0l0.6-0.5c0,0,3.2-2.6,4.9-3.9
			c1.5-1.1,5-4,5-4s-6.9,0.1-9.4,0c-2.2,0-4.5,0-7.2,0c-2.6,0-5.3,0-7.9,0.1l-23,0.3l-0.5,0.5c-2.7,2.4-5.8,4.9-9.1,7.3L0,20.4
			L1.8,20.4z"/>
	</g>
	<g>
		<path class="st1" d="M1.8,18.4c0.8,0,1.6,0,2.4,0c1,0,2.1,0,3.1-0.1c0.3,0,0.6,0,0.9,0c4.1,0,7.7,0,11.3,0c0.4,0,0.9,0,1.3,0
			c1.6,0,3.3,0,4.9-0.1c0.6,0,1.1,0,1.7,0c2.3,0,4.7-0.1,7.4-0.1c3.6,0,7.2,0,10.7,0l1.6,0l0.6-0.5c0,0,3.2-2.6,4.9-3.9
			c1.5-1.1,5-4,5-4s-6.9,0.1-9.4,0c-2.2,0-4.5,0-7.2,0c-2.6,0-5.3,0-7.9,0.1l-23,0.3l-0.5,0.5c-2.7,2.4-5.8,4.9-9.1,7.3L0,18.4
			L1.8,18.4z"/>
	</g>
	<g>
		<path class="st0" d="M1.8,16.4c0.8,0,1.6,0,2.4,0c1,0,2.1,0,3.1-0.1c0.3,0,0.6,0,0.9,0c4.1,0,7.7,0,11.3,0c0.4,0,0.9,0,1.3,0
			c1.6,0,3.3,0,4.9-0.1c0.6,0,1.1,0,1.7,0c2.3,0,4.7-0.1,7.4-0.1c3.6,0,7.2,0,10.7,0l1.6,0l0.6-0.5c0,0,3.2-2.6,4.9-3.9
			c1.5-1.1,5-4,5-4s-6.9,0.1-9.4,0c-2.2,0-4.5,0-7.2,0c-2.6,0-5.3,0-7.9,0.1l-23,0.3L9.7,8.7c-2.7,2.4-5.8,4.9-9.1,7.3L0,16.4
			L1.8,16.4z"/>
	</g>
	<g>
		<path class="st1" d="M1.8,14.4c0.8,0,1.6,0,2.4,0c1,0,2.1,0,3.1-0.1c0.3,0,0.6,0,0.9,0c4.1,0,7.7,0,11.3,0c0.4,0,0.9,0,1.3,0
			c1.6,0,3.3,0,4.9-0.1c0.6,0,1.1,0,1.7,0c2.3,0,4.7-0.1,7.4-0.1c3.6,0,7.2,0,10.7,0l1.6,0l0.6-0.5c0,0,3.2-2.6,4.9-3.9
			c1.5-1.1,5-4,5-4s-6.9,0.1-9.4,0c-2.2,0-4.5,0-7.2,0c-2.6,0-5.3,0-7.9,0.1l-23,0.3L9.7,6.7C7,9.1,3.9,11.6,0.7,13.9L0,14.4
			L1.8,14.4z"/>
	</g>
	<g>
		<path class="st0" d="M1.8,12.4c0.8,0,1.6,0,2.4,0c1,0,2.1,0,3.1-0.1c0.3,0,0.6,0,0.9,0c4.1,0,7.7,0,11.3,0c0.4,0,0.9,0,1.3,0
			c1.6,0,3.3,0,4.9-0.1c0.6,0,1.1,0,1.7,0c2.3,0,4.7-0.1,7.4-0.1c3.6,0,7.2,0,10.7,0l1.6,0l0.6-0.5c0,0,3.2-2.6,4.9-3.9
			c1.5-1.1,5-4,5-4s-6.9,0.1-9.4,0c-2.2,0-4.5,0-7.2,0c-2.6,0-5.3,0-7.9,0.1l-23,0.3L9.7,4.7C7,7.1,3.9,9.6,0.7,11.9L0,12.4
			L1.8,12.4z"/>
	</g>
	<g>
		<path class="st1" d="M1.8,10.4c0.8,0,1.6,0,2.4,0c1,0,2.1,0,3.1-0.1c0.3,0,0.6,0,0.9,0c4.1,0,7.7,0,11.3,0c0.4,0,0.9,0,1.3,0
			c1.6,0,3.3,0,4.9-0.1c0.6,0,1.1,0,1.7,0c2.3,0,4.7-0.1,7.4-0.1c3.6,0,7.2,0,10.7,0l1.6,0l0.6-0.5c0,0,3.2-2.6,4.9-3.9
			c1.5-1.1,5-4,5-4s-6.9,0.1-9.4,0c-2.2,0-4.5,0-7.2,0c-2.6,0-5.3,0-7.9,0.1l-23,0.3L9.7,2.7C7,5.1,3.9,7.6,0.7,9.9L0,10.4L1.8,10.4
			z"/>
	</g>
	<g>
		<g>
			<path class="st2" d="M12.3,0.7c-0.9,0.1-1.6,0.4-2,0.7c-0.8,0.4-1.4,0.9-2,1.3C6.9,3.7,5.5,4.8,4.1,5.8C3.6,6.3,3,6.7,2.9,7.1
				C2.7,7.5,3,7.8,4,8.1c1,0.2,2.4,0.2,3.8,0.2C19.3,8.4,31,8.3,42.9,8c0.8,0,1.7,0,2.5-0.2c0.6-0.1,1-0.3,1.4-0.4
				c1.1-0.5,1.8-0.9,2.4-1.4c1.7-1.3,3.3-2.5,4.8-3.8c0.6-0.5,1.1-1.1,0.2-1.4c-0.6-0.2-1.6-0.3-2.6-0.3c-1.3-0.1-2.6-0.1-4-0.1
				c-7.9,0-16,0-24.1,0.2C19.8,0.6,12.8,0.6,12.3,0.7z"/>
		</g>
		<g>
			<path class="st0" d="M12.2,3.6C11,3.9,10.3,4.3,9.8,4.6C9.7,4.8,9.5,5,9.6,5.1c0.2,0.4,1.4,0.5,2.9,0.5s3-0.4,3.8-0.8
				c0.3-0.1,0.5-0.3,0.6-0.4c0.5-0.4,0.9-0.8,0.3-1C17,3.3,14.5,3,12.2,3.6z"/>
		</g>
		<g>
			<g>
				<path class="st0" d="M37.8,3.9c0.6-0.9,1-2-1-2.5c-1.1-0.3-8-0.6-13,1.1c-2.6,0.9-3.8,2-4.2,2.9c-0.2,0.4-0.2,0.8,0.3,1.2
					c1.1,0.8,4.8,1.1,8.5,0.7C32,7,35.5,5.9,36.9,4.9C37.3,4.6,37.6,4.2,37.8,3.9z M35.2,3.5c-1.2,0-2.3,0-3.5,0
					c0.3-0.2,0.4-0.4,0-0.5c-0.5-0.1-1.8-0.1-2.5,0.2c-0.7,0.2-0.8,0.5-0.2,0.7c0.2,0.1,0.4,0.1,0.7,0.1c0.9,0.1,1.7,0.2,2.4,0.4
					c0.3,0.1,0.7,0.2,0.8,0.3c0.1,0.1,0.1,0.2,0,0.3c-0.1,0.2-0.3,0.4-0.8,0.6c-0.8,0.4-2.3,0.7-3.7,0.9c-0.3,0-0.7,0.1-1,0.1
					c-0.1,0.2-0.3,0.3-0.6,0.5c0,0-0.1,0.1-0.2,0.1c-0.2,0-0.4,0.1-0.6,0.1c-0.5,0-1,0-1.4,0c0,0-0.1,0-0.1,0c0,0,0,0,0,0
					c0.1-0.2,0.3-0.4,0.6-0.5c-0.3,0-0.7,0-1,0c-0.5,0-1-0.1-1.4-0.1c-0.6-0.1-0.8-0.4-0.7-0.6c0.1-0.2,0.4-0.5,0.7-0.7
					c1,0,1.9,0,2.8,0c-0.1,0.2-0.3,0.5,0.3,0.6c0.3,0.1,0.9,0.1,1.4,0c0.5-0.1,1-0.2,1.3-0.3c0.2-0.1,0.3-0.2,0.3-0.4
					c-0.1-0.3-0.8-0.4-1.5-0.6s-1.5-0.3-1.9-0.5c-0.6-0.3-0.2-0.8,0.7-1.1c0.3-0.1,0.6-0.2,1-0.3c0.4-0.1,0.9-0.2,1.4-0.3
					c0.8-0.1,1.7-0.2,2.5-0.3c0.2-0.2,0.3-0.3,0.5-0.5c0,0,0,0,0.1,0c0,0,0.1,0,0.1,0c0.7,0,1.3,0,2,0c0,0,0.1,0,0.1,0c0,0,0,0,0,0
					c-0.2,0.2-0.4,0.3-0.7,0.5c0.7,0,1.3,0.1,1.7,0.3C35.7,2.6,35.4,3.1,35.2,3.5L35.2,3.5z"/>
			</g>
		</g>
		<g>
			<g>
				<path class="st0" d="M47,4.6c0.3-0.1,0.5-0.3,0.6-0.4c0.5-0.4,0.9-0.8,0.3-1c-0.3-0.1-2.8-0.4-5.1,0.2c-1.2,0.3-1.9,0.7-2.4,1.1
					c-0.2,0.2-0.3,0.3-0.2,0.5c0.2,0.4,1.4,0.5,2.9,0.5C44.6,5.3,46.2,5,47,4.6z"/>
			</g>
			<g>
				<path class="st0" d="M57,0.5L57.6,0l-1.8,0c-0.8,0-1.6,0-2.4,0c-1,0-2.1,0-3.1,0.1c-0.3,0-0.6,0-0.9,0c-4.1,0-7.7,0-11.3,0
					c-0.4,0-0.9,0-1.3,0c-1.6,0-3.3,0-4.9,0.1c-0.6,0-1.1,0-1.7,0c-2.3,0-4.7,0.1-7.4,0.1c-3.6,0-7.2,0-10.7,0l-1.6,0L9.9,0.8
					c0,0-3.2,2.6-4.9,3.9c-1.5,1.1-5,4-5,4s6.9-0.1,9.4,0c2.2,0,4.5,0,7.2,0c2.6,0,5.3,0,7.9-0.1l23-0.3l0.5-0.5
					C50.6,5.4,53.7,2.9,57,0.5z M25,8c-5,0.1-10.1,0.1-15,0.1c-1.1,0-2.2,0-3.2,0C7,7.8,6.9,7.5,6.3,7.3C5.7,7.1,4.8,6.9,3.7,6.9
					c0.8-0.8,1.8-1.5,2.8-2.3C7.5,4,8.8,2.9,9.9,2.1c1.2,0,2.6-0.2,3.7-0.4c1.1-0.2,1.9-0.6,2.3-0.9c4.6,0,9.2,0,13.8-0.1
					c2.6,0,5.3-0.1,7.9-0.1c3.8,0,7.5,0,11.3,0c0.6,0,1.3,0,1.9,0c-0.3,0.3-0.2,0.6,0.2,0.8c0.5,0.2,1.5,0.4,2.6,0.4
					c-2.1,1.6-4.2,3.3-6.1,4.9c-1.1,0-2.2,0.2-3.3,0.4c-1.1,0.2-2,0.5-2.5,0.8C36.2,7.9,30.6,8,25,8z"/>
			</g>
		</g>
	</g>
</g>
</svg>
