<?xml version="1.0" encoding="utf-8"?>
<!-- Generator: Adobe Illustrator 21.0.0, SVG Export Plug-In . SVG Version: 6.00 Build 0)  -->
<svg version="1.1" id="Capa_1" xmlns="http://www.w3.org/2000/svg" xmlns:xlink="http://www.w3.org/1999/xlink" x="0px" y="0px"
	 viewBox="0 0 95 103.7" style="enable-background:new 0 0 95 103.7;" xml:space="preserve">
<style type="text/css">
	.st0{fill:#6E4012;}
</style>
<g id="ZhW7VP_1_">
	<g>
		<path class="st0" d="M48.1,103.7c-6.4-0.3-12.2-0.5-18-0.9c-5.3-0.4-10.6-1.3-15.6-3.2c-8.2-3-12.8-8.8-14-17.4
			c-1.7-12,1.9-22.4,9.4-31.6c5.3-6.5,11.9-11.3,19.7-14.3c0.7-0.3,1.3-0.3,2,0.2c2.8,1.8,5.9,2.6,9.2,2.8c4.7,0.4,9.5,0.2,14-1.4
			c1.7-0.6,3.2-1.7,4.8-2.6c0.6-0.3,1-0.5,1.7-0.3c14,4.8,24.4,13.7,30.7,27.1c2.9,6.2,3.6,12.9,2.6,19.7c-0.5,3.7-1.5,7.2-3.7,10.3
			c-2.5,3.6-6,5.9-10,7.4c-4.7,1.8-9.6,2.8-14.6,3.2C60,103.1,53.7,103.4,48.1,103.7z M48.2,51.7c0-1,0-2.1,0-3.2c0-0.7-0.2-1-0.9-1
			c-1.1,0-2.2,0-3.4,0c-0.6,0-0.9,0.3-0.9,0.9c0,0.8-0.1,1.6,0,2.5c0.1,1.1-0.3,1.7-1.4,1.8c-0.6,0.1-1.1,0.4-1.7,0.7
			c-5.6,2.8-6.7,10.7-1.3,14.3c2.1,1.4,4.5,2.3,6.8,3.4c0.9,0.4,1.8,0.9,2.5,1.5c1.6,1.4,1.2,3.8-0.7,4.6c-0.9,0.4-2,0.6-3.1,0.6
			c-2.4,0-4.6-0.7-6.7-1.8c-0.9-0.5-1.2-0.4-1.5,0.6c-0.4,1.2-0.6,2.4-1,3.5c-0.3,0.8-0.1,1.4,0.7,1.7c2.2,0.7,4.5,1.4,6.9,2.2
			c0,0.9,0,2.1,0,3.2c0,0.8,0.3,1.1,1.1,1.1c1.1,0,2.1,0,3.2,0c0.8,0,1.1-0.3,1.1-1.1c0-1.1,0-2.1,0-3.2c0-0.7,0.3-0.9,0.9-1.1
			c1.2-0.5,2.4-0.9,3.5-1.6c4.6-3,5.3-9.9,1.2-13.6c-1.4-1.3-3.2-2.1-4.9-3c-1.6-0.8-3.2-1.5-4.8-2.3c-1.2-0.6-1.6-1.6-1.4-2.7
			c0.2-1.1,1.3-1.9,2.7-2.1c2.4-0.3,4.7,0.2,6.9,1.2c1.2,0.6,1.3,0.5,1.7-0.8c0.3-1,0.5-2.1,0.9-3.1c0.4-1,0-1.5-0.9-1.8
			C52,52.7,50.2,52.2,48.2,51.7z"/>
		<path class="st0" d="M44.4,33.6c-3.7-0.2-7.1-0.5-10.4-1.7c-1.7-0.6-2.9-1.4-3.6-3.2c-1.8-4.5-3.7-8.9-5.6-13.3
			c-0.2-0.5-0.5-1-0.7-1.6c-1.4-2.9,0-5.2,3.2-5.2c2,0,4.1,0.1,6.1,0c2.7-0.1,4.7-1.4,5.5-4.2c0.2-0.9,0.7-1.7,1.3-2.4
			c2.2-2.8,5.8-2.8,7.9,0.1c0.7,0.9,1.2,2,1.7,3.1C50.9,8,52.1,8.5,54.6,7c1.5-0.9,3-1.7,4.8-1.9c2.6-0.3,4,1.2,3.5,3.7
			c-0.1,0.6-0.3,1.2-0.6,1.7c-2.3,4.5-3.9,9.2-4.4,14.2c-0.1,0.9-0.1,1.8-0.1,2.6c0.1,1.5-0.5,2.5-1.7,3.2c-2.7,1.7-5.7,2.3-8.8,2.7
			C46.2,33.5,45.2,33.5,44.4,33.6z"/>
	</g>
</g>
</svg>
