<?xml version="1.0" encoding="utf-8"?>
<!-- Generator: Adobe Illustrator 21.0.0, SVG Export Plug-In . SVG Version: 6.00 Build 0)  -->
<svg version="1.1" id="Capa_1" xmlns="http://www.w3.org/2000/svg" xmlns:xlink="http://www.w3.org/1999/xlink" x="0px" y="0px"
	 viewBox="0 0 67.8 48.3" style="enable-background:new 0 0 67.8 48.3;" xml:space="preserve">
<style type="text/css">
	.st0{fill:#4C2C0F;}
	.st1{fill:#6E4012;}
	.st2{fill:#FFFFFF;}
</style>
<g>
	<path class="st0" d="M37.6,29.2c5.1-8.8,10.4-17.5,16-26.1c0.5,0,0.8,0.6,0.8,1.1s-0.1,1-0.1,1.5c0.1,0.9,0.9,1.7,1.4,2.5
		c0.7,1.1,0.8,2.5,1.2,3.8c0.4,1.3,1,2.6,1.6,3.9c3.1,6.5,6.2,13,9.4,19.4c-8.4,0.2-16.8,0.3-25.2,0.5c-1.4,0-3,0-4.2-0.7
		c-1.2-0.8-1.8-2.6-0.9-3.7L37.6,29.2z"/>
</g>
<g>
	<path class="st1" d="M4.4,41.5c2.6-3.4,5.2-6.7,7.7-10.1c0.7-0.9,1.4-1.9,2.1-2.8c2-2.6,4-5.2,6-7.8c0.8-1,1.5-2,2.2-3.1
		c0.9-1.6,1.5-3.4,2.2-5.1c1.9-4.5,4.8-8.5,8.5-11.7c4.1,4.5,5.4,11.4,10.5,14.5c1.5,0.9,3.4,1.6,4.2,3.2c0.5,1,0.4,2.3,0.8,3.3
		c0.4,1,1.3,1.8,2,2.7c2.4,3,2.8,7.4,5.9,9.7c0.9,0.7,2,1.1,2.9,1.8c1.2,0.9,2,2.3,2.7,3.6c1.3,2.2,2.6,4.4,3.8,6.6
		c-7.8,1.8-16,0.3-24,0.9c-4.2,0.3-8.3,1.2-12.5,1.1c-2.8-0.1-5.5-0.6-8.3-0.8C14.1,46.9,6.8,48.4,0,46.3c1.6-1.8,3.2-3.5,4.7-5.3
		L4.4,41.5z"/>
</g>
<g>
	<path class="st2" d="M32.7,0.3C32,1,31.2,1.8,30.4,2.5c-0.7,0.6-1.3,1.3-1.9,2c-0.3,0.5-0.6,1-1.1,1.4c-0.3,0.3-0.8,0.6-1,1
		C26.2,7.2,26,7.6,25.9,8c-1.2,3.3-3.5,6.1-5.1,9.2c-0.1,0.3-0.3,0.6-0.3,0.8c0,0.3,0.1,0.6,0.4,0.8c0.4,0.2,0.9-0.1,1.2-0.4
		c0.4-0.3,0.8-0.6,1.3-0.7c0.5-0.1,1,0.1,1.2,0.6c0.1,0.3,0.1,0.7,0.1,1c0.1,0.8,0.9,1.5,1.7,1.5c0.9,0,1.5-0.7,2.1-1.3
		c0.5-0.7,1.1-1.4,1.9-1.7c0.2-0.1,0.4-0.1,0.6,0c0.3,0.1,0.4,0.4,0.6,0.6c0.4,0.7,1.3,1.2,2,0.8c0.5-0.3,0.6-1,0.8-1.6
		c0.3-0.7,0.8-1.3,1.5-1.7c0.2-0.1,0.4-0.1,0.5-0.1c0.2,0,0.3,0.2,0.4,0.3c0.3,0.4,0.6,0.7,0.9,1.1c0.2,0.2,0.4,0.5,0.7,0.5
		c0.4,0.1,0.9-0.3,1-0.7s0.1-0.9,0.2-1.3c0.1-0.4,0.3-0.9,0.7-1.1c0.5-0.2,1.2,0.2,1.7-0.1c0.6-0.2,0.7-1.1,0.4-1.7s-0.8-1-1.2-1.4
		c-0.7-0.8-1-1.8-1.4-2.7c-1.3-3.1-3.6-5.7-5.9-8.2c-0.3-0.4-0.9-0.8-1.3-0.4L32.7,0.3z"/>
</g>
<g>
	<path class="st2" d="M52.8,2.9c-0.6,0.9-1.2,1.8-1.8,2.7c-0.4,0.7-0.9,1.3-1.2,2c-0.5,0.9-0.8,1.8-1.2,2.7c0.6,0,1.2-0.2,1.6-0.6
		c0.2-0.1,0.4-0.2,0.5-0.1c0,0,0.1,0.1,0.1,0.2c0.1,0.3,0.2,0.6,0.5,0.7c0.3,0.1,0.6-0.1,0.8-0.3c0.4-0.2,0.8-0.3,1.3-0.2
		c0.4,0.1,0.8,0.4,0.9,0.9c0.1,0.3,0,0.6,0.2,0.8c0.3,0.3,0.8,0.1,1.2,0c0.4,0,0.9,0.2,1.1-0.2c0.1-0.1,0.1-0.3,0.1-0.5
		c0-2.1-2-3.6-2.3-5.7c-0.1-0.7,0-1.5-0.2-2.2c-0.2-0.7-0.9-1.3-1.5-1L52.8,2.9z"/>
</g>
</svg>
