<?xml version="1.0" encoding="utf-8"?>
<!-- Generator: Adobe Illustrator 21.0.0, SVG Export Plug-In . SVG Version: 6.00 Build 0)  -->
<svg version="1.1" id="Capa_1" xmlns="http://www.w3.org/2000/svg" xmlns:xlink="http://www.w3.org/1999/xlink" x="0px" y="0px"
	 viewBox="0 0 44.4 42.5" style="enable-background:new 0 0 44.4 42.5;" xml:space="preserve">
<style type="text/css">
	.st0{fill:#E4294D;}
	.st1{fill-rule:evenodd;clip-rule:evenodd;fill:#FFFFFF;}
</style>
<path class="st0" d="M9.1,2.4C7.2,3.4,5.5,4.9,4.2,6.6c-1.4,1.9-2.1,4.2-2.7,6.4c-1.1,4.3-1.9,8.7-1.4,13.1S2.8,35,6.4,37.5
	c2.2,1.5,4.7,2.3,7.2,3.1c2.3,0.7,4.6,1.4,7,1.7c2.9,0.4,5.8,0.1,8.7-0.3c5.1-0.8,10.6-2.8,13.2-7.2c1.8-3,1.9-6.7,1.8-10.1
	c-0.2-3.4-0.6-6.9-1.8-10.1c-1.1-3.2-3-6.3-5.7-8.5c-2.9-2.3-6.4-3.6-9.9-4.8C23.9,0.1,15.5-1.3,9.1,2.4z"/>
<polygon class="st1" points="18,17.8 18.4,17.8 18.8,17.9 19.3,18 19.7,18.2 20.1,18.5 20.5,18.8 20.9,19.1 21.3,19.5 21.8,20 
	22.2,20.6 22.6,20 23,19.5 23.5,19.1 23.9,18.7 24.3,18.5 24.7,18.2 25.1,18 25.6,17.9 26,17.8 26.4,17.8 26.8,17.8 27.2,17.8 
	27.6,17.9 28,18 28.4,18.2 28.8,18.3 29.2,18.5 29.5,18.7 29.9,18.9 30.3,19.1 30.7,19.3 31.1,19.5 31.5,19.7 31.8,19.9 32.2,20.1 
	32.6,20.2 33,20.4 33.3,20.5 33.7,20.6 34.1,20.6 34.5,20.7 34.8,20.7 35.2,20.6 35.6,20.5 35.9,20.3 36.3,20.1 36.7,19.9 37,19.5 
	37.4,19.1 37.8,18.7 37.8,19.2 37.7,19.8 37.6,20.4 37.4,20.9 37.2,21.4 37,22 36.8,22.5 36.5,23 36.2,23.5 35.8,24 35.4,24.5 
	35,24.9 34.6,25.3 34.1,25.7 33.6,26.1 33.1,26.5 32.6,26.8 32.1,27.1 31.5,27.4 31,27.6 30.4,27.8 29.8,27.9 29.2,28 28.6,28.1 
	28,28.2 27.4,28.2 26.8,28.1 26.2,28 25.6,27.8 25,27.6 24.4,27.4 23.9,27 23.3,26.7 22.7,26.2 22.2,25.8 21.6,26.2 21.1,26.7 
	20.5,27 19.9,27.4 19.3,27.6 18.7,27.8 18.1,28 17.5,28.1 16.9,28.2 16.3,28.2 15.7,28.1 15.1,28 14.5,27.9 14,27.8 13.4,27.6 
	12.8,27.4 12.3,27.1 11.8,26.8 11.2,26.5 10.7,26.1 10.2,25.7 9.8,25.3 9.4,24.9 8.9,24.5 8.6,24 8.2,23.5 7.9,23 7.6,22.5 7.3,22 
	7.1,21.4 6.9,20.9 6.8,20.4 6.7,19.8 6.6,19.2 6.6,18.7 7,19.2 7.3,19.6 7.7,19.9 8.1,20.2 8.5,20.4 8.9,20.5 9.3,20.6 9.6,20.7 
	10,20.7 10.4,20.6 10.8,20.5 11.2,20.4 11.6,20.3 12,20.1 12.4,20 12.8,19.8 13.2,19.5 13.6,19.3 14,19.1 14.4,18.9 14.8,18.7 
	15.2,18.5 15.6,18.3 16,18.2 16.4,18 16.8,17.9 17.2,17.8 17.6,17.8 "/>
<g>
</g>
<g>
</g>
<g>
</g>
<g>
</g>
<g>
</g>
</svg>
