<?xml version="1.0" encoding="utf-8"?>
<!-- Generator: Adobe Illustrator 21.0.0, SVG Export Plug-In . SVG Version: 6.00 Build 0)  -->
<svg version="1.1" id="Capa_1" xmlns="http://www.w3.org/2000/svg" xmlns:xlink="http://www.w3.org/1999/xlink" x="0px" y="0px"
	 viewBox="0 0 65.8 97.9" style="enable-background:new 0 0 65.8 97.9;" xml:space="preserve">
<style type="text/css">
	.st0{fill:#E3294D;}
	.st1{fill:#6E4012;}
</style>
<g>
	<g>
		<g>
			<path class="st0" d="M6.4,38.6c0.8,0,1.5-0.1,2.3-0.3c0.9-0.2,1.7-0.6,2.4-1.1c2.7-1.9,3.2-5.7,5.3-8.1c1.3-1.5,3.3-2.4,5.3-2.7
				c2-0.2,4.1,0.1,6,0.9c0.3,0.1,0.7,0.3,1,0.3s0.7-0.1,0.9-0.4c0.2-0.4,0-0.9-0.3-1.3c-0.3-0.5-1.1-2.8-3-3.9
				c-5.7-3.3-12.7-4.8-18.7-2.1c-2.8,1.3-5.2,3.3-6.5,6.1C0.3,27.6,0,29.5,0,31.4c0,1.8,0.3,3.8,1.6,5.1c0.6,0.6,1.4,1,2.2,1.3
				C4.6,38.2,5.5,38.6,6.4,38.6z"/>
		</g>
		<g>
			<path class="st0" d="M64.7,25.9c-1.3-2.7-3.8-4.8-6.5-6.1c-6-2.7-13-1.3-18.7,2.1c-2,1.2-2.7,3.4-3,3.9c-0.3,0.4-0.5,0.9-0.3,1.3
				c0.2,0.3,0.5,0.4,0.9,0.4s0.7-0.2,1-0.3c1.9-0.8,3.9-1.1,6-0.9c2,0.2,4,1.2,5.3,2.7c2.2,2.5,2.6,6.3,5.3,8.1
				c0.7,0.5,1.6,0.8,2.4,1.1c0.7,0.2,1.5,0.4,2.3,0.3c0.9-0.1,1.8-0.4,2.6-0.8c0.8-0.4,1.6-0.7,2.2-1.3c1.3-1.3,1.6-3.3,1.6-5.1
				C65.8,29.5,65.5,27.6,64.7,25.9z"/>
		</g>
		<g>
			<path class="st0" d="M27.7,11.1c1.6,3.5,3.1,7.1,4.7,10.6c0,0,0,0.1,0.1,0.1c0.1,0.1,0.3,0.1,0.4,0c0.1-0.1,0.2-0.2,0.2-0.4
				c0.9-2.7,2.5-5.1,3.7-7.7c1.3-2.5,2.4-5.3,2.2-8.2c-0.1-1.2-0.4-2.4-1.1-3.4c-0.4-0.5-0.9-0.8-1.4-1.2c-2.3-1.3-6.6-2.3-9.1,2.2
				C27,4.1,26.9,5.1,26.8,6c-0.1,0.8-0.1,1.6,0,2.4C26.9,9.4,27.3,10.3,27.7,11.1z"/>
		</g>
		<g>
			<path class="st1" d="M58.8,90.7c-1-0.5-2.1-0.9-3.1-1.4c-0.9-0.4-1.8-0.8-2.8-1.2c-1.1-4-2.1-8.1-3.6-12
				c-0.7-1.9-1.5-3.8-2.2-5.7c-1.3-3.3-2.3-6.8-3.3-10.2c-1.6-5.4-3.3-10.9-4.9-16.3c0.2,0,0.3,0,0.5,0c0.1,0,0.2,0,0.3-0.1
				c0.2-0.1,0.2-0.4,0.2-0.6c0.1-1.8,0-3.6-0.1-5.4c0-0.1,0-0.2-0.1-0.3c-0.1-0.1-0.2-0.1-0.3-0.1c-1.7-0.2-3.3-0.2-5-0.2
				c0-1.1-0.2-2.2,0-3.3c0-0.1,0-0.3-0.1-0.4c0,0-0.1,0-0.2,0c-0.9-0.1-1.9-0.1-2.8,0.1c-0.2,0.5-0.1,1.1-0.1,1.7
				c0,0.7,0.1,1.4,0.1,2c-1.1,0-2.1,0-3.2,0c-0.6,0-1.2,0-1.8,0.1c-0.2,0-0.3,0.1-0.4,0.2c-0.1,0.2-0.2,0.4-0.2,0.6
				c0,0.5-0.1,1.1-0.1,1.6c-0.1,1.3-0.1,2.6,0.3,3.9c0,0.1,0.1,0.3,0.2,0.4c0.1,0.1,0.3,0.1,0.4,0.1c0.3,0,0.6,0,0.9,0
				c-1.6,5.4-3.2,10.8-4.8,16.1c-1,3.4-2.1,6.9-3.3,10.2c-0.7,1.9-1.5,3.8-2.2,5.7c-1.4,3.9-2.5,8-3.6,12c0,0.1-0.1,0.3-0.1,0.5
				c-2.4,0.9-4.7,2-6.9,3.3c-1.1,0.6-2.3,1.4-2.7,2.6c-0.4,1.2,0.7,3.3,3,2c8-4.3,17.2-6.1,26.2-6.4c8.5-0.3,17.4,1.2,24.3,6.1
				c1.4,1,3.2,2.1,4.7,1.3c1.4-0.8,1.5-2.9,0.6-4.2C61.7,92.1,60.2,91.4,58.8,90.7z M47.2,79.9c0.1,0.3,0.2,0.6,0.3,0.9
				c-1.8,1.5-3.6,3.1-5.4,4.6c-1.8-2.3-5.1-5.3-6.6-6.8c0.9-1,1.8-1.9,2.7-2.9c0.8-0.9,1.6-1.7,2.6-2.5c0.6-0.5,1.3-1.1,1.9-1.6
				c0.3-0.3,0.7-0.7,1-1c0.1,0.1,0.2,0.2,0.3,0.3C45.1,73.8,46.2,76.8,47.2,79.9z M29.6,72.9c-0.8-0.8-1.6-1.6-2.4-2.5
				c-0.5-0.6-1-1.3-1.6-1.8c-0.3-0.3-0.7-0.7-1.1-1c1.9-1,3.5-2.6,5-4.2c1.1-1.1,2.2-2.3,3.3-3.4c0.4,0.5,0.9,1,1.3,1.5
				c1.8,2.1,4,4,6.1,5.8c0.1,0.1,0.2,0.2,0.4,0.3c-1,0.9-2,1.9-2.9,2.8c-0.6,0.5-1.2,1.1-1.7,1.7c-0.5,0.6-1,1.2-1.6,1.7
				c-0.6,0.6-1.2,1.1-1.8,1.6c0,0-0.1,0.1-0.1,0.1C31.5,74.7,30.6,73.8,29.6,72.9z M40.4,58.8c0.4,1.5,0.8,2.9,1.3,4.4
				c-0.5-0.6-1.1-1.1-1.7-1.6c-1.5-1.4-2.9-2.8-4.4-4.3c0.6-0.7,1.3-1.3,2-1.9c0.5-0.4,1-0.8,1.5-1.3C39.6,55.7,40,57.3,40.4,58.8z
				 M31,43.9c1.2-0.1,2.4-0.1,3.6-0.1c0.3,0,0.5,0,0.8,0c0.2,0.9,0.7,1.8,1.1,2.7c0.5,1.1,1,2.1,1.4,3.2c-1.1,1-2.2,2-3.3,3.1
				c-0.6,0.5-1.1,1-1.6,1.6c0,0,0,0.1-0.1,0.1c-0.3-0.3-0.6-0.6-0.9-1c-0.5-0.6-1-1.3-1.6-1.8c-0.3-0.4-1.3-1.2-1.9-1.8
				c0.4-1.2,0.9-2.3,1.4-3.4C30.3,45.7,30.8,44.8,31,43.9z M27.1,54.2c0.8,0.8,1.5,1.6,2.3,2.4c0.2,0.2,0.4,0.4,0.6,0.6
				c-0.1,0.1-0.3,0.2-0.4,0.3c-1.7,1.5-3.2,3.1-4.7,4.8c0.4-1.2,0.7-2.4,1-3.6C26.3,57.3,26.7,55.8,27.1,54.2z M22.2,70.8
				c0.8,0.9,1.7,1.8,2.5,2.7c0.5,0.6,1,1.1,1.6,1.6c0.5,0.5,1.1,1,1.6,1.5c0.5,0.5,1,1.2,1.5,1.7c0,0,0.1,0.1,0.1,0.1
				c-1,1.1-2,2.3-3,3.5c-0.9,1-2,2.2-3,3.4c-1.6-1.4-3.3-2.8-4.9-4.2c0.2-0.4,0.3-0.9,0.5-1.3C20.1,76.9,21.2,73.8,22.2,70.8z
				 M17.4,84.7c0.7,0.6,1.4,1.2,2.1,1.8c0.1,0.1,0.2,0.1,0.3,0.2c-1.2,0.3-2.3,0.6-3.5,1C16.7,86.6,17,85.6,17.4,84.7z M30.8,85.3
				c-0.7,0-1.4,0-2.1,0.1c1.5-1.2,3-2.6,3.9-3.6c0,0,0-0.1,0.1-0.1c0.9,0.9,1.9,1.7,2.9,2.6c0.5,0.4,1,0.8,1.4,1.2
				C34.9,85.4,32.9,85.3,30.8,85.3z M46.1,86.5C46.1,86.4,46.1,86.4,46.1,86.5c1-0.7,1.9-1.5,2.7-2.3c0.4,1,0.7,2,1.1,3
				C48.6,86.9,47.3,86.6,46.1,86.5z"/>
		</g>
	</g>
</g>
<g>
</g>
<g>
</g>
<g>
</g>
<g>
</g>
<g>
</g>
</svg>
