<?xml version="1.0" encoding="utf-8"?>
<!-- Generator: Adobe Illustrator 21.0.0, SVG Export Plug-In . SVG Version: 6.00 Build 0)  -->
<svg version="1.1" id="Capa_1" xmlns="http://www.w3.org/2000/svg" xmlns:xlink="http://www.w3.org/1999/xlink" x="0px" y="0px"
	 viewBox="0 0 194.3 114.6" style="enable-background:new 0 0 194.3 114.6;" xml:space="preserve">
<style type="text/css">
	.st0{fill:#E7B769;}
	.st1{fill:#D39F55;}
	.st2{fill:#DAA55A;}
	.st3{opacity:0.66;fill:#DAA55A;}
</style>
<g>
	<g>
		<path class="st0" d="M15.5,39.8c-17.4,9.4-18.2,24.8-12,35.3C9.8,85.9,28,95.4,47.6,83C60.7,74.6,64.4,66,73.3,61.3
			c8.9-4.8,18.8-3.5,33.1-9.9c21.4-9.6,21.4-28.9,14.4-39.2C113.9,2,98.9-4.9,81.5,4.4C80.3,5,79.1,5.7,78,6.5
			c-13.3,8.6-17.2,15.7-26.2,20.9C42.5,32,33.9,31.6,19.2,38C17.9,38.6,16.7,39.2,15.5,39.8L15.5,39.8z M15.5,39.8"/>
		<path class="st1" d="M17.7,42.5c-0.7,0.4-1.6,0.9-2.5,1.5c-2.2,1.4-4.6,3.4-6.8,6.1C6,52.9,4.3,56,2.9,59.2
			c-1.2,2.9-2,5.7-2.5,7.9c0.1,0.6,0.2,1.1,0.4,1.7c0.7-2.3,1.8-5.5,3.5-9.1c1.5-3.1,3.3-6,5.6-8.6c2.2-2.5,4.5-4.2,6.5-5.5
			c1.7-1.1,3.3-1.8,3.9-2.1c1.1-0.5,2.2-1,3.4-1.4c5.1-1.8,10.5-2.7,16-3.8c5.4-1.1,10.9-2.6,15.7-5.4c3.2-1.9,6.2-4,9-6.3
			c2.2-1.8,4.2-3.8,6.2-5.9c1.7-1.8,3.4-3.6,5.1-5.2c1.4-1.3,2.8-2.4,4.3-3.5c0.3-0.2,0.9-0.6,1.6-1c1.6-1,4.1-2.2,7.3-3.3
			c3.3-1.1,7-1.7,11-2c5.1-0.3,9.7,0.1,13.5,0.7c1.1,0.2,1.9,0.3,2.7,0.5c-0.4-0.3-0.8-0.7-1.2-1c-0.4-0.1-0.9-0.2-1.3-0.3
			c-3.7-0.9-8.5-1.6-13.8-1.5C95.9,4.4,92,5,88.4,6c-3.5,1-6.2,2.3-8,3.3c-0.8,0.5-1.4,0.9-1.8,1.1c-1.7,1.1-3.2,2.4-4.6,3.7
			c-1.9,1.7-3.5,3.5-5.2,5.3c-1.9,2-3.9,3.9-6,5.7c-2.7,2.3-5.6,4.3-8.7,6.1c-4.4,2.6-9.6,3.9-14.9,5.1c-5.4,1.1-11,2.1-16.3,3.9
			c-1.2,0.4-2.4,0.9-3.6,1.5C19,41.8,18.4,42.1,17.7,42.5L17.7,42.5z M87.6,19.3c-1.4,0.8-2.5,1.5-2.9,1.8c-2.7,1.8-5.1,3.8-7.5,5.8
			c-3.9,3.3-7.8,6.7-11.8,9.8c-4.2,3.2-9.1,5.6-14.2,7.6c-4.9,1.9-10,3.5-15.2,4.6c-2.7,0.9-5.4,1.9-7.9,3.1
			c-0.7,0.3-2.8,1.3-5.2,2.9C20,56.7,17,59,14.1,62.1c-3.1,3.2-6.3,7.7-8.3,10.2c-0.9,1.2-1.6,2.1-2.3,2.9c0.1,0.2,0.2,0.3,0.3,0.5
			C4.6,75,5.5,74,6.6,72.9c2.5-2.7,5.5-6.5,8.9-9.7c2.9-2.8,5.9-5,8.6-6.6c2.3-1.4,4.3-2.3,5-2.6c2.4-1.1,5-2.1,7.5-2.9
			c5.3-1.1,10.5-2.7,15.4-4.7c5.2-2.1,10.4-4.6,14.8-8c4.1-3.2,8-6.6,11.9-9.9c2.4-2,4.8-3.9,7.3-5.6c0.4-0.3,1.4-1,2.7-1.7
			c3.1-1.9,7.3-3.8,13-5.3c5.2-1.4,10.2-2.2,14.5-2.9c1.9-0.3,3.3-0.5,4.5-0.6c0,0,0-0.1-0.1-0.1c-0.1-0.1-0.2-0.3-0.3-0.4
			c-1.1,0-2.5,0.1-4.2,0.2c-4.3,0.3-9.5,0.9-14.8,2.2C95.4,15.5,91,17.4,87.6,19.3L87.6,19.3z M4.4,76.5c0.1,0.2,0.2,0.3,0.4,0.5
			c1-0.1,2.3-0.3,3.8-0.4c3.4-0.3,9.2-0.8,13.8-1.6c4.3-0.8,8-2.1,11.1-3.4c2.6-1.2,4.6-2.4,5.3-2.8c2.4-1.5,4.7-3.1,6.8-4.8
			C49.1,60.3,53,57,57.3,54c4.4-3.1,9.1-5.9,14.2-7.6c4.9-1.7,10-3.1,15.1-4.7c3.1-0.9,6.2-1.9,9.2-3.2c0.5-0.2,1.7-0.7,3.1-1.4
			c3.4-1.8,7.4-4.4,11.7-8.5c3.8-3.7,6.9-7.6,9.4-10.8c0.9-1.3,1.7-2.3,2.3-3.2c-0.1-0.2-0.2-0.4-0.3-0.6c-0.7,0.9-1.6,1.9-2.8,3.2
			c-2.7,3.1-5.9,6.7-9.8,10.2c-4.3,3.8-8.1,6.2-11.4,7.8c-1.3,0.7-2.5,1.2-3,1.3c-2.9,1.2-5.9,2.2-8.9,3.1c-5.1,1.5-10.2,3-15.2,4.7
			c-5.4,1.9-10.3,4.8-14.8,7.9c-4.3,3-8.4,6.4-12,10.1c-2,1.7-4.2,3.2-6.5,4.6c-0.6,0.4-2.5,1.5-4.9,2.7c-2.9,1.4-6.4,2.7-10.5,3.6
			c-4.7,1.1-9.7,1.7-13.5,2.3C6.7,75.9,5.4,76.2,4.4,76.5L4.4,76.5z M10,82.4c0.6,0.4,1.2,0.9,1.8,1.3c2.2,0.6,5,1.3,8,1.7
			c3.7,0.5,7.5,0.7,11.3,0.2c3.6-0.4,6.7-1.4,9.1-2.5c2.1-0.9,3.6-1.9,4.2-2.2c1.1-0.7,2.1-1.4,3.2-2.2c4.4-3.4,8-7.4,11.8-11.2
			c3.7-3.7,7.5-7.2,12.1-9.5c3.2-1.6,6.6-2.9,10-4c2.7-0.8,5.5-1.4,8.3-2c2.5-0.5,5-0.9,7.6-1.6c2-0.5,3.9-1.1,5.8-1.9
			c0.4-0.1,1-0.4,1.9-0.9c1.9-0.9,4.4-2.4,7.1-4.7c2.7-2.3,5.2-5.2,7.3-8.4c2.6-4,4.2-7.9,5.2-11.2c-0.1-0.7-0.2-1.3-0.3-2
			c-0.1,0.4-0.3,0.8-0.5,1.2c-1.3,3.3-3.1,7.2-6,11.2c-2.2,3.1-4.7,5.7-7.3,7.8c-2.6,2.1-5,3.4-6.7,4.3c-0.8,0.4-1.4,0.6-1.8,0.8
			c-1.7,0.7-3.6,1.3-5.4,1.8c-2.4,0.6-4.9,1-7.4,1.5c-2.9,0.6-5.7,1.2-8.6,2c-3.6,1.1-7.1,2.5-10.4,4.1c-5,2.5-9.1,6.2-12.8,9.9
			c-3.8,3.8-7.3,7.8-11.5,11c-1,0.7-1.9,1.4-3,2.1c-0.5,0.3-2,1.2-3.9,2.1c-2.2,1-5,2-8.4,2.5c-3.5,0.6-7.2,0.6-10.8,0.2
			C16,83.7,12.5,83,10,82.4L10,82.4z M10,82.4"/>
		<path class="st2" d="M104.8,7.7c-0.4,0-0.6,0-0.8,0c-2.1,0.4-1,4.4,0.4,4.3c2.9-0.2,5.6-0.3,8.6-0.7c0.5-0.1,0.4-0.6,0.4-1.1
			C113.8,8.7,107.4,7.7,104.8,7.7L104.8,7.7z M97.2,8.9c-3.8,0.1-10.7,1.5-10.8,3.7c-0.1,1.4,0.3,3.8,2.2,4c0.8,0,3.4-0.3,5.8-1.3
			c2.6-1.1,3.5-0.8,5.3-1.9c1.3-1,1.5-1.9,0.1-4.2C99.5,9,98.5,8.9,97.2,8.9L97.2,8.9z M82.9,13.9c-0.6,0-1.2,0.6-1.6,0.8
			c-2.1,1.1-9.1,7.1-9.3,8.3c-0.3,1.4,1.8,3.1,3.5,2.8c1,0.1,2.9-2.1,4.8-3.5c2.1-1.5,4.8-3.3,5.1-3.9c0.9-1.3-1-3.3-2-4.4
			C83.3,13.9,83.1,13.9,82.9,13.9L82.9,13.9z M113.7,17.1c-3.3,0-10.1,2.4-10.8,3.7c0.2,1.2,1.1,3.1,2.3,3.8c2.7,1.3,9.4-6,9.5-7.4
			C114.4,17.1,114.1,17.1,113.7,17.1L113.7,17.1z M119.8,20.4c-0.1,0-0.3,0-0.4,0.2c-1.9,2.1-3.3,4.3-4.9,6.5
			c-0.8,1.1,2.4,4,3.9,2.5c1-1,4.1-8.3,2.2-8.7C120.3,20.6,120,20.4,119.8,20.4L119.8,20.4z M99.7,21.5c-2.3,0.1-8.7,3.3-10.6,5.5
			c-0.7,0.7,3.1,5.7,3.7,5.9c0.9,0.3,8.9-2.8,10.5-5.8c0.5-1.7-2-3.7-2.7-5.3C100.4,21.5,100.1,21.4,99.7,21.5L99.7,21.5z
			 M70.1,25.2c-0.4,0-0.7,0.1-1.2,0.4c-1.8,1.8-2.5,2.4-5.9,4.9c-2.7,2-6.1,3.6-5.8,5.1c0.1,0.6,0.9,2.1,1.4,2.5
			c1.7,1.2,15.6-9.2,13.7-10.9C71.9,26.7,71.2,25.3,70.1,25.2L70.1,25.2z M86,28.6c-1.8-0.2-10.8,7.5-10.9,8.9
			c0,0.6,1.1,1.5,1.6,1.5c3.4-0.5,12.6-4.3,12.7-4.5c0.7-1.9-2.1-5.5-3.3-5.8C86.1,28.7,86.1,28.6,86,28.6L86,28.6z M111.6,30.1
			c-0.4,0-0.8,0.1-1.4,0.2c-1.8,0.9-2.1,1.8-4.4,3.3c-2.1,1.4-3.7,3.3-4.1,4c-0.7,1.6,1.4,3.1,2.8,3.7c2.8,1.2,10.3-7.7,9.7-9.1
			C113.2,30.7,112.5,30.1,111.6,30.1L111.6,30.1z M54.8,36.1c-1.5,0-4.2,1.5-6.7,2.4c-4,1.5-4.8,1.8-7.5,2.4
			c-2.2,0.7-0.5,2.7-0.2,3.6c0.6,2.3,17.2-3.9,17-5.8c-0.1-0.6-1.2-2-1.7-2.4C55.4,36.2,55.1,36.1,54.8,36.1L54.8,36.1z M72.7,37.6
			c-1.6,0.1-6.4,4-8.2,4.8c-1.2,0.6-0.9,1.4-0.9,1.7c0.3,2.8,10.4-2.9,10.8-3.8c0.4-0.9-0.9-2.2-1.4-2.6
			C73,37.7,72.8,37.6,72.7,37.6L72.7,37.6z M98.6,39.2c-0.7,0-3.8,1.3-6.2,2.2c-2.4,0.9-5.3,1.3-5.7,2.1c-1.1,1.2-0.5,3.8,0.9,4.2
			c1.2,0.4,10.3-2.2,12.4-3.4c0.6-0.3,2-0.6,1.7-1.5C101.2,41.6,100.2,39.1,98.6,39.2L98.6,39.2z M36.4,42.1c-2,0-10.1,2.4-12.1,3.5
			c-0.6,0.3-1.9,0.6-1.7,1.5c0.5,1.3,1.5,3.8,3.2,3.7c0.7,0,3.7-1.3,6.2-2.2c2.3-0.9,5.3-1.4,5.7-2.2c1.1-1.3,0.5-3.8-1-4.2
			C36.6,42.2,36.5,42.1,36.4,42.1L36.4,42.1z M82.6,44.8c-4.1,0-15.9,4.5-15.7,6.2c0.1,0.6,1.2,2,1.7,2.4c1.2,1,4.4-1,7.6-2.1
			c4-1.5,4.8-1.7,7.5-2.3c2.2-0.7,0.5-2.7,0.2-3.6C83.8,44.9,83.3,44.8,82.6,44.8L82.6,44.8z M59.7,45.2c-0.3,0-0.6,0.1-0.9,0.3
			c-1.9,1.1-9.1,3.2-8.7,4.5c0.1,0.6,0.7,2.3,1.8,2.4c1,0.1,11.5-5.2,9-6.8C60.6,45.5,60.2,45.2,59.7,45.2L59.7,45.2z M19.2,48.6
			c-3.2,0-9.6,7.9-9,9.3c1.5,2.2,2.4,2.5,4,1.9c1.8-0.9,2.1-1.8,4.3-3.3c2.1-1.4,3.7-3.3,4-4c0.7-1.6-1.4-3.1-2.8-3.7
			C19.6,48.6,19.4,48.6,19.2,48.6L19.2,48.6z M48.1,51.5C45.2,51.5,34.9,54.6,35,56c-0.3,1.1,1.6,5.1,3.8,5.5
			c0.2,0,8.5-5.4,10.6-7.9c0.3-0.4,0-1.8-0.6-2C48.6,51.5,48.4,51.5,48.1,51.5L48.1,51.5z M65.1,51.6c-2.9,0.2-15.1,9.3-13.4,10.8
			c0.7,0.7,1.8,3,3.5,1.6c1.9-1.8,2.6-2.4,5.9-4.8c2.7-1.9,6.1-3.6,5.8-5c-0.1-0.6-0.8-2.2-1.4-2.5C65.4,51.7,65.3,51.6,65.1,51.6
			L65.1,51.6z M31.9,57.4c-3.5,0.5-11.6,5.2-10.6,6.5c1.2,1.4,1.8,4.4,3.6,4.8c3.5,0.3,10.5-4.6,10.7-5.5
			C35.6,62.7,32.9,57.3,31.9,57.4L31.9,57.4z M8.6,60.5c-0.4,0-0.7,0.1-1,0.4c-1,1-4,8.3-2.2,8.8c0.4,0.3,0.9,0.6,1.2,0.2
			c1.9-2.1,3.2-4.3,4.8-6.5C12.1,62.5,10.1,60.4,8.6,60.5L8.6,60.5z M49,63.7c-0.1,0-0.2,0-0.3,0c-1-0.1-2.9,2-4.9,3.5
			c-2.1,1.5-4.8,3.3-5.2,3.9c-0.9,1.3,1,3.3,1.9,4.4c0.7,0.7,1.6-0.3,2.2-0.6c2.1-1.1,9.1-7.1,9.4-8.2C52.4,65.3,50.6,63.7,49,63.7
			L49,63.7z M19.2,65.4c-1.7-0.1-8.4,5.1-9.2,7.6c1.3,0.6,11.5-1.1,11.6-3.9C21.5,67.8,20.3,66.1,19.2,65.4L19.2,65.4z M35.5,72.9
			c-0.8,0-3.4,0.3-5.8,1.3c-2.6,1.1-3.5,0.8-5.3,1.8c-1.3,1-1.5,1.9-0.2,4.2c1,1.2,13.1-0.3,13.3-3.2C37.7,75.6,37.4,73.1,35.5,72.9
			L35.5,72.9z M19.7,76.4c-2.9,0.2-5.6,0.2-8.6,0.7c-0.5,0.1-0.4,0.6-0.4,1.1c-0.5,1.7,7.9,2.9,9.3,2.6
			C22.3,80.3,21.2,76.3,19.7,76.4L19.7,76.4z M19.7,76.4"/>
	</g>
	<path class="st3" d="M124.7,23.4C124.7,23.4,124.8,23.4,124.7,23.4c-0.1-0.7-0.2-1.4-0.3-2c0,0,0,0,0,0c-0.5-2.5-1.3-4.8-2.4-6.9
		c0,0,0,0,0,0c0,0,0-0.1-0.1-0.1c-0.1-0.1-0.1-0.2-0.2-0.3c0,0,0-0.1-0.1-0.1c0,0,0,0,0,0c-0.3-0.6-0.6-1.1-1-1.7c0,0,0,0,0,0
		c0,0,0,0,0,0c0,0,0,0,0-0.1c0,0,0,0,0-0.1c-0.1-0.1-0.2-0.2-0.3-0.4c0,0,0,0,0,0c-1.2-1.7-2.6-3.3-4.2-4.7c0,0,0,0,0,0
		c0,0-0.1,0-0.1-0.1c-0.1-0.1-0.3-0.2-0.4-0.4c-0.2-0.2-0.4-0.4-0.7-0.6c0,0,0,0-0.1,0c-7.9-6.3-20-8.9-33.6-1.7
		C80.3,5,79.1,5.7,78,6.5c-13.3,8.6-17.2,15.7-26.2,20.9C42.5,32,33.9,31.6,19.2,38c-1.3,0.6-2.5,1.2-3.7,1.8
		C2.2,47-1.4,57.7,0.5,67.1c0,0,0,0,0,0c0.1,0.5,0.2,1,0.3,1.5c0,0.1,0,0.1,0,0.2c0,0,0,0,0,0c0,0,0,0,0,0c0.6,2.2,1.5,4.4,2.7,6.3
		c0,0,0,0,0,0l0,0c0.1,0.2,0.2,0.3,0.3,0.5c0,0,0,0,0,0c0.2,0.3,0.4,0.5,0.5,0.8c0,0,0,0,0,0c0.1,0.2,0.2,0.3,0.4,0.5c0,0,0,0,0,0
		c1.4,1.9,3.2,3.8,5.3,5.4c0,0,0,0,0,0c0,0,0.1,0.1,0.1,0.1c0.3,0.2,0.5,0.4,0.8,0.6c0.3,0.2,0.5,0.4,0.8,0.6c0,0,0,0,0.1,0
		c8.8,5.9,21.9,8.1,35.8-0.7C60.7,74.6,64.4,66,73.3,61.3c8.9-4.8,18.8-3.5,33.1-9.9C121.4,44.7,125.8,33.2,124.7,23.4z"/>
	<g>
		<path class="st0" d="M64.3,51.4C43.6,63.5,42.6,83.4,50,96.9c7.5,13.8,29.1,26.1,52.4,10.1c15.6-10.7,19.9-21.8,30.5-27.9
			c10.5-6.2,22.4-4.5,39.4-12.8C197.8,54,197.7,29,189.4,15.7c-8.2-13.1-26-22.1-46.7-10.1c-1.4,0.8-2.8,1.7-4.2,2.7
			c-15.8,11.1-20.5,20.3-31.1,26.9c-11,6-21.3,5.6-38.8,13.8C67.1,49.8,65.6,50.6,64.3,51.4L64.3,51.4z M64.3,51.4"/>
		<path class="st1" d="M66.9,54.8c-0.9,0.5-1.9,1.1-3,1.9c-2.6,1.8-5.5,4.4-8.1,7.9c-2.7,3.6-4.8,7.7-6.4,11.8
			c-1.4,3.8-2.4,7.3-2.9,10.2c0.1,0.7,0.3,1.5,0.5,2.2c0.8-3,2.1-7.1,4.1-11.7c1.8-4,3.9-7.7,6.6-11.1c2.6-3.2,5.3-5.5,7.8-7.1
			c2.1-1.4,4-2.3,4.6-2.6c1.3-0.7,2.7-1.2,4.1-1.8c6-2.3,12.5-3.5,19.1-5c6.4-1.4,12.9-3.3,18.6-6.9c3.8-2.4,7.4-5.1,10.7-8.2
			c2.6-2.4,5-5,7.3-7.6c2-2.3,4-4.6,6.1-6.7c1.6-1.6,3.3-3.1,5.2-4.5c0.3-0.3,1-0.8,1.9-1.3c1.9-1.3,4.8-2.9,8.7-4.3
			c3.9-1.4,8.3-2.3,13.1-2.6c6.1-0.4,11.6,0.2,16.1,1c1.3,0.2,2.3,0.4,3.2,0.6c-0.5-0.4-0.9-0.9-1.4-1.3c-0.5-0.1-1-0.3-1.6-0.4
			c-4.4-1.2-10.1-2-16.4-1.9c-4.9,0.1-9.5,0.9-13.8,2.2c-4.2,1.3-7.3,3-9.5,4.3c-1,0.6-1.7,1.1-2.1,1.4c-2,1.4-3.8,3.1-5.5,4.8
			c-2.2,2.2-4.2,4.6-6.2,6.8c-2.3,2.6-4.6,5.1-7.1,7.3c-3.2,2.9-6.7,5.5-10.3,7.9c-5.2,3.4-11.4,5.1-17.7,6.5
			c-6.4,1.5-13.1,2.7-19.4,5.1c-1.5,0.6-2.9,1.2-4.3,1.9C68.4,53.9,67.7,54.3,66.9,54.8L66.9,54.8z M150,24.9c-1.7,1-3,1.9-3.4,2.3
			c-3.2,2.3-6.1,4.9-8.9,7.5c-4.7,4.3-9.3,8.6-14.1,12.7c-5,4.2-10.8,7.2-16.9,9.9c-5.8,2.5-11.9,4.5-18,5.9c-3.2,1.1-6.4,2.4-9.4,4
			c-0.8,0.4-3.3,1.7-6.2,3.7c-3.4,2.3-6.9,5.4-10.3,9.3c-3.7,4.2-7.5,9.9-9.9,13.2c-1.1,1.5-2,2.7-2.7,3.7c0.1,0.2,0.3,0.4,0.4,0.7
			c0.9-0.9,2-2.1,3.3-3.6c3-3.5,6.5-8.3,10.5-12.5c3.5-3.6,7-6.4,10.2-8.5c2.7-1.8,5.2-3,5.9-3.4c2.9-1.5,5.9-2.7,9-3.8
			c6.3-1.5,12.4-3.5,18.4-6c6.2-2.7,12.3-5.9,17.6-10.3c4.9-4.1,9.5-8.5,14.2-12.7c2.8-2.6,5.6-5.1,8.7-7.3c0.4-0.3,1.7-1.3,3.2-2.2
			c3.7-2.4,8.7-4.9,15.5-6.9c6.2-1.8,12.2-2.9,17.2-3.7c2.3-0.4,3.9-0.6,5.3-0.8c0,0-0.1-0.1-0.1-0.1c-0.1-0.2-0.2-0.4-0.3-0.5
			c-1.4,0-3,0.1-5,0.3c-5.1,0.4-11.3,1.2-17.6,2.8C159.3,20,154,22.5,150,24.9L150,24.9z M51,98.6c0.1,0.2,0.3,0.4,0.4,0.7
			c1.2-0.2,2.7-0.3,4.5-0.5c4.1-0.4,10.9-1,16.4-2.1c5.1-1.1,9.5-2.7,13.2-4.4c3.1-1.5,5.5-3.1,6.3-3.6c2.8-1.9,5.5-4,8.1-6.2
			c4.3-4.7,9-8.9,14-12.8c5.3-4,10.8-7.6,16.9-9.8c5.9-2.2,11.9-4.1,18-6c3.7-1.2,7.3-2.5,10.9-4.1c0.6-0.3,2-0.9,3.7-1.9
			c4.1-2.3,8.8-5.7,13.9-11c4.5-4.7,8.3-9.8,11.1-14c1.1-1.6,2-3,2.7-4.2c-0.1-0.2-0.2-0.5-0.4-0.7c-0.9,1.1-1.9,2.4-3.3,4.2
			c-3.2,4-7.1,8.7-11.7,13.2c-5.1,4.9-9.7,8.1-13.6,10.1c-1.6,0.8-3,1.5-3.5,1.7c-3.4,1.5-7,2.8-10.6,4c-6,2-12.1,3.8-18.1,6.1
			c-6.4,2.4-12.3,6.1-17.6,10.2c-5.1,3.9-9.9,8.3-14.3,13c-2.4,2.2-5,4.2-7.7,5.9c-0.7,0.5-3,2-5.9,3.5c-3.4,1.8-7.6,3.4-12.5,4.7
			c-5.6,1.4-11.6,2.2-16.1,3C53.8,97.9,52.2,98.3,51,98.6L51,98.6z M57.7,106.3c0.7,0.6,1.4,1.1,2.1,1.7c2.7,0.8,5.9,1.7,9.5,2.2
			c4.4,0.7,9,0.9,13.5,0.3c4.3-0.6,8-1.8,10.8-3.2c2.5-1.2,4.3-2.4,5-2.8c1.3-0.9,2.6-1.8,3.8-2.8c5.2-4.4,9.6-9.6,14-14.4
			c4.4-4.7,8.9-9.3,14.4-12.2c3.8-2,7.8-3.8,11.9-5.1c3.2-1.1,6.5-1.9,9.9-2.6c3-0.6,6-1.2,9-2c2.3-0.6,4.6-1.4,6.9-2.4
			c0.4-0.2,1.2-0.6,2.3-1.1c2.2-1.2,5.2-3.1,8.4-6.1c3.2-3,6.2-6.7,8.7-10.9c3.1-5.1,5-10.2,6.2-14.5c-0.1-0.9-0.2-1.7-0.3-2.6
			c-0.2,0.5-0.3,1-0.5,1.6c-1.5,4.3-3.7,9.3-7.1,14.4c-2.6,3.9-5.5,7.3-8.7,10.1c-3.1,2.7-5.9,4.4-8,5.5c-0.9,0.5-1.7,0.8-2.1,1
			c-2.1,0.9-4.2,1.7-6.4,2.3c-2.9,0.8-5.8,1.3-8.8,2c-3.4,0.7-6.8,1.5-10.2,2.6c-4.3,1.4-8.4,3.2-12.4,5.3c-6,3.2-10.8,8-15.2,12.8
			c-4.5,4.9-8.7,10-13.7,14.1c-1.1,0.9-2.3,1.8-3.5,2.7c-0.6,0.4-2.4,1.6-4.6,2.7c-2.6,1.3-6,2.6-10,3.3c-4.2,0.7-8.6,0.7-12.9,0.3
			C64.8,107.9,60.7,107,57.7,106.3L57.7,106.3z M57.7,106.3"/>
		<path class="st2" d="M170.5,9.9c-0.4,0-0.8,0-1,0.1c-2.5,0.6-1.2,5.7,0.5,5.6c3.4-0.3,6.7-0.3,10.2-0.9c0.6-0.1,0.5-0.8,0.4-1.4
			C181.2,11.3,173.5,10,170.5,9.9L170.5,9.9z M161.4,11.5c-4.6,0.1-12.7,2-12.9,4.8c-0.1,1.8,0.4,4.9,2.6,5.2c1,0,4-0.4,6.8-1.7
			c3.1-1.4,4.2-1.1,6.3-2.4c1.6-1.3,1.8-2.4,0.2-5.4C164.1,11.6,163,11.4,161.4,11.5L161.4,11.5z M144.4,17.9c-0.7,0-1.4,0.8-2,1.1
			c-2.5,1.4-10.8,9.2-11.1,10.7c-0.3,1.8,2.2,4,4.2,3.7c1.2,0.1,3.4-2.7,5.7-4.6c2.5-2,5.7-4.3,6.1-5c1-1.6-1.2-4.2-2.4-5.6
			C144.9,18,144.6,17.9,144.4,17.9L144.4,17.9z M181,22.1c-4,0-12.1,3.1-12.9,4.7c0.2,1.6,1.3,4,2.7,4.9c3.2,1.7,11.2-7.7,11.3-9.5
			C181.8,22.1,181.4,22.1,181,22.1L181,22.1z M188.2,26.3c-0.2,0-0.3,0-0.5,0.2c-2.2,2.8-3.9,5.6-5.8,8.4c-1,1.4,2.8,5.1,4.6,3.2
			c1.1-1.3,4.9-10.7,2.7-11.3C188.8,26.6,188.5,26.3,188.2,26.3L188.2,26.3z M164.3,27.7c-2.8,0.1-10.3,4.3-12.6,7.1
			c-0.8,1,3.7,7.3,4.4,7.6c1,0.4,10.6-3.7,12.4-7.5c0.6-2.2-2.4-4.7-3.2-6.9C165.2,27.8,164.8,27.7,164.3,27.7L164.3,27.7z
			 M129.2,32.5c-0.4,0-0.9,0.1-1.4,0.6c-2.2,2.4-3,3.1-7,6.3c-3.2,2.5-7.3,4.7-6.8,6.5c0.1,0.7,1,2.8,1.7,3.3
			c2,1.5,18.5-11.9,16.3-14C131.3,34.5,130.4,32.6,129.2,32.5L129.2,32.5z M148.1,36.9c-2.2-0.3-12.9,9.7-13,11.4
			c0,0.7,1.3,2,1.9,1.9c4-0.6,15-5.5,15.1-5.8c0.9-2.5-2.5-7.1-3.9-7.5C148.2,37,148.1,36.9,148.1,36.9L148.1,36.9z M178.5,38.8
			c-0.5,0-1,0.1-1.6,0.3c-2.2,1.1-2.5,2.3-5.2,4.3c-2.5,1.8-4.4,4.3-4.8,5.1c-0.9,2.1,1.7,4,3.3,4.8c3.4,1.6,12.3-9.9,11.5-11.7
			C180.4,39.6,179.6,38.9,178.5,38.8L178.5,38.8z M110.9,46.6c-1.8,0-5,1.9-8,3.2c-4.7,1.9-5.7,2.3-8.9,3.1
			c-2.6,0.9-0.5,3.5-0.2,4.7c0.8,2.9,20.5-5,20.2-7.5c-0.1-0.8-1.4-2.6-2-3.1C111.7,46.7,111.4,46.6,110.9,46.6L110.9,46.6z
			 M132.2,48.5c-1.9,0.1-7.6,5.1-9.7,6.2c-1.4,0.7-1.1,1.8-1.1,2.1c0.3,3.6,12.4-3.8,12.9-4.9c0.5-1.1-1-2.8-1.6-3.3
			C132.6,48.6,132.4,48.5,132.2,48.5L132.2,48.5z M163,50.5c-0.8,0-4.5,1.7-7.4,2.8c-2.8,1.1-6.3,1.7-6.8,2.8
			c-1.3,1.6-0.6,4.9,1.1,5.5c1.5,0.5,12.3-2.8,14.8-4.3c0.7-0.4,2.3-0.7,2-1.9C166.1,53.6,165,50.4,163,50.5L163,50.5z M89,54.4
			c-2.4,0-12.1,3.1-14.4,4.5c-0.7,0.4-2.3,0.8-2,1.9c0.6,1.7,1.8,4.9,3.8,4.8c0.8,0,4.4-1.7,7.4-2.9c2.8-1.1,6.3-1.7,6.8-2.8
			c1.3-1.6,0.6-4.9-1.2-5.5C89.3,54.4,89.2,54.4,89,54.4L89,54.4z M144,57.8c-4.8,0-18.9,5.8-18.6,8c0.1,0.8,1.4,2.6,2,3.1
			c1.4,1.3,5.3-1.2,9-2.7c4.7-1.9,5.8-2.2,8.9-3c2.6-0.9,0.6-3.5,0.3-4.7C145.4,58,144.9,57.8,144,57.8L144,57.8z M116.8,58.4
			c-0.3,0-0.7,0.1-1.1,0.4c-2.3,1.4-10.8,4.2-10.4,5.8c0.2,0.8,0.9,3,2.1,3.1c1.2,0.1,13.6-6.7,10.7-8.7
			C117.9,58.7,117.4,58.3,116.8,58.4L116.8,58.4z M68.6,62.7c-3.8,0-11.5,10.2-10.7,11.9c1.8,2.9,2.8,3.2,4.8,2.5
			c2.2-1.2,2.4-2.3,5.2-4.3c2.5-1.8,4.3-4.3,4.8-5.2c0.8-2.1-1.7-4-3.3-4.8C69.1,62.7,68.8,62.7,68.6,62.7L68.6,62.7z M103,66.4
			c-3.5,0.1-15.7,4-15.6,5.8c-0.4,1.4,1.9,6.6,4.5,7.1c0.3,0,10.1-7,12.6-10.2c0.4-0.5,0-2.3-0.7-2.6
			C103.6,66.4,103.4,66.4,103,66.4L103,66.4z M123.2,66.6c-3.5,0.2-17.9,12-15.9,14c0.9,0.9,2.1,3.9,4.2,2.1c2.2-2.4,3-3.1,7-6.2
			c3.2-2.5,7.3-4.6,6.9-6.5c-0.1-0.7-1-2.8-1.7-3.3C123.6,66.6,123.4,66.6,123.2,66.6L123.2,66.6z M83.7,74.1
			c-4.2,0.7-13.7,6.8-12.6,8.4c1.4,1.8,2.1,5.7,4.3,6.2c4.2,0.3,12.5-5.9,12.7-7C88.2,80.9,84.9,73.9,83.7,74.1L83.7,74.1z M56,78
			c-0.4,0-0.8,0.2-1.1,0.5c-1.1,1.3-4.8,10.8-2.6,11.3c0.5,0.4,1.1,0.8,1.4,0.3c2.2-2.8,3.9-5.6,5.7-8.4C60.2,80.6,57.8,77.9,56,78
			L56,78z M104,82.2c-0.1,0-0.3,0-0.4,0c-1.2-0.1-3.4,2.6-5.8,4.5c-2.5,2-5.8,4.2-6.2,5c-1,1.6,1.1,4.2,2.3,5.6
			c0.9,0.9,2-0.4,2.6-0.8c2.5-1.4,10.9-9.1,11.2-10.6C108.1,84.3,106,82.2,104,82.2L104,82.2z M68.6,84.3c-2-0.1-10,6.6-11,9.8
			c1.6,0.8,13.7-1.4,13.8-5C71.4,87.4,69.9,85.3,68.6,84.3L68.6,84.3z M88,94.1c-1,0-4,0.4-6.9,1.6c-3.1,1.4-4.2,1-6.3,2.4
			c-1.6,1.3-1.8,2.4-0.2,5.4c1.2,1.6,15.6-0.4,15.9-4.1C90.6,97.5,90.2,94.3,88,94.1L88,94.1z M69.3,98.6c-3.4,0.2-6.7,0.3-10.2,0.8
			c-0.6,0.1-0.5,0.8-0.4,1.4c-0.6,2.2,9.4,3.7,11.1,3.3C72.3,103.6,71,98.4,69.3,98.6L69.3,98.6z M69.3,98.6"/>
	</g>
</g>
<g>
</g>
<g>
</g>
<g>
</g>
<g>
</g>
<g>
</g>
</svg>
