<?xml version="1.0" encoding="utf-8"?>
<!-- Generator: Adobe Illustrator 21.0.0, SVG Export Plug-In . SVG Version: 6.00 Build 0)  -->
<svg version="1.1" id="Capa_1" xmlns="http://www.w3.org/2000/svg" xmlns:xlink="http://www.w3.org/1999/xlink" x="0px" y="0px"
	 viewBox="0 0 232.1 160.6" style="enable-background:new 0 0 232.1 160.6;" xml:space="preserve">
<style type="text/css">
	.st0{fill:#E4294D;}
	.st1{fill:#39B24A;}
	.st2{fill:#FFFFFF;}
	.st3{fill:#FFC900;}
</style>
<g>
	<g>
		<path class="st0" d="M34.8,120.9c6,13.2,11.9,26.4,17.9,39.6c7.5,0,14.9,0,22.4-0.1c-1-6-2-11.9-3-17.9c19.7,3.1,40,2.6,59.5-1.6
			c1.3,6.6,2.6,13.1,3.8,19.7c6.9-0.2,13.9-0.5,20.8-0.7c0-8.2-0.1-16.3-0.1-24.5c0-4.3,2.6-5.6,5.6-8.5c2.9-2.8,5.8-5.6,8.7-8.4
			c3-2.9,6.2-6.3,6.2-10.4c7.4,1.2,14.6-4.4,17.8-11.2c3.1-6.9,3.1-14.7,3.1-22.2c-6.6,1.1-13.9,1.7-19.3-2.1
			c-7-4.9-8.9-15.7-17-18.6c3.7-7.2,6.2-15,7.4-23c-11.2-6.1-25.6-5.6-36.4,1.2c-1.1,0.7-2.3,1.5-3.6,1.7c-1.1,0.1-2.3-0.2-3.4-0.5
			c-22.7-6.5-47.7-1-67.7,11.5c-6.2,3.9-12.1,8.5-16.4,14.4c-3,4.1-5.3,8.8-7.4,13.4c-3,6.4-5.9,13.1-6.3,20.2
			C26.8,102.7,30.8,112.1,34.8,120.9z"/>
		<path class="st0" d="M13.9,69.7c-0.3-0.9-0.5-1.9-0.3-2.9c0.2-0.9,1-1.8,2-1.8c0.8,0,1.5,0.6,2.1,1.2c1.6,1.9,2.1,4.5,2,7
			c-0.1,3.1-1,6.2-3.1,8.5s-5.6,3.3-8.4,2c-2.9-1.3-5-4.9-8.2-4.5c-0.2,2.7,1.6,5.3,4,6.8c4.2,2.5,9.9,1.8,13.7-1.2
			c3.9-3,6-7.8,6.4-12.7c0.3-3.7-0.4-7.7-3-10.3s-7.4-3.1-9.8-0.3c-1.1,1.2-1.5,2.9-1.8,4.5c-0.6,3.1-0.8,6.5,0.2,9.5
			c1.3,4,4.5,7.1,7.8,9.8c2.4,1.9,4.8,3.7,7.3,5.4c1.7,1.1,7.9,3.2,6.9-1.2c-0.6-2.4-5.6-3.8-7.4-5.1C19.4,80.9,15.6,75.6,13.9,69.7
			z"/>
	</g>
	<g>
		<path class="st1" d="M175.7,14.5c-4.7,7.5-6.2,16.6-6.1,25.4c0,4.2,0.4,8.4,1.7,12.3c4.1,11.6,17,18.3,29.4,18.9
			c3.5,0.2,6.9-0.1,10.3-1c12.2-3.3,20.5-16,21-28.6s-5.7-24.9-14.5-34c-2.7-2.8-5.7-5.3-9.3-6.7c-6.1-2.4-12,0.6-17.8,2.3
			C184.4,5,179.1,9.2,175.7,14.5z"/>
		<path class="st2" d="M220.5,16.9c-1.2-0.7-2.8,0.1-3.9,1c-5.4,4.1-9.8,9.3-14.1,14.5c-2.7,3.3-5.5,6.6-8.2,9.9
			c-1,1.2-2.1,2.5-3.4,3.4c-1.9-3.4-3.8-6.8-5.7-10.2c-0.5-1-1.2-2.1-2.3-2.4c-1-0.3-2,0.2-2.6,1s-0.8,1.8-0.8,2.8
			c0,1.1,0.4,2.1,0.9,3c0.3,1.5,1,3,1.7,4.4c1.1,2.3,2.3,4.7,3.4,7c0.6,1.3,1.3,2.7,2.5,3.6c0.7,0.5,1.6,0.8,2.5,1
			c0.7,0.2,1.4,0.3,2.1,0c0.5-0.2,0.8-0.7,1.2-1.1c8.6-10.8,17.3-21.6,25.9-32.4c0.7-0.9,1.4-1.7,1.7-2.8
			C221.7,18.7,221.4,17.4,220.5,16.9z"/>
	</g>
</g>
<g>
	<path class="st3" d="M160,67.8c0.1-0.2,0.2-0.5,0.1-0.8c-0.1-0.3-0.6-0.8-1.2-1c-0.6-0.2-1-0.2-1.3-0.1c-1,0.3-1.5,0.8-2,1.4
		c-1.3,1.6-2.4,3.3-3.5,5c-1.2,1.9-2.4,3.7-3.6,5.6c-1.1,1.7-2.2,3.5-3.1,5.3c-0.2,0.4-0.3,0.7-0.2,1.2s0.8,1.1,1.7,1.5
		c0.8,0.4,1.5,0.4,2,0.3s0.6-0.5,0.8-0.8c2.5-4.6,4.5-9.4,7.9-13.5C158.4,70.6,159.2,69.2,160,67.8z"/>
	<path class="st3" d="M144,68.3c-0.2-0.1-0.5-0.2-0.8-0.1s-0.8,0.6-1,1.2c-0.2,0.5-0.2,1-0.1,1.3c0.3,0.9,0.8,1.5,1.4,2
		c1.6,1.3,3.3,2.4,5,3.5c1.9,1.2,3.7,2.4,5.6,3.6c1.7,1.1,3.5,2.2,5.3,3.1c0.4,0.2,0.7,0.3,1.2,0.2c0.5-0.2,1.1-0.8,1.5-1.6
		c0.4-0.8,0.4-1.5,0.3-1.9c-0.2-0.4-0.5-0.6-0.8-0.8c-4.6-2.5-9.4-4.5-13.5-7.9C146.8,69.9,145.4,69,144,68.3z"/>
</g>
</svg>
