<?xml version="1.0" encoding="utf-8"?>
<!-- Generator: Adobe Illustrator 21.0.0, SVG Export Plug-In . SVG Version: 6.00 Build 0)  -->
<svg version="1.1" id="Capa_1" xmlns="http://www.w3.org/2000/svg" xmlns:xlink="http://www.w3.org/1999/xlink" x="0px" y="0px"
	 viewBox="0 0 142.1 145.8" style="enable-background:new 0 0 142.1 145.8;" xml:space="preserve">
<style type="text/css">
	.st0{fill:#6E4012;}
</style>
<g id="SLZiA2_1_">
	<g>
		<path class="st0" d="M42.9,60.5c4.4-2.7,8.3-5.4,12.6-7.5c3.8-1.9,4.9-4.3,4.8-8.5C59.9,33.4,60,22.3,60,11.2
			C60,5.4,63.7,1,69.3,0.1c4.8-0.8,9.9,2.3,11.5,7.1c0.5,1.6,0.6,3.3,0.6,5c0.1,12,0.1,24,0.1,36c0,1.3,0.4,2,1.5,2.7
			c4.8,2.7,9.5,5.6,14.2,8.4c0.5,0.3,1,0.6,1.8,1c0-1.7-0.1-3.1,0-4.6c0.1-1.7,0.9-3,2.4-3.8c1.5-0.7,3.1-0.7,4.3,0.4
			c0.8,0.8,1.5,2.1,1.7,3.3c0.3,2.7,0.2,5.4,0.1,8.1c0,1.2,0.4,1.9,1.4,2.5c10.1,6,20.2,12.1,30.3,18.1c2,1.2,2.9,2.6,2.8,4.9
			c-0.1,2.3,0,4.6,0,6.9c0,2-0.9,2.6-2.8,2.2c-18.6-3.6-37.2-7.3-55.7-10.9c-0.5-0.1-1-0.1-1.7-0.3c0,0.7-0.1,1.3-0.1,1.9
			c0,11.2,0.1,22.3,0.1,33.5c0,1.2,0.4,1.9,1.3,2.7c4.7,3.7,9.3,7.4,14,11.1c1.4,1.1,2.1,2.4,2.1,4.2c0,0.9,0,1.8,0,2.7
			c0,2.4-0.9,3.1-3.1,2.4c-5.8-1.6-11.7-3-17.4-5c-5.1-1.8-9.8-1.8-14.9,0.1c-5.6,2-11.5,3.4-17.2,5.1c-2.3,0.7-3.2,0-3.2-2.3
			c0-0.6,0-1.1,0-1.7c-0.3-2.5,0.7-4.3,2.7-5.9c4.5-3.4,8.9-7,13.2-10.7c0.6-0.5,1.2-1.4,1.2-2.2c0-11.5,0-23-0.1-34.5
			c0-0.3,0-0.7-0.1-1.3c-1.6,0.3-3.2,0.6-4.8,0.9C38,91.6,20.5,95.2,3,98.7c-2,0.4-2.9-0.2-2.9-2.3c0-2.4,0-4.8,0-7.2
			C0,87.3,0.8,86,2.5,85c10.1-6,20.2-12.1,30.3-18.1c1.1-0.7,1.6-1.3,1.5-2.6c-0.1-2.5-0.1-5,0-7.6c0-3,1.8-5,4.4-4.9
			c2.6,0.1,4.2,2,4.3,5C42.9,57.9,42.9,59,42.9,60.5z"/>
	</g>
</g>
</svg>
