<?xml version="1.0" encoding="utf-8"?>
<!-- Generator: Adobe Illustrator 21.0.0, SVG Export Plug-In . SVG Version: 6.00 Build 0)  -->
<svg version="1.1" id="Capa_1" xmlns="http://www.w3.org/2000/svg" xmlns:xlink="http://www.w3.org/1999/xlink" x="0px" y="0px"
	 viewBox="0 0 95.4 72.7" style="enable-background:new 0 0 95.4 72.7;" xml:space="preserve">
<style type="text/css">
	.st0{fill:#FFFFFF;}
	.st1{fill:#29A7DE;}
	.st2{fill:#8CCFF8;}
</style>
<g>
	<g>
		<path class="st0" d="M2.3,34.1c28.1-0.3,56.1-0.6,84.2-0.9c2.4,0,4.9-0.1,7.1-1.2c0.7-0.4,1.4-1,1.7-1.7c0.2-0.6,0.2-1.2,0.1-1.8
			c-0.5-2.7-2.7-4.8-5.2-5.9s-5.3-1.1-8.1-0.8c-1.3-6-7.5-10.4-13.6-9.7c-0.3-5-4.1-9.4-8.9-11.1S49.5,0,45.1,2.4
			s-7.9,6.2-10.7,10.4c-3.4-5-10.8-6.6-16.2-3.9S9.5,17.9,10,24c-1.6,0.9-3.5,1.2-5.3,1.8S1.2,27.3,0.4,29s-0.3,4.1,1.5,4.7
			L2.3,34.1z"/>
	</g>
	<g>
		<g>
			<path class="st1" d="M16.9,50c-0.1,0.7,0.2,1.7,0.9,1.9c1,0.4,2.1-0.3,2.4-1c0.3-0.8,0.2-3.2,0.2-5.4c0-0.5-0.7-0.7-1-0.2
				C18.3,47,17,48.9,16.9,50z"/>
		</g>
	</g>
	<g>
		<g>
			<path class="st1" d="M46,55c-0.1,0.7,0.2,1.7,0.9,1.9c1,0.4,2.1-0.3,2.4-1c0.3-0.8,0.2-3.2,0.2-5.4c0-0.5-0.7-0.7-1-0.2
				C47.4,52,46.1,53.9,46,55z"/>
		</g>
	</g>
	<g>
		<g>
			<path class="st1" d="M69,55c-0.1,0.7,0.2,1.7,0.9,1.9c1,0.4,2.1-0.3,2.4-1c0.3-0.8,0.2-3.2,0.2-5.4c0-0.5-0.7-0.7-1-0.2
				C70.5,52,69.1,53.9,69,55z"/>
		</g>
	</g>
	<g>
		<g>
			<path class="st1" d="M32.9,42.6c-0.1,0.7,0.2,1.7,0.9,1.9c1,0.4,2.1-0.3,2.4-1c0.3-0.8,0.2-3.2,0.2-5.4c0-0.5-0.7-0.7-1-0.2
				C34.4,39.6,33.1,41.5,32.9,42.6z"/>
		</g>
	</g>
	<g>
		<g>
			<path class="st1" d="M28.2,60.1c-0.1,0.7,0.2,1.7,0.9,1.9c1,0.4,2.1-0.3,2.4-1c0.3-0.8,0.2-3.2,0.2-5.4c0-0.5-0.7-0.7-1-0.2
				C29.6,57.2,28.3,59,28.2,60.1z"/>
		</g>
	</g>
	<g>
		<g>
			<path class="st1" d="M58.3,42.6c-0.1,0.7,0.2,1.7,0.9,1.9c1,0.4,2.1-0.3,2.4-1c0.3-0.8,0.2-3.2,0.2-5.4c0-0.5-0.7-0.7-1-0.2
				C59.8,39.6,58.5,41.5,58.3,42.6z"/>
		</g>
	</g>
	<g>
		<g>
			<path class="st1" d="M56.6,67.2c-0.1,0.7,0.2,1.7,0.9,1.9c1,0.4,2.1-0.3,2.4-1c0.3-0.8,0.2-3.2,0.2-5.4c0-0.5-0.7-0.7-1-0.2
				C58.1,64.2,56.7,66.1,56.6,67.2z"/>
		</g>
	</g>
	<g>
		<g>
			<path class="st1" d="M82.2,42.6c-0.1,0.7,0.2,1.7,0.9,1.9c1,0.4,2.1-0.3,2.4-1c0.3-0.8,0.2-3.2,0.2-5.4c0-0.5-0.7-0.7-1-0.2
				C83.7,39.6,82.3,41.5,82.2,42.6z"/>
		</g>
	</g>
	<g>
		<g>
			<path class="st2" d="M37.6,70.6c-0.1,0.7,0.2,1.7,0.9,1.9c1,0.4,2.1-0.3,2.4-1c0.3-0.8,0.2-3.2,0.2-5.4c0-0.5-0.7-0.7-1-0.2
				C39.1,67.7,37.7,69.5,37.6,70.6z"/>
		</g>
	</g>
	<g>
		<g>
			<path class="st1" d="M38.1,59.2c-0.1,0.7,0.2,1.7,0.9,1.9c1,0.4,2.1-0.3,2.4-1c0.3-0.8,0.2-3.2,0.2-5.4c0-0.5-0.7-0.7-1-0.2
				C39.6,56.3,38.3,58.1,38.1,59.2z"/>
		</g>
	</g>
	<g>
		<g>
			<path class="st2" d="M57.1,53.5c-0.1,0.7,0.2,1.7,0.9,1.9c1,0.4,2.1-0.3,2.4-1c0.3-0.8,0.2-3.2,0.2-5.4c0-0.5-0.7-0.7-1-0.2
				C58.5,50.6,57.2,52.4,57.1,53.5z"/>
		</g>
	</g>
	<g>
		<g>
			<path class="st2" d="M49.5,64.5c-0.1,0.7,0.2,1.7,0.9,1.9c1,0.4,2.1-0.3,2.4-1c0.3-0.8,0.2-3.2,0.2-5.4c0-0.5-0.7-0.7-1-0.2
				C50.9,61.6,49.6,63.4,49.5,64.5z"/>
		</g>
	</g>
	<g>
		<g>
			<path class="st2" d="M69,44.9c-0.1,0.7,0.2,1.7,0.9,1.9c1,0.4,2.1-0.3,2.4-1c0.3-0.8,0.2-3.2,0.2-5.4c0-0.5-0.7-0.7-1-0.2
				C70.5,42,69.1,43.8,69,44.9z"/>
		</g>
	</g>
	<g>
		<g>
			<path class="st2" d="M25.8,49.9c-0.1,0.7,0.2,1.7,0.9,1.9c1,0.4,2.1-0.3,2.4-1c0.3-0.8,0.2-3.2,0.2-5.4c0-0.5-0.7-0.7-1-0.2
				C27.2,47,25.9,48.8,25.8,49.9z"/>
		</g>
	</g>
	<g>
		<g>
			<path class="st2" d="M41.1,46.4c-0.1,0.7,0.2,1.7,0.9,1.9c1,0.4,2.1-0.3,2.4-1c0.3-0.8,0.2-3.2,0.2-5.4c0-0.5-0.7-0.7-1-0.2
				C42.5,43.4,41.2,45.3,41.1,46.4z"/>
		</g>
	</g>
</g>
</svg>
