<?xml version="1.0" encoding="utf-8"?>
<!-- Generator: Adobe Illustrator 21.0.0, SVG Export Plug-In . SVG Version: 6.00 Build 0)  -->
<svg version="1.1" id="Capa_1" xmlns="http://www.w3.org/2000/svg" xmlns:xlink="http://www.w3.org/1999/xlink" x="0px" y="0px"
	 viewBox="0 0 113.6 324.3" style="enable-background:new 0 0 113.6 324.3;" xml:space="preserve">
<style type="text/css">
	.st0{fill:#6E4012;}
</style>
<path class="st0" d="M30.1,45.4c14.2,17.1,28,29.1,38.5,48.7c9,16.7,20.3,29.9,29.3,46.6c2.5,4.7,5.3,11.3,6,16.5
	c1.4,10.4-17.4,35.3-23.2,44.1c-22.6,34.1-38.6,61.5-64.4,93.2c-4,4.9-8.2,12.2-12.2,17.5c-4.4,5.9-6.6,12.7-0.2,12.2
	c36.6-41.6,66.7-88.4,96.6-135c4.4-6.9,10.9-18.8,12.5-26.8c2.4-12.4-4.4-20.3-10.2-31.5C81,88.8,45.5,55.2,21.5,14.2
	c-3.3-5.7-7-12-13.3-14c-6.7-2.1-3,9.5,1.2,16.8C14.9,26.8,23.1,36.9,30.1,45.4z"/>
<g>
</g>
<g>
</g>
<g>
</g>
<g>
</g>
<g>
</g>
</svg>
