<?xml version="1.0" encoding="utf-8"?>
<!-- Generator: Adobe Illustrator 21.0.0, SVG Export Plug-In . SVG Version: 6.00 Build 0)  -->
<svg version="1.1" id="Capa_1" xmlns="http://www.w3.org/2000/svg" xmlns:xlink="http://www.w3.org/1999/xlink" x="0px" y="0px"
	 viewBox="0 0 43.7 57.7" style="enable-background:new 0 0 43.7 57.7;" xml:space="preserve">
<style type="text/css">
	.st0{fill:none;}
	.st1{fill:#A1AFB2;}
	.st2{fill:#E1ECEF;}
	.st3{fill:#E3E3E3;}
	.st4{fill:#C4D2D6;}
	.st5{fill:#EFEFEF;}
	.st6{fill:#B0B0B0;}
	.st7{fill:#808080;}
</style>
<g>
	<g>
		<polygon class="st0" points="21.5,1.8 21.5,1.8 21.5,1.8 		"/>
		<polygon class="st1" points="27.6,9.9 25.9,15.9 30.9,11.1 		"/>
		<path class="st1" d="M35.3,12.6c0.8-0.3,1.5-0.6,2.3-0.9c0.6-0.2,1.2-0.5,1.7-0.9c0,0-0.7-1.2-1.6-2.5l-4.7,3.5L35.3,12.6z"/>
		<path class="st2" d="M30.9,11.1l-5,4.8l0,0C26,16,26,16,26,16c0.1,0,0.2,0,0.2,0c0.8-0.3,1.7-0.6,2.5-0.9l4.3-3.2L30.9,11.1z"/>
		<path class="st3" d="M28.8,15c2.2-0.8,4.3-1.6,6.5-2.4l-2.2-0.8L28.8,15z"/>
		<polygon class="st4" points="35.2,6.9 29.1,4.6 27.6,9.9 30.9,11.1 		"/>
		<polygon class="st3" points="25.9,15.9 25.9,15.9 25.9,15.9 		"/>
		<polygon class="st5" points="26.2,3.6 26,9.4 27.6,9.9 29.1,4.6 		"/>
		<polygon class="st2" points="26,9.4 26.2,3.6 21.5,1.8 21.5,1.8 22.3,8.1 		"/>
		<path class="st4" d="M21.5,1.8L18.1,3c-0.8,0.3-1,1.3-0.4,1.9c0.7,0.7,1.4,1.5,2,2.3l2.6,0.9L21.5,1.8z"/>
		<path class="st5" d="M22.3,8.1l0.4,2.9c1.1,1.6,2.2,3.2,3.1,4.8c0,0,0,0,0,0L26,9.4L22.3,8.1z"/>
		<path class="st2" d="M30.9,11.1l2.1,0.7l4.7-3.5c-0.1-0.2-0.3-0.4-0.4-0.6l-2.1-0.8L30.9,11.1z"/>
		<path class="st4" d="M25.9,15.9l1.7-6L26,9.4L25.9,15.9C25.9,15.8,25.9,15.9,25.9,15.9L25.9,15.9z"/>
		<path class="st1" d="M19.7,7.2c1,1.2,2,2.5,3,3.8l-0.4-2.9L19.7,7.2z"/>
		<path class="st3" d="M26.3,0c-0.2,0-0.3,0.1-0.5,0.2l-4.3,1.6l4.7,1.8L26.3,0z"/>
		<path class="st2" d="M35.2,6.9l1-0.9c-0.4-0.6-0.7-1.1-0.8-1.2c-0.4-0.6-0.7-1.5-1.3-2c-0.7-0.6-1.9-0.9-2.8-1.2
			c-0.4-0.1-0.8-0.3-1.3-0.4l-1,3.5L35.2,6.9z"/>
		<path class="st3" d="M37.3,7.6c-0.4-0.6-0.8-1.2-1.1-1.7l-1,0.9L37.3,7.6z"/>
		<path class="st4" d="M29.1,4.6l1-3.5c-0.9-0.3-1.8-0.6-2.7-0.9C27.1,0.1,26.8,0,26.6,0c-0.1,0-0.1,0-0.2,0l-0.1,3.5L29.1,4.6z"/>
	</g>
	<g>
		<path class="st6" d="M43.2,31.5c-0.7-2.6-2.2-4.8-3.6-6.6c-2.3-3-4.4-5.2-6.7-6.9c-1.1-0.8-2.8-1.7-4.5-2.3
			c-3.3-1.2-9.7-2.7-15.9,1C9.1,18.7,6.2,22,3.3,26.9C1.8,29.6-0.3,33.7,0,38.1c0.1,2.1,0.8,4.3,1.9,6.5c3.3,6.2,9.3,9.4,13.7,11.1
			c0,0,0,0,0,0c1.5,0.6,3.1,1,4.7,1.4c2.8,0.6,5.1,0.8,7.2,0.5c4.4-0.5,8.6-3.1,11.5-7c2.4-3.3,4-7.5,4.5-12.3
			C43.8,35.6,43.7,33.4,43.2,31.5z M41,37.7c-0.4,3.9-1.7,7.7-4,10.8c-2.4,3.1-5.9,5.4-9.8,5.9c-2.1,0.3-4.3,0-6.3-0.5
			c-6.7-1.4-13.3-5-16.5-10.9c-0.9-1.7-1.5-3.5-1.7-5.4c-0.2-3.4,1.2-6.7,2.9-9.6c2.1-3.6,4.7-7,8.2-9.1c7.2-4.3,15.2-0.6,17.6,1.1
			c2.3,1.7,4.3,3.9,6.1,6.2c1.3,1.7,2.6,3.6,3.2,5.7C41.2,33.8,41.2,35.8,41,37.7z"/>
		<path class="st7" d="M37.5,26.4c-1.8-2.3-3.7-4.6-6.1-6.3c-2.3-1.8-10.4-5.5-17.6-1.2c-3.6,2.2-6.2,5.7-8.2,9.3
			c-1.7,3-3.2,6.3-2.9,9.8c0.1,1.9,0.7,3.8,1.7,5.5c3.2,6,9.8,9.6,16.5,11.1c2.1,0.5,4.2,0.7,6.3,0.5c3.9-0.5,7.4-2.8,9.8-6
			c2.4-3.2,3.6-7,4-10.9c0.2-2,0.2-4-0.3-5.9C40.1,30,38.8,28.1,37.5,26.4z M39.7,37.9c-0.4,3.6-1.5,7.2-3.7,10.2
			c-2.2,2.9-5.5,5.1-9.1,5.6c-2,0.2-4,0-5.9-0.4c-6.2-1.4-12.3-4.7-15.3-10.3c-0.8-1.6-1.4-3.3-1.5-5.1c-0.2-3.2,1.1-6.3,2.7-9.1
			c1.9-3.4,4.3-6.6,7.6-8.6c6.7-4,14.2-0.6,16.3,1.1c2.2,1.6,4,3.7,5.6,5.9c1.2,1.6,2.4,3.4,2.9,5.4C39.9,34.2,39.9,36,39.7,37.9z"
			/>
	</g>
</g>
</svg>
