<?xml version="1.0" encoding="utf-8"?>
<!-- Generator: Adobe Illustrator 21.0.0, SVG Export Plug-In . SVG Version: 6.00 Build 0)  -->
<svg version="1.1" id="Capa_1" xmlns="http://www.w3.org/2000/svg" xmlns:xlink="http://www.w3.org/1999/xlink" x="0px" y="0px"
	 viewBox="0 0 1024 768" style="enable-background:new 0 0 1024 768;" xml:space="preserve">
<style type="text/css">
	.st0{fill:#E6294D;}
	.st1{fill:#FFFFFF;}
</style>
<g>
	<g>
		<path class="st0" d="M509.7,331c1.3-7,5.5-13.8,12.2-16.3c4.8-1.8,11.3-0.8,14.5,3.5c1.7,2.3,2.3,5.1,2.7,7.9
			c1.7,9.7,2.8,19.4,3.3,29.1c-10.5,1.8-21.3,3-32,1.1C510.2,355,508.4,338.1,509.7,331z"/>
	</g>
	<g>
		<g>
			<path class="st1" d="M521.8,338.8c-1.1-1.9-2.2-3.7-3.2-5.6c0-0.1-0.1-0.1-0.1-0.2c0-0.1,0.1-0.2,0.2-0.3c0.3-0.3,0.7-0.6,1-0.9
				c1.1-1.1,1.6-2.8,1.2-4.3c-0.3-1-1-2-1.9-2.5c-1-0.5-2.2-0.5-3.1,0l-0.1,0c-1,4.8-1.3,9.8-1.1,14.7c0,0.2,0,0.3,0.1,0.4
				c0.2,0.2,0.4,0.1,0.6,0.1c0.3-0.1,0.5-0.1,0.8-0.2c0.1,0,0.2-0.1,0.3-0.2c0.1-0.1,0.1-0.2,0.1-0.3c0.2-2,0.3-3.9,0.4-5.9
				c0.7,1.9,1.5,3.8,2.2,5.8c0,0.1,0.1,0.2,0.1,0.2c0.1,0.1,0.2,0.1,0.3,0.1c0.6,0,1.3-0.1,1.9-0.3c0.1,0,0.2-0.1,0.3-0.2
				C522,339.2,521.9,338.9,521.8,338.8z M517,330.5c0.2-1.3,0.3-2.5,0.5-3.8l0,0.1c0.4,0,0.8,0.3,1,0.6c0.3,0.3,0.4,0.7,0.5,1.1
				c0.1,0.4,0.2,0.8-0.1,1.1c-0.1,0.1-0.3,0.2-0.4,0.3C518.1,330.3,517.5,330.4,517,330.5z"/>
		</g>
		<g>
			<path class="st1" d="M534,331.8c1.1-1.1,1.6-2.8,1.2-4.3c-0.3-1-1-2-1.9-2.5c-1-0.5-2.2-0.5-3.1,0l-0.1,0
				c-1,4.8-1.3,9.8-1.1,14.7c0,0.2,0,0.3,0.1,0.4c0.2,0.2,0.4,0.1,0.6,0.1c0.3-0.1,0.5-0.1,0.8-0.2c0.1,0,0.2-0.1,0.3-0.2
				c0.1-0.1,0.1-0.2,0.1-0.3c0.2-2,0.3-3.9,0.4-5.9C532.8,333.2,533.7,332.2,534,331.8z M531.3,330.5c0.2-1.3,0.3-2.5,0.5-3.8l0,0.1
				c0.4,0,0.8,0.3,1,0.6c0.3,0.3,0.4,0.7,0.5,1.1c0.1,0.4,0.2,0.8-0.1,1.1c-0.1,0.1-0.3,0.2-0.4,0.3
				C532.4,330.3,531.8,330.4,531.3,330.5z"/>
		</g>
		<g>
			<path class="st1" d="M523.8,325.9c-0.2,0.9-0.2,1.9-0.3,2.8c-0.1,3.7-0.2,7.4,0,11.1c0.7,0.1,1.5,0.1,2.2,0
				c-0.1-3,0.1-6.1,0.3-9.1c0.1-1.7,0.2-3.5-0.1-5.2c0-0.1,0-0.1-0.1-0.2c-0.1-0.1-0.1-0.1-0.2-0.1
				C525,325.2,523.8,325.9,523.8,325.9z"/>
		</g>
	</g>
</g>
<g>
	<g>
		<path class="st0" d="M574.1,362.9c0.8-4,3.1-7.9,7-9.4c2.8-1,6.5-0.5,8.3,2c1,1.3,1.3,2.9,1.6,4.5c1,5.5,1.6,11.1,1.9,16.7
			c-6,1.1-12.2,1.7-18.4,0.6C574.4,376.6,573.3,367,574.1,362.9z"/>
	</g>
	<g>
		<g>
			<path class="st1" d="M581,367.3c-0.6-1.1-1.2-2.1-1.9-3.2c0,0,0-0.1,0-0.1c0-0.1,0.1-0.1,0.1-0.2c0.2-0.2,0.4-0.3,0.6-0.5
				c0.6-0.6,0.9-1.6,0.7-2.5c-0.2-0.6-0.6-1.1-1.1-1.4c-0.5-0.3-1.2-0.3-1.8,0l0,0c-0.6,2.8-0.8,5.6-0.6,8.4c0,0.1,0,0.2,0.1,0.2
				c0.1,0.1,0.2,0.1,0.4,0c0.1,0,0.3-0.1,0.4-0.1c0.1,0,0.1,0,0.2-0.1c0,0,0-0.1,0.1-0.2c0.1-1.1,0.2-2.3,0.2-3.4
				c0.4,1.1,0.9,2.2,1.3,3.3c0,0,0,0.1,0.1,0.1c0,0,0.1,0,0.1,0c0.4,0,0.7-0.1,1.1-0.1c0.1,0,0.1,0,0.2-0.1
				C581.1,367.6,581.1,367.5,581,367.3z M578.3,362.6c0.1-0.7,0.2-1.4,0.3-2.2l0,0.1c0.2,0,0.4,0.2,0.6,0.4c0.1,0.2,0.2,0.4,0.3,0.6
				c0.1,0.2,0.1,0.5,0,0.7c-0.1,0.1-0.2,0.1-0.2,0.2C578.9,362.5,578.6,362.6,578.3,362.6z"/>
		</g>
		<g>
			<path class="st1" d="M588,363.4c0.6-0.6,0.9-1.6,0.7-2.5c-0.2-0.6-0.6-1.1-1.1-1.4c-0.5-0.3-1.2-0.3-1.8,0l0,0
				c-0.6,2.8-0.8,5.6-0.6,8.4c0,0.1,0,0.2,0.1,0.2c0.1,0.1,0.2,0.1,0.4,0c0.1,0,0.3-0.1,0.4-0.1c0.1,0,0.1,0,0.2-0.1
				c0,0,0-0.1,0.1-0.2c0.1-1.1,0.2-2.3,0.2-3.4C587.3,364.2,587.8,363.6,588,363.4z M586.5,362.6c0.1-0.7,0.2-1.4,0.3-2.2l0,0.1
				c0.2,0,0.4,0.2,0.6,0.4c0.1,0.2,0.2,0.4,0.3,0.6c0.1,0.2,0.1,0.5,0,0.7c-0.1,0.1-0.2,0.1-0.2,0.2
				C587.1,362.5,586.8,362.6,586.5,362.6z"/>
		</g>
		<g>
			<path class="st1" d="M582.2,360c-0.1,0.5-0.1,1.1-0.2,1.6c-0.1,2.1-0.1,4.2,0,6.4c0.4,0,0.9,0,1.3,0c-0.1-1.7,0.1-3.5,0.2-5.2
				c0.1-1,0.1-2-0.1-3c0,0,0-0.1,0-0.1c0,0-0.1,0-0.1,0C582.8,359.6,582.2,360,582.2,360z"/>
		</g>
	</g>
</g>
<g>
	<g>
		<path class="st0" d="M705.7,556.4c0.8-4,3.1-7.9,7-9.4c2.8-1,6.5-0.5,8.3,2c1,1.3,1.3,2.9,1.6,4.5c1,5.5,1.6,11.1,1.9,16.7
			c-6,1.1-12.2,1.7-18.4,0.6C706,570.1,704.9,560.4,705.7,556.4z"/>
	</g>
	<g>
		<g>
			<path class="st1" d="M712.6,560.8c-0.6-1.1-1.2-2.1-1.9-3.2c0,0,0-0.1,0-0.1c0-0.1,0.1-0.1,0.1-0.2c0.2-0.2,0.4-0.3,0.6-0.5
				c0.6-0.6,0.9-1.6,0.7-2.5c-0.2-0.6-0.6-1.1-1.1-1.4c-0.5-0.3-1.2-0.3-1.8,0l0,0c-0.6,2.8-0.8,5.6-0.6,8.4c0,0.1,0,0.2,0.1,0.2
				c0.1,0.1,0.2,0.1,0.4,0c0.1,0,0.3-0.1,0.4-0.1c0.1,0,0.1,0,0.2-0.1c0,0,0-0.1,0.1-0.2c0.1-1.1,0.2-2.3,0.2-3.4
				c0.4,1.1,0.9,2.2,1.3,3.3c0,0,0,0.1,0.1,0.1c0,0,0.1,0,0.1,0c0.4,0,0.7-0.1,1.1-0.1c0.1,0,0.1,0,0.2-0.1
				C712.7,561.1,712.7,560.9,712.6,560.8z M709.9,556.1c0.1-0.7,0.2-1.4,0.3-2.2l0,0.1c0.2,0,0.4,0.2,0.6,0.4
				c0.1,0.2,0.2,0.4,0.3,0.6c0.1,0.2,0.1,0.5,0,0.7c-0.1,0.1-0.2,0.1-0.2,0.2C710.5,556,710.2,556,709.9,556.1z"/>
		</g>
		<g>
			<path class="st1" d="M719.6,556.9c0.6-0.6,0.9-1.6,0.7-2.5c-0.2-0.6-0.6-1.1-1.1-1.4c-0.5-0.3-1.2-0.3-1.8,0l0,0
				c-0.6,2.8-0.8,5.6-0.6,8.4c0,0.1,0,0.2,0.1,0.2c0.1,0.1,0.2,0.1,0.4,0c0.1,0,0.3-0.1,0.4-0.1c0.1,0,0.1,0,0.2-0.1
				c0,0,0-0.1,0.1-0.2c0.1-1.1,0.2-2.3,0.2-3.4C718.9,557.6,719.4,557,719.6,556.9z M718.1,556.1c0.1-0.7,0.2-1.4,0.3-2.2l0,0.1
				c0.2,0,0.4,0.2,0.6,0.4c0.1,0.2,0.2,0.4,0.3,0.6c0.1,0.2,0.1,0.5,0,0.7c-0.1,0.1-0.2,0.1-0.2,0.2
				C718.7,556,718.4,556,718.1,556.1z"/>
		</g>
		<g>
			<path class="st1" d="M713.8,553.4c-0.1,0.5-0.1,1.1-0.2,1.6c-0.1,2.1-0.1,4.2,0,6.4c0.4,0,0.9,0,1.3,0c-0.1-1.7,0.1-3.5,0.2-5.2
				c0.1-1,0.1-2-0.1-3c0,0,0-0.1,0-0.1c0,0-0.1,0-0.1,0C714.4,553,713.8,553.4,713.8,553.4z"/>
		</g>
	</g>
</g>
<g>
	<g>
		<path class="st0" d="M629.8,363.1c1.3-7,5.5-13.8,12.2-16.3c4.8-1.8,11.3-0.8,14.5,3.5c1.7,2.3,2.3,5.1,2.7,7.9
			c1.7,9.7,2.8,19.4,3.3,29.1c-10.5,1.8-21.3,3-32,1.1C630.3,387,628.5,370.2,629.8,363.1z"/>
	</g>
	<g>
		<g>
			<path class="st1" d="M641.9,370.8c-1.1-1.9-2.2-3.7-3.2-5.6c0-0.1-0.1-0.1-0.1-0.2c0-0.1,0.1-0.2,0.2-0.3c0.3-0.3,0.7-0.6,1-0.9
				c1.1-1.1,1.6-2.8,1.2-4.3c-0.3-1-1-2-1.9-2.5c-1-0.5-2.2-0.5-3.1,0l-0.1,0c-1,4.8-1.3,9.8-1.1,14.7c0,0.2,0,0.3,0.1,0.4
				c0.2,0.2,0.4,0.1,0.6,0.1c0.3-0.1,0.5-0.1,0.8-0.2c0.1,0,0.2-0.1,0.3-0.2c0.1-0.1,0.1-0.2,0.1-0.3c0.2-2,0.3-3.9,0.4-5.9
				c0.7,1.9,1.5,3.8,2.2,5.8c0,0.1,0.1,0.2,0.1,0.2c0.1,0.1,0.2,0.1,0.3,0.1c0.6,0,1.3-0.1,1.9-0.3c0.1,0,0.2-0.1,0.3-0.2
				C642.1,371.2,642,371,641.9,370.8z M637.1,362.6c0.2-1.3,0.3-2.5,0.5-3.8l0,0.1c0.4,0,0.8,0.3,1,0.6c0.3,0.3,0.4,0.7,0.5,1.1
				c0.1,0.4,0.2,0.8-0.1,1.1c-0.1,0.1-0.3,0.2-0.4,0.3C638.2,362.3,637.7,362.5,637.1,362.6z"/>
		</g>
		<g>
			<path class="st1" d="M654.1,363.9c1.1-1.1,1.6-2.8,1.2-4.3c-0.3-1-1-2-1.9-2.5c-1-0.5-2.2-0.5-3.1,0l-0.1,0
				c-1,4.8-1.3,9.8-1.1,14.7c0,0.2,0,0.3,0.1,0.4c0.2,0.2,0.4,0.1,0.6,0.1c0.3-0.1,0.5-0.1,0.8-0.2c0.1,0,0.2-0.1,0.3-0.2
				c0.1-0.1,0.1-0.2,0.1-0.3c0.2-2,0.3-3.9,0.4-5.9C652.9,365.3,653.8,364.2,654.1,363.9z M651.4,362.6c0.2-1.3,0.3-2.5,0.5-3.8
				l0,0.1c0.4,0,0.8,0.3,1,0.6c0.3,0.3,0.4,0.7,0.5,1.1c0.1,0.4,0.2,0.8-0.1,1.1c-0.1,0.1-0.3,0.2-0.4,0.3
				C652.5,362.3,652,362.5,651.4,362.6z"/>
		</g>
		<g>
			<path class="st1" d="M644,357.9c-0.2,0.9-0.2,1.9-0.3,2.8c-0.1,3.7-0.2,7.4,0,11.1c0.7,0.1,1.5,0.1,2.2,0c-0.1-3,0.1-6.1,0.3-9.1
				c0.1-1.7,0.2-3.5-0.1-5.2c0-0.1,0-0.1-0.1-0.2c-0.1-0.1-0.1-0.1-0.2-0.1C645.1,357.2,644,357.9,644,357.9z"/>
		</g>
	</g>
</g>
<g>
	<g>
		<path class="st0" d="M563.3,431.7c1.3-7,5.5-13.8,12.2-16.3c4.8-1.8,11.3-0.8,14.5,3.5c1.7,2.3,2.3,5.1,2.7,7.9
			c1.7,9.7,2.8,19.4,3.3,29.1c-10.5,1.8-21.3,3-32,1.1C563.8,455.6,562,438.7,563.3,431.7z"/>
	</g>
	<g>
		<g>
			<path class="st1" d="M575.4,439.4c-1.1-1.9-2.2-3.7-3.2-5.6c0-0.1-0.1-0.1-0.1-0.2c0-0.1,0.1-0.2,0.2-0.3c0.3-0.3,0.7-0.6,1-0.9
				c1.1-1.1,1.6-2.8,1.2-4.3c-0.3-1-1-2-1.9-2.5c-1-0.5-2.2-0.5-3.1,0l-0.1,0c-1,4.8-1.3,9.8-1.1,14.7c0,0.2,0,0.3,0.1,0.4
				c0.2,0.2,0.4,0.1,0.6,0.1c0.3-0.1,0.5-0.1,0.8-0.2c0.1,0,0.2-0.1,0.3-0.2c0.1-0.1,0.1-0.2,0.1-0.3c0.2-2,0.3-3.9,0.4-5.9
				c0.7,1.9,1.5,3.8,2.2,5.8c0,0.1,0.1,0.2,0.1,0.2c0.1,0.1,0.2,0.1,0.3,0.1c0.6,0,1.3-0.1,1.9-0.3c0.1,0,0.2-0.1,0.3-0.2
				C575.6,439.8,575.5,439.6,575.4,439.4z M570.6,431.1c0.2-1.3,0.3-2.5,0.5-3.8l0,0.1c0.4,0,0.8,0.3,1,0.6c0.3,0.3,0.4,0.7,0.5,1.1
				c0.1,0.4,0.2,0.8-0.1,1.1c-0.1,0.1-0.3,0.2-0.4,0.3C571.6,430.9,571.1,431.1,570.6,431.1z"/>
		</g>
		<g>
			<path class="st1" d="M587.6,432.5c1.1-1.1,1.6-2.8,1.2-4.3c-0.3-1-1-2-1.9-2.5c-1-0.5-2.2-0.5-3.1,0l-0.1,0
				c-1,4.8-1.3,9.8-1.1,14.7c0,0.2,0,0.3,0.1,0.4c0.2,0.2,0.4,0.1,0.6,0.1c0.3-0.1,0.5-0.1,0.8-0.2c0.1,0,0.2-0.1,0.3-0.2
				c0.1-0.1,0.1-0.2,0.1-0.3c0.2-2,0.3-3.9,0.4-5.9C586.3,433.9,587.3,432.8,587.6,432.5z M584.9,431.1c0.2-1.3,0.3-2.5,0.5-3.8
				l0,0.1c0.4,0,0.8,0.3,1,0.6c0.3,0.3,0.4,0.7,0.5,1.1c0.1,0.4,0.2,0.8-0.1,1.1c-0.1,0.1-0.3,0.2-0.4,0.3
				C586,430.9,585.4,431.1,584.9,431.1z"/>
		</g>
		<g>
			<path class="st1" d="M577.4,426.5c-0.2,0.9-0.2,1.9-0.3,2.8c-0.1,3.7-0.2,7.4,0,11.1c0.7,0.1,1.5,0.1,2.2,0
				c-0.1-3,0.1-6.1,0.3-9.1c0.1-1.7,0.2-3.5-0.1-5.2c0-0.1,0-0.1-0.1-0.2c-0.1-0.1-0.1-0.1-0.2-0.1
				C578.6,425.8,577.4,426.5,577.4,426.5z"/>
		</g>
	</g>
</g>
<g>
	<g>
		<path class="st0" d="M631.1,428.6c0.9-4.5,3.5-8.9,7.8-10.5c3.1-1.2,7.2-0.5,9.3,2.2c1.1,1.5,1.4,3.3,1.8,5
			c1.1,6.2,1.8,12.5,2.1,18.7c-6.7,1.2-13.7,1.9-20.6,0.7C631.5,443.9,630.3,433.1,631.1,428.6z"/>
	</g>
	<g>
		<g>
			<path class="st1" d="M638.9,433.5c-0.7-1.2-1.4-2.4-2.1-3.6c0,0,0-0.1,0-0.1c0-0.1,0.1-0.1,0.1-0.2c0.2-0.2,0.5-0.4,0.7-0.6
				c0.7-0.7,1-1.8,0.8-2.8c-0.2-0.7-0.6-1.3-1.2-1.6c-0.6-0.3-1.4-0.3-2,0l-0.1,0c-0.6,3.1-0.9,6.3-0.7,9.4c0,0.1,0,0.2,0.1,0.3
				c0.1,0.1,0.3,0.1,0.4,0c0.2,0,0.3-0.1,0.5-0.1c0.1,0,0.2,0,0.2-0.1c0-0.1,0.1-0.1,0.1-0.2c0.1-1.3,0.2-2.5,0.3-3.8
				c0.5,1.2,1,2.5,1.4,3.7c0,0.1,0,0.1,0.1,0.1c0,0,0.1,0,0.2,0c0.4,0,0.8-0.1,1.2-0.2c0.1,0,0.2,0,0.2-0.1
				C639,433.8,639,433.6,638.9,433.5z M635.8,428.2c0.1-0.8,0.2-1.6,0.3-2.4l0,0.1c0.3,0,0.5,0.2,0.7,0.4c0.2,0.2,0.3,0.5,0.3,0.7
				c0.1,0.2,0.1,0.5-0.1,0.7c-0.1,0.1-0.2,0.1-0.3,0.2C636.5,428.1,636.2,428.2,635.8,428.2z"/>
		</g>
		<g>
			<path class="st1" d="M646.7,429.1c0.7-0.7,1-1.8,0.8-2.8c-0.2-0.7-0.6-1.3-1.2-1.6c-0.6-0.3-1.4-0.3-2,0l-0.1,0
				c-0.6,3.1-0.9,6.3-0.7,9.4c0,0.1,0,0.2,0.1,0.3c0.1,0.1,0.3,0.1,0.4,0c0.2,0,0.3-0.1,0.5-0.1c0.1,0,0.2,0,0.2-0.1
				c0-0.1,0.1-0.1,0.1-0.2c0.1-1.3,0.2-2.5,0.3-3.8C645.9,430,646.5,429.3,646.7,429.1z M645,428.2c0.1-0.8,0.2-1.6,0.3-2.4l0,0.1
				c0.3,0,0.5,0.2,0.7,0.4c0.2,0.2,0.3,0.5,0.3,0.7c0.1,0.2,0.1,0.5-0.1,0.7c-0.1,0.1-0.2,0.1-0.3,0.2
				C645.7,428.1,645.3,428.2,645,428.2z"/>
		</g>
		<g>
			<path class="st1" d="M640.2,425.3c-0.1,0.6-0.2,1.2-0.2,1.8c-0.1,2.4-0.1,4.8,0,7.1c0.5,0.1,1,0,1.4,0c-0.1-1.9,0.1-3.9,0.2-5.8
				c0.1-1.1,0.1-2.2-0.1-3.3c0,0,0-0.1,0-0.1c0,0-0.1,0-0.1-0.1C640.9,424.8,640.2,425.3,640.2,425.3z"/>
		</g>
	</g>
</g>
<g>
	<g>
		<path class="st0" d="M683,456c1.3-7,5.5-13.8,12.2-16.3c4.8-1.8,11.3-0.8,14.5,3.5c1.7,2.3,2.3,5.1,2.7,7.9
			c1.7,9.7,2.8,19.4,3.3,29.1c-10.5,1.8-21.3,3-32,1.1C683.5,479.9,681.6,463,683,456z"/>
	</g>
	<g>
		<g>
			<path class="st1" d="M695,463.7c-1.1-1.9-2.2-3.7-3.2-5.6c0-0.1-0.1-0.1-0.1-0.2c0-0.1,0.1-0.2,0.2-0.3c0.3-0.3,0.7-0.6,1-0.9
				c1.1-1.1,1.6-2.8,1.2-4.3c-0.3-1-1-2-1.9-2.5c-1-0.5-2.2-0.5-3.1,0l-0.1,0c-1,4.8-1.3,9.8-1.1,14.7c0,0.2,0,0.3,0.1,0.4
				c0.2,0.2,0.4,0.1,0.6,0.1c0.3-0.1,0.5-0.1,0.8-0.2c0.1,0,0.2-0.1,0.3-0.2c0.1-0.1,0.1-0.2,0.1-0.3c0.2-2,0.3-3.9,0.4-5.9
				c0.7,1.9,1.5,3.8,2.2,5.8c0,0.1,0.1,0.2,0.1,0.2c0.1,0.1,0.2,0.1,0.3,0.1c0.6,0,1.3-0.1,1.9-0.3c0.1,0,0.2-0.1,0.3-0.2
				C695.3,464.1,695.2,463.9,695,463.7z M690.2,455.4c0.2-1.3,0.3-2.5,0.5-3.8l0,0.1c0.4,0,0.8,0.3,1,0.6c0.3,0.3,0.4,0.7,0.5,1.1
				c0.1,0.4,0.2,0.8-0.1,1.1c-0.1,0.1-0.3,0.2-0.4,0.3C691.3,455.2,690.8,455.4,690.2,455.4z"/>
		</g>
		<g>
			<path class="st1" d="M707.3,456.8c1.1-1.1,1.6-2.8,1.2-4.3c-0.3-1-1-2-1.9-2.5c-1-0.5-2.2-0.5-3.1,0l-0.1,0
				c-1,4.8-1.3,9.8-1.1,14.7c0,0.2,0,0.3,0.1,0.4c0.2,0.2,0.4,0.1,0.6,0.1c0.3-0.1,0.5-0.1,0.8-0.2c0.1,0,0.2-0.1,0.3-0.2
				c0.1-0.1,0.1-0.2,0.1-0.3c0.2-2,0.3-3.9,0.4-5.9C706,458.1,706.9,457.1,707.3,456.8z M704.6,455.4c0.2-1.3,0.3-2.5,0.5-3.8l0,0.1
				c0.4,0,0.8,0.3,1,0.6c0.3,0.3,0.4,0.7,0.5,1.1c0.1,0.4,0.2,0.8-0.1,1.1c-0.1,0.1-0.3,0.2-0.4,0.3
				C705.6,455.2,705.1,455.4,704.6,455.4z"/>
		</g>
		<g>
			<path class="st1" d="M697.1,450.8c-0.2,0.9-0.2,1.9-0.3,2.8c-0.1,3.7-0.2,7.4,0,11.1c0.7,0.1,1.5,0.1,2.2,0
				c-0.1-3,0.1-6.1,0.3-9.1c0.1-1.7,0.2-3.5-0.1-5.2c0-0.1,0-0.1-0.1-0.2c-0.1-0.1-0.1-0.1-0.2-0.1
				C698.2,450.1,697.1,450.8,697.1,450.8z"/>
		</g>
	</g>
</g>
<g>
	<g>
		<path class="st0" d="M645.5,516.6c1.3-7,5.5-13.8,12.2-16.3c4.8-1.8,11.3-0.8,14.5,3.5c1.7,2.3,2.3,5.1,2.7,7.9
			c1.7,9.7,2.8,19.4,3.3,29.1c-10.5,1.8-21.3,3-32,1.1C646,540.5,644.2,523.6,645.5,516.6z"/>
	</g>
	<g>
		<g>
			<path class="st1" d="M657.6,524.3c-1.1-1.9-2.2-3.7-3.2-5.6c0-0.1-0.1-0.1-0.1-0.2c0-0.1,0.1-0.2,0.2-0.3c0.3-0.3,0.7-0.6,1-0.9
				c1.1-1.1,1.6-2.8,1.2-4.3c-0.3-1-1-2-1.9-2.5c-1-0.5-2.2-0.5-3.1,0l-0.1,0c-1,4.8-1.3,9.8-1.1,14.7c0,0.2,0,0.3,0.1,0.4
				c0.2,0.2,0.4,0.1,0.6,0.1c0.3-0.1,0.5-0.1,0.8-0.2c0.1,0,0.2-0.1,0.3-0.2c0.1-0.1,0.1-0.2,0.1-0.3c0.2-2,0.3-3.9,0.4-5.9
				c0.7,1.9,1.5,3.8,2.2,5.8c0,0.1,0.1,0.2,0.1,0.2c0.1,0.1,0.2,0.1,0.3,0.1c0.6,0,1.3-0.1,1.9-0.3c0.1,0,0.2-0.1,0.3-0.2
				C657.8,524.7,657.7,524.5,657.6,524.3z M652.8,516c0.2-1.3,0.3-2.5,0.5-3.8l0,0.1c0.4,0,0.8,0.3,1,0.6c0.3,0.3,0.4,0.7,0.5,1.1
				c0.1,0.4,0.2,0.8-0.1,1.1c-0.1,0.1-0.3,0.2-0.4,0.3C653.9,515.8,653.3,516,652.8,516z"/>
		</g>
		<g>
			<path class="st1" d="M669.8,517.4c1.1-1.1,1.6-2.8,1.2-4.3c-0.3-1-1-2-1.9-2.5s-2.2-0.5-3.1,0l-0.1,0c-1,4.8-1.3,9.8-1.1,14.7
				c0,0.2,0,0.3,0.1,0.4c0.2,0.2,0.4,0.1,0.6,0.1c0.3-0.1,0.5-0.1,0.8-0.2c0.1,0,0.2-0.1,0.3-0.2c0.1-0.1,0.1-0.2,0.1-0.3
				c0.2-2,0.3-3.9,0.4-5.9C668.6,518.8,669.5,517.7,669.8,517.4z M667.1,516c0.2-1.3,0.3-2.5,0.5-3.8l0,0.1c0.4,0,0.8,0.3,1,0.6
				c0.3,0.3,0.4,0.7,0.5,1.1c0.1,0.4,0.2,0.8-0.1,1.1c-0.1,0.1-0.3,0.2-0.4,0.3C668.2,515.8,667.6,516,667.1,516z"/>
		</g>
		<g>
			<path class="st1" d="M659.6,511.4c-0.2,0.9-0.2,1.9-0.3,2.8c-0.1,3.7-0.2,7.4,0,11.1c0.7,0.1,1.5,0.1,2.2,0
				c-0.1-3,0.1-6.1,0.3-9.1c0.1-1.7,0.2-3.5-0.1-5.2c0-0.1,0-0.1-0.1-0.2c-0.1-0.1-0.1-0.1-0.2-0.1
				C660.8,510.7,659.6,511.4,659.6,511.4z"/>
		</g>
	</g>
</g>
<g>
	<g>
		<path class="st0" d="M585.3,500.8c0.9-4.7,3.6-9.2,8.1-10.9c3.2-1.2,7.5-0.6,9.6,2.3c1.1,1.5,1.5,3.4,1.8,5.2
			c1.1,6.4,1.9,12.9,2.2,19.4c-7,1.2-14.2,2-21.3,0.7C585.6,516.8,584.4,505.5,585.3,500.8z"/>
	</g>
	<g>
		<g>
			<path class="st1" d="M593.3,506c-0.7-1.2-1.4-2.5-2.2-3.7c0,0-0.1-0.1-0.1-0.1c0-0.1,0.1-0.1,0.1-0.2c0.2-0.2,0.5-0.4,0.7-0.6
				c0.7-0.7,1.1-1.9,0.8-2.9c-0.2-0.7-0.7-1.3-1.3-1.6c-0.6-0.3-1.4-0.3-2.1,0l-0.1,0c-0.6,3.2-0.9,6.5-0.7,9.8c0,0.1,0,0.2,0.1,0.3
				c0.1,0.1,0.3,0.1,0.4,0c0.2,0,0.3-0.1,0.5-0.1c0.1,0,0.2,0,0.2-0.1c0-0.1,0.1-0.1,0.1-0.2c0.1-1.3,0.2-2.6,0.3-3.9
				c0.5,1.3,1,2.6,1.5,3.8c0,0.1,0,0.1,0.1,0.1c0,0,0.1,0,0.2,0c0.4,0,0.8-0.1,1.2-0.2c0.1,0,0.2-0.1,0.2-0.1
				C593.5,506.3,593.4,506.1,593.3,506z M590.1,500.5c0.1-0.8,0.2-1.7,0.3-2.5l0,0.1c0.3,0,0.5,0.2,0.7,0.4c0.2,0.2,0.3,0.5,0.3,0.7
				c0.1,0.3,0.1,0.6-0.1,0.8c-0.1,0.1-0.2,0.1-0.3,0.2C590.8,500.3,590.5,500.4,590.1,500.5z"/>
		</g>
		<g>
			<path class="st1" d="M601.5,501.4c0.7-0.7,1.1-1.9,0.8-2.9c-0.2-0.7-0.7-1.3-1.3-1.6c-0.6-0.3-1.4-0.3-2.1,0l-0.1,0
				c-0.6,3.2-0.9,6.5-0.7,9.8c0,0.1,0,0.2,0.1,0.3c0.1,0.1,0.3,0.1,0.4,0c0.2,0,0.3-0.1,0.5-0.1c0.1,0,0.2,0,0.2-0.1
				c0-0.1,0.1-0.1,0.1-0.2c0.1-1.3,0.2-2.6,0.3-3.9C600.6,502.3,601.2,501.6,601.5,501.4z M599.7,500.5c0.1-0.8,0.2-1.7,0.3-2.5
				l0,0.1c0.3,0,0.5,0.2,0.7,0.4c0.2,0.2,0.3,0.5,0.3,0.7c0.1,0.3,0.1,0.6-0.1,0.8c-0.1,0.1-0.2,0.1-0.3,0.2
				C600.4,500.3,600,500.4,599.7,500.5z"/>
		</g>
		<g>
			<path class="st1" d="M594.7,497.4c-0.1,0.6-0.2,1.3-0.2,1.9c-0.1,2.5-0.1,4.9,0,7.4c0.5,0.1,1,0,1.5,0c-0.1-2,0.1-4,0.2-6.1
				c0.1-1.2,0.1-2.3-0.1-3.5c0,0,0-0.1,0-0.1c0,0-0.1,0-0.2-0.1C595.4,496.9,594.7,497.4,594.7,497.4z"/>
		</g>
	</g>
</g>
</svg>
