<?xml version="1.0" encoding="utf-8"?>
<!-- Generator: Adobe Illustrator 21.0.0, SVG Export Plug-In . SVG Version: 6.00 Build 0)  -->
<svg version="1.1" id="Capa_1" xmlns="http://www.w3.org/2000/svg" xmlns:xlink="http://www.w3.org/1999/xlink" x="0px" y="0px"
	 viewBox="0 0 101.9 52.5" style="enable-background:new 0 0 101.9 52.5;" xml:space="preserve">
<style type="text/css">
	.st0{fill:#E4294D;}
</style>
<path class="st0" d="M100.2,8.8c-0.2-2.2-0.6-4.5-2.4-6c-1.5-1.3-3.6-1.6-5.6-1.8c-8.8-1-17.7-1-26.8-0.9C45.1,0.1,24,0.5,2.2,0.3
	c-0.7,0-1.5,0-2.2,0.1v50.8c6.2,0.8,12.4,1,18.5,1.1c26.7,0.6,52.3-0.3,76.6-2.6c2.1-0.2,4.6-0.6,5.6-2.3c0.5-0.8,0.6-1.7,0.7-2.6
	C102.6,32.9,101.6,20.8,100.2,8.8z"/>
</svg>
