<?xml version="1.0" encoding="utf-8"?>
<!-- Generator: Adobe Illustrator 21.0.0, SVG Export Plug-In . SVG Version: 6.00 Build 0)  -->
<svg version="1.1" id="Capa_1" xmlns="http://www.w3.org/2000/svg" xmlns:xlink="http://www.w3.org/1999/xlink" x="0px" y="0px"
	 viewBox="0 0 158.9 160.9" style="enable-background:new 0 0 158.9 160.9;" xml:space="preserve">
<style type="text/css">
	.st0{fill:#E4294D;}
</style>
<path class="st0" d="M5.6,40.9c-3.2,8.2-4.4,17-5.2,25.7C0,72.2-0.3,77.9,0.6,83.4c0.9,5.4,2.8,10.5,4.8,15.5
	c5.3,13.5,10.7,27.3,20.5,38c15.3,16.8,39,23.5,61.7,24c9.3,0.2,18.7-0.6,27.3-4.1c15.7-6.4,26.7-21,33.7-36.4
	c9.4-20.5,13.2-44.1,7.9-66s-20.7-41.8-41.7-50.1c-14.1-5.6-30.2-5.8-44.5-0.7c-9.8,3.4-18.5,9.2-27,15.2
	c-6.7,4.8-13.4,10-17.5,17.1c-2.8,4.9-4.2,10.5-5.2,16.1c-2.7,15.4-2,31.6,3.4,46.4s15.8,27.8,29.7,35c13.9,7.2,31.3,8.1,45.3,1
	c6.4-3.3,12-8.1,16.9-13.3c4.8-5.1,9.2-10.7,12.3-17c4.4-9.2,5.8-19.5,6.1-29.6c0.2-7.6-0.1-15.4-2.5-22.6
	C128.1,41.2,120,32.3,110,27.3s-21.8-6.2-32.7-3.8c-6.7,1.5-13.2,4.4-18.2,9.1c-5.7,5.4-9,12.9-11.1,20.5
	c-2.6,9.7-3.4,20.1-0.7,29.7c2.7,9.7,9.1,18.6,18.1,23c8,3.9,17.7,4,25.9,0.5c8.2-3.5,14.8-10.5,18.1-18.8
	c3.4-8.6,3.2-18.8-1.4-26.9c-4.6-8.1-13.7-13.6-23-13.1S67.1,54.9,65.2,64s4.1,19.3,13.1,21.5c2.3,0.6,4.8,0.6,6.8-0.5
	c2.1-1.1,3.5-3.5,2.9-5.8c-6.5,0.1-12-7-10.2-13.3c1.8-6.2,10.3-9.4,15.7-5.8c1.4,0.9,2.6,2.2,3.6,3.6c4.4,6.2,4.8,15,1.3,21.7
	c-3.5,6.8-10.8,11.3-18.4,12c-3.5,0.3-7-0.2-10.1-1.9c-3.9-2.1-6.6-5.7-8.4-9.7c-2.7-6.1-3.5-12.9-3.3-19.5
	c0.2-6.5,1.3-13.3,5.4-18.3c3.9-4.8,10-7.4,15.8-9.5c5.1-1.8,10.6-3.5,15.9-2.3c3.5,0.8,6.7,2.8,9.5,5.2c13.1,11,19,29.9,14.5,46.4
	c-4.5,16.5-19.1,29.8-36,32.6c-4.7,0.8-9.6,0.8-14.2-0.5c-4.1-1.1-7.8-3.3-11.5-5.4c-5.4-3.1-10.9-6.3-14.7-11.2
	c-2-2.6-3.5-5.6-4.7-8.7C31,76,33.5,53.9,44.5,37.1c2.5-3.9,5.5-7.5,9.2-10.4c5.2-4.1,11.4-6.6,17.8-8.4c17.9-5.1,38.7-4.5,53.3,7
	c14.4,11.4,19.9,30.8,21.2,49.2c0.4,5.8,0.6,11.6-0.1,17.3c-1.9,15.8-10.1,30.7-22.4,40.7s-28.6,15-44.4,13.6
	c-6.9-0.6-13.6-2.3-20.2-4.1c-8.1-2.1-16.6-4.6-22.2-10.9c-2.2-2.4-3.7-5.3-5.3-8.1c-3.7-6.8-7.5-13.6-11.2-20.4
	c-3.6-6.6-7.3-13.2-8.7-20.6c-0.6-3.2-0.8-6.5-0.7-9.8c0.2-18.7,7.5-32.7,15.9-48.6C16.1,19.4,9.1,32.2,5.6,40.9z"/>
<g>
</g>
<g>
</g>
<g>
</g>
<g>
</g>
<g>
</g>
</svg>
