<?xml version="1.0" encoding="utf-8"?>
<!-- Generator: Adobe Illustrator 21.0.0, SVG Export Plug-In . SVG Version: 6.00 Build 0)  -->
<svg version="1.1" id="Capa_1" xmlns="http://www.w3.org/2000/svg" xmlns:xlink="http://www.w3.org/1999/xlink" x="0px" y="0px"
	 viewBox="0 0 119 93" style="enable-background:new 0 0 119 93;" xml:space="preserve">
<style type="text/css">
	.st0{fill:#6E4012;}
	.st1{fill:#FFC900;}
	.st2{fill:#E4294D;}
</style>
<g>
	<g>
		<path class="st0" d="M33.4,1.8c-5.9,1.8-11.9,3.6-17.3,6.5S5.7,15.5,2.9,21c-3.6,7.1-3.3,15.4-2.2,23.3C1.2,47.6,1.9,51,3.3,54
			s3.9,5.7,7.1,6.9c4.5,1.6,9.6,0,14.1,1.4c2.5,0.8,4.6,2.4,6.6,4C39.8,73.3,48,81,57.6,86.5c9.7,5.4,21.4,8.4,32,5.1
			c6.1-1.9,11.4-5.8,16.5-9.7c4.2-3.2,8.6-6.6,10.8-11.5c1.5-3.3,1.8-6.9,1.9-10.5c0.4-8.4,0.3-17-1.7-25.2S111,18.6,104.6,13
			C98,7.4,89.5,4.5,81.1,2.7C65.3-0.7,48.8-0.9,33,2.1L33.4,1.8z"/>
	</g>
	<g>
		<path class="st1" d="M84.7,73.9c-7.1,0-14.7-1.9-22-5.5C54,64.1,46.5,57.8,41,52.8l-0.5-0.5c-1.9-1.7-3.7-3.3-5.7-4.5
			c-3.8-2.3-8.4-3.1-13.3-3.9c-4.6-0.8-9.3-1.6-13.8-3.7c-1-0.5-2.2-1.1-3.2-2.4C3.1,36.2,2.6,34,3,31.4c0.7-5.2,3.5-10,8.7-15.2
			C24.2,3.9,42.8,3.7,52.8,3.6c0.7,0,1.3,0,1.9,0c1.6,0,3,0,4.3,0c7.1,0,16.5,0.3,25.5,2.8c11.3,3.1,20.4,9.4,25.8,17.6
			c1.5,2.3,2.5,4.4,3.2,6.7c0.7,2.3,1.1,4.8,1.2,8c0.2,8.2-1.6,15.8-5.2,22c-2.2,3.7-4.8,6.7-7.9,8.7c-3.2,2.1-7.1,3.5-11.6,4.2
			C88.2,73.8,86.4,73.9,84.7,73.9L84.7,73.9z"/>
	</g>
	<g>
		<path class="st2" d="M14.7,19.3C11.1,22.8,7.9,27,7.2,32c-0.1,1.1-0.1,2.3,0.6,3.2c0.4,0.5,1,0.9,1.7,1.1c8.7,4,19.4,2.9,27.6,7.8
			c2.5,1.5,4.7,3.5,6.8,5.5c6.3,5.7,13.1,11.1,20.7,14.9c7.6,3.8,16.3,5.9,24.8,4.8c3.5-0.5,6.9-1.5,9.8-3.5
			c2.8-1.9,4.9-4.5,6.6-7.3c3.5-5.9,4.8-12.9,4.6-19.8c-0.1-2.3-0.3-4.6-1-6.8c-0.6-2-1.6-3.8-2.7-5.6c-5.3-8-14.1-13.2-23.3-15.8
			s-19-2.8-28.6-2.6C45.3,8,26.8,7.4,14.7,19.3z"/>
	</g>
	<g>
		<path class="st1" d="M67.2,27.6c-3.8-1.3-7.9-2.6-11.9-1.7c-1.5,0.3-3.2,1.5-2.7,2.9c0.3,0.8,1.2,1.2,2,1.5
			c4.2,1.6,8.5,2.9,12.9,4c2.9,0.7,5.8,1.4,8.3,3c2.5,1.6,4.5,4.3,4.3,7.2c-0.2,3.7-3.6,6.4-6.8,8.2c-0.9,0.5-1.9,1.1-1.9,2.1
			c0,0.8,0.6,1.5,1.4,1.8c0.8,0.3,1.6,0.1,2.4,0c6.8-1.4,12.4-6.2,16.7-11.6c4.2-5.3,7.7-11.9,6.6-18.6c-0.1-0.4-0.2-0.8-0.3-1.1
			c-0.8-1.4-3.1-1.1-4.1,0.1c-1.1,1.2-1.3,2.9-1.7,4.5c-0.7,2.7-2.1,5.3-3.9,7.4c-0.4,0.5-0.9,0.9-1.5,1c-0.8,0-1.4-0.8-1.9-1.5
			C82.9,33.8,70.4,28.7,67.2,27.6z"/>
	</g>
</g>
<g>
</g>
<g>
</g>
<g>
</g>
<g>
</g>
<g>
</g>
</svg>
