<?xml version="1.0" encoding="utf-8"?>
<!-- Generator: Adobe Illustrator 21.0.0, SVG Export Plug-In . SVG Version: 6.00 Build 0)  -->
<svg version="1.1" id="Capa_1" xmlns="http://www.w3.org/2000/svg" xmlns:xlink="http://www.w3.org/1999/xlink" x="0px" y="0px"
	 viewBox="0 0 75.9 96.7" style="enable-background:new 0 0 75.9 96.7;" xml:space="preserve">
<style type="text/css">
	.st0{fill:#FFFFFF;}
	.st1{fill:#C3996D;}
	.st2{fill:#A37C52;}
</style>
<g>
	<path class="st0" d="M24.8,5.7c2-0.4,4.1-0.4,5.9-1.3c1.3-0.6,2.4-1.6,3.8-1.9c2.2-0.5,4.8,1,6.7-0.3c0.7-0.5,1.2-1.4,2-1.8
		c1.5-0.9,3.5,0.2,4.6,1.5s2.1,3,3.7,3.8C52.3,6,53.2,6.1,54,6.4c5.6,1.5,9.5,6.3,13.1,11c-5.6,2.2-11.7,2.2-17.7,2.1
		c-8.5,0-17-0.1-25.4-0.1c-3.6,0-13.4,1.3-11.8-5.1C13.3,9.8,20.8,6.4,24.8,5.7z"/>
	<path class="st1" d="M6.7,21.9c-2,22.5-2.4,43.5-1.6,63.1c0.1,2.4,0.4,5.1,2.3,6.7c1.9,1.5,4.5,1.2,6.8,1.4c2.7,0.2,5.4,1,8.1,1.6
		c13.6,3.3,28.2,2.7,41.7-1.7c2.9-0.9,5.8-2.1,7.9-4.4c3.2-3.5,3.6-8.6,3.1-13.2c-0.6-5.9-2.2-11.8-2.4-18c-0.2-4.5,0.4-9.2,0-13.9
		c-0.2-2.5-0.8-4.9-1-7.4c-0.4-5.4,0.7-10.9,0.8-16.6c0-0.7,0-1.4-0.4-2c-0.5-0.6-1.3-0.6-2.1-0.6c-20.4-0.1-40.6,0.8-60.5,2.7
		L6.7,21.9z"/>
	<path class="st2" d="M1.5,16.9c-2.4,2.4-1.8,5.4,1,7.7c0.3,0.2,0.6,0.5,1.1,0.6c0.5,0.1,1.2,0.1,1.8,0.1
		c13.1-0.2,26.2-0.5,39.2-0.7c6-0.1,12-0.2,18,0.1c3,0.1,6,0.4,9.1,0.5c0.8,0,1.7,0,2.4-0.2c0.8-0.3,1-0.9,1.2-1.4
		c0.5-1.9,0.7-3.8,0.5-5.7c-0.1-0.9-0.4-1.9-1.7-2.6c-1.2-0.6-2.8-0.7-4.4-0.9c-13.4-1.1-27-1.5-40.5-1.2
		C20.4,13.4,6.4,12.1,1.5,16.9z"/>
	<g>
		<path class="st0" d="M22.8,43.6h0.3c1,0,1.9,0.6,2.8,1.8c0.4,0.6,0.6,1.1,0.6,1.6c0.1,0.3,0.1,0.6,0.1,1l-0.1,1.3l0.1,0.6
			c-0.1,0.6-0.3,0.9-0.5,0.9c0,0.1-0.1,0.1-0.2,0.1h-0.1l0,0l0,0h-0.1c-0.2,0-0.5-0.2-0.8-0.6c-0.1,0-0.1-0.1-0.1-0.4
			c-0.1,0-0.1-0.4-0.2-1.1v-0.1l0.1-0.6l0,0v-0.6c0-0.5-0.1-1.1-0.4-1.7c-0.2-0.2-0.4-0.3-0.5-0.3c-0.4,0-0.6,0.4-0.8,1.1
			c-0.1,0.7-0.2,1.3-0.2,1.9l0.1,0.8V50c0.3,1.3,0.5,2.7,0.6,4c0,0.2,0.2,0.8,0.6,1.8c0.3,0.6,0.9,1.4,1.8,2.3
			c0.3,0.4,0.6,1,0.8,1.7c0.2,0.6,0.3,1.1,0.3,1.3v0.2l-0.1,0.8v0l0.1,0.7l-0.1,0.8v0.4c0,0.2,0,0.3-0.1,0.5h0
			c-0.1,0.4-0.2,1-0.2,1.8c-0.3,0.8-0.5,1.5-0.5,2h0c-0.3,1-0.6,1.5-0.8,1.5c-0.3,0.3-0.5,0.4-0.7,0.4c-0.6,0-1.5-0.5-2.7-1.4
			c-1.1-1.1-1.6-2-1.6-2.6l-0.1-0.5h0l0,0v-0.2l0-0.1l0-0.1l0-1.3v-0.6c0-0.4,0-0.6,0.1-0.6l0,0v-0.1l0.1-0.4l0-0.1l0.2-0.2l0.2,0.1
			c0.1-0.1,0.3-0.1,0.5-0.2c0.2,0,0.5,0.3,0.9,0.9l0.2,0.3l0,0.7v1.4c0.1,0.8,0.1,1.3,0.2,1.4h0c0.2,0.8,0.5,1.3,0.8,1.6
			c0.1,0.1,0.3,0.1,0.5,0.1h0c0.3,0,0.4-0.3,0.5-1l0.2-0.8h0c0.1-0.2,0.2-0.8,0.2-1.8c0.1-0.1,0.1-0.4,0.2-0.7v-0.6l0-0.4l0-0.5
			v-1.8c0-0.1-0.2-0.6-0.5-1.6c-0.2-0.6-0.5-1.1-1-1.5c-1-1.1-1.6-2-1.8-2.9c-0.1-0.2-0.2-0.8-0.3-1.8c-0.1-0.5-0.2-1-0.2-1.6
			c-0.1-0.3-0.2-0.9-0.2-1.8c-0.1-0.4-0.1-0.9-0.1-1.5c0.1-0.9,0.2-1.5,0.2-1.7c0.1-0.2,0.2-0.5,0.2-1c0.1-0.2,0.3-0.6,0.8-1
			C22.3,43.8,22.6,43.6,22.8,43.6z"/>
		<path class="st0" d="M33.9,43c0.4,0,0.7,0.4,1.1,1.1l0.1,0.7v1.1C35.1,46.5,35,47,35,47.6l0,0.3c-0.1,0.4-0.1,1-0.2,1.7l0,0.5
			l-0.1,0.7l0.1,0.7v0.6l0.1,1.2v0.4l0,0l0,0v0.4c-0.2,1.4-0.3,2.4-0.3,3l0.1,0.5V58l0,1.2c0.1,0.9,0.1,1.8,0.1,2.8l0,0.7l0,0.4v0.1
			l-0.1,0.6c0,0.9,0.1,1.5,0.1,1.8l-0.1,0.9l0.1,0.8c0,0.7-0.2,1.4-0.5,2.3c-0.2,0.2-0.4,0.5-0.8,0.7c-0.3,0.4-0.7,0.6-1.2,0.6
			c-0.6,0-1.3-0.2-2.1-0.5c-0.8-0.4-1.4-1.1-1.8-2c-0.2-0.5-0.2-1-0.2-1.5c0-0.2-0.1-0.6-0.2-1.3l-0.1-0.8v-0.6l-0.1-1.1l0-0.8
			l-0.1-0.8l0.1-0.7l-0.1-0.8c0-0.3,0-0.7,0.1-1.2l0-0.6l0.2-1.4L28,56.3c0-0.4,0.1-0.7,0.1-1L28,54l0.1-0.7l0-0.2v-1.5l0.1-2.1
			l0-0.8l0-0.7c0-0.3-0.1-1.1-0.2-2.2c0-0.6,0-1.2-0.1-1.8V44c0.1-0.2,0.4-0.3,0.9-0.3c0.3,0,0.7,0.4,1.2,1.2l0.1,0.5l0,0.3
			c0.1,1.2,0.2,2,0.2,2.3l0,1.1l0.1,0.5c-0.1,1-0.1,1.8-0.2,2.2v0.2l0.1,0.5l0,0.6l0,0.6c-0.1,0.5-0.1,1-0.1,1.6l0,0.4v0.2
			c-0.1,1.8-0.3,2.9-0.4,3.2l0.1,0.5v0.2l-0.1,0.6l0.1,1.4l-0.1,0.5l0.1,0.5v0.4l0.1,2.5c0.1,0.4,0.2,0.7,0.2,1.1
			c0.1,0,0.1,0.5,0.2,1.5c0.1,0.3,0.3,0.5,0.5,0.7l0.4,0.1c0.7,0,1.2-0.3,1.4-1l0.1-0.7l0-1v-1.8c0-0.3,0-0.7-0.1-1.2l0.1-2v0
			c-0.1-0.4-0.1-1-0.1-1.8v-0.7l0,0l0,0v-0.2l0.1-0.5l-0.1-0.4l0-0.5l0-0.9V56l0,0l0,0v-0.1c0-0.2,0.1-0.8,0.2-1.7h0l0,0v-0.5
			L32.8,52v-0.4l0-1.3l0-0.3l0.1-1.9c0-0.2,0.1-0.8,0.2-1.8v-0.1l0,0l0,0v-0.5l0,0l0.1-0.5L33,43.5v-0.1c0-0.3,0.3-0.4,0.8-0.4
			L33.9,43z"/>
		<path class="st0" d="M39.4,43.3L39.4,43.3c1,0,1.8,0.4,2.5,1.3c0.7,0.6,1.1,1.2,1.3,1.8c0.3,0.9,0.5,1.8,0.5,2.7l0.1,0.5l-0.2,0.9
			c-0.1,0.6-0.2,0.9-0.4,0.9c0,0.2-0.2,0.4-0.3,0.4c-0.1,0-0.2-0.1-0.3-0.2c-0.1,0-0.4-0.2-0.8-0.6l-0.1-0.3v-0.1l0-0.1l0-0.2v-1.1
			c0-1.2-0.1-1.9-0.2-2.2c-0.3-1.2-0.6-1.8-1-1.8H40c-0.4,0-0.7,0.3-0.8,0.9L39,47.7c-0.1,0.2-0.2,0.6-0.2,1.2l-0.2,1.3v0.5l0,0l0,0
			v0.4l-0.1,1.7l0,0.5l0,0.3l0,0.8l0,0.4l0.1,0.5l0,0.6c0,1.2,0.1,1.9,0.1,1.9l0,0v0.1l0.1,1.6c0.2,0.3,0.2,1.4,0.2,3l0.1,0.4
			c0,0.1-0.1,0.3-0.1,0.6l0.1,0.4l0,0v0l0.1,1.3c0,0.5,0.1,1.1,0.4,1.8c0.2,0.9,0.4,1.3,0.8,1.3c0.7-0.1,1-0.2,1-0.5
			c0.1,0,0.2-0.4,0.2-1.1l0.1-1.4l-0.2-1.1l0-1.1v-0.9l-0.1-1v-0.4l0-0.9l0-0.2l0.1-0.5c0-1.1-0.1-1.7-0.3-1.7
			c0-0.1-0.2-0.1-0.5-0.3c-0.4-0.2-0.6-0.4-0.8-0.7c0,0,0-0.1,0-0.3h0c0-0.2,0.2-0.4,0.7-0.5c0.3-0.1,0.5-0.2,0.8-0.2H42
			c0.5,0,0.9,0.4,1.3,1.2l0,0.2v0.6l0,1v0.1l0,0.7v0.4l0,0.7v0.1l0,0.6c0.1,1.9,0.2,3.3,0.3,4.2c0,0,0,0.1,0,0.4v0l-0.1,0.9v0.2
			c0,0.5-0.1,1.1-0.3,1.9c-0.1,0.3-0.3,0.6-0.4,0.8c0,0.1-0.2,0.3-0.6,0.6c-0.4,0.2-0.8,0.2-1.2,0.2h-0.7c-0.3,0-0.7-0.2-1.1-0.4
			c-0.7-0.7-1.2-1.3-1.4-2c-0.5-1.3-0.7-2.4-0.7-3.4l-0.2-3.1l0-0.8l0-0.2h0c-0.1-0.2-0.1-0.5-0.1-0.9V59c-0.1-0.3-0.2-1-0.2-2.1
			c0,0-0.1-0.2-0.1-0.5v-0.5l0.1-1.1l-0.1-0.6h0l0,0v-0.4l0,0l0,0v-0.1l0,0l0,0V53l0,0l0,0v0l0.1-0.7v-0.5l0-0.3
			c0-0.2,0.1-0.9,0.1-2.1l0-0.2h0c0.1-0.1,0.1-0.4,0.1-0.7v-0.2l0.3-0.9v-0.5c0.2-1,0.4-1.7,0.7-2.3c0.1,0,0.1-0.1,0.2-0.4
			c0.1-0.1,0.3-0.2,0.4-0.5C38.7,43.4,39.1,43.3,39.4,43.3z"/>
		<path class="st0" d="M47.3,44.1c0.4,0.1,0.6,0.2,0.7,0.2c0.1,0,0.3,0,0.5-0.1c0.3,0.2,0.6,0.4,0.7,0.7c0.2,0.2,0.4,0.8,0.4,1.6
			c0.1,0.3,0.2,1.1,0.3,2.4l-0.1,0.6c0.2,0.6,0.3,1.2,0.3,1.7c0,0,0.1,0.5,0.2,1.5c0,0.1,0.1,0.6,0.2,1.5v0.2l0,1.8v0l0,0.5
			c0.1,0.6,0.2,1.1,0.2,1.6v0.2l0,0.4c0.1,0.7,0.2,1.4,0.2,2l0,0.1l0.1,0.7L51,62.3c0.1,0.7,0.2,1.4,0.2,2.3l0,0v0l0.1,0.6
			c0,0.1-0.1,0.3-0.1,0.5c0,0.2,0.1,1,0.1,2.5l0,0.2h0c0.1,0.3,0.1,0.5,0.1,0.8c0,0.3-0.1,0.6-0.4,0.8c0,0,0,0.1-0.1,0.1l-0.2,0
			l-0.1,0c-0.3,0-0.6-0.3-1-0.8c-0.2-0.4-0.3-0.8-0.3-1.3c0,0,0-0.4-0.1-1.1l0.1-0.4c0-0.8-0.1-1.2-0.1-1.2l0,0l0-0.2l0-0.9
			c0-0.6-0.1-0.9-0.4-0.9h-1.2c-0.3,0-0.5,0.2-0.5,0.7v0l0,0.6l0,0.4l0,0.7c0,0.3,0,0.6-0.1,0.8h0c-0.1,0.4-0.2,0.8-0.2,1.2l0.1,0.7
			c0,1.2-0.1,1.8-0.2,1.8c-0.1,0.1-0.2,0.2-0.3,0.2c-0.4,0-0.9-0.3-1.3-0.9l-0.2-0.5v-0.1l0.1-0.6v-0.2l0,0l0,0l0-0.5
			c0.1-1.3,0.2-2.1,0.2-2.3V65l0-0.1l0-0.1l0-0.7l0-0.8l0-0.3l0.1-0.6v-0.1c0-0.1,0-0.3-0.1-0.4h0c-0.1-0.2-0.1-0.3-0.1-0.5v-0.5
			c0.1-0.4,0.2-0.8,0.2-1.2l0-0.7l0.1-1.7l-0.1-0.6v-0.4c0.2-0.8,0.3-1.4,0.3-1.6h0l0.2-1.3h0c0.1-0.4,0.2-0.7,0.2-0.8v-0.5l0,0l0,0
			l0-0.4v-0.4l0-0.5v-0.4l0.1-1.8l0-0.3v0c0-0.3,0-1,0.1-2l0-1.3C46.3,44.5,46.6,44.2,47.3,44.1L47.3,44.1z M48.2,51.8
			c-0.1,0.2-0.3,0.5-0.3,0.9h0l-0.1,1.1l-0.2,1.1v0.5l-0.1,0.5h0c-0.1,0.3-0.2,0.6-0.2,1l0,0.9c-0.1,0.7-0.1,1.5-0.1,2.2v0.2
			c0,0.3,0.2,0.4,0.6,0.4c0.2,0.1,0.5,0.1,0.9,0.1c0.2-0.1,0.3-0.2,0.3-0.3v-0.1c0-0.3,0-0.5,0-0.5l0,0c-0.1-0.8-0.1-1.6-0.2-2.5
			c-0.1-0.3-0.1-0.6-0.1-0.8l0-0.6l-0.1-0.7l0-0.6c-0.1-0.2-0.1-0.9-0.2-2.2C48.4,52,48.3,51.8,48.2,51.8z"/>
		<path class="st0" d="M54.8,42.5l0.5,0.1v0c0.9,0.1,1.5,0.3,2,0.5c0.4,0.2,0.9,0.6,1.4,1.3c0.4,0.4,0.5,0.8,0.5,1.4l0.1,0.3
			l-0.1,0.5l0.1,0.6v0.5l0,0.7l0,0.7l0.1,2.1l0.1,0.6v0.8c0,0.8-0.1,1.4-0.2,1.6l-0.2,1c-0.2,0.6-0.4,1-0.6,1.2
			c-0.1,0.1-0.2,0.3-0.4,0.7l-0.7,0.7l0,0.2v0.1l0.8,2.4c0.1,0.2,0.1,0.5,0.2,1.1c0.1,0.1,0.1,0.5,0.2,1V63l-0.1,0.6
			c0,0.2,0.1,1,0.2,2.2c0,0.7,0.1,1.3,0.4,1.7L60,70v0.1c0,0.2-0.1,0.4-0.3,0.6l-0.3,0h-0.1c-0.3,0-0.7-0.4-1.2-1.1
			c-0.3-0.4-0.6-1.2-0.9-2.2c-0.2-0.3-0.3-0.7-0.4-1.4l0.1-0.5c-0.2-0.9-0.3-1.4-0.3-1.6v-0.3l0.1-0.6c0-1-0.2-2-0.5-3.1h0
			c-0.3-1.1-0.6-1.7-0.8-1.8h-0.1c-0.1,0.1-0.2,0.2-0.2,0.4l0.1,0.8c0,0.8-0.1,1.3-0.1,1.4l0,0.2l0,1v0l0.1,1l-0.1,1.3v0l0.1,0.7
			l-0.1,0.7l0.1,0.5l-0.1,2.4l0,0.5v0.4c-0.1,0.5-0.4,0.7-0.6,0.7c-0.4-0.1-0.8-0.3-1.2-0.8c-0.2-0.4-0.3-0.7-0.3-0.9l0.2-1.1l0-0.2
			V67l0-0.2l-0.1-0.5l0.1-0.9l0-0.8l0.1-0.9l-0.1-0.6l0.1-0.5l-0.1-0.5l0.1-0.6l-0.1-0.8l0-1.1c0-1-0.1-2-0.2-3.2l0.2-0.7
			c0-0.3,0.1-0.7,0.1-1.2v-0.2l-0.1-2.7c0,0,0.1-0.2,0.1-0.5c0-0.5,0.1-1.2,0.2-2.3v-0.5c-0.1-0.6-0.2-1.1-0.2-1.5l0.2-0.8
			c-0.1-0.7-0.2-1.4-0.2-2.2l-0.1-0.2c0.1-0.5,0.3-0.8,0.6-0.9C53.8,42.6,54.3,42.6,54.8,42.5z M54.9,44.9c0.1,0.3,0.1,0.9,0,1.9
			l0.2,2c0,0,0,0.5-0.2,1.4c0,0,0.1,0.1,0.1,0.3l0,0.7l0,0.3L54.9,52l0.3,0.7c-0.1,0.4-0.2,0.9-0.2,1.7v0.1l0.1,1.2v0.2
			c0.1,0.2,0.2,0.3,0.4,0.3c0.7-0.1,1.1-0.2,1.1-0.4c0.5-0.5,0.7-1,0.8-1.4c0.1-0.1,0.2-0.7,0.2-1.7c0,0,0.1-0.1,0.1-0.4l-0.1-1.4
			l-0.1-0.5v-0.2l0-0.4l-0.1-0.8l0-0.4c0-0.2-0.1-1-0.1-2.2l0-0.3c-0.1-0.7-0.2-1.1-0.4-1.3c-0.1-0.2-0.5-0.3-1.3-0.3h-0.3
			C55.1,44.5,54.9,44.6,54.9,44.9z"/>
	</g>
</g>
<g>
</g>
<g>
</g>
<g>
</g>
<g>
</g>
<g>
</g>
</svg>
