<?xml version="1.0" encoding="utf-8"?>
<!-- Generator: Adobe Illustrator 21.0.0, SVG Export Plug-In . SVG Version: 6.00 Build 0)  -->
<svg version="1.1" id="Capa_1" xmlns="http://www.w3.org/2000/svg" xmlns:xlink="http://www.w3.org/1999/xlink" x="0px" y="0px"
	 viewBox="0 0 1024 768" style="enable-background:new 0 0 1024 768;" xml:space="preserve">
<style type="text/css">
	.st0{clip-path:url(#SVGID_2_);}
	.st1{opacity:0.12;}
	.st2{fill:#FFFFFF;}
	.st3{opacity:0.33;}
	.st4{opacity:0.45;}
	.st5{fill:#FFCA00;}
</style>
<g>
	<defs>
		<rect id="SVGID_1_" x="191.5" y="0.3" width="832.5" height="719.7"/>
	</defs>
	<clipPath id="SVGID_2_">
		<use xlink:href="#SVGID_1_"  style="overflow:visible;"/>
	</clipPath>
	<g class="st0">
		<g class="st1">
			<path class="st2" d="M724.6-205.8C599.7-175.5,483-97.3,428,16.8c-24.1,49.9-35.7,104.6-45.8,159
				c-19.4,105.1-32,219.1,18.6,313.7c30.8,57.6,83,102.4,141.3,133.5c58.3,31.1,122.7,49.5,187.4,63.8
				c91.5,20.3,190.9,32.2,276.1-6.2c42.2-19,78.1-49.2,110.5-81.7c29.2-29.3,56.4-60.9,76.7-96.8c20.2-35.7,33.2-75,41.2-115
				c29-146.4-13.4-304.8-112-418.4S870.8-211.2,718.8-206.5L724.6-205.8z"/>
		</g>
		<g class="st3">
			<path class="st2" d="M746.1-89.1C655-66.5,569.9-8.4,529.7,76.4c-17.6,37.1-26.1,77.8-33.4,118.2c-14.1,78.1-23.3,163,13.6,233.3
				c22.5,42.9,60.5,76.1,103.1,99.3c42.5,23.1,89.5,36.8,136.7,47.5c66.7,15.1,139.2,24,201.4-4.6c30.8-14.1,56.9-36.6,80.6-60.8
				c21.3-21.8,41.1-45.3,55.9-72c14.7-26.5,24.2-55.8,30-85.5c21.1-108.9-9.8-226.7-81.7-311.2S852.8-93.1,741.9-89.6L746.1-89.1z"
				/>
		</g>
		<g class="st4">
			<path class="st2" d="M766.5,29.5c-59.2,14.7-114.5,52.4-140.6,107.5c-11.4,24.1-16.9,50.6-21.7,76.8
				C595,264.6,589,319.8,613,365.4c14.6,27.8,39.3,49.5,66.9,64.5c27.6,15,58.1,23.9,88.8,30.8c43.3,9.8,90.5,15.6,130.8-3
				c20-9.2,37-23.8,52.4-39.5c13.9-14.1,26.7-29.4,36.3-46.7c9.6-17.2,15.8-36.2,19.5-55.6c13.7-70.7-6.4-147.3-53.1-202.1
				c-46.7-54.9-119-86.9-191-84.7L766.5,29.5z"/>
		</g>
		<g>
			<path class="st5" d="M688,230.3c29.2-3.9,41.2-45.6,41.5-75.7c12.6,11,29.7,16.3,45.5,14c18.8-2.8,34-15.4,48.3-27.5
				c1.4,15.9,10.8,31.4,24.4,40.1c13.6,8.7,30.9,10.5,45.1,4.6c-7,30.5,3.7,65.6,27,88.2c-15,1.1-28.1,10.1-37.5,21.5
				c-9.4,11.5-15.5,25.3-21.5,39c-7.5-10.1-22-11-33.6-8.4c-17.7,3.9-33.8,13.4-45.6,27c-1.5-14.1-9.6-27.7-21.2-36
				c-11.7-8.3-26.7-11.1-39.9-7.5C729.5,279.3,696.4,235.4,688,230.3z"/>
		</g>
		<g>
			<path class="st2" d="M793.5,187.8c-16.6,4.1-32.1,14.7-39.5,30.2c-3.2,6.8-4.8,14.2-6.1,21.6c-2.6,14.2-4.3,29.7,2.5,42.5
				c4.1,7.8,11,13.9,18.8,18.1s16.3,6.7,24.9,8.7c12.2,2.8,25.4,4.4,36.7-0.8c5.6-2.6,10.4-6.7,14.7-11.1c3.9-4,7.5-8.3,10.2-13.1
				c2.7-4.8,4.4-10.2,5.5-15.6c3.9-19.9-1.8-41.3-14.9-56.7C833.3,196,813,187,792.8,187.7L793.5,187.8z"/>
		</g>
	</g>
</g>
</svg>
