<?xml version="1.0" encoding="utf-8"?>
<!-- Generator: Adobe Illustrator 21.0.0, SVG Export Plug-In . SVG Version: 6.00 Build 0)  -->
<svg version="1.1" id="Capa_1" xmlns="http://www.w3.org/2000/svg" xmlns:xlink="http://www.w3.org/1999/xlink" x="0px" y="0px"
	 viewBox="0 0 88.8 126.8" style="enable-background:new 0 0 88.8 126.8;" xml:space="preserve">
<style type="text/css">
	.st0{fill:#CECECE;}
	.st1{fill:#EBEBEB;}
	.st2{fill:#F2CB4E;}
	.st3{fill:#61B22F;}
	.st4{fill:#ECE31D;}
	.st5{fill:#F6F09B;}
</style>
<g>
	<g>
		<path class="st0" d="M1.7,22.2c-0.5-2-0.5,0.2-1-1.8c-0.2-0.6-0.9-3.5-0.6-4.2c0.2-0.6,1-2,2.4-2.6C13.5,9,23.3,3.2,35,1.3
			C46-0.5,57.7-1,67.7,3.9c0.6,0.3,1.3,0.7,1.6,1.3c0.4,0.7,0.4,1.5,0.3,2.3c-0.2,1.9-0.8,3.8-1.8,5.5c-1.2,2.1-2.9,3.9-4.7,5.4
			c-11.2,9.7-27.7,12.7-41.5,7.5L1.7,22.2z"/>
	</g>
	<g>
		<path class="st1" d="M14.1,94.6c0.5,4.1,1,8.4,3.4,11.8c3.5,5.1,10.1,6.9,16.2,7.9c5.8,1,11.6,1.6,17.4,1.8c2,0.1,4,0.1,5.8-0.6
			c3.8-1.5,5.7-5.6,6.8-9.5c2.1-7.4,2.5-15.1,2.9-22.8c1.1-20,2.2-40,3.2-60c0.3-5.2,0.6-11.5-0.2-16.6c-17.3,7-36,11.7-54.6,11.8
			c-4.5,0-14.3,1.6-15-1.3c1,12.6,5.9,25.7,8.1,38.3C10.5,68.4,12.5,81.5,14.1,94.6z"/>
	</g>
	<g>
		<path class="st2" d="M21.3,97.6c0.3,1.6,0.5,3.3,1.3,4.7c1.7,3,5.1,4.3,8.3,5.4c4.5,1.6,9,3.2,13.8,3.2c4.7,0,9.7-1.9,12.2-5.9
			c1.4-2.2,1.9-4.8,2.3-7.4c2.2-13.4,2.9-27,3.2-40.6c0-1.9,0-4.1-1.3-5.5C60,50,58,49.6,56.1,49.4c-11-1.5-22.4-0.8-33.1,2
			c-5,1.3-8.8,1.7-8,7.4c0.8,6.1,2,12.1,2.9,18.2C19.1,83.9,20.2,90.7,21.3,97.6z"/>
	</g>
	<g>
		<g>
			<path class="st3" d="M34.3,112.8c-1.8,1.6-3.5,3.1-5.3,4.7c-0.2,0.2-0.5,0.4-0.6,0.8c-0.1,0.4,0.1,0.9,0.3,1.3
				c1.8,2.8,4.7,4.7,7.9,5.6c3.2,1,8,1.8,11.3,1.6c22.6-1.3,28.8-8.5,31.7-11c3.6-3.1,6-7.4,7.4-11.9c1.4-4.5,1.7-9.3,1.7-14
				c0-2.3-0.1-4.5-0.6-6.7c-0.7-3-2.1-5.7-3.6-8.5c-0.2-0.4-0.5-0.9-1-1c-0.4,0-0.7,0.2-1,0.5c-1.6,1.5-2.8,3.4-4,5.3
				c-3.8,5.9-8.2,11.4-12.6,16.8c-5.7,7.1-12,14.6-20.7,17.3c-2.6,0.8-5.3,1.1-8,1.2c-1.5,0-3,0-4.5-0.2L34.3,112.8z"/>
		</g>
		<g>
			<path class="st4" d="M81.7,75c3.2,1.9,4,6,4.4,9.7c0.4,3.1,0.8,6.2,0.3,9.3c-0.5,3.5-2.2,6.7-3.9,9.8
				c-3.7,6.6-8.7,12.3-15.5,15.6c-4.1,2-8.3,3.3-12.8,3.9c-5.4,0.7-11.1,1.2-16.1-0.9c-2.7-1.2-6.6-4.3-5.7-7.8
				c0.9-3.4,7.6-6.7,10.3-8.8c8.4-6.5,16.7-13,25-19.6C72.4,82.5,77.1,78.7,81.7,75z"/>
		</g>
		<g>
			<path class="st5" d="M43.8,112.6c-0.3,1.1-0.7,2.2-0.8,3.3c-0.1,0.6,0,1.3,0.5,1.5c0.3,0.1,0.7-0.1,1-0.3c0.2-0.3,0.3-0.7,0.4-1
				c0.3-1.5,0.4-3.8-0.5-5.1C44.1,111.4,44,112.1,43.8,112.6z"/>
		</g>
		<g>
			<path class="st5" d="M53.1,114.9c0.1,0.4,0.3,0.8,0.7,1c0.3,0.1,0.7,0,0.9-0.3c0.2-0.2,0.3-0.6,0.4-0.9c0.1-1.1-0.5-2.2-1.1-3.2
				c-0.4-0.7-1.7-3.4-1.8-1.3C52.2,111.7,52.7,113.4,53.1,114.9z"/>
		</g>
		<g>
			<path class="st5" d="M66,105.9c0.2,0.3,0.4,0.7,0.2,1.1c-0.1,0.2-0.3,0.4-0.6,0.5c-0.8,0.2-1.6-0.4-2.2-0.9
				c-0.7-0.6-4.1-3.8-1.7-3.9C63.7,102.6,65.2,104.5,66,105.9z"/>
		</g>
		<g>
			<path class="st5" d="M67.6,96.8c0,0.1,0,0.2,0,0.3c0.1,0.7,0.6,1.2,1.2,1.6c1.4,0.9,3.2,1,4.9,0.8c0.1,0,0.2,0,0.3-0.1
				c1-0.9-1.8-2.3-2.4-2.4C70.9,96.8,67.9,96.2,67.6,96.8z"/>
		</g>
		<g>
			<path class="st5" d="M78,88.8c-1.2-0.2-2.5-0.2-3.7-0.1c-0.5,0-1.1,0.2-1.3,0.6c-0.2,0.5,0.2,1,0.6,1.2c0.8,0.5,1.7,0.5,2.7,0.5
				c0.7,0,1.5,0,2.2,0c0.3,0,0.7,0,1-0.2c0.3-0.1,0.5-0.4,0.6-0.8c0-0.4-0.4-0.7-0.7-1c-0.8-0.5-1.8-0.6-2.7-0.5"/>
		</g>
	</g>
</g>
<g>
</g>
<g>
</g>
<g>
</g>
<g>
</g>
<g>
</g>
</svg>
