<?xml version="1.0" encoding="utf-8"?>
<!-- Generator: Adobe Illustrator 21.0.0, SVG Export Plug-In . SVG Version: 6.00 Build 0)  -->
<svg version="1.1" id="Capa_1" xmlns="http://www.w3.org/2000/svg" xmlns:xlink="http://www.w3.org/1999/xlink" x="0px" y="0px"
	 viewBox="0 0 18.1 33.2" style="enable-background:new 0 0 18.1 33.2;" xml:space="preserve">
<style type="text/css">
	.st0{fill:#6E4012;}
</style>
<path class="st0" d="M17.8,16.9c-0.1-0.2-0.4-0.4-0.6-0.6c-1.4-0.9-3-1.5-4.7-1.7c0,0-0.1,0-0.1,0c0-0.3,0-0.5,0-0.8
	c0.3,0,0.6,0,0.8,0c0.8,0,1.8-0.1,2.3-0.8c0.3-0.4,0.4-0.9,0.4-1.3c0.4-2.6,0.8-5.2,1.1-7.8c0.1-1,0.3-2.1-0.4-2.9
	c-0.7-0.8-1.9-0.9-3-0.9c-2.1,0-4.2,0-6.3,0c-1.7,0-3.4-0.2-5.1,0.1C2.3,0.2,2,0.3,1.9,0.4C1.6,0.6,1.4,1,1.4,1.4
	c-0.6,2.9,0.5,5.9,0.5,8.9c0,0.5,0,1.1,0.1,1.6s0.3,1,0.7,1.4c0.6,0.5,1.4,0.5,2.2,0.6c0.2,0,0.5,0,0.7,0c0,0.1,0,0.2,0,0.2
	c0,0.2,0,0.3,0,0.5c-1.1,0.1-2.1,0.4-3.2,0.8c-0.5,0.2-1.1,0.4-1.5,0.8c-0.7,0.7-1,1.8-0.9,2.8c0.1,1,0.6,1.9,1.1,2.8
	c0.4,0.7,0.7,1.3,1.3,1.9c0.8,0.8,1.8,1.4,2.9,1.8c0.1,0,0.2,0.1,0.3,0.1c-0.1,0.2-0.1,0.4-0.1,0.6c-0.1,0.3-0.1,0.5-0.2,0.8
	c-0.1,0.6-0.2,1.1-0.3,1.7c-0.1,0.6-0.2,1.2-0.3,1.9c0,0.3-0.1,0.6,0,0.9c0.1,0.5,0.6,0.8,1,1c0.4,0.3,0.9,0.5,1.4,0.7
	C7.1,32.9,7.4,33,7.6,33c0.3,0,0.7,0.1,1,0.1c0.5,0,1,0.1,1.5,0c0.6-0.1,1.1-0.3,1.7-0.5c0.3-0.1,0.6-0.2,0.8-0.4
	c0.3-0.2,0.5-0.5,0.7-0.8c0.1-0.1,0.1-0.2,0.1-0.3c0-0.1,0-0.2,0-0.3c-0.2-1.9-0.4-3.8-0.8-5.7c0,0,0,0,0,0c1.2-0.4,2.2-1,3.1-1.9
	c1.3-1.4,2.1-3.2,2.4-5.1C18.2,17.9,18,17.2,17.8,16.9z M5.4,5.4C5.3,5.5,5.1,5.6,5,5.6C4.8,5.7,4.5,5.7,4.3,5.7
	C3.9,5.6,3.7,5.4,3.5,5.1c-0.1-0.3-0.1-0.7,0-1c0.1-0.1,0.1-0.3,0.3-0.4C4,3.5,4.3,3.5,4.6,3.5c1,0,1.9,0,2.9,0c0.1,0,0.2,0,0.2,0.1
	c0,0,0,0.1,0,0.2c0,0.1,0.1,0.5,0,0.6C7.7,4.4,7.2,4.4,7.1,4.4c-0.5,0.1-1,0.2-1.4,0.2C5.7,4.9,5.6,5.2,5.4,5.4z M15.4,18.1
	c-0.1,0.2-0.3,0.4-0.5,0.5c-0.8,0.4-1.7,0.5-2.6,0.6c-3.2,0.3-6.1,0.2-9.1-0.6c-0.1,0-0.4-0.1-0.5-0.2c-0.1-0.1-0.2-0.2-0.2-0.3
	c0-0.3,0-0.6,0.2-0.9c0.2-0.4,0.6-0.5,1-0.6c3.7-1.1,7.3-0.9,10.9,0.3c0.2,0.1,0.5,0.4,0.7,0.5C15.5,17.5,15.5,17.9,15.4,18.1z"/>
</svg>
