<?xml version="1.0" encoding="utf-8"?>
<!-- Generator: Adobe Illustrator 21.0.0, SVG Export Plug-In . SVG Version: 6.00 Build 0)  -->
<svg version="1.1" id="Capa_1" xmlns="http://www.w3.org/2000/svg" xmlns:xlink="http://www.w3.org/1999/xlink" x="0px" y="0px"
	 viewBox="0 0 1023.7 80.9" style="enable-background:new 0 0 1023.7 80.9;" xml:space="preserve">
<style type="text/css">
	.st0{fill:#E5294D;}
</style>
<path class="st0" d="M697.4,0H0v61.4l13.2,15.2c0.9-0.6,13.4-11.1,18.9-16.4l15.7,16.6L63,60.7L84.5,77l16-15.7
	c2.9-2.7,3.6-2.6,7-0.4c0.3,0.2,0.6,0.4,0.9,0.6c3.9,3.5,8.2,6.6,11.7,10.5c1.6,1.8,3.6,3.3,5.5,5.1c1.1-0.8,2.1-1.4,3-2.2
	c5.8-4.6,11.8-8.8,17.1-14c2.3-2.2,2.8-2.1,5.8-0.5c0.6,0.3,1.2,0.7,1.7,1.2c3.9,3.5,8.2,6.6,11.7,10.5c2.1,2.3,4.5,4.3,6.9,6.4
	c1.2-0.9,2.2-1.7,3.2-2.5c6.2-5,12.7-9.5,18.5-15c2.7-2.5,3.3-2.4,6.4-0.5c0.4,0.3,0.8,0.5,1.2,0.8c3.9,3.5,8.2,6.6,11.7,10.5
	c1.6,1.8,3.6,3.3,5.5,5.1c2-1.2,3.7-2.6,5.4-4c4.7-3.7,9.6-7,13.8-11.3c0.6-0.7,1.4-1.3,2.1-1.8c0.8-0.6,1.7-0.9,2.6-0.4
	c1.2,0.7,2.6,1.2,3.6,2.1c4,3.4,8.3,6.5,11.7,10.5c0.8,1,1.8,1.8,2.8,2.6c1,0.9,2.1,1.8,3.2,2.7c1.1-0.8,2-1.5,3-2.2
	c5.8-4.7,12-8.9,17.4-14.2c2.3-2.2,2.7-2.6,6.4-0.5c0.6,0.4,1.2,0.8,1.7,1.2c3.9,3.5,8.2,6.6,11.7,10.6c1.5,1.7,3.3,3.3,5.4,4.5
	c3.1-2.4,6.2-4.8,9.2-7.1c3.1-2.4,6.4-4.7,9.1-7.7c0.8-0.9,1.8-1.5,2.7-2.3c0.8-0.6,1.7-0.9,2.6-0.4c1.1,0.6,2.4,1.1,3.4,1.9
	c2.7,2.2,5.6,4.3,8,6.8c4.1,4.3,8.9,7.9,12.4,12.8c0.1,0.1,0.2,0.1,0.4,0.2c0.5-0.4,1.1-0.7,1.6-1.2c5.2-4,10.4-8,15.5-12
	c2.2-1.7,4.2-3.7,6.3-5.5c1-0.8,1.9-1.7,2.9-2.5c0.8-0.6,1.7-0.9,2.6-0.4c1.1,0.6,2.4,1,3.4,1.9c4,3.4,8.2,6.5,11.8,10.4
	c1.7,1.9,3.7,3.5,5.6,5.2c0.6-0.4,1-0.6,1.4-0.8c2.9-2.2,5.8-4.4,8.6-6.6c3-2.4,6.2-4.6,8.8-7.5c0.5-0.6,1.2-1.1,1.8-1.6v0.8
	c1.2-1.2,2-1.8,2.9-2c0.3,0.1,0.6,0.2,0.9,0.4c1.2,0.7,2.5,1.3,3.6,2.2c4.1,3.5,8.4,6.7,11.9,10.8c0.7,0.9,1.7,1.6,2.6,2.3
	c0.9,0.8,1.9,1.6,2.9,2.4c0.8-0.5,1.3-0.9,1.9-1.4c6-4.9,12.4-9.2,18-14.6c1.5-1.4,2.4-2.2,3.4-2.3c0.7,0,1.6,0.5,2.9,1.2
	c0.6,0.3,1.2,0.7,1.7,1.2c3.9,3.5,8.2,6.6,11.7,10.5c2.1,2.3,4.5,4.3,6.9,6.4c1.2-0.9,2.2-1.7,3.2-2.5c6.2-5,12.7-9.5,18.5-15
	c0.6-0.6,1.1-1,1.6-1.3c0.3,0.1,0.6,0.3,0.9,0.5c0.6,0.3,1.2,0.7,1.8,1.1c4,3.5,8.2,6.5,11.7,10.5c1.1,1.2,2.4,2.2,3.6,3.4
	c1.2,1.1,2.3,2.2,3.5,3.3c0.8-0.6,1.5-1,2.1-1.5c6.6-5.3,13.6-10,19.6-15.9c1.4-1.4,2.2-2,3.3-1.8c0.2,0,0.4,0.1,0.6,0.2
	c1.2,0.7,2.6,1.2,3.6,2.1c4,3.4,8.3,6.5,11.7,10.5c0.8,1,1.8,1.8,2.8,2.6c0,0,0,0,0.1,0.1s0.1,0.1,0.2,0.2c0.9,0.8,1.9,1.6,2.9,2.5
	c1.1-0.8,2-1.5,3-2.2c5.8-4.7,12-8.9,17.4-14.2c1.1-1.1,1.7-1.7,2.5-1.9c0.2,0,0.4,0.1,0.7,0.2c1.2,0.6,2.6,1.2,3.6,2.1
	c4,3.4,8.3,6.5,11.7,10.5c1.8,2,3.9,3.7,6,5.4c0.8-0.6,1.6-1.1,2.3-1.7c3.4-2.6,6.9-5.3,10.2-8c0.6-0.5,1.1-0.9,1.7-1.4
	c1.3-1,2.5-2.1,3.7-3.3c0.2-0.2,0.5-0.4,0.7-0.6c1-0.8,1.9-1.7,2.9-2.5c0.5-0.4,1.1-0.7,1.7-0.7c0.3,0,0.6,0.1,0.9,0.2
	c0.5,0.2,1,0.5,1.5,0.7c0.6,0.4,1.2,0.7,1.8,1.1c0,0,0,0,0.1,0c1,0.8,2,1.6,3,2.4c1.2,1,2.3,1.9,3.5,2.9c0.5,0.5,1,1,1.5,1.5
	c1.6,1.6,3.3,3.2,4.9,4.7l0.1,0.1c0.7,0.8,1.5,1.5,2.3,2.2c1.8,1.8,3.6,3.7,5.1,5.8c0.1,0.1,0.2,0.1,0.4,0.2
	c0.5-0.4,1.1-0.7,1.6-1.2c5.2-4,10.4-8,15.5-12c2.2-1.7,4.2-3.7,6.3-5.5c1-0.8,1.9-1.7,2.9-2.5c0.8-0.6,1.7-0.9,2.6-0.4
	c1.1,0.6,2.4,1,3.4,1.9c4,3.4,8.2,6.5,11.8,10.4c1.7,1.9,3.7,3.5,5.6,5.2c0.6-0.4,1-0.6,1.4-0.8c2.9-2.2,5.8-4.4,8.6-6.6
	c3-2.4,6.2-4.6,8.8-7.5c0.7-0.8,1.6-1.4,2.4-2.1c1-0.9,2.1-1,3.2-0.3c1.2,0.7,2.5,1.3,3.6,2.2c4.1,3.5,8.4,6.7,11.9,10.8
	c0.7,0.9,1.7,1.6,2.6,2.3c0.9,0.8,1.9,1.6,2.9,2.4c0.8-0.5,1.3-0.9,1.9-1.4c6-4.9,12.4-9.2,18-14.6c3.1-3.1,3.9-2.9,7.5-0.4
	c0.2,0.1,0.4,0.2,0.6,0.4c3.9,3.5,8.2,6.6,11.7,10.5c1.6,1.8,3.6,3.3,5.5,5c0.8-0.6,1.5-1,2.1-1.5c6.1-4.8,12.6-9.3,18.2-14.8
	c2.3-2.3,3.1-1.5,5.3-0.5c0.6,0.3,1.2,0.7,1.8,1.1c4,3.5,8.2,6.5,11.7,10.5c1.1,1.2,2.4,2.2,3.6,3.4c1.2,1.1,2.3,2.2,3.5,3.3
	c0.8-0.6,1.5-1,2.1-1.5c6.6-5.3,13.6-10,19.6-15.9c2.4-2.3,2.9-2.5,6.4-0.5c0.5,0.3,1,0.6,1.4,1c4,3.6,8.4,6.8,11.9,10.8
	c1.5,1.7,3.3,3.3,5.4,4.5c3.2-2.5,6.4-4.9,9.5-7.3c3-2.4,6.2-4.6,8.8-7.5c0.8-0.9,1.8-1.5,2.7-2.3c0.8-0.6,1.7-0.9,2.6-0.4
	c1.2,0.6,2.6,1.2,3.6,2.1c4,3.4,8.3,6.5,11.7,10.5c1.8,2,3.9,3.7,6,5.4c0.8-0.6,1.6-1.1,2.3-1.7c3.4-2.6,6.9-5.3,10.2-8
	c2.1-1.7,4.1-3.5,6.1-5.3c1-0.8,1.9-1.7,2.9-2.5c0.9-0.8,1.9-1,2.9-0.4c1.5,0.9,3.1,1.7,4.4,2.8c4,3.4,8.2,6.6,11.6,10.6
	c1.3,1.5,2.9,2.6,4.4,3.9c0.5-0.2,0.9-0.2,1.1-0.4c5.1-3.9,10.2-7.9,15.2-11.8c0.4-0.3,0.7-0.9,1-1.3V0H697.4z M14.2,67.4
	c-1.9,0.1-3.4-1.5-3.4-3.7c0-1.9,1.5-3.4,3.3-3.4s3.1,1.4,3.1,3.5C17.2,66,16.1,67.4,14.2,67.4z M49.7,66.2c-2,0-3.4-1.5-3.4-3.6
	c0-2.2,1.7-3.8,3.8-3.6c1.9,0.1,3.2,1.6,3.1,3.8C53.2,64.9,51.8,66.2,49.7,66.2z M83.4,66.2c-2,0-3.4-1.5-3.4-3.6
	c0-2.2,1.7-3.8,3.8-3.6c1.9,0.1,3.2,1.6,3.1,3.8C86.9,64.9,85.5,66.2,83.4,66.2z M127.3,66.2c-2,0-3.4-1.5-3.4-3.6
	c0-2.2,1.7-3.8,3.8-3.6c1.9,0.1,3.2,1.6,3.1,3.8C130.8,64.9,129.4,66.2,127.3,66.2z M173.9,70.1c-2.1-0.1-3.8-2-3.8-4.6
	c0-2.4,1.3-3.8,3.5-3.8c2.8,0,4.4,1.4,4.4,4.2C178,68.3,176.2,70.2,173.9,70.1z M219.7,68.8c-1.9,0-3.7-2.2-3.7-4.3
	c0-1.9,1.6-3.4,3.6-3.4c2.1,0,3.5,1.6,3.6,3.8C223.3,67.1,221.7,68.8,219.7,68.8z M266.5,67.9c-1.8-0.1-3.2-1.6-3.2-3.5
	c-0.1-2,1.5-3.5,3.5-3.5c1.8,0.1,3.2,1.5,3.2,3.4C270,66.4,268.4,68,266.5,67.9z M310.9,69.6c-1.9,0-3.5-1.7-3.4-3.7
	c0-1.8,1.6-3.3,3.5-3.2c2,0.1,3.4,1.6,3.4,3.7C314.3,68.4,312.9,69.7,310.9,69.6z M359.9,71.1c-2.3,0.1-4.1-1.5-4.1-3.8
	c0-2,1.7-3.8,3.7-3.9c1.9-0.1,3.8,2,3.9,4.1C363.5,69.6,362.1,70.9,359.9,71.1z M409,67.5c-2,0.1-3.4-1.1-3.4-3.1
	c-0.1-2,1.1-3.3,3.1-3.4c2.2-0.1,3.7,1.1,3.9,3.1C412.7,66,411.2,67.5,409,67.5z M454.8,68.8c-1.6-0.1-2.8-1.6-2.7-3.5
	c0.1-2,1.6-3.4,3.7-3.3c1.7,0.1,3.1,1.5,3.1,3.2C458.8,67.1,456.7,68.9,454.8,68.8z M499.2,69c-1.7,0-2.9-1.3-3-3.1
	c-0.1-2,1.4-3.6,3.3-3.7c1.7-0.1,3.1,1.2,3.2,3C502.8,67.2,501.2,68.9,499.2,69z M544.8,70c-1.9,0.1-3.5-1.5-3.6-3.6
	c-0.1-2.2,1.5-3.8,4.1-3.9c1.9-0.1,3.5,1.4,3.6,3.5C549.1,68,547.1,69.9,544.8,70z M591.3,69.2c-1.7-0.1-3.6-2-3.6-3.7
	c-0.1-1.8,1.3-3,3.5-3c2.3,0,3.6,1.1,3.6,2.9C594.7,67.3,592.9,69.3,591.3,69.2z M637.9,69.3c-1.9,0-3.4-1.5-3.4-3.5
	c0-1.9,1.5-3.5,3.5-3.6c1.9-0.1,3.7,1.7,3.7,3.8C641.6,67.7,639.9,69.2,637.9,69.3z M686,68.5c-1.9,0.1-3.3-1.2-3.5-3.1
	c-0.1-1.9,1.1-3.5,2.9-3.7c2.1-0.2,4,1.5,4.1,3.4C689.7,67,688.3,68.4,686,68.5z M735.2,68.5c-1.9,0.1-3.3-1.2-3.5-3.1
	c-0.1-1.9,1.1-3.5,2.9-3.7c2.1-0.2,4,1.5,4.1,3.4C738.9,67,737.5,68.4,735.2,68.5z M780.2,68.4c-1.9,0.1-3.3-1.2-3.5-3.1
	c-0.1-1.9,1.1-3.5,2.9-3.7c2.1-0.2,4,1.5,4.1,3.4C783.8,67,782.4,68.3,780.2,68.4z M824,67.2c-1.9,0.1-3.3-1.2-3.5-3.1
	c-0.1-1.9,1.1-3.5,2.9-3.7c2.1-0.2,4,1.5,4.1,3.4C827.6,65.7,826.2,67.1,824,67.2z M871,67.8c-1.9,0.1-3.3-1.2-3.5-3.1
	c-0.1-1.9,1.1-3.5,2.9-3.7c2.1-0.2,4,1.5,4.1,3.4C874.7,66.4,873.3,67.7,871,67.8z M917.5,66.6c-1.9,0.1-3.3-1.2-3.5-3.1
	c-0.1-1.9,1.1-3.5,2.9-3.7c2.1-0.2,4,1.5,4.1,3.4C921.1,65.1,919.7,66.5,917.5,66.6z M962.9,67.2c-1.9,0.1-3.3-1.2-3.5-3.1
	c-0.1-1.9,1.1-3.5,2.9-3.7c2.1-0.2,4,1.5,4.1,3.4C966.6,65.7,965.1,67.1,962.9,67.2z M1009.8,67.2c-1.9,0.1-3.3-1.2-3.5-3.1
	c-0.1-1.9,1.1-3.5,2.9-3.7c2.1-0.2,4,1.5,4.1,3.4C1013.5,65.7,1012.1,67.1,1009.8,67.2z"/>
</svg>
