<?xml version="1.0" encoding="utf-8"?>
<!-- Generator: Adobe Illustrator 21.0.0, SVG Export Plug-In . SVG Version: 6.00 Build 0)  -->
<svg version="1.1" id="Capa_1" xmlns="http://www.w3.org/2000/svg" xmlns:xlink="http://www.w3.org/1999/xlink" x="0px" y="0px"
	 viewBox="0 0 359.8 301" style="enable-background:new 0 0 359.8 301;" xml:space="preserve">
<style type="text/css">
	.st0{fill:#D8B488;}
	.st1{fill:#DAC58E;}
	.st2{fill:#905E06;}
	.st3{fill:#61B22F;}
	.st4{fill:#EFD79A;}
	.st5{fill:#DEB88B;}
	.st6{fill:#E8CAAC;}
	.st7{fill:#EACFB7;}
	.st8{fill:#D9B287;}
</style>
<g>
	<g>
		<path class="st0" d="M210.4,109c-6.3,8.7-14.5,16-23.9,21.1c-5.9,3.3-9.1,4.2-9.1,5.2c23.2,12.2,27.4,22.5,45.4,41.6
			c3.4,3.6,6.7,7.3,8.4,11.9c2.4,6.6,1.1,13.9-0.8,20.7c-2.2,7.6-6,15.8-13.6,18.2c-5.6,1.8-11.9-0.4-16.5-4
			c-4.6-3.6-8-8.6-11.4-13.4c-7.8-11-16.4-21.4-25.7-31.1c-10.3-10.8-11.5-8.2-26.1-11.6c-8.9-2.1-18.2-1.4-27.2-3.4
			c-18.2-4-32-18.3-44.7-31.9c-5.8-6.2-11.8-12.7-14.4-20.7c-1.8-5.5-18.2-24-39.6-40.3c0,0,41.8-4.2,50.5-9.7L210.4,109z"/>
	</g>
	<g>
		<path class="st1" d="M260.5,277.5c-16.4,18.4-23,20-33.4,21.6c-2.3,0.4-4.9,0.4-6.8-0.9c-1.9-1.3-2.9-3.5-3.8-5.7
			c-12.1-31.4-11.8-67.4,0.9-98.5c5-12.2,12.3-24.2,23.9-30.5c11.5-6.3,28-5,35.6,5.8c3.1,4.3,4.4,9.6,5.3,14.9
			c4.6,26.9-1.4,55.4-16.3,78.2L260.5,277.5z"/>
	</g>
	<g>
		<path class="st2" d="M244.4,293.6c-3.7,1.9-7.9,3-12,3.2c-1.9,0.1-4.1-0.1-5.3-1.6c-1.2-1.5-0.9-3.7-1.3-5.7
			c-0.7-3.5-3.9-6.2-4.7-9.7c-0.8-3.3,0.5-6.7,0.6-10c0-2.5-0.6-5-0.6-7.5c0-4.8,2.5-9.4,6.1-12.6s8.2-5,13-5.9
			c2.4-0.5,5.2-0.6,7.2,0.8c1.4,1,2.2,2.6,2.8,4.2c2.8,7.3,2.8,15.3,2.8,23.2c0,5.1-0.1,10.5-2.8,14.9"/>
	</g>
	<g>
		<path class="st3" d="M260.5,223.7c-0.4,8.5-2.4,17-5.7,24.8c-0.8,2-1.8,4-3.4,5.5c-2.2,2-5.2,2.7-8.1,3.4c-6.6,1.5-14,3-20-0.1
			c-1.2-0.6-2.3-1.4-3-2.5c-0.9-1.3-1.1-3-1.2-4.6c-0.5-10.7,4.7-20.7,6.9-31.2c1.6-7.6,1.8-16,6.6-22.1c2.7-3.4,6.6-5.7,10.7-7.4
			c3.9-1.7,8.2-2.9,12.4-2.6c4.3,0.3,8.6,2.3,10.8,6c2.2,3.6,2.1,8.2,1.5,12.4c-0.9,5.8-2.7,11.5-5.3,16.7"/>
	</g>
	<g>
		<path class="st4" d="M280.8,146.2c-11.1,5.9-18.4,17.1-23.4,28.7c-10.3,23.8-9.1,69.7-14.3,102.2c-2.4,15.2-12.6,20.9-22.1,21.4
			c0,0,10,6.7,22.7-2.4c4.9-3.5,9.8-4.1,10.2-4.4c33.2-27.2,65-50.5,98.2-77.7c2.2-1.8,4.4-3.6,5.8-6.1c1.8-3.3,2-7.2,1.8-11
			c-0.4-8.7-2.2-17.4-5.1-25.6c-4.2-11.6-11-22.4-20.6-30.1c-9.6-7.7-22-12.2-34.3-11c-10.7,1.1-20.7,6.3-29.5,12.4"/>
	</g>
	<g>
		<path class="st5" d="M229.8,126.2c3-0.2,6.1-0.6,8.9,0.6c2.4,1,4.3,3,6.1,4.9c15.2,16.7,28.8,36.9,29.3,59.5
			c0.1,5.3-0.5,10.7,0.2,15.9c0.7,5.3,3.1,10.7,7.6,13.4c6.6,3.9,15.7,0.6,20.4-5.5s5.8-14.2,6-22c0.2-9.2-0.7-18.5-2.8-27.4
			c-2-8.6-5-16.9-8.3-25.1c-5.2-13.2-11.1-26.4-19.8-37.6c-9.8-12.6-22.8-22.3-36.8-30.1c-7.6-4.2-15.5-8-23.9-10.1
			c-11.3-2.9-23.1-2.7-34.8-2.6c-6.2,0.1-12.6,0.2-17.9,3.3c-8.9,5.2-23.3,20.9-18.8,30.1S210.5,127.4,229.8,126.2z"/>
	</g>
	<g>
		<path class="st6" d="M248.3,38.5C262,42.7,275,48.8,287,56.6c7.3,4.8,14.7,11,15.9,19.7c0.9,6.3-1.8,12.6-4.8,18.2
			c-7.6,14.5-17.4,28.3-20,44.4c-1.4,8.6-0.8,18-5.9,25c-5.5,7.7-15.9,9.9-25.3,11c-4.9,0.6-10,1-14.7-0.6s-8.9-5.7-9-10.7
			c-0.1-5.6,4.7-10.1,9.6-12.9c4.9-2.8,17.2-6.7,17.2-6.7s-3.2-14.4-2.3-27.6c0.6-9.1,1.1-24.1,5.6-33.4c-18.8-0.5-43,3.8-61.4,0.5
			c-7.7-1.4-15.4-3.1-22-7.2c-1.5-0.9-3-2.1-3.7-3.7c-1.8-4.2,2.5-8.4,6.4-10.7c8.7-5.2,18.1-9.2,27.9-11.8L248.3,38.5z"/>
	</g>
	<g>
		<path class="st7" d="M3.5,29.2c-9.1,19.2-0.1,42,19.6,49.9c17.6,7,35.7,15,41.8,20.3c10.6,9,25.5,11.7,39.4,10.2s27-6.7,40-11.8
			c24.3-9.6,48.6-19.3,72.9-28.9c7.4-2.9,14.8-5.9,21.9-9.3c12.4-6,24.1-13.7,37.2-17.8c13.4-4.2,28-4.6,41.6-1
			c5.7,1.5,11.3,3.7,17.2,4.4c5.9,0.7,12.4-0.5,16.5-4.7s4.6-12.1-0.1-15.7c-1.3-1-2.9-1.6-4.5-2.2c-6.2-2.4-12.4-4.7-18.5-7.1
			c-5.1-1.9-10.2-3.9-15.5-5.3c-23.2-6-47.7-0.7-71,4.7c-19,4.3-37.9,8.7-56.9,13c-13.2,3-26.8,6.1-40.2,3.7
			c-13.5-2.4-25.3-10-37.4-16.4c-6.6-3.6-28.7-9.7-49.4-14.1c-22-4.7-44.3,6.3-53.9,26.6L3.5,29.2z"/>
	</g>
	<g>
		<g>
			<path class="st8" d="M267.3,263.2c-2.3-0.7-5,0-6.4,1.9c-2.1,2.9,0.3,9,3.8,8C272.5,270.9,269.6,263.9,267.3,263.2z"/>
		</g>
		<g>
			<path class="st8" d="M257.5,256.5c-1.9-0.6-4.2,0-5.3,1.6c-1.7,2.4,0.3,7.5,3.1,6.7C261.8,262.9,259.4,257.1,257.5,256.5z"/>
		</g>
		<g>
			<path class="st8" d="M254.1,268.5c-0.7,0.8-0.9,2.1-0.4,3.1c0.9,1.4,3.9,1.6,4.1-0.1C258.4,267.7,254.9,267.7,254.1,268.5z"/>
		</g>
		<g>
			<path class="st8" d="M248.8,264.9c-0.3,0.3-0.4,0.8-0.1,1.2c0.3,0.6,1.5,0.6,1.6,0C250.5,264.6,249.1,264.6,248.8,264.9z"/>
		</g>
	</g>
	<g>
		<g>
			<path class="st8" d="M349,193.8c-2.3-0.7-5,0-6.4,1.9c-2.1,2.9,0.3,9,3.8,8C354.1,201.5,351.2,194.5,349,193.8z"/>
		</g>
		<g>
			<path class="st8" d="M339.1,187.1c-1.9-0.6-4.2,0-5.3,1.6c-1.7,2.4,0.3,7.5,3.1,6.7C343.4,193.5,341,187.7,339.1,187.1z"/>
		</g>
		<g>
			<path class="st8" d="M335.8,199.1c-0.7,0.8-0.9,2.1-0.4,3.1c0.9,1.4,3.9,1.6,4.1-0.1C340.1,198.4,336.5,198.3,335.8,199.1z"/>
		</g>
		<g>
			<path class="st8" d="M258.6,191.6c-0.7,0.8-0.9,2.1-0.4,3.1c0.9,1.4,3.9,1.6,4.1-0.1C262.9,190.9,259.4,190.8,258.6,191.6z"/>
		</g>
		<g>
			<path class="st8" d="M330.4,195.5c-0.3,0.3-0.4,0.8-0.1,1.2c0.3,0.6,1.5,0.6,1.6,0C332.1,195.2,330.7,195.2,330.4,195.5z"/>
		</g>
		<g>
			<path class="st8" d="M259.6,197.3c-0.3,0.3-0.4,0.8-0.1,1.2c0.3,0.6,1.5,0.6,1.6,0C261.3,197,259.9,197,259.6,197.3z"/>
		</g>
		<g>
			<path class="st8" d="M262.7,190.4c-0.3,0.3-0.4,0.8-0.1,1.2c0.3,0.6,1.5,0.6,1.6,0C264.4,190.1,263,190.1,262.7,190.4z"/>
		</g>
	</g>
</g>
<g>
</g>
<g>
</g>
<g>
</g>
<g>
</g>
<g>
</g>
</svg>
