<?xml version="1.0" encoding="utf-8"?>
<!-- Generator: Adobe Illustrator 21.0.0, SVG Export Plug-In . SVG Version: 6.00 Build 0)  -->
<svg version="1.1" id="Capa_1" xmlns="http://www.w3.org/2000/svg" xmlns:xlink="http://www.w3.org/1999/xlink" x="0px" y="0px"
	 viewBox="0 0 200 152.2" style="enable-background:new 0 0 200 152.2;" xml:space="preserve">
<style type="text/css">
	.st0{fill:#6E4012;}
</style>
<g id="YpIN9v_2_">
	<g>
		<g>
			<path class="st0" d="M0,104.1c0.6-1.7,1.2-3.4,1.7-5.1c6.5-21.8,28.7-34.4,50.6-28.6C74,76,87.3,98.2,82.1,120.3
				c-4.3,18.2-20.6,31.5-39.2,31.9C23,152.5,6.2,139.9,1.2,120.8c-0.3-1.3-0.8-2.5-1.2-3.7C0,112.8,0,108.4,0,104.1z M41.4,126.7
				c8.8,0.1,16.3-7.3,16.3-16.1c0-8.7-7.2-15.8-15.9-15.9c-9.1-0.1-16.2,6.9-16.2,16C25.7,119.5,32.7,126.6,41.4,126.7z"/>
			<path class="st0" d="M200,129.1c-0.7,1.5-1.3,3-1.9,4.5c-4.9,11.8-17,18.2-29.7,15.6c-12.1-2.5-20.7-13.4-20.5-26
				c0.2-12.1,9-22.7,20.6-25c12.9-2.5,25.1,4.2,29.8,16.3c0.6,1.5,1.2,3.1,1.7,4.6C200,122.4,200,125.8,200,129.1z M184.4,124
				c0.2-6-4.6-10.9-10.6-10.9c-5.7,0-10.5,4.8-10.5,10.5c0,5.7,4.7,10.5,10.4,10.5C179.6,134.3,184.2,129.9,184.4,124z"/>
			<path class="st0" d="M104.4,96.2c2.2,0.2,3.8,0.4,5.4,0.4c24,0,47.9-0.1,71.9,0.1c4.5,0,6.4-1.5,7.4-5.9
				c2.8-11.8,5.9-23.5,9.2-35.2c1-3.5,0.1-4.5-3.4-4.5c-25,0.1-49.9,0.1-74.9,0c-2.9,0-4.8,0.8-5.3,3.9c-0.2,1.2-0.9,2.4-1.5,3.9
				c-3-1.9-5-3.7-1.7-6.6c2.3-2,2-3.8,0-5.8c-2.2-2.2-3.9-1.8-5.9,0.3c-3.4,3.6-7.2,6.9-10.4,10.7c-0.8,0.9-0.4,3.8,0.5,4.8
				c1,1,3.2,1.1,4.9,0.9c1.8-0.1,4.4-2,5.3-1.3c2.7,2.1,6.2,4.2,4.8,8.9c-1.9,6.5-3.5,13.2-5.2,19.8
				C105.1,92.2,104.9,93.9,104.4,96.2z"/>
			<path class="st0" d="M61.4,55.8c1.5-3.9,2.8-7.2,4.2-11c6.8,3.3,12.8,6.3,18.9,9.2c3.5,1.7,7.2,3.6,9.8-1.3
				c2.1-3.9,0.9-6.9-4-9.6c-10.5-5.8-20.9-11.7-31.5-17.2c-2.7-1.4-6-1.9-9-2c-4.9-0.1-7.8,2.8-7.9,7.7c-0.2,9.3-0.1,18.6-0.1,28
				c0,4.3,2.9,5.6,6.4,6.4c8.8,1.9,17.5,4,26.3,5.7c3.4,0.7,5.1,2.1,5.9,5.6c2,8.4,4.5,16.7,6.7,25c1,3.8,2.6,6.6,7.2,5.4
				c4.1-1,5.4-3.5,4.2-8.5c-2.4-10-5-20-7.3-30c-1.2-5.5-4.4-8.2-9.7-9.2C75,58.8,68.5,57.3,61.4,55.8z"/>
			<path class="st0" d="M101.3,110.1c8.6,0,16.9,0,25.1,0c4,0,8.1-0.5,11.9,0.1c9.2,1.5,13.3-4.6,18.5-11.5
				c-2.5-0.1-4.2-0.3-5.9-0.3c-13.1,0-26.3,0-39.4,0C102.7,98.4,101.5,99.7,101.3,110.1z"/>
			<path class="st0" d="M54.5,0C48.7,0.1,44,5,44.3,10.7c0.2,5.5,4.9,10,10.4,10.1c5.7,0,10.4-4.8,10.3-10.5C65,4.4,60.3-0.1,54.5,0
				z"/>
		</g>
	</g>
</g>
</svg>
