<?xml version="1.0" encoding="utf-8"?>
<!-- Generator: Adobe Illustrator 21.0.0, SVG Export Plug-In . SVG Version: 6.00 Build 0)  -->
<svg version="1.1" id="Capa_1" xmlns="http://www.w3.org/2000/svg" xmlns:xlink="http://www.w3.org/1999/xlink" x="0px" y="0px"
	 viewBox="0 0 434.8 263.3" style="enable-background:new 0 0 434.8 263.3;" xml:space="preserve">
<style type="text/css">
	.st0{fill:#6E4012;}
</style>
<g id="zjD1t1_3_">
	<g>
		<path class="st0" d="M0,86.8c0-0.2,0-0.4,0-0.6c1.6-3,3.3-6.1,4.8-9.1c1.2-2.3,1.8-5,1.1-7.5c-0.7-2.2-0.3-4.3-0.1-6.5
			c0-0.3,0.2-0.6,0.1-0.9c-0.3-2,0.6-3.5,1.6-5c5.1-8.1,7.9-17,10.5-26.1c0.4-1.4,1.1-2.7,1.7-4.1c-1.1-1.4-1-2.3,0.4-4
			c0.3-0.4,0.6-1.1,0.4-1.4c-1-2-1.1-2,0.8-2.9c-1.9-4-2.1-10.6-1.6-15.5c1.3,0.8,2.5,1.5,3.8,2.1c2.4,1.1,4.7,2.1,7.1,3.1
			c1,0.4,1.8,0.1,2.3-1c0.2-0.4,0.7-0.7,1.3-1.3c0.1,1.9-0.9,3.6,1.1,4.8c-0.1-3.5,0.8-6.9-1-10.3c0.7,0.1,1.1,0.2,1.6,0.3
			c11.4,2.3,22.8,4.7,34.3,6.9c29.5,5.6,59.2,9.4,89.2,11.1c21.3,1.2,42.7,1.3,64.1,0.1c2.8-0.1,2.8-0.1,2.9-3c0-1.3,0.8-1.5,1.6-1
			c0.5,0.3,1,0.9,1.2,1.5c0.4,1.1,0.4,2.3,0.8,3.3c0.3,0.7,0.9,1.4,1.6,1.6c1.5,0.6,3.2,1,4.8,1.4c0.5,0.1,1.2,0.3,1.6,0
			c1.7-1.2,3.3-1,5.1-0.3c1.4,0.5,2.8,1.2,4.3,1.4c1.2,0.2,2.3,0.1,3.1,1.4c0.3,0.5,1.3,0.8,2,1c2.1,0.4,3.9-0.4,4.9-1.3
			c3.6,0.4,6.7,0.8,9.9,1.2c-1,1.7-2.6,2.5-4.3,3.1c-2.3,0.8-4.5,1.7-6,3.7c-1.9,2.6-3.9,5.1-5.9,7.8c0.8,0,1.8,0.1,2.6-0.1
			c1.3-0.5,2.4-1.3,3.6-1.8c0.8-0.4,1.6-0.5,2.5-0.8c0.1,0.2,0.2,0.3,0.3,0.5c-0.5,0.9-0.9,1.8-1.4,2.8c1.1,0.1,2,0.1,3,0.2
			c0.4,0,1,0.1,1.3-0.1c1.9-1,3.7-2.2,5.6-3.1c2.2-1.1,4.1-2.5,5.7-4.5c1-1.3,2.5-2.3,4-3.2c0.6-0.4,1.6-0.4,2.4-0.6
			c-0.7,1.3-1.6,2.2-2.3,3.2c-0.7,1-1.3,2.1-2.2,3.5c3.4-1.1,6.3-0.6,7.4,1.5c0.9,1.7,2.1,1.8,3.6,1.5c1.5-0.3,2.9-0.8,4.3-1.3
			c2.4-0.9,4.7-2.1,7.1-3c0.9-0.4,1.9-0.5,2.9-0.7c0,0.7,0,1.1,0.1,1.5c0.1,1.7,0.4,2,2.1,1.6c0.8-0.2,1.6-0.5,2.4-0.8
			c0.7-0.2,1.5-0.4,2.4-0.7c0.1,2.2-0.1,4.3,2.2,5.6c-2.8,0.4-5.5,1-8.1,0.9c-2.7-0.2-4.9,0.6-7.1,1.9c-2.2,1.2-4.5,2.5-6.9,2.1
			c-1.9,4.5-3.8,8.8-5.6,13.1c0.1,0.1,0.3,0.1,0.4,0.2c2.6-1.9,3.4-5,5.3-7.5c0.1,0.2,0.1,0.3,0.1,0.4c-0.2,1-0.4,1.9-0.6,2.9
			c-1.4,6.9-2.7,13.9-2.1,21c0.3,4.1,1.4,8,3.9,11.4c2.4,3.2,3.7,3.2,6.2-0.1c3.6-4.6,3.4-13-0.3-17.5c-0.4-0.5-0.7-1.2-0.7-1.8
			c0.1-2.9,0.3-5.8,0.6-8.6c0.4-3.5,1.6-6.7,4.2-9.4c1.5,1.7-1,3.3,0.2,4.9c1-0.1,1.4-0.7,1.4-1.7c-0.1-0.8-0.1-1.6-0.3-2.3
			c-0.2-1.5,0.6-2.1,1.8-2.5c0.3-0.1,0.6-0.1,1.1-0.2c-1.9-1.4-1.7-3.1,0.5-3.8c1.1-0.3,2.5-0.1,3.6,0.2c2,0.5,3.9,1.2,5.8,1.8
			c0.7,0.2,1.4,0,1.6,1c0.1,0.6,1,1.1,1.1,1.7c0.3,2.5,0.6,5,0.7,7.5c0.1,1.9-0.4,3.6-2.3,4.5c-1.3,0.6-0.6,1.6-0.6,2.5
			c0,0.4,0.6,1.2,0.8,1.1c0.7-0.2,1.5-0.5,1.9-1c0.7-0.9,1.1-2.1,1.8-3.1c1.1-1.7,2.2-1.8,3.5-0.4c0.8,0.9,1.6,1.9,2.2,3.1
			c1.6,3.4,2.1,7.1,2.5,10.9c-1.9,0.2-2.6,1.5-3.1,3c-0.6,1.7-1,3.4-1.7,5c-0.7,1.6-0.6,2.2,1.1,2.7c1.3,0.4,2.8,0.2,4,0.8
			c1.7,0.9,2.9,0.4,4.2-0.5c0.2-0.1,0.5-0.3,0.7-0.4c7.4-4.1,14.2-8.9,19.5-15.6c2.1-2.6,2.1-2.6,0.4-5.4c0,0-0.1-0.1-0.1-0.1
			c-1.1-1.9-1.1-2.4,1-3c3.2-0.8,6.4-1.4,9.7-2c3-0.6,5.9-1.3,8.1-3.8c1.2-1.4,1.1-4.3-0.3-5.6c-1.5-1.4-1.4-2,0.1-3.5
			c1.1-1.2,2.1-2.6,3-3.9c0.6-0.9,0.9-2,1.5-2.9c1-1.9,2.5-3.1,4.7-3.3c4.6-0.5,8.8-2,13.1-3.5c1.9-0.7,3.7-1.4,5.7-1.8
			c2.4-0.4,3.6-1.6,3.7-4c0-0.1,0.1-0.2,0.1-0.1c1.2-0.3,2.3-0.5,3.4-0.8c-0.1-0.1-0.3-0.2-0.4-0.3c0.8-2.1,1.5-4.3,2.3-6.4
			c0.2-0.5,0.1-1.1,0.1-1.6c-0.2-2-0.8-4.1-0.5-6c0.6-3.5,1.8-7,2.7-10.4c0.1-0.4,0.5-0.7,0.8-1.1c0.4,0.3,0.9,0.6,1.1,1
			c0.5,1.1,1.2,1.1,2,0.5c0.8-0.6,1.4-1.4,2.2-1.9c0.4-0.3,1.1-0.5,1.6-0.4c1,0.2,2,0.6,3,1c0.3,0.1,0.7,0.5,0.8,0.8
			c1.2,3.5,2.5,7,3.6,10.5c1,3.1,0.9,3.1,4,3.3c0.3,0.8,0.7,1.7,0.8,2.5c0.1,1.2,0.7,1.2,1.6,1c0.6-0.1,1.5-0.2,1.8,0.2
			c1,0.9,1.6,2.1,1.1,3.7c-1.2,3.4-3.4,5.6-6.8,5.9c0.2,0.7,0.4,1.4,0.5,2.1c0,0.2-0.7,0.6-0.7,0.6c-0.5-0.4-0.8-0.9-1.3-1.4
			c-1.1,1.4-0.1,3.9-2.3,4.9c-0.6-1.3-0.7-1.3,0.2-2c0.8-0.7,0.5-1.1-0.2-1.6c-0.4-0.2-0.9-0.4-1.5-0.7c0.2,1.4,0.3,2.5,0.4,3.6
			c0,0.4,0.1,1-0.1,1.2c-1.8,1.5-3.6,3.1-5.6,4.2c-0.8,0.5-1.3,0.7-1.5,1.6c-1.2,5-1,10.1-0.8,14.7c1.2,0.9,2.2,1.6,3,2.3
			c0.7,0.6,1.1,1.5,1.8,1.9c0.7,0.4,1.6,0.5,2.5,0.4c0.4,0,1-0.6,1-1c0-0.4-0.5-0.8-0.8-1.2c-0.5-0.4-1-0.7-1.8-1.3
			c2.7-0.2,3.7,1.2,3.7,3.7c-1.8,1.3-3.5,2.5-5.2,3.7c0-0.7,0-1.3-0.1-1.9c-0.1-0.1-0.3-0.2-0.4-0.2c-0.4,0.6-0.7,1.2-1.1,1.7
			c-0.5,0.7-0.8,1.7-1.5,2.2c-1.2,0.9-2.6,1.5-4,2.2c-2.5,1.2-5,2.2-7.4,3.4c-3,1.5-5.5,3.6-6.9,6.8c-0.6,1.3-1,2.6-1.6,4
			c0,0,0.3,0.1,0.4,0c1.3-0.7,1.7,0,1.8,1.1c0.2,1.7,0.4,3.4,0.3,5.2c-0.2,4.2-1.8,7.9-5,10.9c0.2-0.6,0.3-1.3,0.5-1.8
			c-1.8-0.6-3.5-1.2-5.2-1.7c1,1.7,2,3.6,3.6,4.7c1.3,0.9,1.9,1.9,2.1,3.4c0.1,1.1,0.3,2.2,0.1,3.3c-0.9,4.4-2,8.8-3.1,13.4
			c-1.6-1.3-1.6-2.8-1.5-4.3c0.1-1.5,0.3-3,0.3-4.5c0-1.5-0.8-2.5-2.5-2.8c0.4,1.1,0.8,2.1,1.1,3c-0.1,0.1-0.3,0.1-0.4,0.2
			c-1.2-1.5-2.4-3.1-3.5-4.6c-1.1-0.8,0.9-2.5-0.8-3c-0.2-2.3-0.4-4.5-0.7-7c-0.5,1-1.1,1.6-1.2,2.4c-0.6,3.1-0.2,6,1.8,8.5
			c0.9,1.1,1,1.9,0.2,2.9c2.5,1.8,3.3,4.4,3.7,7.2c-0.4,0-0.7,0.1-1.1,0.1c0.9,1.4,1.7,2.7,2.6,4.1c2.2,0,2.2,0,3.4,2.2
			c1.2,2.3,2.5,4.5,3.8,6.7c0.8,1.3,0.4,2.6-1.1,3.2c-0.5,0.2-1,0.3-1.5,0.4c0,0.1,0.1,0.3,0.1,0.4c0.5-0.1,1-0.2,1.5-0.2
			c0.6-0.1,1.2-0.1,1.8-0.1c-0.1,0.6,0,1.4-0.3,1.9c-0.5,0.8-1.2,1.6-2.1,2c-1,0.5-2.3,0.5-3.5,0.8c0.7,1.4,0.4,2.7-1,4
			c1.3-0.2,2.5-0.3,3.8-0.5c-0.2,1.8-1.3,2.8-2.7,3.7c-1.7,1.1-3.6,2-5.3,3.1c-2.3,1.5-3.8,3.5-3.7,6.3c0,1-0.4,1.3-1.3,1.5
			c-5,1.1-7.2,3.8-7.3,9c0,0.5-0.2,1-0.5,1.4c-1.3,1.6-2.6,3.2-4,4.6c-1.4,1.4-2.9,2.7-4.3,4c-0.3,0.3-0.5,0.6-0.7,0.9
			c-0.7,1.2-1.1,2.6-1.9,3.7c-1.6,2-2.5,4.3-2.9,6.8c-0.7,4.5-0.2,8.9,1.4,13.1c2.2,6.1,5.8,11.3,10.6,15.7c0.5,0.5,1.4,1,0.6,1.7
			c-0.9,0.9-0.4,1.4,0,2.1c1.8,2.8,3.7,5.6,5.3,8.5c2.6,4.6,4,9.5,3.8,14.9c-0.1,1.2-1.1,2.7,0.6,3.7c0.1,0,0,0.3-0.1,0.4
			c-0.7,4.2-3.3,7.1-6.7,9.5c1-2.5,4.2-3.3,5-6.6c-2.4,0.9-4.3,1.7-6.3,2.5c-1.8-3.3-2.6-7.7-7.9-7.1c-0.7-1.5-1.4-3-2.1-4.4
			c-0.3-0.7-0.7-1.1-1.5-0.5c-1,0.7-1.5,0.2-2.1-0.7c-1.3-2.1-2.5-4.3-4.1-6.1c-1.5-1.8-2.9-3.3-0.6-5.5c0.3-0.3,0.3-1.3,0-1.7
			c-0.2-0.3-1-0.2-1.5-0.3c0.1,1.2,0.2,2.3,0.3,3.3c-0.3,0.1-0.5,0.1-0.8,0.2c-0.5-1.2-1.1-2.4-1.3-3.6c-0.3-1.8-0.1-3.7-0.2-5.5
			c-0.1-1.4-0.2-2.8-0.5-4.2c-0.3-1.4-1.2-2.2-2.8-2.6c-1.5-0.4-2.9-1.4-4.1-2.4c-1.1-0.8-1.9-1.9-2.9-2.8c-1.6-1.5-3.6-2.1-5.8-2
			c-0.4,0-1,0.3-1.1,0.6c-1.6,3.3-4.6,4-7.7,4.6c-0.4,0.1-1.1-0.2-1.4-0.6c-1.9-2.5-4.5-3.7-7.5-4.1c-3.4-0.4-6.7,0.1-10,0.9
			c-1.9,0.5-3.8,1.1-5.4,1.5c-0.2-1-0.3-1.9-0.7-2.7c-0.2-0.5-0.9-0.8-1.3-1.2c-0.3,0.5-0.8,1-0.9,1.5c-0.1,1.6-0.9,2-2.4,2.1
			c-2.5,0.1-5,0.4-7.5,0.9c-2.5,0.6-4.1,2.2-4.8,4.7c0.1,0.2,0.3,0.3,0.4,0.5c1-0.8,2-1.7,3.1-2.6c1.3,2.9-0.1,4.4-2.1,5.6
			c1.2,1.8,3,1.6,4.5,2.2c0.7,0.3,1.9,1,1.9,1.4c-0.1,1.3-1.4,1.4-2.5,1.2c-0.8-0.1-1.7-0.3-2.4-0.7c-1.1-0.7-2.2-1.5-3.6-2.5
			c-0.3,0.8-0.7,1.6-0.9,2.5c-0.3,1.7-0.9,2.3-2.5,2.3c0.1-0.2,0.2-0.4,0.3-0.6c0.1-0.4,0.2-0.9,0.2-1.3c-0.5,0-1.1-0.2-1.5,0
			c-0.7,0.4-1.3,0.9-1.8,1.4c-0.7,0.8-1.4,1-2.4,0.7c-0.7-0.2-1.5-0.5-2.2-0.8c-1.2-0.5-2.5-0.9-1.4-2.6c-0.9-0.5-1.6-0.9-2.4-1.3
			c-1.1-0.6-2.1-1.4-3.3-1.9c-1.1-0.5-2.1-0.1-2.8,1c1.1,1.2,3.2-0.6,3.9,1.7c-1.4-0.1-2.6-0.1-3.8-0.2c-3.8-0.3-7.6-0.7-11.4-0.8
			c-4.2-0.1-8.4,0.4-11.5,3.7c-3.3,3.4-7,6.3-10.9,8.9c-4.1,2.7-8.3,5.3-12.4,8c-0.6,0.4-1.1,1.2-1.1,1.8c0.1,5.2,0.3,10.4,0.5,15.7
			c0.1,1.1,0.4,2.2,0.7,3.4c-0.8-0.1-1.3-0.2-1.9-0.3c-4.5-0.9-9-1.8-13.1-4.2c-3.1-1.8-5.2-4.3-5.9-7.9c-0.7-3.8-0.7-3.8-3.1-6.9
			c-1.1-1.4-2.2-3-3.6-4.1c-1.2-1-1.8-2-2.1-3.4c-2.2-8.2-7.2-13.5-15.9-14.7c-2.6-0.4-4.4,0.4-5.6,2.7c-0.6,1.1-1.1,2.4-1.7,3.5
			c-0.6,1-1.3,1.9-1.9,2.9c-3.2-1.5-6.1-2.8-8.9-4.3c-2.8-1.4-4.6-3.6-5-6.8c-0.2-1.3-0.4-2.7-0.7-4c-0.5-2.3-1.4-4.3-3.8-5.4
			c-1.3-0.6-2.4-1.5-3.4-2.5c-2.1-2.3-4.1-4.8-6.1-7.1c-0.4-0.5-1.1-0.9-1.6-1c-4.3-0.5-8.6-0.8-13-1.3c-1.1-0.1-1.4,0.3-1.5,1.2
			c-0.2,1.2-0.3,2.4-0.4,3.7c-4.3-0.4-8.4-0.7-12.6-1.2c-7.2-0.8-14.3-2-20.8-5.5c-7.8-4.1-15.4-8.4-23.1-12.7
			c-0.3-0.2-0.3-0.9-0.3-1.3c0-0.3,0.3-0.5,0.6-1c-1.1-0.1-2.1-0.3-3-0.4c-4.9-0.5-9.9-0.8-14.8-1.4c-3.3-0.4-3.3-0.6-3.7-3.9
			c-0.6-4.8-2-9.1-7.4-10.4c-0.3-0.1-0.4-0.8-0.6-1.3c-0.1-0.4-0.1-1.2-0.3-1.3c-3.1-1.2-5.1-3.8-7.5-5.9c-2-1.8-4.4-2.9-7.1-2.8
			c-1.4,0.1-1.8-0.7-1.8-1.8c0-0.7,0.1-1.5,0.4-2.1c0.9-2.2,0.6-4.3-0.5-6.4c-1.1-2-2.4-3.8-3.4-5.8c-1.1-2.2-2.1-4.5-3-6.9
			c-0.4-1.1,0-2,0.9-2.8c0.5-0.5,0.9-1,1.4-1.6c-3.7-3-5.4-6.4-3.8-11c0.1-0.3-0.3-0.8-0.5-1.2c-0.6-1.3-1.5-2.6-1.7-3.9
			c-0.3-2.1-0.8-4-2.2-5.6c-2.5-2.8-2.7-5.8-1.8-9.2c0.5-1.7,0.6-3.6,0.6-5.4C2.7,88.9,1.8,87.5,0,86.8z"/>
	</g>
</g>
</svg>
