<?xml version="1.0" encoding="utf-8"?>
<!-- Generator: Adobe Illustrator 21.0.0, SVG Export Plug-In . SVG Version: 6.00 Build 0)  -->
<svg version="1.1" id="Capa_1" xmlns="http://www.w3.org/2000/svg" xmlns:xlink="http://www.w3.org/1999/xlink" x="0px" y="0px"
	 viewBox="0 0 131 117.6" style="enable-background:new 0 0 131 117.6;" xml:space="preserve">
<style type="text/css">
	.st0{fill:#6E4012;}
</style>
<g>
	<g>
		<path class="st0" d="M25.3,37.7c0.8,0.9,1.8,1.6,2.9,2.2c7.5,4.4,17,5,24.9,1.5c1.2-0.5,2.4-1.1,3.4-2c1-0.8,1.8-1.8,2.5-2.9
			c5.2-7.7,5.8-18.3,1.5-26.6c-0.8-1.6-1.8-3.1-3.1-4.4c-2.8-2.9-6.6-4.7-10.6-5.3C43-0.3,38.5,0,34.7,1.5C30,3.3,25.2,8,23.6,11
			c-1.9,3.5-3.5,7.4-3.7,11.4c-0.1,3.7,1.1,7.3,2.6,10.7C23.2,34.8,24.1,36.4,25.3,37.7z"/>
	</g>
	<g>
		<path class="st0" d="M130.9,39.8c0-1.1-1-2.1-2.1-2c-10.4,0.2-18.8,0.1-28.6,0c-1.4,2.1-2.8,3.2-4.1,3.6c0.3-0.8,0.6-1.5,0.9-2.3
			c0.1-0.3,0.2-0.6,0.1-1c-0.1-0.3-0.4-0.5-0.7-0.7c-0.8-0.5-1.7-1-2.5-1.5c-0.2-0.1-0.5-0.3-0.7-0.3c-0.6-0.1-1.2,0.3-1.3,0.9
			c0,0.1,0,0.2,0,0.2c0,0,0.1,0.1,0.1,0.1c0.8,0.4,1.5,0.8,2.2,1.3c0.1,0.1,0.2,0.1,0.2,0.2c0.1,0.1,0,0.2,0,0.4
			c-0.1,0.4-0.2,0.9-0.4,1.3c-0.2,0.5-0.5,1.1-0.7,1.6c-1.2-0.2-2.4-0.9-3.3-1.3c-1,2.5-2.8,6.8-4.2,10.3
			c-11.3-0.7-25.2-0.3-36.7-0.7C17.9,48.8,10,53.8,6.7,61.3C5.5,64,4.9,67,4.5,69.9C2,85.2,0.5,100.8,0,116.3
			c13.5,0.4,26.9,0.9,40.4,1.3c1.7-10.9,4.1-21.7,7-32.3c1.1,0.7,2.1,1.4,3.1,2.2c2.2,1.8,4.2,3.9,6.4,5.7c1.4,1.1,3,2.1,4.6,2.9
			c0.4,0.2,0.8,0.4,1.2,0.3c0.5,0,0.9-0.3,1.3-0.5c5.5-3.6,10.2-8.4,15-12.9c4.5-4.3,9.2-8.4,13.9-12.5c3.1,0,6.2-0.2,9.1-1.4
			c3.2-1.4,6-4.4,6-7.9c0-2.1-1.1-4-2.6-5.5c3.9-1.5,6.1-4.5,7.2-8.7c4-0.2,12.4,0,16.4-0.1c1.1,0,2-1,2-2.1L130.9,39.8z M62.3,78.3
			c-3.2-1.9-5.9-4.6-8-7.6c0.2,0,0.4,0,0.6,0c5.7,0,11.4,0,17.1-0.1c0,0,0,0,0,0C68.9,74.6,66.4,75.4,62.3,78.3z M102.5,53.6
			c-1.3-0.7-2.7-1.1-4.1-1.5c0.7-1.3,1.3-2.7,1.9-4c0.1-0.3,0.5-0.7,0.5-0.7c0.2-0.1,3.4-0.2,6.1-0.1
			C107.1,50.5,105.3,52.7,102.5,53.6z"/>
	</g>
</g>
</svg>
