<?xml version="1.0" encoding="utf-8"?>
<!-- Generator: Adobe Illustrator 21.0.0, SVG Export Plug-In . SVG Version: 6.00 Build 0)  -->
<svg version="1.1" id="Capa_1" xmlns="http://www.w3.org/2000/svg" xmlns:xlink="http://www.w3.org/1999/xlink" x="0px" y="0px"
	 viewBox="0 0 76 107.5" style="enable-background:new 0 0 76 107.5;" xml:space="preserve">
<style type="text/css">
	.st0{fill:#808080;}
	.st1{fill:#C9C9C9;}
	.st2{fill:#EFEFEF;}
	.st3{fill:#666666;}
	.st4{fill:#A37C52;}
</style>
<g>
	<path class="st0" d="M35.6,83.7c-0.2,0.4-0.5,0.8-0.8,1c-0.4,0.3-0.8,0.4-1.3,0.4c-2.9,0.3-5.6-1.3-8.1-2.8c-4-2.5-8-5-12-7.5
		c-1-0.6-2-1.3-2.3-2.4c-0.2-1,0.3-2,0.9-3c0.9-1.5,1.8-3,2.6-4.5c0.3-0.6,0.7-1.2,1.3-1.6c0.6-0.4,1.4-0.5,1.9-0.1
		c0.5,0.4,0.7,1.2,0.5,1.8c-0.2,0.6-0.5,1.2-0.9,1.8c-0.6,1-1.1,2.1-1.4,3.3c-0.1,0.5-0.2,1-0.1,1.5c0.2,0.8,0.9,1.4,1.6,2
		c4.3,3.3,9,6.1,13.9,8.4c0.4,0.2,0.8,0.4,1.2,0.2c0.3-0.1,0.5-0.4,0.6-0.6c0.6-0.9,3.1-4.9,4.6-2.9C38.7,79.7,36.2,82.8,35.6,83.7z
		"/>
	<path class="st0" d="M40.8,23.2c0.2-0.4,0.5-0.8,0.8-1c0.4-0.3,0.8-0.4,1.3-0.4c2.9-0.3,5.6,1.3,8.1,2.8c4,2.5,8,5,12,7.5
		c1,0.6,2,1.3,2.3,2.4c0.2,1-0.3,2-0.9,3c-0.9,1.5-1.8,3-2.6,4.5c-0.3,0.6-0.7,1.2-1.3,1.6c-0.6,0.4-1.4,0.5-1.9,0.1
		c-0.5-0.4-0.7-1.2-0.5-1.8c0.2-0.6,0.5-1.2,0.9-1.8c0.6-1,1.1-2.1,1.4-3.3c0.1-0.5,0.2-1,0.1-1.5c-0.2-0.8-0.9-1.4-1.6-2
		c-4.3-3.3-9-6.1-13.9-8.4c-0.4-0.2-0.8-0.4-1.2-0.2c-0.3,0.1-0.5,0.4-0.6,0.6c-0.6,0.9-3.1,4.9-4.6,2.9
		C37.7,27.1,40.3,24.1,40.8,23.2z"/>
	<path class="st0" d="M59.9,64c0.1-0.2,0.3-0.5,0.6-0.5c0.1,0,0.2,0,0.3,0.1c0.7,0.4,1.4,0.7,2.1,1.1c0.3,0.1,0.5,0.3,0.6,0.5
		c0.2,0.3,0,0.7-0.2,1.1c-1,1.9-2.1,3.7-3.3,5.4c-0.1,0.1-0.1,0.2-0.2,0.2c-0.1,0-0.2,0-0.2-0.1c-1.1-0.6-3.8-1.3-3.1-2.9
		C57.2,67,59,65.7,59.9,64z"/>
	<path class="st1" d="M26.5,26.9c-5.6,2.1-10.3,6.5-13.6,11.5c-1.9,2.9-3.5,6.1-3.9,9.5c-0.6,5.2,1.5,10.3,4.1,14.8
		c3.4,5.7,8,10.9,13.8,14.2s13.1,4.2,19.3,1.8c3.7-1.5,6.9-4.1,9.6-7c5.4-5.8,9.3-13.7,8-21.5c-1.5-8.5-8.7-14.8-15.2-19.9
		C42.4,25.5,33.8,24.2,26.5,26.9z"/>
	<path class="st2" d="M27.2,30.4c-4.9,1.7-8.9,5.4-11.7,9.6c-1.6,2.4-3,5.2-3.3,8.1c-0.5,4.4,1.5,8.9,3.9,12.8
		c3.1,5,7.2,9.6,12.4,12.4c5.2,2.9,11.6,3.9,17,1.9c3.2-1.2,6-3.4,8.3-5.9c4.6-4.9,8-11.6,6.6-18.3c-1.5-7.4-7.9-12.9-13.7-17.4
		C41.2,29.4,33.6,28.1,27.2,30.4z"/>
	<path class="st3" d="M35.2,50.2c-0.7,0.7-0.7,1.9-0.2,2.8c0.2,0.3,0.5,0.6,0.8,0.7c0.4,0.2,0.8,0.1,1.2,0c0.8-0.4,1.4-1.3,1.2-2.2
		c-0.1-0.5-0.4-1-0.8-1.2C36.3,49.6,35.4,50,35.2,50.2z"/>
	<path class="st3" d="M46.1,35.1c0.2-0.2,0.5,0,0.5,0.3c0,0.2-0.1,0.5-0.2,0.7c-0.3,0.5-0.6,1-1,1.4c-0.1,0.1-0.3,0.2-0.4,0.2
		c-0.1,0-0.1-0.1-0.2-0.2c-0.1-0.3,0.1-0.7,0.2-0.9C45.4,36,46.1,35.1,46.1,35.1z"/>
	<path class="st3" d="M25.2,68.2c-0.2,0.3-0.4,0.6-0.2,0.9c0,0.1,0.1,0.1,0.2,0.2c0.2,0.1,0.3-0.1,0.4-0.2c0.4-0.4,0.7-0.9,1-1.4
		c0.1-0.2,0.3-0.4,0.2-0.7C26.8,66.9,26.3,66.5,25.2,68.2z"/>
	<path class="st3" d="M20.1,42.9c0.3,0.2,0.6,0.4,0.9,0.2c0.1,0,0.1-0.1,0.2-0.2c0.1-0.2-0.1-0.3-0.2-0.4c-0.4-0.4-0.9-0.7-1.4-1
		c-0.2-0.1-0.4-0.3-0.7-0.2s-0.4,0.4-0.3,0.5C18.7,41.9,19.6,42.6,20.1,42.9z"/>
	<path class="st3" d="M54.2,64.4c0.3,0.2,0.6,0.4,0.9,0.2c0.1,0,0.1-0.1,0.2-0.2c0.1-0.2-0.1-0.3-0.2-0.4c-0.4-0.4-0.9-0.7-1.4-1
		c-0.2-0.1-0.4-0.3-0.7-0.2c-0.2,0-0.4,0.4-0.3,0.5C52.8,63.3,53.7,64.1,54.2,64.4z"/>
	<path class="st4" d="M62.6,0.3c4.6,2,8.7,5,12.6,8c0.9,0.7,1.1,1.9,0.5,2.8c-5.4,7.9-11,16.3-15.8,24.8c-0.1,0.1-0.2,0.3-0.3,0.4
		c-0.2,0.1-0.3,0.1-0.5,0.1c-1.3-0.1-2.3-1.1-3.2-2c-2.1-2.1-4.3-4.1-6.7-5.9c-1.1-0.8-2.3-1.5-3.4-2.3c-1-0.8-0.7-1.2-0.1-2.2
		c3.3-5.1,6.6-10.2,9.6-15.5c1.2-2.2,2.3-4.4,3.4-6.7C59.3,0.3,61.1-0.4,62.6,0.3z"/>
	<path class="st4" d="M1,99.3c3.7,3.3,8.2,5.7,12.7,8c1,0.5,2.2,0.2,2.7-0.8c4.9-8.2,10-16.9,15.7-24.9c0.1-0.1,0.2-0.3,0.2-0.5
		c0-0.2-0.1-0.4-0.1-0.5c-0.6-1.1-1.9-1.6-3.2-2c-2.8-1-5.3-2.9-7.9-4.3c-1.2-0.6-2.3-1.6-3.5-2.2c-1.1-0.6-1.7,0.7-2.4,1.7
		c-3.2,5.2-6.4,10.4-10,15.3c-1.5,2-3,4-4.6,5.9C-0.4,96.3-0.2,98.2,1,99.3z"/>
	<path class="st3" d="M35.8,51c0.2,0.1,0.5,0,0.6-0.2c0.1-0.2,0.1-0.4,0.1-0.6c0-3.5,0.1-7,0.1-10.5c0-0.4,0.3-2.2-0.6-1.8
		c-0.5,0.2-0.3,1.4-0.2,1.8c0.1,1.7,0.1,3.5,0.1,5.2C35.9,47,35.9,49,35.8,51z"/>
	<path class="st3" d="M43.6,58.4c0.2-0.1,0.3-0.3,0.2-0.6c-0.1-0.2-0.2-0.4-0.4-0.5c-2.6-2.3-2.4-2.1-5-4.4
		c-0.3-0.3-1.5-1.6-1.7-0.7C36.5,52.7,42.1,57,43.6,58.4z"/>
</g>
</svg>
