<?xml version="1.0" encoding="utf-8"?>
<!-- Generator: Adobe Illustrator 21.0.0, SVG Export Plug-In . SVG Version: 6.00 Build 0)  -->
<svg version="1.1" id="Capa_1" xmlns="http://www.w3.org/2000/svg" xmlns:xlink="http://www.w3.org/1999/xlink" x="0px" y="0px"
	 viewBox="0 0 205.8 25.4" style="enable-background:new 0 0 205.8 25.4;" xml:space="preserve">
<style type="text/css">
	.st0{fill:#FFA000;}
</style>
<path class="st0" d="M50.6,1.9C51.8,1,53.2,0.1,54.9,0c1.3-0.1,2.7,0.3,3.9,0.8C67.7,4.1,73.7,11,81.3,15.6
	c9.6,5.7,21.5,7.2,31.8,5.6c10-1.5,18.7-5.6,26.3-10.5c2.8-1.8,5.6-3.7,9-3.9c5.7-0.4,10.7,3.9,15.5,6.9c13.7,8.5,31.6,7.2,41.2-2.3
	c1.3,1.4,0.2,3.4-1.1,4.5c-6.3,5.8-16,8.3-25.5,6.3c-4.9-1-9.7-3.2-14.5-5.4c-3.5-1.6-7-3.2-10.5-4.8c-1.3-0.6-2.6-1.2-4-1.1
	c-1.1,0.1-2,0.6-2.9,1.1c-12.8,7.2-28.6,11.6-45.7,12.4c-5.9,0.3-12.1,0.1-17.9-2c-7.8-2.8-13.6-8.7-19.7-14.1
	C61.8,7,60.1,5.6,58,5.4c-2.9-0.3-5.1,1.5-6.9,3.2c-5.2,4.8-11,9.3-18.3,12.5c-7.4,3.2-16.5,5-25.7,3.6C2.5,24-4,19.2,2.8,17.6
	c2-0.5,5.4,0.3,7.6,0.2c3.2-0.1,6.3-0.5,9.2-1.1C32.1,14.3,42,8.1,50.6,1.9z"/>
</svg>
