<?xml version="1.0" encoding="utf-8"?>
<!-- Generator: Adobe Illustrator 21.0.0, SVG Export Plug-In . SVG Version: 6.00 Build 0)  -->
<svg version="1.1" id="Capa_1" xmlns="http://www.w3.org/2000/svg" xmlns:xlink="http://www.w3.org/1999/xlink" x="0px" y="0px"
	 viewBox="0 0 91 62.3" style="enable-background:new 0 0 91 62.3;" xml:space="preserve">
<style type="text/css">
	.st0{fill:#29A7DE;}
</style>
<g>
	<g>
		<g>
			<path class="st0" d="M3.3,28.3c8.2,0.1,16.4,0.1,24.6,0.2c7,0.1,14.7,0.8,21.3-2.1c9.5-4.2,12.9-17.4,3.6-24
				C45-3.2,32.1,1.3,32.2,11.9c0.1,9.6,13.2,14.8,17,4.4c1.5-4.2-0.6-9.9-5.7-9.8c-4,0.1-6.1,4.5-4,7.8c1,1.6,3.6,0.1,2.6-1.5
				c-1.3-4.5,5.1-4.5,4.9,0.8c0,0.7-0.6,3.8-3.3,5.3c-4.7,2.2-8.1-3.1-8.2-6.8c-0.1-4.7,3.6-8.4,8.1-9c10.3-1.4,15.9,11.7,8.2,18.5
				c-6.2,5.5-16.1,4.1-23.7,4.1c-8.2-0.1-16.4-0.1-24.6-0.2C1.4,25.3,1.4,28.3,3.3,28.3L3.3,28.3z"/>
		</g>
	</g>
	<g>
		<g>
			<path class="st0" d="M1.4,35.2c20-0.7,40.1,1.5,60.1-0.2c11.5-1,30.9-3.4,29.4-19.3C89.7,3.9,72.4-4.6,64.5,6.3
				c-3.1,4.3-4.4,11.6-1.1,16.1c3.1,4.3,10.1,5.6,14.6,2.9c4.3-2.7,5.8-9.1,1.5-12.5c-4.7-3.7-10.5,0.6-9.3,6.1
				c0.4,1.9,3.3,1.1,2.9-0.8c-0.1-5.9,7.6-4.6,5.9,1.5c-0.8,2.2-2.2,3.4-4.3,3.6c-2,0.6-3.6,0.5-5.6-0.2c-4.3-1.6-5.1-6.2-4.2-10.2
				c1.8-7.5,9.1-10.4,15.8-6.9c6.1,3.1,9.4,10.8,5.8,17c-2.8,4.8-8.6,6.6-13.7,7.6c-23.4,4.7-47.7,0.8-71.3,1.7
				C-0.5,32.2-0.5,35.2,1.4,35.2L1.4,35.2z"/>
		</g>
	</g>
	<g>
		<g>
			<path class="st0" d="M20.4,41.4c6.3,0.7,12.6,1,19,0.6c6.3-0.4,13.5-2.1,19.3,1.3c8,4.6,4.7,16.8-4.8,15.9
				c-2.6-0.2-4.6-1.5-5.4-4.1c-0.2-0.7-0.4-1.4-0.3-2.1c0-0.2,0-0.4,0-0.6c-0.2-5.3,6.9-4.8,5.1-0.4c-1.1,1.6,1.5,3.1,2.6,1.5
				c4.9-7.4-8.7-12.1-10.6-2.6c-1.4,7.1,4.5,12.3,11.4,11.3c10.1-1.5,13.1-14.5,5.1-20.5c-4.8-3.6-11-3.6-16.8-3.1
				c-8.3,0.6-16.3,0.8-24.5-0.1C18.5,38.2,18.5,41.2,20.4,41.4L20.4,41.4z"/>
		</g>
	</g>
</g>
</svg>
