<?xml version="1.0" encoding="utf-8"?>
<!-- Generator: Adobe Illustrator 21.0.0, SVG Export Plug-In . SVG Version: 6.00 Build 0)  -->
<svg version="1.1" id="Capa_1" xmlns="http://www.w3.org/2000/svg" xmlns:xlink="http://www.w3.org/1999/xlink" x="0px" y="0px"
	 viewBox="0 0 60.2 121.1" style="enable-background:new 0 0 60.2 121.1;" xml:space="preserve">
<style type="text/css">
	.st0{fill:#6E4012;}
</style>
<g>
	<g>
		<path class="st0" d="M17.8,21.2c0.4,0.9,1.1,1.6,1.9,2.3c1.6,1.4,3.4,2.7,5.3,3.6c3.7,1.6,8,1.7,11.6,0.2c3.7-1.5,6.7-4.7,7.9-8.5
			c0.7-2.3,0.8-4.9,0.5-7.3c-0.1-1.3-0.3-2.5-1-3.6c-0.6-1-1.5-1.8-2.4-2.6c-3.8-3.1-8.4-5.7-13.3-5l0.5,0c-4.1,0.1-7.7,2.9-9.6,6.5
			s-2.3,7.8-2,11.8C17.3,19.4,17.4,20.3,17.8,21.2z"/>
	</g>
	<g>
		<path class="st0" d="M59.1,63.8c-1-3.4-2-6.7-3-10.1c-0.9-2.9-1.8-5.9-2.9-8.7c-1.2-2.8-2.6-5.4-4.1-8.1c-0.8-1.5-1.7-3-3.1-4
			c-1.5-1.1-3.5-1.4-5.3-1.6c-6.4-0.8-12.8-1-19.2-0.7c0,0-7.1,2.5-9.5,5.4c-2.5,2.9-4,6.5-5.3,10c-2.5,6.4-4.5,13-6.2,19.7
			c-0.6,2.3-1,5.2,0.9,6.8c1.7,1.5,4.5,0.8,6-0.8c1.6-1.6,2.3-3.8,3-5.9c2.4-7.3,5.4-14.4,8.8-21.3c1.1,4.8-0.5,9.8-1.8,14.5
			c-2,7.1-3.4,14.4-4.8,21.7c-0.3,1.5-0.6,3-0.3,4.5c0.3,1.5,1.2,2.9,2.7,3.3c1.7,0.5,3.9-0.3,4.8,1.2c0.3,0.4,0.3,1,0.3,1.5
			c0.2,5.6,0.4,11.2,0.1,16.7c-0.1,2.2-0.3,4.5,0,6.7c0.4,2.2,1.4,4.4,3.3,5.6c1.9,1.2,4.6,1.2,6.1-0.4c0.9-1,1.3-2.4,1.5-3.8
			c1.5-7.7,1.9-15.5,1.3-23.3c-0.1-0.9-0.1-1.8,0.2-2.6c0.4-0.8,1.4-1.3,2.1-0.9c0.3,8.5,0.6,16.9,0.9,25.4c0,1.3,0.1,2.8,1,3.8
			c1.2,1.5,3.4,1.6,5.4,1.5c1.2,0,2.4-0.1,3.4-0.8c1.3-1,1.7-2.8,1.8-4.5c0.7-7.5,0.3-15.1-1-22.4c-0.2-1-0.3-2.3,0.4-3
			c0.4-0.4,0.9-0.5,1.4-0.6c1.6-0.5,3-1.3,4.3-2.3c0.3-0.3,0.7-0.6,0.9-1c0.3-0.7,0-1.6-0.4-2.4c-5.4-12-8.5-25.1-9.1-38.3
			c0.8-0.5,1.6,0.6,1.8,1.6c1.8,7.6,3.7,15.2,5.5,22.8c0.5,2.3,1.4,4.9,3.6,5.6c2.3,0.7,4.8-1.3,5.4-3.7
			C60.5,68.6,59.8,66.2,59.1,63.8z"/>
	</g>
</g>
<g>
</g>
<g>
</g>
<g>
</g>
<g>
</g>
<g>
</g>
</svg>
